#EXTM3U
#EXT-X-VERSION:3
#EXT-X-TARGETDURATION:11
#EXT-X-MEDIA-SEQUENCE:10001
#EXTINF:10.425000,
115377147578530-index10001.ts
#EXTINF:4.503600,
115377147578530-index10002.ts
#EXTINF:10.425000,
115377147578530-index10003.ts
#EXTINF:8.923800,
115377147578530-index10004.ts
#EXTINF:1.626300,
115377147578530-index10005.ts
#EXTINF:8.757000,
115377147578530-index10006.ts
#EXTINF:5.337600,
115377147578530-index10007.ts
#EXTINF:1.000800,
115377147578530-index10008.ts
#EXTINF:1.584600,
115377147578530-index10009.ts
#EXTINF:1.251000,
115377147578530-index10010.ts
#EXTINF:2.627100,
115377147578530-index10011.ts
#EXTINF:6.505200,
115377147578530-index10012.ts
#EXTINF:5.546100,
115377147578530-index10013.ts
#EXTINF:5.838000,
115377147578530-index10014.ts
#EXTINF:5.295900,
115377147578530-index10015.ts
#EXTINF:7.506000,
115377147578530-index10016.ts
#EXTINF:1.167600,
115377147578530-index10017.ts
#EXTINF:1.751400,
115377147578530-index10018.ts
#EXTINF:1.167600,
115377147578530-index10019.ts
#EXTINF:1.417800,
115377147578530-index10020.ts
#EXTINF:1.042500,
115377147578530-index10021.ts
#EXTINF:1.084200,
115377147578530-index10022.ts
#EXTINF:1.709700,
115377147578530-index10023.ts
#EXTINF:1.167600,
115377147578530-index10024.ts
#EXTINF:0.959100,
115377147578530-index10025.ts
#EXTINF:1.251000,
115377147578530-index10026.ts
#EXTINF:0.959100,
115377147578530-index10027.ts
#EXTINF:4.878900,
115377147578530-index10028.ts
#EXTINF:1.000800,
115377147578530-index10029.ts
#EXTINF:5.504400,
115377147578530-index10030.ts
#EXTINF:3.502800,
115377147578530-index10031.ts
#EXTINF:2.752200,
115377147578530-index10032.ts
#EXTINF:1.334400,
115377147578530-index10033.ts
#EXTINF:1.167600,
115377147578530-index10034.ts
#EXTINF:2.877300,
115377147578530-index10035.ts
#EXTINF:1.167600,
115377147578530-index10036.ts
#EXTINF:3.627900,
115377147578530-index10037.ts
#EXTINF:2.043300,
115377147578530-index10038.ts
#EXTINF:2.418600,
115377147578530-index10039.ts
#EXTINF:1.709700,
115377147578530-index10040.ts
#EXTINF:2.502000,
115377147578530-index10041.ts
#EXTINF:5.504400,
115377147578530-index10042.ts
#EXTINF:3.377700,
115377147578530-index10043.ts
#EXTINF:9.632700,
115377147578530-index10044.ts
#EXTINF:3.294300,
115377147578530-index10045.ts
#EXTINF:3.294300,
115377147578530-index10046.ts
#EXTINF:6.088200,
115377147578530-index10047.ts
#EXTINF:5.254200,
115377147578530-index10048.ts
#EXTINF:3.252600,
115377147578530-index10049.ts
#EXTINF:10.425000,
115377147578530-index10050.ts
#EXTINF:3.544500,
115377147578530-index10051.ts
#EXTINF:2.210100,
115377147578530-index10052.ts
#EXTINF:3.669600,
115377147578530-index10053.ts
#EXTINF:3.627900,
115377147578530-index10054.ts
#EXTINF:6.463500,
115377147578530-index10055.ts
#EXTINF:6.213300,
115377147578530-index10056.ts
#EXTINF:0.959100,
115377147578530-index10057.ts
#EXTINF:2.960700,
115377147578530-index10058.ts
#EXTINF:3.919800,
115377147578530-index10059.ts
#EXTINF:4.461900,
115377147578530-index10060.ts
#EXTINF:1.584600,
115377147578530-index10061.ts
#EXTINF:3.419400,
115377147578530-index10062.ts
#EXTINF:3.210900,
115377147578530-index10063.ts
#EXTINF:1.959900,
115377147578530-index10064.ts
#EXTINF:4.378500,
115377147578530-index10065.ts
#EXTINF:2.168400,
115377147578530-index10066.ts
#EXTINF:2.960700,
115377147578530-index10067.ts
#EXTINF:2.460300,
115377147578530-index10068.ts
#EXTINF:7.839600,
115377147578530-index10069.ts
#EXTINF:2.919000,
115377147578530-index10070.ts
#EXTINF:4.128300,
115377147578530-index10071.ts
#EXTINF:2.335200,
115377147578530-index10072.ts
#EXTINF:2.418600,
115377147578530-index10073.ts
#EXTINF:3.878100,
115377147578530-index10074.ts
#EXTINF:4.420200,
115377147578530-index10075.ts
#EXTINF:5.462700,
115377147578530-index10076.ts
#EXTINF:7.255800,
115377147578530-index10077.ts
#EXTINF:8.089800,
115377147578530-index10078.ts
#EXTINF:9.424200,
115377147578530-index10079.ts
#EXTINF:2.376900,
115377147578530-index10080.ts
#EXTINF:4.503600,
115377147578530-index10081.ts
#EXTINF:2.168400,
115377147578530-index10082.ts
#EXTINF:3.711300,
115377147578530-index10083.ts
#EXTINF:2.460300,
115377147578530-index10084.ts
#EXTINF:7.464300,
115377147578530-index10085.ts
#EXTINF:1.084200,
115377147578530-index10086.ts
#EXTINF:2.376900,
115377147578530-index10087.ts
#EXTINF:3.127500,
115377147578530-index10088.ts
#EXTINF:4.795500,
115377147578530-index10089.ts
#EXTINF:3.127500,
115377147578530-index10090.ts
#EXTINF:1.793100,
115377147578530-index10091.ts
#EXTINF:2.418600,
115377147578530-index10092.ts
#EXTINF:3.502800,
115377147578530-index10093.ts
#EXTINF:7.923000,
115377147578530-index10094.ts
#EXTINF:3.586200,
115377147578530-index10095.ts
#EXTINF:3.669600,
115377147578530-index10096.ts
#EXTINF:5.796300,
115377147578530-index10097.ts
#EXTINF:2.335200,
115377147578530-index10098.ts
#EXTINF:3.711300,
115377147578530-index10099.ts
#EXTINF:3.252600,
115377147578530-index10100.ts
#EXTINF:7.797900,
115377147578530-index10101.ts
#EXTINF:5.796300,
115377147578530-index10102.ts
#EXTINF:6.004800,
115377147578530-index10103.ts
#EXTINF:3.169200,
115377147578530-index10104.ts
#EXTINF:10.425000,
115377147578530-index10105.ts
#EXTINF:2.752200,
115377147578530-index10106.ts
#EXTINF:4.003200,
115377147578530-index10107.ts
#EXTINF:6.963900,
115377147578530-index10108.ts
#EXTINF:10.425000,
115377147578530-index10109.ts
#EXTINF:5.712900,
115377147578530-index10110.ts
#EXTINF:7.547700,
115377147578530-index10111.ts
#EXTINF:5.712900,
115377147578530-index10112.ts
#EXTINF:3.919800,
115377147578530-index10113.ts
#EXTINF:4.878900,
115377147578530-index10114.ts
#EXTINF:7.005600,
115377147578530-index10115.ts
#EXTINF:9.966300,
115377147578530-index10116.ts
#EXTINF:1.334400,
115377147578530-index10117.ts
#EXTINF:4.837200,
115377147578530-index10118.ts
#EXTINF:1.876500,
115377147578530-index10119.ts
#EXTINF:3.961500,
115377147578530-index10120.ts
#EXTINF:8.173200,
115377147578530-index10121.ts
#EXTINF:2.877300,
115377147578530-index10122.ts
#EXTINF:2.251800,
115377147578530-index10123.ts
#EXTINF:10.425000,
115377147578530-index10124.ts
#EXTINF:4.753800,
115377147578530-index10125.ts
#EXTINF:6.213300,
115377147578530-index10126.ts
#EXTINF:8.965500,
115377147578530-index10127.ts
#EXTINF:8.298300,
115377147578530-index10128.ts
#EXTINF:2.376900,
115377147578530-index10129.ts
#EXTINF:8.214900,
115377147578530-index10130.ts
#EXTINF:4.795500,
115377147578530-index10131.ts
#EXTINF:4.086600,
115377147578530-index10132.ts
#EXTINF:3.169200,
115377147578530-index10133.ts
#EXTINF:5.295900,
115377147578530-index10134.ts
#EXTINF:3.085800,
115377147578530-index10135.ts
#EXTINF:6.004800,
115377147578530-index10136.ts
#EXTINF:1.334400,
115377147578530-index10137.ts
#EXTINF:1.125900,
115377147578530-index10138.ts
#EXTINF:4.086600,
115377147578530-index10139.ts
#EXTINF:3.586200,
115377147578530-index10140.ts
#EXTINF:5.421000,
115377147578530-index10141.ts
#EXTINF:4.670400,
115377147578530-index10142.ts
#EXTINF:2.877300,
115377147578530-index10143.ts
#EXTINF:2.960700,
115377147578530-index10144.ts
#EXTINF:1.709700,
115377147578530-index10145.ts
#EXTINF:1.584600,
115377147578530-index10146.ts
#EXTINF:3.169200,
115377147578530-index10147.ts
#EXTINF:3.586200,
115377147578530-index10148.ts
#EXTINF:1.876500,
115377147578530-index10149.ts
#EXTINF:3.586200,
115377147578530-index10150.ts
#EXTINF:3.878100,
115377147578530-index10151.ts
#EXTINF:3.210900,
115377147578530-index10152.ts
#EXTINF:3.002400,
115377147578530-index10153.ts
#EXTINF:5.004000,
115377147578530-index10154.ts
#EXTINF:6.004800,
115377147578530-index10155.ts
#EXTINF:7.297500,
115377147578530-index10156.ts
#EXTINF:4.128300,
115377147578530-index10157.ts
#EXTINF:4.170000,
115377147578530-index10158.ts
#EXTINF:6.755400,
115377147578530-index10159.ts
#EXTINF:4.670400,
115377147578530-index10160.ts
#EXTINF:2.126700,
115377147578530-index10161.ts
#EXTINF:3.419400,
115377147578530-index10162.ts
#EXTINF:4.461900,
115377147578530-index10163.ts
#EXTINF:5.712900,
115377147578530-index10164.ts
#EXTINF:5.796300,
115377147578530-index10165.ts
#EXTINF:5.170800,
115377147578530-index10166.ts
#EXTINF:2.335200,
115377147578530-index10167.ts
#EXTINF:1.501200,
115377147578530-index10168.ts
#EXTINF:1.793100,
115377147578530-index10169.ts
#EXTINF:9.048900,
115377147578530-index10170.ts
#EXTINF:2.960700,
115377147578530-index10171.ts
#EXTINF:8.673600,
115377147578530-index10172.ts
#EXTINF:3.961500,
115377147578530-index10173.ts
#EXTINF:2.043300,
115377147578530-index10174.ts
#EXTINF:8.590200,
115377147578530-index10175.ts
#EXTINF:2.043300,
115377147578530-index10176.ts
#EXTINF:1.751400,
115377147578530-index10177.ts
#EXTINF:2.376900,
115377147578530-index10178.ts
#EXTINF:3.419400,
115377147578530-index10179.ts
#EXTINF:1.125900,
115377147578530-index10180.ts
#EXTINF:1.209300,
115377147578530-index10181.ts
#EXTINF:2.793900,
115377147578530-index10182.ts
#EXTINF:0.959100,
115377147578530-index10183.ts
#EXTINF:4.170000,
115377147578530-index10184.ts
#EXTINF:1.084200,
115377147578530-index10185.ts
#EXTINF:2.460300,
115377147578530-index10186.ts
#EXTINF:1.292700,
115377147578530-index10187.ts
#EXTINF:1.584600,
115377147578530-index10188.ts
#EXTINF:3.794700,
115377147578530-index10189.ts
#EXTINF:6.004800,
115377147578530-index10190.ts
#EXTINF:2.085000,
115377147578530-index10191.ts
#EXTINF:3.461100,
115377147578530-index10192.ts
#EXTINF:2.919000,
115377147578530-index10193.ts
#EXTINF:7.005600,
115377147578530-index10194.ts
#EXTINF:7.506000,
115377147578530-index10195.ts
#EXTINF:5.796300,
115377147578530-index10196.ts
#EXTINF:1.959900,
115377147578530-index10197.ts
#EXTINF:1.209300,
115377147578530-index10198.ts
#EXTINF:3.753000,
115377147578530-index10199.ts
#EXTINF:2.960700,
115377147578530-index10200.ts
#EXTINF:5.254200,
115377147578530-index10201.ts
#EXTINF:3.502800,
115377147578530-index10202.ts
#EXTINF:6.171600,
115377147578530-index10203.ts
#EXTINF:3.210900,
115377147578530-index10204.ts
#EXTINF:6.296700,
115377147578530-index10205.ts
#EXTINF:3.627900,
115377147578530-index10206.ts
#EXTINF:4.128300,
115377147578530-index10207.ts
#EXTINF:3.169200,
115377147578530-index10208.ts
#EXTINF:2.376900,
115377147578530-index10209.ts
#EXTINF:4.128300,
115377147578530-index10210.ts
#EXTINF:1.167600,
115377147578530-index10211.ts
#EXTINF:6.046500,
115377147578530-index10212.ts
#EXTINF:1.417800,
115377147578530-index10213.ts
#EXTINF:3.461100,
115377147578530-index10214.ts
#EXTINF:3.669600,
115377147578530-index10215.ts
#EXTINF:3.544500,
115377147578530-index10216.ts
#EXTINF:1.542900,
115377147578530-index10217.ts
#EXTINF:3.753000,
115377147578530-index10218.ts
#EXTINF:2.919000,
115377147578530-index10219.ts
#EXTINF:2.919000,
115377147578530-index10220.ts
#EXTINF:3.252600,
115377147578530-index10221.ts
#EXTINF:6.963900,
115377147578530-index10222.ts
#EXTINF:5.546100,
115377147578530-index10223.ts
#EXTINF:4.837200,
115377147578530-index10224.ts
#EXTINF:3.419400,
115377147578530-index10225.ts
#EXTINF:4.962300,
115377147578530-index10226.ts
#EXTINF:6.922200,
115377147578530-index10227.ts
#EXTINF:7.464300,
115377147578530-index10228.ts
#EXTINF:2.502000,
115377147578530-index10229.ts
#EXTINF:3.961500,
115377147578530-index10230.ts
#EXTINF:3.711300,
115377147578530-index10231.ts
#EXTINF:2.585400,
115377147578530-index10232.ts
#EXTINF:3.336000,
115377147578530-index10233.ts
#EXTINF:3.961500,
115377147578530-index10234.ts
#EXTINF:5.212500,
115377147578530-index10235.ts
#EXTINF:4.420200,
115377147578530-index10236.ts
#EXTINF:2.168400,
115377147578530-index10237.ts
#EXTINF:3.419400,
115377147578530-index10238.ts
#EXTINF:5.045700,
115377147578530-index10239.ts
#EXTINF:4.461900,
115377147578530-index10240.ts
#EXTINF:2.335200,
115377147578530-index10241.ts
#EXTINF:4.962300,
115377147578530-index10242.ts
#EXTINF:5.712900,
115377147578530-index10243.ts
#EXTINF:8.673600,
115377147578530-index10244.ts
#EXTINF:4.170000,
115377147578530-index10245.ts
#EXTINF:1.668000,
115377147578530-index10246.ts
#EXTINF:5.462700,
115377147578530-index10247.ts
#EXTINF:6.463500,
115377147578530-index10248.ts
#EXTINF:6.004800,
115377147578530-index10249.ts
#EXTINF:1.084200,
115377147578530-index10250.ts
#EXTINF:3.711300,
115377147578530-index10251.ts
#EXTINF:4.170000,
115377147578530-index10252.ts
#EXTINF:3.252600,
115377147578530-index10253.ts
#EXTINF:2.627100,
115377147578530-index10254.ts
#EXTINF:2.085000,
115377147578530-index10255.ts
#EXTINF:5.963100,
115377147578530-index10256.ts
#EXTINF:7.380900,
115377147578530-index10257.ts
#EXTINF:1.793100,
115377147578530-index10258.ts
#EXTINF:5.129100,
115377147578530-index10259.ts
#EXTINF:4.044900,
115377147578530-index10260.ts
#EXTINF:7.923000,
115377147578530-index10261.ts
#EXTINF:6.963900,
115377147578530-index10262.ts
#EXTINF:2.376900,
115377147578530-index10263.ts
#EXTINF:2.043300,
115377147578530-index10264.ts
#EXTINF:2.585400,
115377147578530-index10265.ts
#EXTINF:2.668800,
115377147578530-index10266.ts
#EXTINF:3.544500,
115377147578530-index10267.ts
#EXTINF:2.543700,
115377147578530-index10268.ts
#EXTINF:10.425000,
115377147578530-index10269.ts
#EXTINF:1.042500,
115377147578530-index10270.ts
#EXTINF:3.336000,
115377147578530-index10271.ts
#EXTINF:3.419400,
115377147578530-index10272.ts
#EXTINF:3.711300,
115377147578530-index10273.ts
#EXTINF:3.169200,
115377147578530-index10274.ts
#EXTINF:4.253400,
115377147578530-index10275.ts
#EXTINF:1.334400,
115377147578530-index10276.ts
#EXTINF:4.003200,
115377147578530-index10277.ts
#EXTINF:5.087400,
115377147578530-index10278.ts
#EXTINF:9.007200,
115377147578530-index10279.ts
#EXTINF:4.170000,
115377147578530-index10280.ts
#EXTINF:1.584600,
115377147578530-index10281.ts
#EXTINF:5.129100,
115377147578530-index10282.ts
#EXTINF:2.460300,
115377147578530-index10283.ts
#EXTINF:3.169200,
115377147578530-index10284.ts
#EXTINF:4.295100,
115377147578530-index10285.ts
#EXTINF:1.209300,
115377147578530-index10286.ts
#EXTINF:2.168400,
115377147578530-index10287.ts
#EXTINF:2.919000,
115377147578530-index10288.ts
#EXTINF:2.668800,
115377147578530-index10289.ts
#EXTINF:1.751400,
115377147578530-index10290.ts
#EXTINF:2.668800,
115377147578530-index10291.ts
#EXTINF:1.668000,
115377147578530-index10292.ts
#EXTINF:1.668000,
115377147578530-index10293.ts
#EXTINF:3.586200,
115377147578530-index10294.ts
#EXTINF:1.584600,
115377147578530-index10295.ts
#EXTINF:1.626300,
115377147578530-index10296.ts
#EXTINF:2.710500,
115377147578530-index10297.ts
#EXTINF:4.712100,
115377147578530-index10298.ts
#EXTINF:4.628700,
115377147578530-index10299.ts
#EXTINF:2.085000,
115377147578530-index10300.ts
#EXTINF:2.418600,
115377147578530-index10301.ts
#EXTINF:10.383300,
115377147578530-index10302.ts
#EXTINF:5.671200,
115377147578530-index10303.ts
#EXTINF:1.542900,
115377147578530-index10304.ts
#EXTINF:4.753800,
115377147578530-index10305.ts
#EXTINF:1.459500,
115377147578530-index10306.ts
#EXTINF:7.255800,
115377147578530-index10307.ts
#EXTINF:2.627100,
115377147578530-index10308.ts
#EXTINF:2.001600,
115377147578530-index10309.ts
#EXTINF:4.295100,
115377147578530-index10310.ts
#EXTINF:1.000800,
115377147578530-index10311.ts
#EXTINF:1.626300,
115377147578530-index10312.ts
#EXTINF:1.042500,
115377147578530-index10313.ts
#EXTINF:1.751400,
115377147578530-index10314.ts
#EXTINF:3.544500,
115377147578530-index10315.ts
#EXTINF:1.793100,
115377147578530-index10316.ts
#EXTINF:2.919000,
115377147578530-index10317.ts
#EXTINF:1.876500,
115377147578530-index10318.ts
#EXTINF:1.251000,
115377147578530-index10319.ts
#EXTINF:1.501200,
115377147578530-index10320.ts
#EXTINF:2.710500,
115377147578530-index10321.ts
#EXTINF:3.502800,
115377147578530-index10322.ts
#EXTINF:5.629500,
115377147578530-index10323.ts
#EXTINF:4.712100,
115377147578530-index10324.ts
#EXTINF:5.504400,
115377147578530-index10325.ts
#EXTINF:5.254200,
115377147578530-index10326.ts
#EXTINF:2.543700,
115377147578530-index10327.ts
#EXTINF:6.713700,
115377147578530-index10328.ts
#EXTINF:3.252600,
115377147578530-index10329.ts
#EXTINF:5.212500,
115377147578530-index10330.ts
#EXTINF:1.292700,
115377147578530-index10331.ts
#EXTINF:5.462700,
115377147578530-index10332.ts
#EXTINF:2.168400,
115377147578530-index10333.ts
#EXTINF:1.000800,
115377147578530-index10334.ts
#EXTINF:1.084200,
115377147578530-index10335.ts
#EXTINF:1.668000,
115377147578530-index10336.ts
#EXTINF:1.751400,
115377147578530-index10337.ts
#EXTINF:7.297500,
115377147578530-index10338.ts
#EXTINF:4.712100,
115377147578530-index10339.ts
#EXTINF:2.460300,
115377147578530-index10340.ts
#EXTINF:3.461100,
115377147578530-index10341.ts
#EXTINF:3.127500,
115377147578530-index10342.ts
#EXTINF:3.961500,
115377147578530-index10343.ts
#EXTINF:2.710500,
115377147578530-index10344.ts
#EXTINF:3.169200,
115377147578530-index10345.ts
#EXTINF:4.920600,
115377147578530-index10346.ts
#EXTINF:5.004000,
115377147578530-index10347.ts
#EXTINF:2.835600,
115377147578530-index10348.ts
#EXTINF:4.086600,
115377147578530-index10349.ts
#EXTINF:2.502000,
115377147578530-index10350.ts
#EXTINF:3.294300,
115377147578530-index10351.ts
#EXTINF:4.962300,
115377147578530-index10352.ts
#EXTINF:3.461100,
115377147578530-index10353.ts
#EXTINF:3.502800,
115377147578530-index10354.ts
#EXTINF:3.002400,
115377147578530-index10355.ts
#EXTINF:10.425000,
115377147578530-index10356.ts
#EXTINF:10.425000,
115377147578530-index10357.ts
#EXTINF:10.425000,
115377147578530-index10358.ts
#EXTINF:10.425000,
115377147578530-index10359.ts
#EXTINF:10.425000,
115377147578530-index10360.ts
#EXTINF:10.425000,
115377147578530-index10361.ts
#EXTINF:7.422600,
115377147578530-index10362.ts
#EXTINF:2.001600,
115377147578530-index10363.ts
#EXTINF:1.542900,
115377147578530-index10364.ts
#EXTINF:1.084200,
115377147578530-index10365.ts
#EXTINF:1.251000,
115377147578530-index10366.ts
#EXTINF:1.417800,
115377147578530-index10367.ts
#EXTINF:1.292700,
115377147578530-index10368.ts
#EXTINF:1.459500,
115377147578530-index10369.ts
#EXTINF:2.085000,
115377147578530-index10370.ts
#EXTINF:2.251800,
115377147578530-index10371.ts
#EXTINF:1.376100,
115377147578530-index10372.ts
#EXTINF:1.584600,
115377147578530-index10373.ts
#EXTINF:1.292700,
115377147578530-index10374.ts
#EXTINF:1.000800,
115377147578530-index10375.ts
#EXTINF:1.125900,
115377147578530-index10376.ts
#EXTINF:1.167600,
115377147578530-index10377.ts
#EXTINF:1.709700,
115377147578530-index10378.ts
#EXTINF:1.876500,
115377147578530-index10379.ts
#EXTINF:1.251000,
115377147578530-index10380.ts
#EXTINF:3.252600,
115377147578530-index10381.ts
#EXTINF:5.004000,
115377147578530-index10382.ts
#EXTINF:5.004000,
115377147578530-index10383.ts
#EXT-X-ENDLIST
