#EXTM3U
#EXT-X-VERSION:3
#EXT-X-TARGETDURATION:3
#EXT-X-MEDIA-SEQUENCE:10001
#EXTINF:3.000000,
118887633085250-index10001.png
#EXTINF:3.000000,
118887633085250-index10002.png
#EXTINF:3.000000,
118887633085250-index10003.png
#EXTINF:3.000000,
118887633085250-index10004.png
#EXTINF:3.000000,
118887633085250-index10005.png
#EXTINF:3.000000,
118887633085250-index10006.png
#EXTINF:3.000000,
118887633085250-index10007.png
#EXTINF:3.000000,
118887633085250-index10008.png
#EXTINF:3.000000,
118887633085250-index10009.png
#EXTINF:3.000000,
118887633085250-index10010.png
#EXTINF:3.000000,
118887633085250-index10011.png
#EXTINF:3.000000,
118887633085250-index10012.png
#EXTINF:3.000000,
118887633085250-index10013.png
#EXTINF:3.000000,
118887633085250-index10014.png
#EXTINF:3.000000,
118887633085250-index10015.png
#EXTINF:3.000000,
118887633085250-index10016.png
#EXTINF:3.000000,
118887633085250-index10017.png
#EXTINF:3.000000,
118887633085250-index10018.png
#EXTINF:3.000000,
118887633085250-index10019.png
#EXTINF:3.000000,
118887633085250-index10020.png
#EXTINF:3.000000,
118887633085250-index10021.png
#EXTINF:3.000000,
118887633085250-index10022.png
#EXTINF:3.000000,
118887633085250-index10023.png
#EXTINF:3.000000,
118887633085250-index10024.png
#EXTINF:3.000000,
118887633085250-index10025.png
#EXTINF:3.000000,
118887633085250-index10026.png
#EXTINF:3.000000,
118887633085250-index10027.png
#EXTINF:3.000000,
118887633085250-index10028.png
#EXTINF:3.000000,
118887633085250-index10029.png
#EXTINF:3.000000,
118887633085250-index10030.png
#EXTINF:3.000000,
118887633085250-index10031.png
#EXTINF:3.000000,
118887633085250-index10032.png
#EXTINF:3.000000,
118887633085250-index10033.png
#EXTINF:3.000000,
118887633085250-index10034.png
#EXTINF:3.000000,
118887633085250-index10035.png
#EXTINF:3.000000,
118887633085250-index10036.png
#EXTINF:3.000000,
118887633085250-index10037.png
#EXTINF:3.000000,
118887633085250-index10038.png
#EXTINF:3.000000,
118887633085250-index10039.png
#EXTINF:3.000000,
118887633085250-index10040.png
#EXTINF:3.000000,
118887633085250-index10041.png
#EXTINF:3.000000,
118887633085250-index10042.png
#EXTINF:3.000000,
118887633085250-index10043.png
#EXTINF:3.000000,
118887633085250-index10044.png
#EXTINF:3.000000,
118887633085250-index10045.png
#EXTINF:3.000000,
118887633085250-index10046.png
#EXTINF:3.000000,
118887633085250-index10047.png
#EXTINF:3.000000,
118887633085250-index10048.png
#EXTINF:3.000000,
118887633085250-index10049.png
#EXTINF:3.000000,
118887633085250-index10050.png
#EXTINF:3.000000,
118887633085250-index10051.png
#EXTINF:3.000000,
118887633085250-index10052.png
#EXTINF:3.000000,
118887633085250-index10053.png
#EXTINF:3.000000,
118887633085250-index10054.png
#EXTINF:3.000000,
118887633085250-index10055.png
#EXTINF:3.000000,
118887633085250-index10056.png
#EXTINF:3.000000,
118887633085250-index10057.png
#EXTINF:3.000000,
118887633085250-index10058.png
#EXTINF:3.000000,
118887633085250-index10059.png
#EXTINF:3.000000,
118887633085250-index10060.png
#EXTINF:3.000000,
118887633085250-index10061.png
#EXTINF:3.000000,
118887633085250-index10062.png
#EXTINF:3.000000,
118887633085250-index10063.png
#EXTINF:3.000000,
118887633085250-index10064.png
#EXTINF:3.000000,
118887633085250-index10065.png
#EXTINF:3.000000,
118887633085250-index10066.png
#EXTINF:3.000000,
118887633085250-index10067.png
#EXTINF:3.000000,
118887633085250-index10068.png
#EXTINF:3.000000,
118887633085250-index10069.png
#EXTINF:3.000000,
118887633085250-index10070.png
#EXTINF:3.000000,
118887633085250-index10071.png
#EXTINF:3.000000,
118887633085250-index10072.png
#EXTINF:3.000000,
118887633085250-index10073.png
#EXTINF:3.000000,
118887633085250-index10074.png
#EXTINF:3.000000,
118887633085250-index10075.png
#EXTINF:3.000000,
118887633085250-index10076.png
#EXTINF:3.000000,
118887633085250-index10077.png
#EXTINF:3.000000,
118887633085250-index10078.png
#EXTINF:3.000000,
118887633085250-index10079.png
#EXTINF:3.000000,
118887633085250-index10080.png
#EXTINF:3.000000,
118887633085250-index10081.png
#EXTINF:3.000000,
118887633085250-index10082.png
#EXTINF:3.000000,
118887633085250-index10083.png
#EXTINF:3.000000,
118887633085250-index10084.png
#EXTINF:3.000000,
118887633085250-index10085.png
#EXTINF:3.000000,
118887633085250-index10086.png
#EXTINF:3.000000,
118887633085250-index10087.png
#EXTINF:3.000000,
118887633085250-index10088.png
#EXTINF:3.000000,
118887633085250-index10089.png
#EXTINF:3.000000,
118887633085250-index10090.png
#EXTINF:3.000000,
118887633085250-index10091.png
#EXTINF:3.000000,
118887633085250-index10092.png
#EXTINF:3.000000,
118887633085250-index10093.png
#EXTINF:3.000000,
118887633085250-index10094.png
#EXTINF:3.000000,
118887633085250-index10095.png
#EXTINF:3.000000,
118887633085250-index10096.png
#EXTINF:3.000000,
118887633085250-index10097.png
#EXTINF:3.000000,
118887633085250-index10098.png
#EXTINF:3.000000,
118887633085250-index10099.png
#EXTINF:3.000000,
118887633085250-index10100.png
#EXTINF:3.000000,
118887633085250-index10101.png
#EXTINF:3.000000,
118887633085250-index10102.png
#EXTINF:3.000000,
118887633085250-index10103.png
#EXTINF:3.000000,
118887633085250-index10104.png
#EXTINF:3.000000,
118887633085250-index10105.png
#EXTINF:3.000000,
118887633085250-index10106.png
#EXTINF:3.000000,
118887633085250-index10107.png
#EXTINF:3.000000,
118887633085250-index10108.png
#EXTINF:3.000000,
118887633085250-index10109.png
#EXTINF:3.000000,
118887633085250-index10110.png
#EXTINF:3.000000,
118887633085250-index10111.png
#EXTINF:3.000000,
118887633085250-index10112.png
#EXTINF:3.000000,
118887633085250-index10113.png
#EXTINF:3.000000,
118887633085250-index10114.png
#EXTINF:3.000000,
118887633085250-index10115.png
#EXTINF:3.000000,
118887633085250-index10116.png
#EXTINF:3.000000,
118887633085250-index10117.png
#EXTINF:3.000000,
118887633085250-index10118.png
#EXTINF:3.000000,
118887633085250-index10119.png
#EXTINF:3.000000,
118887633085250-index10120.png
#EXTINF:3.000000,
118887633085250-index10121.png
#EXTINF:3.000000,
118887633085250-index10122.png
#EXTINF:3.000000,
118887633085250-index10123.png
#EXTINF:3.000000,
118887633085250-index10124.png
#EXTINF:3.000000,
118887633085250-index10125.png
#EXTINF:3.000000,
118887633085250-index10126.png
#EXTINF:3.000000,
118887633085250-index10127.png
#EXTINF:3.000000,
118887633085250-index10128.png
#EXTINF:3.000000,
118887633085250-index10129.png
#EXTINF:3.000000,
118887633085250-index10130.png
#EXTINF:3.000000,
118887633085250-index10131.png
#EXTINF:3.000000,
118887633085250-index10132.png
#EXTINF:3.000000,
118887633085250-index10133.png
#EXTINF:3.000000,
118887633085250-index10134.png
#EXTINF:3.000000,
118887633085250-index10135.png
#EXTINF:3.000000,
118887633085250-index10136.png
#EXTINF:3.000000,
118887633085250-index10137.png
#EXTINF:3.000000,
118887633085250-index10138.png
#EXTINF:3.000000,
118887633085250-index10139.png
#EXTINF:3.000000,
118887633085250-index10140.png
#EXTINF:3.000000,
118887633085250-index10141.png
#EXTINF:3.000000,
118887633085250-index10142.png
#EXTINF:3.000000,
118887633085250-index10143.png
#EXTINF:3.000000,
118887633085250-index10144.png
#EXTINF:3.000000,
118887633085250-index10145.png
#EXTINF:3.000000,
118887633085250-index10146.png
#EXTINF:3.000000,
118887633085250-index10147.png
#EXTINF:3.000000,
118887633085250-index10148.png
#EXTINF:3.000000,
118887633085250-index10149.png
#EXTINF:3.000000,
118887633085250-index10150.png
#EXTINF:3.000000,
118887633085250-index10151.png
#EXTINF:3.000000,
118887633085250-index10152.png
#EXTINF:3.000000,
118887633085250-index10153.png
#EXTINF:3.000000,
118887633085250-index10154.png
#EXTINF:3.000000,
118887633085250-index10155.png
#EXTINF:3.000000,
118887633085250-index10156.png
#EXTINF:3.000000,
118887633085250-index10157.png
#EXTINF:3.000000,
118887633085250-index10158.png
#EXTINF:3.000000,
118887633085250-index10159.png
#EXTINF:3.000000,
118887633085250-index10160.png
#EXTINF:3.000000,
118887633085250-index10161.png
#EXTINF:3.000000,
118887633085250-index10162.png
#EXTINF:3.000000,
118887633085250-index10163.png
#EXTINF:3.000000,
118887633085250-index10164.png
#EXTINF:3.000000,
118887633085250-index10165.png
#EXTINF:3.000000,
118887633085250-index10166.png
#EXTINF:3.000000,
118887633085250-index10167.png
#EXTINF:3.000000,
118887633085250-index10168.png
#EXTINF:3.000000,
118887633085250-index10169.png
#EXTINF:3.000000,
118887633085250-index10170.png
#EXTINF:3.000000,
118887633085250-index10171.png
#EXTINF:3.000000,
118887633085250-index10172.png
#EXTINF:3.000000,
118887633085250-index10173.png
#EXTINF:3.000000,
118887633085250-index10174.png
#EXTINF:3.000000,
118887633085250-index10175.png
#EXTINF:3.000000,
118887633085250-index10176.png
#EXTINF:3.000000,
118887633085250-index10177.png
#EXTINF:3.000000,
118887633085250-index10178.png
#EXTINF:3.000000,
118887633085250-index10179.png
#EXTINF:3.000000,
118887633085250-index10180.png
#EXTINF:3.000000,
118887633085250-index10181.png
#EXTINF:3.000000,
118887633085250-index10182.png
#EXTINF:3.000000,
118887633085250-index10183.png
#EXTINF:3.000000,
118887633085250-index10184.png
#EXTINF:3.000000,
118887633085250-index10185.png
#EXTINF:3.000000,
118887633085250-index10186.png
#EXTINF:3.000000,
118887633085250-index10187.png
#EXTINF:3.000000,
118887633085250-index10188.png
#EXTINF:3.000000,
118887633085250-index10189.png
#EXTINF:3.000000,
118887633085250-index10190.png
#EXTINF:3.000000,
118887633085250-index10191.png
#EXTINF:3.000000,
118887633085250-index10192.png
#EXTINF:3.000000,
118887633085250-index10193.png
#EXTINF:3.000000,
118887633085250-index10194.png
#EXTINF:3.000000,
118887633085250-index10195.png
#EXTINF:3.000000,
118887633085250-index10196.png
#EXTINF:3.000000,
118887633085250-index10197.png
#EXTINF:3.000000,
118887633085250-index10198.png
#EXTINF:3.000000,
118887633085250-index10199.png
#EXTINF:3.000000,
118887633085250-index10200.png
#EXTINF:3.000000,
118887633085250-index10201.png
#EXTINF:3.000000,
118887633085250-index10202.png
#EXTINF:3.000000,
118887633085250-index10203.png
#EXTINF:3.000000,
118887633085250-index10204.png
#EXTINF:3.000000,
118887633085250-index10205.png
#EXTINF:3.000000,
118887633085250-index10206.png
#EXTINF:3.000000,
118887633085250-index10207.png
#EXTINF:3.000000,
118887633085250-index10208.png
#EXTINF:3.000000,
118887633085250-index10209.png
#EXTINF:3.000000,
118887633085250-index10210.png
#EXTINF:3.000000,
118887633085250-index10211.png
#EXTINF:3.000000,
118887633085250-index10212.png
#EXTINF:3.000000,
118887633085250-index10213.png
#EXTINF:3.000000,
118887633085250-index10214.png
#EXTINF:3.000000,
118887633085250-index10215.png
#EXTINF:3.000000,
118887633085250-index10216.png
#EXTINF:3.000000,
118887633085250-index10217.png
#EXTINF:1.966667,
118887633085250-index10218.png
#EXT-X-ENDLIST
