#EXTM3U
#EXT-X-VERSION:3
#EXT-X-TARGETDURATION:11
#EXT-X-MEDIA-SEQUENCE:10001
#EXTINF:10.416667,
132848929613828-index10001.png
#EXTINF:10.416667,
132848929613828-index10002.png
#EXTINF:10.416667,
132848929613828-index10003.png
#EXTINF:10.416667,
132848929613828-index10004.png
#EXTINF:10.416667,
132848929613828-index10005.png
#EXTINF:10.416667,
132848929613828-index10006.png
#EXTINF:10.416667,
132848929613828-index10007.png
#EXTINF:10.416667,
132848929613828-index10008.png
#EXTINF:7.791667,
132848929613828-index10009.png
#EXTINF:10.416667,
132848929613828-index10010.png
#EXTINF:10.416667,
132848929613828-index10011.png
#EXTINF:10.416667,
132848929613828-index10012.png
#EXTINF:10.416667,
132848929613828-index10013.png
#EXTINF:10.416667,
132848929613828-index10014.png
#EXTINF:10.416667,
132848929613828-index10015.png
#EXTINF:10.416667,
132848929613828-index10016.png
#EXTINF:10.416667,
132848929613828-index10017.png
#EXTINF:10.416667,
132848929613828-index10018.png
#EXTINF:10.416667,
132848929613828-index10019.png
#EXTINF:9.791667,
132848929613828-index10020.png
#EXTINF:10.416667,
132848929613828-index10021.png
#EXTINF:10.416667,
132848929613828-index10022.png
#EXTINF:10.416667,
132848929613828-index10023.png
#EXTINF:10.416667,
132848929613828-index10024.png
#EXTINF:10.416667,
132848929613828-index10025.png
#EXTINF:10.416667,
132848929613828-index10026.png
#EXTINF:10.416667,
132848929613828-index10027.png
#EXTINF:10.416667,
132848929613828-index10028.png
#EXTINF:10.416667,
132848929613828-index10029.png
#EXTINF:10.416667,
132848929613828-index10030.png
#EXTINF:10.416667,
132848929613828-index10031.png
#EXTINF:10.416667,
132848929613828-index10032.png
#EXTINF:10.416667,
132848929613828-index10033.png
#EXTINF:10.416667,
132848929613828-index10034.png
#EXTINF:9.166667,
132848929613828-index10035.png
#EXTINF:10.416667,
132848929613828-index10036.png
#EXTINF:10.208333,
132848929613828-index10037.png
#EXTINF:10.416667,
132848929613828-index10038.png
#EXTINF:9.458333,
132848929613828-index10039.png
#EXTINF:10.416667,
132848929613828-index10040.png
#EXTINF:10.416667,
132848929613828-index10041.png
#EXTINF:5.625000,
132848929613828-index10042.png
#EXTINF:5.791667,
132848929613828-index10043.png
#EXTINF:10.416667,
132848929613828-index10044.png
#EXTINF:10.416667,
132848929613828-index10045.png
#EXTINF:10.416667,
132848929613828-index10046.png
#EXTINF:10.416667,
132848929613828-index10047.png
#EXTINF:10.416667,
132848929613828-index10048.png
#EXTINF:10.416667,
132848929613828-index10049.png
#EXTINF:10.416667,
132848929613828-index10050.png
#EXTINF:10.416667,
132848929613828-index10051.png
#EXTINF:10.416667,
132848929613828-index10052.png
#EXTINF:10.416667,
132848929613828-index10053.png
#EXTINF:10.416667,
132848929613828-index10054.png
#EXTINF:10.000000,
132848929613828-index10055.png
#EXTINF:10.416667,
132848929613828-index10056.png
#EXTINF:10.416667,
132848929613828-index10057.png
#EXTINF:10.416667,
132848929613828-index10058.png
#EXTINF:10.416667,
132848929613828-index10059.png
#EXTINF:10.416667,
132848929613828-index10060.png
#EXTINF:10.416667,
132848929613828-index10061.png
#EXTINF:10.416667,
132848929613828-index10062.png
#EXTINF:10.416667,
132848929613828-index10063.png
#EXTINF:10.416667,
132848929613828-index10064.png
#EXTINF:10.416667,
132848929613828-index10065.png
#EXTINF:10.416667,
132848929613828-index10066.png
#EXTINF:10.416667,
132848929613828-index10067.png
#EXTINF:10.416667,
132848929613828-index10068.png
#EXTINF:10.416667,
132848929613828-index10069.png
#EXTINF:8.833333,
132848929613828-index10070.png
#EXTINF:10.416667,
132848929613828-index10071.png
#EXTINF:0.208333,
132848929613828-index10072.png
#EXT-X-ENDLIST
