#EXTM3U
#EXT-X-VERSION:3
#EXT-X-TARGETDURATION:3
#EXT-X-MEDIA-SEQUENCE:10001
#EXTINF:2.878067,
132950702475176-index10001.png
#EXTINF:1.918711,
132950702475176-index10002.png
#EXTINF:1.918711,
132950702475176-index10003.png
#EXTINF:1.918711,
132950702475176-index10004.png
#EXTINF:1.543311,
132950702475176-index10005.png
#EXTINF:1.918711,
132950702475176-index10006.png
#EXTINF:1.918711,
132950702475176-index10007.png
#EXTINF:2.085556,
132950702475176-index10008.png
#EXTINF:1.918711,
132950702475176-index10009.png
#EXTINF:2.878067,
132950702475176-index10010.png
#EXTINF:1.918711,
132950702475176-index10011.png
#EXTINF:1.918711,
132950702475176-index10012.png
#EXTINF:1.626733,
132950702475176-index10013.png
#EXTINF:1.835289,
132950702475176-index10014.png
#EXTINF:1.918711,
132950702475176-index10015.png
#EXTINF:1.918711,
132950702475176-index10016.png
#EXTINF:2.544378,
132950702475176-index10017.png
#EXTINF:1.918711,
132950702475176-index10018.png
#EXTINF:1.918711,
132950702475176-index10019.png
#EXTINF:1.918711,
132950702475176-index10020.png
#EXTINF:1.918711,
132950702475176-index10021.png
#EXTINF:1.918711,
132950702475176-index10022.png
#EXTINF:1.918711,
132950702475176-index10023.png
#EXTINF:2.085556,
132950702475176-index10024.png
#EXTINF:2.294111,
132950702475176-index10025.png
#EXTINF:1.918711,
132950702475176-index10026.png
#EXTINF:2.085556,
132950702475176-index10027.png
#EXTINF:1.918711,
132950702475176-index10028.png
#EXTINF:1.918711,
132950702475176-index10029.png
#EXTINF:1.918711,
132950702475176-index10030.png
#EXTINF:1.918711,
132950702475176-index10031.png
#EXTINF:1.918711,
132950702475176-index10032.png
#EXTINF:2.878067,
132950702475176-index10033.png
#EXTINF:1.626733,
132950702475176-index10034.png
#EXTINF:1.918711,
132950702475176-index10035.png
#EXTINF:1.918711,
132950702475176-index10036.png
#EXTINF:1.918711,
132950702475176-index10037.png
#EXTINF:2.502667,
132950702475176-index10038.png
#EXTINF:1.918711,
132950702475176-index10039.png
#EXTINF:1.918711,
132950702475176-index10040.png
#EXTINF:1.918711,
132950702475176-index10041.png
#EXTINF:1.918711,
132950702475176-index10042.png
#EXTINF:1.918711,
132950702475176-index10043.png
#EXTINF:1.918711,
132950702475176-index10044.png
#EXTINF:1.918711,
132950702475176-index10045.png
#EXTINF:1.918711,
132950702475176-index10046.png
#EXTINF:1.918711,
132950702475176-index10047.png
#EXTINF:1.918711,
132950702475176-index10048.png
#EXTINF:2.878067,
132950702475176-index10049.png
#EXTINF:1.918711,
132950702475176-index10050.png
#EXTINF:1.918711,
132950702475176-index10051.png
#EXTINF:2.127267,
132950702475176-index10052.png
#EXTINF:1.918711,
132950702475176-index10053.png
#EXTINF:1.501600,
132950702475176-index10054.png
#EXTINF:1.918711,
132950702475176-index10055.png
#EXTINF:1.918711,
132950702475176-index10056.png
#EXTINF:1.918711,
132950702475176-index10057.png
#EXTINF:2.878067,
132950702475176-index10058.png
#EXTINF:1.918711,
132950702475176-index10059.png
#EXTINF:1.918711,
132950702475176-index10060.png
#EXTINF:1.877000,
132950702475176-index10061.png
#EXTINF:1.918711,
132950702475176-index10062.png
#EXTINF:2.085556,
132950702475176-index10063.png
#EXTINF:1.918711,
132950702475176-index10064.png
#EXTINF:2.043844,
132950702475176-index10065.png
#EXTINF:1.918711,
132950702475176-index10066.png
#EXTINF:1.918711,
132950702475176-index10067.png
#EXTINF:1.918711,
132950702475176-index10068.png
#EXTINF:1.835289,
132950702475176-index10069.png
#EXTINF:1.918711,
132950702475176-index10070.png
#EXTINF:1.918711,
132950702475176-index10071.png
#EXTINF:2.878067,
132950702475176-index10072.png
#EXTINF:1.251333,
132950702475176-index10073.png
#EXTINF:1.918711,
132950702475176-index10074.png
#EXTINF:2.878067,
132950702475176-index10075.png
#EXTINF:1.918711,
132950702475176-index10076.png
#EXTINF:1.918711,
132950702475176-index10077.png
#EXTINF:1.376467,
132950702475176-index10078.png
#EXTINF:1.918711,
132950702475176-index10079.png
#EXTINF:2.878067,
132950702475176-index10080.png
#EXTINF:1.918711,
132950702475176-index10081.png
#EXTINF:1.918711,
132950702475176-index10082.png
#EXTINF:1.918711,
132950702475176-index10083.png
#EXTINF:1.918711,
132950702475176-index10084.png
#EXTINF:1.918711,
132950702475176-index10085.png
#EXTINF:1.918711,
132950702475176-index10086.png
#EXTINF:1.751867,
132950702475176-index10087.png
#EXTINF:1.918711,
132950702475176-index10088.png
#EXTINF:1.918711,
132950702475176-index10089.png
#EXTINF:2.836356,
132950702475176-index10090.png
#EXTINF:1.918711,
132950702475176-index10091.png
#EXTINF:1.918711,
132950702475176-index10092.png
#EXTINF:1.918711,
132950702475176-index10093.png
#EXTINF:1.918711,
132950702475176-index10094.png
#EXTINF:1.585022,
132950702475176-index10095.png
#EXTINF:1.918711,
132950702475176-index10096.png
#EXTINF:2.168978,
132950702475176-index10097.png
#EXTINF:1.918711,
132950702475176-index10098.png
#EXTINF:1.918711,
132950702475176-index10099.png
#EXTINF:2.878067,
132950702475176-index10100.png
#EXTINF:1.501600,
132950702475176-index10101.png
#EXTINF:1.918711,
132950702475176-index10102.png
#EXTINF:1.918711,
132950702475176-index10103.png
#EXTINF:1.918711,
132950702475176-index10104.png
#EXTINF:2.210689,
132950702475176-index10105.png
#EXTINF:1.710156,
132950702475176-index10106.png
#EXTINF:2.752933,
132950702475176-index10107.png
#EXTINF:1.918711,
132950702475176-index10108.png
#EXTINF:1.918711,
132950702475176-index10109.png
#EXTINF:1.918711,
132950702475176-index10110.png
#EXTINF:1.918711,
132950702475176-index10111.png
#EXTINF:1.960422,
132950702475176-index10112.png
#EXTINF:1.918711,
132950702475176-index10113.png
#EXTINF:1.918711,
132950702475176-index10114.png
#EXTINF:2.168978,
132950702475176-index10115.png
#EXTINF:1.918711,
132950702475176-index10116.png
#EXTINF:2.252400,
132950702475176-index10117.png
#EXTINF:1.918711,
132950702475176-index10118.png
#EXTINF:1.918711,
132950702475176-index10119.png
#EXTINF:1.918711,
132950702475176-index10120.png
#EXTINF:2.419244,
132950702475176-index10121.png
#EXTINF:1.918711,
132950702475176-index10122.png
#EXTINF:1.918711,
132950702475176-index10123.png
#EXTINF:2.043844,
132950702475176-index10124.png
#EXTINF:1.918711,
132950702475176-index10125.png
#EXTINF:1.918711,
132950702475176-index10126.png
#EXTINF:2.127267,
132950702475176-index10127.png
#EXTINF:1.918711,
132950702475176-index10128.png
#EXTINF:1.918711,
132950702475176-index10129.png
#EXTINF:1.918711,
132950702475176-index10130.png
#EXTINF:1.918711,
132950702475176-index10131.png
#EXTINF:2.252400,
132950702475176-index10132.png
#EXTINF:1.918711,
132950702475176-index10133.png
#EXTINF:1.918711,
132950702475176-index10134.png
#EXTINF:1.835289,
132950702475176-index10135.png
#EXTINF:1.918711,
132950702475176-index10136.png
#EXTINF:1.918711,
132950702475176-index10137.png
#EXTINF:1.918711,
132950702475176-index10138.png
#EXTINF:2.878067,
132950702475176-index10139.png
#EXTINF:1.084489,
132950702475176-index10140.png
#EXTINF:2.878067,
132950702475176-index10141.png
#EXTINF:1.793578,
132950702475176-index10142.png
#EXTINF:1.918711,
132950702475176-index10143.png
#EXTINF:1.918711,
132950702475176-index10144.png
#EXTINF:2.085556,
132950702475176-index10145.png
#EXTINF:1.918711,
132950702475176-index10146.png
#EXTINF:1.918711,
132950702475176-index10147.png
#EXTINF:1.918711,
132950702475176-index10148.png
#EXTINF:1.918711,
132950702475176-index10149.png
#EXTINF:2.419244,
132950702475176-index10150.png
#EXTINF:1.918711,
132950702475176-index10151.png
#EXTINF:1.918711,
132950702475176-index10152.png
#EXTINF:1.918711,
132950702475176-index10153.png
#EXTINF:1.918711,
132950702475176-index10154.png
#EXTINF:2.544378,
132950702475176-index10155.png
#EXTINF:1.918711,
132950702475176-index10156.png
#EXTINF:2.085556,
132950702475176-index10157.png
#EXTINF:1.459889,
132950702475176-index10158.png
#EXTINF:1.918711,
132950702475176-index10159.png
#EXTINF:2.502667,
132950702475176-index10160.png
#EXTINF:1.918711,
132950702475176-index10161.png
#EXTINF:1.751867,
132950702475176-index10162.png
#EXTINF:1.918711,
132950702475176-index10163.png
#EXTINF:1.918711,
132950702475176-index10164.png
#EXTINF:1.751867,
132950702475176-index10165.png
#EXTINF:2.878067,
132950702475176-index10166.png
#EXTINF:1.918711,
132950702475176-index10167.png
#EXTINF:1.459889,
132950702475176-index10168.png
#EXTINF:1.918711,
132950702475176-index10169.png
#EXTINF:1.918711,
132950702475176-index10170.png
#EXTINF:1.918711,
132950702475176-index10171.png
#EXTINF:1.918711,
132950702475176-index10172.png
#EXTINF:2.878067,
132950702475176-index10173.png
#EXTINF:1.918711,
132950702475176-index10174.png
#EXTINF:1.835289,
132950702475176-index10175.png
#EXTINF:1.918711,
132950702475176-index10176.png
#EXTINF:1.501600,
132950702475176-index10177.png
#EXTINF:2.878067,
132950702475176-index10178.png
#EXTINF:1.918711,
132950702475176-index10179.png
#EXTINF:1.251333,
132950702475176-index10180.png
#EXTINF:1.918711,
132950702475176-index10181.png
#EXTINF:2.878067,
132950702475176-index10182.png
#EXTINF:1.918711,
132950702475176-index10183.png
#EXTINF:1.918711,
132950702475176-index10184.png
#EXTINF:1.918711,
132950702475176-index10185.png
#EXTINF:1.418178,
132950702475176-index10186.png
#EXTINF:2.878067,
132950702475176-index10187.png
#EXTINF:1.167911,
132950702475176-index10188.png
#EXTINF:1.918711,
132950702475176-index10189.png
#EXTINF:2.002133,
132950702475176-index10190.png
#EXTINF:2.878067,
132950702475176-index10191.png
#EXTINF:1.918711,
132950702475176-index10192.png
#EXTINF:1.918711,
132950702475176-index10193.png
#EXTINF:1.459889,
132950702475176-index10194.png
#EXTINF:1.918711,
132950702475176-index10195.png
#EXTINF:1.918711,
132950702475176-index10196.png
#EXTINF:2.878067,
132950702475176-index10197.png
#EXTINF:1.918711,
132950702475176-index10198.png
#EXTINF:1.918711,
132950702475176-index10199.png
#EXTINF:1.459889,
132950702475176-index10200.png
#EXTINF:1.918711,
132950702475176-index10201.png
#EXTINF:1.918711,
132950702475176-index10202.png
#EXTINF:2.878067,
132950702475176-index10203.png
#EXTINF:1.918711,
132950702475176-index10204.png
#EXTINF:1.626733,
132950702475176-index10205.png
#EXTINF:1.918711,
132950702475176-index10206.png
#EXTINF:2.002133,
132950702475176-index10207.png
#EXTINF:1.918711,
132950702475176-index10208.png
#EXTINF:1.918711,
132950702475176-index10209.png
#EXTINF:1.918711,
132950702475176-index10210.png
#EXTINF:1.918711,
132950702475176-index10211.png
#EXTINF:1.918711,
132950702475176-index10212.png
#EXTINF:2.878067,
132950702475176-index10213.png
#EXTINF:2.002133,
132950702475176-index10214.png
#EXTINF:1.918711,
132950702475176-index10215.png
#EXTINF:1.710156,
132950702475176-index10216.png
#EXTINF:2.085556,
132950702475176-index10217.png
#EXTINF:1.918711,
132950702475176-index10218.png
#EXTINF:1.918711,
132950702475176-index10219.png
#EXTINF:1.918711,
132950702475176-index10220.png
#EXTINF:2.586089,
132950702475176-index10221.png
#EXTINF:1.918711,
132950702475176-index10222.png
#EXTINF:1.459889,
132950702475176-index10223.png
#EXTINF:1.918711,
132950702475176-index10224.png
#EXTINF:2.502667,
132950702475176-index10225.png
#EXTINF:1.918711,
132950702475176-index10226.png
#EXTINF:1.918711,
132950702475176-index10227.png
#EXTINF:1.918711,
132950702475176-index10228.png
#EXTINF:1.918711,
132950702475176-index10229.png
#EXTINF:1.918711,
132950702475176-index10230.png
#EXTINF:1.918711,
132950702475176-index10231.png
#EXTINF:1.918711,
132950702475176-index10232.png
#EXTINF:1.918711,
132950702475176-index10233.png
#EXTINF:1.918711,
132950702475176-index10234.png
#EXTINF:2.878067,
132950702475176-index10235.png
#EXTINF:1.251333,
132950702475176-index10236.png
#EXTINF:1.918711,
132950702475176-index10237.png
#EXTINF:2.878067,
132950702475176-index10238.png
#EXTINF:1.376467,
132950702475176-index10239.png
#EXTINF:1.918711,
132950702475176-index10240.png
#EXTINF:1.918711,
132950702475176-index10241.png
#EXTINF:1.918711,
132950702475176-index10242.png
#EXTINF:2.294111,
132950702475176-index10243.png
#EXTINF:1.918711,
132950702475176-index10244.png
#EXTINF:1.918711,
132950702475176-index10245.png
#EXTINF:1.918711,
132950702475176-index10246.png
#EXTINF:2.711222,
132950702475176-index10247.png
#EXTINF:1.918711,
132950702475176-index10248.png
#EXTINF:1.793578,
132950702475176-index10249.png
#EXTINF:1.918711,
132950702475176-index10250.png
#EXTINF:1.918711,
132950702475176-index10251.png
#EXTINF:1.918711,
132950702475176-index10252.png
#EXTINF:1.918711,
132950702475176-index10253.png
#EXTINF:1.918711,
132950702475176-index10254.png
#EXTINF:1.918711,
132950702475176-index10255.png
#EXTINF:2.878067,
132950702475176-index10256.png
#EXTINF:1.918711,
132950702475176-index10257.png
#EXTINF:1.918711,
132950702475176-index10258.png
#EXTINF:1.251333,
132950702475176-index10259.png
#EXTINF:2.878067,
132950702475176-index10260.png
#EXTINF:1.918711,
132950702475176-index10261.png
#EXTINF:1.459889,
132950702475176-index10262.png
#EXTINF:2.377533,
132950702475176-index10263.png
#EXTINF:1.918711,
132950702475176-index10264.png
#EXTINF:1.918711,
132950702475176-index10265.png
#EXTINF:1.918711,
132950702475176-index10266.png
#EXTINF:1.835289,
132950702475176-index10267.png
#EXTINF:1.918711,
132950702475176-index10268.png
#EXTINF:1.918711,
132950702475176-index10269.png
#EXTINF:2.878067,
132950702475176-index10270.png
#EXTINF:1.918711,
132950702475176-index10271.png
#EXTINF:1.376467,
132950702475176-index10272.png
#EXTINF:2.252400,
132950702475176-index10273.png
#EXTINF:1.918711,
132950702475176-index10274.png
#EXTINF:1.918711,
132950702475176-index10275.png
#EXTINF:2.586089,
132950702475176-index10276.png
#EXTINF:1.918711,
132950702475176-index10277.png
#EXTINF:1.918711,
132950702475176-index10278.png
#EXTINF:1.918711,
132950702475176-index10279.png
#EXTINF:2.085556,
132950702475176-index10280.png
#EXTINF:1.251333,
132950702475176-index10281.png
#EXTINF:2.878067,
132950702475176-index10282.png
#EXTINF:1.918711,
132950702475176-index10283.png
#EXTINF:1.918711,
132950702475176-index10284.png
#EXTINF:1.918711,
132950702475176-index10285.png
#EXTINF:1.918711,
132950702475176-index10286.png
#EXTINF:1.918711,
132950702475176-index10287.png
#EXTINF:1.543311,
132950702475176-index10288.png
#EXTINF:2.878067,
132950702475176-index10289.png
#EXTINF:1.918711,
132950702475176-index10290.png
#EXTINF:1.918711,
132950702475176-index10291.png
#EXTINF:2.002133,
132950702475176-index10292.png
#EXTINF:1.918711,
132950702475176-index10293.png
#EXTINF:1.918711,
132950702475176-index10294.png
#EXTINF:1.918711,
132950702475176-index10295.png
#EXTINF:1.918711,
132950702475176-index10296.png
#EXTINF:1.918711,
132950702475176-index10297.png
#EXTINF:1.835289,
132950702475176-index10298.png
#EXTINF:1.918711,
132950702475176-index10299.png
#EXTINF:1.918711,
132950702475176-index10300.png
#EXTINF:2.878067,
132950702475176-index10301.png
#EXTINF:1.918711,
132950702475176-index10302.png
#EXTINF:1.918711,
132950702475176-index10303.png
#EXTINF:2.210689,
132950702475176-index10304.png
#EXTINF:1.626733,
132950702475176-index10305.png
#EXTINF:1.918711,
132950702475176-index10306.png
#EXTINF:1.918711,
132950702475176-index10307.png
#EXTINF:1.918711,
132950702475176-index10308.png
#EXTINF:1.918711,
132950702475176-index10309.png
#EXTINF:1.918711,
132950702475176-index10310.png
#EXTINF:2.377533,
132950702475176-index10311.png
#EXTINF:1.918711,
132950702475176-index10312.png
#EXTINF:1.918711,
132950702475176-index10313.png
#EXTINF:1.918711,
132950702475176-index10314.png
#EXTINF:1.918711,
132950702475176-index10315.png
#EXTINF:2.210689,
132950702475176-index10316.png
#EXTINF:1.918711,
132950702475176-index10317.png
#EXTINF:1.918711,
132950702475176-index10318.png
#EXTINF:1.918711,
132950702475176-index10319.png
#EXTINF:2.460956,
132950702475176-index10320.png
#EXTINF:1.918711,
132950702475176-index10321.png
#EXTINF:1.918711,
132950702475176-index10322.png
#EXTINF:2.168978,
132950702475176-index10323.png
#EXTINF:1.918711,
132950702475176-index10324.png
#EXTINF:1.918711,
132950702475176-index10325.png
#EXTINF:1.918711,
132950702475176-index10326.png
#EXTINF:1.918711,
132950702475176-index10327.png
#EXTINF:1.918711,
132950702475176-index10328.png
#EXTINF:1.918711,
132950702475176-index10329.png
#EXTINF:2.043844,
132950702475176-index10330.png
#EXTINF:1.918711,
132950702475176-index10331.png
#EXTINF:1.918711,
132950702475176-index10332.png
#EXTINF:2.377533,
132950702475176-index10333.png
#EXTINF:1.918711,
132950702475176-index10334.png
#EXTINF:1.918711,
132950702475176-index10335.png
#EXTINF:1.918711,
132950702475176-index10336.png
#EXTINF:2.043844,
132950702475176-index10337.png
#EXTINF:1.918711,
132950702475176-index10338.png
#EXTINF:1.918711,
132950702475176-index10339.png
#EXTINF:2.085556,
132950702475176-index10340.png
#EXTINF:1.918711,
132950702475176-index10341.png
#EXTINF:2.878067,
132950702475176-index10342.png
#EXTINF:1.626733,
132950702475176-index10343.png
#EXTINF:1.918711,
132950702475176-index10344.png
#EXTINF:1.918711,
132950702475176-index10345.png
#EXTINF:1.918711,
132950702475176-index10346.png
#EXTINF:1.918711,
132950702475176-index10347.png
#EXTINF:2.502667,
132950702475176-index10348.png
#EXTINF:1.918711,
132950702475176-index10349.png
#EXTINF:1.918711,
132950702475176-index10350.png
#EXTINF:1.918711,
132950702475176-index10351.png
#EXTINF:1.585022,
132950702475176-index10352.png
#EXTINF:2.878067,
132950702475176-index10353.png
#EXTINF:1.918711,
132950702475176-index10354.png
#EXTINF:1.877000,
132950702475176-index10355.png
#EXTINF:2.002133,
132950702475176-index10356.png
#EXTINF:1.918711,
132950702475176-index10357.png
#EXTINF:1.918711,
132950702475176-index10358.png
#EXTINF:1.501600,
132950702475176-index10359.png
#EXTINF:1.918711,
132950702475176-index10360.png
#EXTINF:2.878067,
132950702475176-index10361.png
#EXTINF:1.877000,
132950702475176-index10362.png
#EXTINF:1.918711,
132950702475176-index10363.png
#EXTINF:1.918711,
132950702475176-index10364.png
#EXTINF:1.918711,
132950702475176-index10365.png
#EXTINF:1.751867,
132950702475176-index10366.png
#EXTINF:1.918711,
132950702475176-index10367.png
#EXTINF:2.544378,
132950702475176-index10368.png
#EXTINF:1.918711,
132950702475176-index10369.png
#EXTINF:1.918711,
132950702475176-index10370.png
#EXTINF:1.918711,
132950702475176-index10371.png
#EXTINF:1.918711,
132950702475176-index10372.png
#EXTINF:1.918711,
132950702475176-index10373.png
#EXTINF:2.377533,
132950702475176-index10374.png
#EXTINF:1.918711,
132950702475176-index10375.png
#EXTINF:1.918711,
132950702475176-index10376.png
#EXTINF:1.918711,
132950702475176-index10377.png
#EXTINF:2.043844,
132950702475176-index10378.png
#EXTINF:1.918711,
132950702475176-index10379.png
#EXTINF:1.918711,
132950702475176-index10380.png
#EXTINF:2.586089,
132950702475176-index10381.png
#EXTINF:1.459889,
132950702475176-index10382.png
#EXTINF:1.918711,
132950702475176-index10383.png
#EXTINF:2.294111,
132950702475176-index10384.png
#EXTINF:1.918711,
132950702475176-index10385.png
#EXTINF:1.918711,
132950702475176-index10386.png
#EXTINF:1.918711,
132950702475176-index10387.png
#EXTINF:1.918711,
132950702475176-index10388.png
#EXTINF:2.586089,
132950702475176-index10389.png
#EXTINF:1.918711,
132950702475176-index10390.png
#EXTINF:1.918711,
132950702475176-index10391.png
#EXTINF:1.918711,
132950702475176-index10392.png
#EXTINF:1.918711,
132950702475176-index10393.png
#EXTINF:1.918711,
132950702475176-index10394.png
#EXTINF:1.918711,
132950702475176-index10395.png
#EXTINF:1.918711,
132950702475176-index10396.png
#EXTINF:1.918711,
132950702475176-index10397.png
#EXTINF:2.210689,
132950702475176-index10398.png
#EXTINF:1.918711,
132950702475176-index10399.png
#EXTINF:2.419244,
132950702475176-index10400.png
#EXTINF:1.918711,
132950702475176-index10401.png
#EXTINF:1.918711,
132950702475176-index10402.png
#EXTINF:1.918711,
132950702475176-index10403.png
#EXTINF:1.918711,
132950702475176-index10404.png
#EXTINF:1.918711,
132950702475176-index10405.png
#EXTINF:1.918711,
132950702475176-index10406.png
#EXTINF:1.793578,
132950702475176-index10407.png
#EXTINF:2.878067,
132950702475176-index10408.png
#EXTINF:1.918711,
132950702475176-index10409.png
#EXTINF:1.918711,
132950702475176-index10410.png
#EXTINF:1.877000,
132950702475176-index10411.png
#EXTINF:1.918711,
132950702475176-index10412.png
#EXTINF:1.585022,
132950702475176-index10413.png
#EXTINF:1.918711,
132950702475176-index10414.png
#EXTINF:2.878067,
132950702475176-index10415.png
#EXTINF:1.918711,
132950702475176-index10416.png
#EXTINF:1.918711,
132950702475176-index10417.png
#EXTINF:1.918711,
132950702475176-index10418.png
#EXTINF:1.918711,
132950702475176-index10419.png
#EXTINF:1.918711,
132950702475176-index10420.png
#EXTINF:1.918711,
132950702475176-index10421.png
#EXTINF:1.918711,
132950702475176-index10422.png
#EXTINF:2.252400,
132950702475176-index10423.png
#EXTINF:1.918711,
132950702475176-index10424.png
#EXTINF:1.918711,
132950702475176-index10425.png
#EXTINF:1.918711,
132950702475176-index10426.png
#EXTINF:1.918711,
132950702475176-index10427.png
#EXTINF:1.835289,
132950702475176-index10428.png
#EXTINF:1.918711,
132950702475176-index10429.png
#EXTINF:2.836356,
132950702475176-index10430.png
#EXTINF:1.918711,
132950702475176-index10431.png
#EXTINF:1.918711,
132950702475176-index10432.png
#EXTINF:1.918711,
132950702475176-index10433.png
#EXTINF:1.918711,
132950702475176-index10434.png
#EXTINF:2.294111,
132950702475176-index10435.png
#EXTINF:1.918711,
132950702475176-index10436.png
#EXTINF:1.918711,
132950702475176-index10437.png
#EXTINF:2.043844,
132950702475176-index10438.png
#EXTINF:1.918711,
132950702475176-index10439.png
#EXTINF:1.918711,
132950702475176-index10440.png
#EXTINF:1.710156,
132950702475176-index10441.png
#EXTINF:1.918711,
132950702475176-index10442.png
#EXTINF:1.918711,
132950702475176-index10443.png
#EXTINF:1.877000,
132950702475176-index10444.png
#EXTINF:2.878067,
132950702475176-index10445.png
#EXTINF:1.918711,
132950702475176-index10446.png
#EXTINF:1.918711,
132950702475176-index10447.png
#EXTINF:2.210689,
132950702475176-index10448.png
#EXTINF:1.501600,
132950702475176-index10449.png
#EXTINF:1.918711,
132950702475176-index10450.png
#EXTINF:1.918711,
132950702475176-index10451.png
#EXTINF:1.918711,
132950702475176-index10452.png
#EXTINF:1.918711,
132950702475176-index10453.png
#EXTINF:1.918711,
132950702475176-index10454.png
#EXTINF:2.377533,
132950702475176-index10455.png
#EXTINF:1.918711,
132950702475176-index10456.png
#EXTINF:1.918711,
132950702475176-index10457.png
#EXTINF:1.918711,
132950702475176-index10458.png
#EXTINF:2.544378,
132950702475176-index10459.png
#EXTINF:1.918711,
132950702475176-index10460.png
#EXTINF:1.918711,
132950702475176-index10461.png
#EXTINF:1.918711,
132950702475176-index10462.png
#EXTINF:2.252400,
132950702475176-index10463.png
#EXTINF:1.918711,
132950702475176-index10464.png
#EXTINF:1.918711,
132950702475176-index10465.png
#EXTINF:1.918711,
132950702475176-index10466.png
#EXTINF:1.751867,
132950702475176-index10467.png
#EXTINF:1.918711,
132950702475176-index10468.png
#EXTINF:2.752933,
132950702475176-index10469.png
#EXTINF:1.918711,
132950702475176-index10470.png
#EXTINF:1.918711,
132950702475176-index10471.png
#EXTINF:1.668444,
132950702475176-index10472.png
#EXTINF:1.918711,
132950702475176-index10473.png
#EXTINF:1.918711,
132950702475176-index10474.png
#EXTINF:2.335822,
132950702475176-index10475.png
#EXTINF:1.918711,
132950702475176-index10476.png
#EXTINF:1.918711,
132950702475176-index10477.png
#EXTINF:1.918711,
132950702475176-index10478.png
#EXTINF:1.960422,
132950702475176-index10479.png
#EXTINF:1.918711,
132950702475176-index10480.png
#EXTINF:1.918711,
132950702475176-index10481.png
#EXTINF:1.918711,
132950702475176-index10482.png
#EXTINF:2.419244,
132950702475176-index10483.png
#EXTINF:1.918711,
132950702475176-index10484.png
#EXTINF:1.918711,
132950702475176-index10485.png
#EXTINF:2.043844,
132950702475176-index10486.png
#EXTINF:1.918711,
132950702475176-index10487.png
#EXTINF:1.918711,
132950702475176-index10488.png
#EXTINF:1.918711,
132950702475176-index10489.png
#EXTINF:2.586089,
132950702475176-index10490.png
#EXTINF:2.127267,
132950702475176-index10491.png
#EXTINF:1.918711,
132950702475176-index10492.png
#EXTINF:1.918711,
132950702475176-index10493.png
#EXTINF:1.918711,
132950702475176-index10494.png
#EXTINF:1.918711,
132950702475176-index10495.png
#EXTINF:1.918711,
132950702475176-index10496.png
#EXTINF:2.085556,
132950702475176-index10497.png
#EXTINF:1.918711,
132950702475176-index10498.png
#EXTINF:2.460956,
132950702475176-index10499.png
#EXTINF:1.710156,
132950702475176-index10500.png
#EXTINF:1.918711,
132950702475176-index10501.png
#EXTINF:1.918711,
132950702475176-index10502.png
#EXTINF:1.626733,
132950702475176-index10503.png
#EXTINF:2.878067,
132950702475176-index10504.png
#EXTINF:1.918711,
132950702475176-index10505.png
#EXTINF:2.043844,
132950702475176-index10506.png
#EXTINF:1.918711,
132950702475176-index10507.png
#EXTINF:1.918711,
132950702475176-index10508.png
#EXTINF:1.918711,
132950702475176-index10509.png
#EXTINF:1.918711,
132950702475176-index10510.png
#EXTINF:1.918711,
132950702475176-index10511.png
#EXTINF:1.918711,
132950702475176-index10512.png
#EXTINF:1.918711,
132950702475176-index10513.png
#EXTINF:1.918711,
132950702475176-index10514.png
#EXTINF:1.918711,
132950702475176-index10515.png
#EXTINF:1.960422,
132950702475176-index10516.png
#EXTINF:1.918711,
132950702475176-index10517.png
#EXTINF:2.878067,
132950702475176-index10518.png
#EXTINF:1.918711,
132950702475176-index10519.png
#EXTINF:1.543311,
132950702475176-index10520.png
#EXTINF:1.918711,
132950702475176-index10521.png
#EXTINF:1.918711,
132950702475176-index10522.png
#EXTINF:1.960422,
132950702475176-index10523.png
#EXTINF:1.918711,
132950702475176-index10524.png
#EXTINF:1.918711,
132950702475176-index10525.png
#EXTINF:2.878067,
132950702475176-index10526.png
#EXTINF:1.918711,
132950702475176-index10527.png
#EXTINF:1.918711,
132950702475176-index10528.png
#EXTINF:1.918711,
132950702475176-index10529.png
#EXTINF:1.918711,
132950702475176-index10530.png
#EXTINF:1.918711,
132950702475176-index10531.png
#EXTINF:1.710156,
132950702475176-index10532.png
#EXTINF:1.918711,
132950702475176-index10533.png
#EXTINF:2.752933,
132950702475176-index10534.png
#EXTINF:1.918711,
132950702475176-index10535.png
#EXTINF:1.918711,
132950702475176-index10536.png
#EXTINF:2.043844,
132950702475176-index10537.png
#EXTINF:1.918711,
132950702475176-index10538.png
#EXTINF:1.918711,
132950702475176-index10539.png
#EXTINF:1.918711,
132950702475176-index10540.png
#EXTINF:2.168978,
132950702475176-index10541.png
#EXTINF:1.918711,
132950702475176-index10542.png
#EXTINF:1.793578,
132950702475176-index10543.png
#EXTINF:1.918711,
132950702475176-index10544.png
#EXTINF:1.918711,
132950702475176-index10545.png
#EXTINF:1.918711,
132950702475176-index10546.png
#EXTINF:1.918711,
132950702475176-index10547.png
#EXTINF:2.878067,
132950702475176-index10548.png
#EXTINF:1.918711,
132950702475176-index10549.png
#EXTINF:1.918711,
132950702475176-index10550.png
#EXTINF:1.459889,
132950702475176-index10551.png
#EXTINF:2.252400,
132950702475176-index10552.png
#EXTINF:1.918711,
132950702475176-index10553.png
#EXTINF:1.918711,
132950702475176-index10554.png
#EXTINF:1.918711,
132950702475176-index10555.png
#EXTINF:1.918711,
132950702475176-index10556.png
#EXTINF:1.918711,
132950702475176-index10557.png
#EXTINF:2.627800,
132950702475176-index10558.png
#EXTINF:1.918711,
132950702475176-index10559.png
#EXTINF:1.918711,
132950702475176-index10560.png
#EXTINF:1.918711,
132950702475176-index10561.png
#EXTINF:1.918711,
132950702475176-index10562.png
#EXTINF:1.918711,
132950702475176-index10563.png
#EXTINF:1.918711,
132950702475176-index10564.png
#EXTINF:1.918711,
132950702475176-index10565.png
#EXTINF:2.085556,
132950702475176-index10566.png
#EXTINF:1.918711,
132950702475176-index10567.png
#EXTINF:1.918711,
132950702475176-index10568.png
#EXTINF:2.878067,
132950702475176-index10569.png
#EXTINF:1.918711,
132950702475176-index10570.png
#EXTINF:1.918711,
132950702475176-index10571.png
#EXTINF:1.835289,
132950702475176-index10572.png
#EXTINF:1.918711,
132950702475176-index10573.png
#EXTINF:1.918711,
132950702475176-index10574.png
#EXTINF:1.918711,
132950702475176-index10575.png
#EXTINF:1.918711,
132950702475176-index10576.png
#EXTINF:1.918711,
132950702475176-index10577.png
#EXTINF:1.918711,
132950702475176-index10578.png
#EXTINF:1.918711,
132950702475176-index10579.png
#EXTINF:2.878067,
132950702475176-index10580.png
#EXTINF:1.918711,
132950702475176-index10581.png
#EXTINF:1.918711,
132950702475176-index10582.png
#EXTINF:1.918711,
132950702475176-index10583.png
#EXTINF:1.918711,
132950702475176-index10584.png
#EXTINF:2.252400,
132950702475176-index10585.png
#EXTINF:1.918711,
132950702475176-index10586.png
#EXTINF:1.918711,
132950702475176-index10587.png
#EXTINF:1.918711,
132950702475176-index10588.png
#EXTINF:1.918711,
132950702475176-index10589.png
#EXTINF:1.793578,
132950702475176-index10590.png
#EXTINF:1.918711,
132950702475176-index10591.png
#EXTINF:2.669511,
132950702475176-index10592.png
#EXTINF:1.918711,
132950702475176-index10593.png
#EXTINF:1.918711,
132950702475176-index10594.png
#EXTINF:1.918711,
132950702475176-index10595.png
#EXTINF:1.918711,
132950702475176-index10596.png
#EXTINF:1.918711,
132950702475176-index10597.png
#EXTINF:2.335822,
132950702475176-index10598.png
#EXTINF:1.918711,
132950702475176-index10599.png
#EXTINF:1.918711,
132950702475176-index10600.png
#EXTINF:1.918711,
132950702475176-index10601.png
#EXTINF:1.918711,
132950702475176-index10602.png
#EXTINF:1.918711,
132950702475176-index10603.png
#EXTINF:1.918711,
132950702475176-index10604.png
#EXTINF:1.918711,
132950702475176-index10605.png
#EXTINF:1.918711,
132950702475176-index10606.png
#EXTINF:2.460956,
132950702475176-index10607.png
#EXTINF:1.918711,
132950702475176-index10608.png
#EXTINF:1.960422,
132950702475176-index10609.png
#EXTINF:1.918711,
132950702475176-index10610.png
#EXTINF:1.918711,
132950702475176-index10611.png
#EXTINF:2.168978,
132950702475176-index10612.png
#EXTINF:2.043844,
132950702475176-index10613.png
#EXTINF:1.918711,
132950702475176-index10614.png
#EXTINF:1.918711,
132950702475176-index10615.png
#EXTINF:2.168978,
132950702475176-index10616.png
#EXTINF:1.918711,
132950702475176-index10617.png
#EXTINF:1.585022,
132950702475176-index10618.png
#EXTINF:2.878067,
132950702475176-index10619.png
#EXTINF:1.126200,
132950702475176-index10620.png
#EXTINF:2.419244,
132950702475176-index10621.png
#EXTINF:1.918711,
132950702475176-index10622.png
#EXTINF:1.918711,
132950702475176-index10623.png
#EXTINF:2.294111,
132950702475176-index10624.png
#EXTINF:1.918711,
132950702475176-index10625.png
#EXTINF:1.918711,
132950702475176-index10626.png
#EXTINF:1.918711,
132950702475176-index10627.png
#EXTINF:1.918711,
132950702475176-index10628.png
#EXTINF:2.335822,
132950702475176-index10629.png
#EXTINF:1.918711,
132950702475176-index10630.png
#EXTINF:1.918711,
132950702475176-index10631.png
#EXTINF:1.918711,
132950702475176-index10632.png
#EXTINF:2.335822,
132950702475176-index10633.png
#EXTINF:1.918711,
132950702475176-index10634.png
#EXTINF:1.918711,
132950702475176-index10635.png
#EXTINF:2.210689,
132950702475176-index10636.png
#EXTINF:1.918711,
132950702475176-index10637.png
#EXTINF:1.918711,
132950702475176-index10638.png
#EXTINF:1.918711,
132950702475176-index10639.png
#EXTINF:1.751867,
132950702475176-index10640.png
#EXTINF:1.918711,
132950702475176-index10641.png
#EXTINF:1.918711,
132950702475176-index10642.png
#EXTINF:1.918711,
132950702475176-index10643.png
#EXTINF:2.669511,
132950702475176-index10644.png
#EXTINF:1.918711,
132950702475176-index10645.png
#EXTINF:2.002133,
132950702475176-index10646.png
#EXTINF:2.127267,
132950702475176-index10647.png
#EXTINF:1.418178,
132950702475176-index10648.png
#EXTINF:1.918711,
132950702475176-index10649.png
#EXTINF:1.918711,
132950702475176-index10650.png
#EXTINF:2.711222,
132950702475176-index10651.png
#EXTINF:1.918711,
132950702475176-index10652.png
#EXTINF:1.918711,
132950702475176-index10653.png
#EXTINF:1.459889,
132950702475176-index10654.png
#EXTINF:2.878067,
132950702475176-index10655.png
#EXTINF:1.126200,
132950702475176-index10656.png
#EXTINF:2.878067,
132950702475176-index10657.png
#EXTINF:1.918711,
132950702475176-index10658.png
#EXTINF:1.376467,
132950702475176-index10659.png
#EXTINF:1.918711,
132950702475176-index10660.png
#EXTINF:1.918711,
132950702475176-index10661.png
#EXTINF:2.002133,
132950702475176-index10662.png
#EXTINF:2.878067,
132950702475176-index10663.png
#EXTINF:1.918711,
132950702475176-index10664.png
#EXTINF:1.918711,
132950702475176-index10665.png
#EXTINF:1.918711,
132950702475176-index10666.png
#EXTINF:1.918711,
132950702475176-index10667.png
#EXTINF:1.918711,
132950702475176-index10668.png
#EXTINF:1.960422,
132950702475176-index10669.png
#EXTINF:1.918711,
132950702475176-index10670.png
#EXTINF:1.918711,
132950702475176-index10671.png
#EXTINF:1.918711,
132950702475176-index10672.png
#EXTINF:1.918711,
132950702475176-index10673.png
#EXTINF:2.502667,
132950702475176-index10674.png
#EXTINF:1.626733,
132950702475176-index10675.png
#EXTINF:1.918711,
132950702475176-index10676.png
#EXTINF:2.210689,
132950702475176-index10677.png
#EXTINF:1.668444,
132950702475176-index10678.png
#EXTINF:2.878067,
132950702475176-index10679.png
#EXTINF:1.793578,
132950702475176-index10680.png
#EXTINF:1.918711,
132950702475176-index10681.png
#EXTINF:1.918711,
132950702475176-index10682.png
#EXTINF:2.210689,
132950702475176-index10683.png
#EXTINF:1.918711,
132950702475176-index10684.png
#EXTINF:1.918711,
132950702475176-index10685.png
#EXTINF:1.918711,
132950702475176-index10686.png
#EXTINF:1.918711,
132950702475176-index10687.png
#EXTINF:1.918711,
132950702475176-index10688.png
#EXTINF:1.835289,
132950702475176-index10689.png
#EXTINF:1.918711,
132950702475176-index10690.png
#EXTINF:1.918711,
132950702475176-index10691.png
#EXTINF:2.502667,
132950702475176-index10692.png
#EXTINF:2.043844,
132950702475176-index10693.png
#EXTINF:1.835289,
132950702475176-index10694.png
#EXTINF:1.918711,
132950702475176-index10695.png
#EXTINF:1.918711,
132950702475176-index10696.png
#EXTINF:1.918711,
132950702475176-index10697.png
#EXTINF:1.918711,
132950702475176-index10698.png
#EXTINF:2.502667,
132950702475176-index10699.png
#EXTINF:1.918711,
132950702475176-index10700.png
#EXTINF:2.252400,
132950702475176-index10701.png
#EXTINF:1.918711,
132950702475176-index10702.png
#EXTINF:1.918711,
132950702475176-index10703.png
#EXTINF:1.918711,
132950702475176-index10704.png
#EXTINF:1.918711,
132950702475176-index10705.png
#EXTINF:1.918711,
132950702475176-index10706.png
#EXTINF:1.918711,
132950702475176-index10707.png
#EXTINF:1.960422,
132950702475176-index10708.png
#EXTINF:1.918711,
132950702475176-index10709.png
#EXTINF:1.918711,
132950702475176-index10710.png
#EXTINF:2.711222,
132950702475176-index10711.png
#EXTINF:1.585022,
132950702475176-index10712.png
#EXTINF:1.918711,
132950702475176-index10713.png
#EXTINF:1.918711,
132950702475176-index10714.png
#EXTINF:1.960422,
132950702475176-index10715.png
#EXTINF:1.918711,
132950702475176-index10716.png
#EXTINF:1.918711,
132950702475176-index10717.png
#EXTINF:2.878067,
132950702475176-index10718.png
#EXTINF:1.918711,
132950702475176-index10719.png
#EXTINF:1.585022,
132950702475176-index10720.png
#EXTINF:1.918711,
132950702475176-index10721.png
#EXTINF:1.918711,
132950702475176-index10722.png
#EXTINF:1.918711,
132950702475176-index10723.png
#EXTINF:1.918711,
132950702475176-index10724.png
#EXTINF:2.502667,
132950702475176-index10725.png
#EXTINF:1.918711,
132950702475176-index10726.png
#EXTINF:1.918711,
132950702475176-index10727.png
#EXTINF:1.918711,
132950702475176-index10728.png
#EXTINF:1.918711,
132950702475176-index10729.png
#EXTINF:1.918711,
132950702475176-index10730.png
#EXTINF:1.918711,
132950702475176-index10731.png
#EXTINF:1.918711,
132950702475176-index10732.png
#EXTINF:2.878067,
132950702475176-index10733.png
#EXTINF:1.918711,
132950702475176-index10734.png
#EXTINF:1.418178,
132950702475176-index10735.png
#EXTINF:1.918711,
132950702475176-index10736.png
#EXTINF:1.918711,
132950702475176-index10737.png
#EXTINF:2.878067,
132950702475176-index10738.png
#EXTINF:1.793578,
132950702475176-index10739.png
#EXTINF:1.918711,
132950702475176-index10740.png
#EXTINF:1.918711,
132950702475176-index10741.png
#EXTINF:1.793578,
132950702475176-index10742.png
#EXTINF:2.502667,
132950702475176-index10743.png
#EXTINF:1.918711,
132950702475176-index10744.png
#EXTINF:1.918711,
132950702475176-index10745.png
#EXTINF:1.376467,
132950702475176-index10746.png
#EXTINF:2.586089,
132950702475176-index10747.png
#EXTINF:1.918711,
132950702475176-index10748.png
#EXTINF:1.918711,
132950702475176-index10749.png
#EXTINF:2.419244,
132950702475176-index10750.png
#EXTINF:1.918711,
132950702475176-index10751.png
#EXTINF:1.918711,
132950702475176-index10752.png
#EXTINF:1.918711,
132950702475176-index10753.png
#EXTINF:1.918711,
132950702475176-index10754.png
#EXTINF:2.294111,
132950702475176-index10755.png
#EXTINF:1.918711,
132950702475176-index10756.png
#EXTINF:1.918711,
132950702475176-index10757.png
#EXTINF:1.918711,
132950702475176-index10758.png
#EXTINF:1.918711,
132950702475176-index10759.png
#EXTINF:1.918711,
132950702475176-index10760.png
#EXTINF:1.918711,
132950702475176-index10761.png
#EXTINF:1.918711,
132950702475176-index10762.png
#EXTINF:1.918711,
132950702475176-index10763.png
#EXTINF:1.877000,
132950702475176-index10764.png
#EXTINF:2.544378,
132950702475176-index10765.png
#EXTINF:1.918711,
132950702475176-index10766.png
#EXTINF:1.918711,
132950702475176-index10767.png
#EXTINF:1.668444,
132950702475176-index10768.png
#EXTINF:1.918711,
132950702475176-index10769.png
#EXTINF:1.960422,
132950702475176-index10770.png
#EXTINF:2.669511,
132950702475176-index10771.png
#EXTINF:1.918711,
132950702475176-index10772.png
#EXTINF:1.918711,
132950702475176-index10773.png
#EXTINF:1.918711,
132950702475176-index10774.png
#EXTINF:1.793578,
132950702475176-index10775.png
#EXTINF:1.918711,
132950702475176-index10776.png
#EXTINF:1.918711,
132950702475176-index10777.png
#EXTINF:1.918711,
132950702475176-index10778.png
#EXTINF:2.127267,
132950702475176-index10779.png
#EXTINF:2.419244,
132950702475176-index10780.png
#EXTINF:1.918711,
132950702475176-index10781.png
#EXTINF:1.918711,
132950702475176-index10782.png
#EXTINF:1.918711,
132950702475176-index10783.png
#EXTINF:2.252400,
132950702475176-index10784.png
#EXTINF:1.918711,
132950702475176-index10785.png
#EXTINF:1.918711,
132950702475176-index10786.png
#EXTINF:2.544378,
132950702475176-index10787.png
#EXTINF:1.918711,
132950702475176-index10788.png
#EXTINF:1.960422,
132950702475176-index10789.png
#EXTINF:1.918711,
132950702475176-index10790.png
#EXTINF:1.918711,
132950702475176-index10791.png
#EXTINF:1.918711,
132950702475176-index10792.png
#EXTINF:1.918711,
132950702475176-index10793.png
#EXTINF:1.835289,
132950702475176-index10794.png
#EXTINF:1.918711,
132950702475176-index10795.png
#EXTINF:2.335822,
132950702475176-index10796.png
#EXTINF:1.668444,
132950702475176-index10797.png
#EXTINF:1.918711,
132950702475176-index10798.png
#EXTINF:1.918711,
132950702475176-index10799.png
#EXTINF:1.918711,
132950702475176-index10800.png
#EXTINF:2.878067,
132950702475176-index10801.png
#EXTINF:1.209622,
132950702475176-index10802.png
#EXTINF:1.918711,
132950702475176-index10803.png
#EXTINF:2.127267,
132950702475176-index10804.png
#EXTINF:1.918711,
132950702475176-index10805.png
#EXTINF:2.711222,
132950702475176-index10806.png
#EXTINF:1.835289,
132950702475176-index10807.png
#EXTINF:2.043844,
132950702475176-index10808.png
#EXTINF:1.918711,
132950702475176-index10809.png
#EXTINF:2.168978,
132950702475176-index10810.png
#EXTINF:2.210689,
132950702475176-index10811.png
#EXTINF:1.918711,
132950702475176-index10812.png
#EXTINF:1.918711,
132950702475176-index10813.png
#EXTINF:1.543311,
132950702475176-index10814.png
#EXTINF:1.918711,
132950702475176-index10815.png
#EXTINF:1.918711,
132950702475176-index10816.png
#EXTINF:1.918711,
132950702475176-index10817.png
#EXTINF:2.502667,
132950702475176-index10818.png
#EXTINF:1.918711,
132950702475176-index10819.png
#EXTINF:1.918711,
132950702475176-index10820.png
#EXTINF:1.710156,
132950702475176-index10821.png
#EXTINF:1.918711,
132950702475176-index10822.png
#EXTINF:2.878067,
132950702475176-index10823.png
#EXTINF:1.918711,
132950702475176-index10824.png
#EXTINF:2.085556,
132950702475176-index10825.png
#EXTINF:1.918711,
132950702475176-index10826.png
#EXTINF:1.918711,
132950702475176-index10827.png
#EXTINF:1.585022,
132950702475176-index10828.png
#EXTINF:1.710156,
132950702475176-index10829.png
#EXTINF:2.878067,
132950702475176-index10830.png
#EXTINF:2.002133,
132950702475176-index10831.png
#EXTINF:1.918711,
132950702475176-index10832.png
#EXTINF:1.918711,
132950702475176-index10833.png
#EXTINF:1.960422,
132950702475176-index10834.png
#EXTINF:1.918711,
132950702475176-index10835.png
#EXTINF:1.710156,
132950702475176-index10836.png
#EXTINF:1.918711,
132950702475176-index10837.png
#EXTINF:1.918711,
132950702475176-index10838.png
#EXTINF:1.918711,
132950702475176-index10839.png
#EXTINF:1.918711,
132950702475176-index10840.png
#EXTINF:2.878067,
132950702475176-index10841.png
#EXTINF:1.209622,
132950702475176-index10842.png
#EXTINF:1.918711,
132950702475176-index10843.png
#EXTINF:2.586089,
132950702475176-index10844.png
#EXTINF:1.918711,
132950702475176-index10845.png
#EXTINF:1.459889,
132950702475176-index10846.png
#EXTINF:2.043844,
132950702475176-index10847.png
#EXTINF:2.878067,
132950702475176-index10848.png
#EXTINF:1.918711,
132950702475176-index10849.png
#EXTINF:1.918711,
132950702475176-index10850.png
#EXTINF:1.918711,
132950702475176-index10851.png
#EXTINF:1.877000,
132950702475176-index10852.png
#EXTINF:1.543311,
132950702475176-index10853.png
#EXTINF:1.918711,
132950702475176-index10854.png
#EXTINF:2.085556,
132950702475176-index10855.png
#EXTINF:2.085556,
132950702475176-index10856.png
#EXTINF:1.918711,
132950702475176-index10857.png
#EXTINF:2.002133,
132950702475176-index10858.png
#EXTINF:2.168978,
132950702475176-index10859.png
#EXTINF:1.918711,
132950702475176-index10860.png
#EXTINF:1.918711,
132950702475176-index10861.png
#EXTINF:1.918711,
132950702475176-index10862.png
#EXTINF:2.294111,
132950702475176-index10863.png
#EXTINF:1.918711,
132950702475176-index10864.png
#EXTINF:1.918711,
132950702475176-index10865.png
#EXTINF:1.918711,
132950702475176-index10866.png
#EXTINF:1.918711,
132950702475176-index10867.png
#EXTINF:2.043844,
132950702475176-index10868.png
#EXTINF:2.002133,
132950702475176-index10869.png
#EXTINF:2.878067,
132950702475176-index10870.png
#EXTINF:1.167911,
132950702475176-index10871.png
#EXTINF:1.918711,
132950702475176-index10872.png
#EXTINF:2.043844,
132950702475176-index10873.png
#EXTINF:2.419244,
132950702475176-index10874.png
#EXTINF:1.918711,
132950702475176-index10875.png
#EXTINF:2.002133,
132950702475176-index10876.png
#EXTINF:1.918711,
132950702475176-index10877.png
#EXTINF:2.210689,
132950702475176-index10878.png
#EXTINF:1.918711,
132950702475176-index10879.png
#EXTINF:2.210689,
132950702475176-index10880.png
#EXTINF:1.918711,
132950702475176-index10881.png
#EXTINF:2.210689,
132950702475176-index10882.png
#EXTINF:1.918711,
132950702475176-index10883.png
#EXTINF:1.710156,
132950702475176-index10884.png
#EXTINF:1.918711,
132950702475176-index10885.png
#EXTINF:2.377533,
132950702475176-index10886.png
#EXTINF:1.918711,
132950702475176-index10887.png
#EXTINF:1.918711,
132950702475176-index10888.png
#EXTINF:1.918711,
132950702475176-index10889.png
#EXTINF:2.419244,
132950702475176-index10890.png
#EXTINF:1.418178,
132950702475176-index10891.png
#EXTINF:2.002133,
132950702475176-index10892.png
#EXTINF:1.918711,
132950702475176-index10893.png
#EXTINF:1.918711,
132950702475176-index10894.png
#EXTINF:2.377533,
132950702475176-index10895.png
#EXTINF:1.918711,
132950702475176-index10896.png
#EXTINF:1.543311,
132950702475176-index10897.png
#EXTINF:2.252400,
132950702475176-index10898.png
#EXTINF:1.835289,
132950702475176-index10899.png
#EXTINF:1.918711,
132950702475176-index10900.png
#EXTINF:2.586089,
132950702475176-index10901.png
#EXTINF:1.918711,
132950702475176-index10902.png
#EXTINF:1.918711,
132950702475176-index10903.png
#EXTINF:1.918711,
132950702475176-index10904.png
#EXTINF:2.127267,
132950702475176-index10905.png
#EXTINF:1.585022,
132950702475176-index10906.png
#EXTINF:2.878067,
132950702475176-index10907.png
#EXTINF:1.918711,
132950702475176-index10908.png
#EXTINF:1.918711,
132950702475176-index10909.png
#EXTINF:1.918711,
132950702475176-index10910.png
#EXTINF:1.877000,
132950702475176-index10911.png
#EXTINF:1.918711,
132950702475176-index10912.png
#EXTINF:1.918711,
132950702475176-index10913.png
#EXTINF:1.918711,
132950702475176-index10914.png
#EXTINF:1.918711,
132950702475176-index10915.png
#EXTINF:2.127267,
132950702475176-index10916.png
#EXTINF:1.918711,
132950702475176-index10917.png
#EXTINF:1.918711,
132950702475176-index10918.png
#EXTINF:1.918711,
132950702475176-index10919.png
#EXTINF:1.918711,
132950702475176-index10920.png
#EXTINF:2.127267,
132950702475176-index10921.png
#EXTINF:2.711222,
132950702475176-index10922.png
#EXTINF:2.002133,
132950702475176-index10923.png
#EXTINF:1.918711,
132950702475176-index10924.png
#EXTINF:1.501600,
132950702475176-index10925.png
#EXTINF:1.918711,
132950702475176-index10926.png
#EXTINF:2.586089,
132950702475176-index10927.png
#EXTINF:1.918711,
132950702475176-index10928.png
#EXTINF:1.918711,
132950702475176-index10929.png
#EXTINF:1.793578,
132950702475176-index10930.png
#EXTINF:1.918711,
132950702475176-index10931.png
#EXTINF:1.918711,
132950702475176-index10932.png
#EXTINF:1.918711,
132950702475176-index10933.png
#EXTINF:1.918711,
132950702475176-index10934.png
#EXTINF:1.918711,
132950702475176-index10935.png
#EXTINF:2.043844,
132950702475176-index10936.png
#EXTINF:2.085556,
132950702475176-index10937.png
#EXTINF:1.918711,
132950702475176-index10938.png
#EXTINF:1.918711,
132950702475176-index10939.png
#EXTINF:2.878067,
132950702475176-index10940.png
#EXTINF:1.918711,
132950702475176-index10941.png
#EXTINF:1.835289,
132950702475176-index10942.png
#EXTINF:1.918711,
132950702475176-index10943.png
#EXTINF:1.918711,
132950702475176-index10944.png
#EXTINF:1.585022,
132950702475176-index10945.png
#EXTINF:2.878067,
132950702475176-index10946.png
#EXTINF:1.918711,
132950702475176-index10947.png
#EXTINF:1.334756,
132950702475176-index10948.png
#EXTINF:1.918711,
132950702475176-index10949.png
#EXTINF:1.918711,
132950702475176-index10950.png
#EXTINF:2.878067,
132950702475176-index10951.png
#EXTINF:1.918711,
132950702475176-index10952.png
#EXTINF:1.877000,
132950702475176-index10953.png
#EXTINF:1.918711,
132950702475176-index10954.png
#EXTINF:2.335822,
132950702475176-index10955.png
#EXTINF:1.293044,
132950702475176-index10956.png
#EXTINF:1.918711,
132950702475176-index10957.png
#EXTINF:1.918711,
132950702475176-index10958.png
#EXTINF:2.335822,
132950702475176-index10959.png
#EXTINF:1.918711,
132950702475176-index10960.png
#EXTINF:1.918711,
132950702475176-index10961.png
#EXTINF:1.918711,
132950702475176-index10962.png
#EXTINF:2.377533,
132950702475176-index10963.png
#EXTINF:2.043844,
132950702475176-index10964.png
#EXTINF:1.918711,
132950702475176-index10965.png
#EXTINF:1.918711,
132950702475176-index10966.png
#EXTINF:1.918711,
132950702475176-index10967.png
#EXTINF:1.918711,
132950702475176-index10968.png
#EXTINF:1.877000,
132950702475176-index10969.png
#EXTINF:1.918711,
132950702475176-index10970.png
#EXTINF:2.878067,
132950702475176-index10971.png
#EXTINF:1.918711,
132950702475176-index10972.png
#EXTINF:1.418178,
132950702475176-index10973.png
#EXTINF:1.918711,
132950702475176-index10974.png
#EXTINF:1.918711,
132950702475176-index10975.png
#EXTINF:1.918711,
132950702475176-index10976.png
#EXTINF:2.878067,
132950702475176-index10977.png
#EXTINF:1.918711,
132950702475176-index10978.png
#EXTINF:1.918711,
132950702475176-index10979.png
#EXTINF:1.918711,
132950702475176-index10980.png
#EXTINF:1.918711,
132950702475176-index10981.png
#EXTINF:1.918711,
132950702475176-index10982.png
#EXTINF:2.294111,
132950702475176-index10983.png
#EXTINF:1.918711,
132950702475176-index10984.png
#EXTINF:1.626733,
132950702475176-index10985.png
#EXTINF:1.918711,
132950702475176-index10986.png
#EXTINF:2.168978,
132950702475176-index10987.png
#EXTINF:1.918711,
132950702475176-index10988.png
#EXTINF:1.918711,
132950702475176-index10989.png
#EXTINF:1.751867,
132950702475176-index10990.png
#EXTINF:2.878067,
132950702475176-index10991.png
#EXTINF:1.918711,
132950702475176-index10992.png
#EXTINF:1.918711,
132950702475176-index10993.png
#EXTINF:1.918711,
132950702475176-index10994.png
#EXTINF:1.668444,
132950702475176-index10995.png
#EXTINF:1.918711,
132950702475176-index10996.png
#EXTINF:1.918711,
132950702475176-index10997.png
#EXTINF:1.918711,
132950702475176-index10998.png
#EXTINF:2.878067,
132950702475176-index10999.png
#EXTINF:1.918711,
132950702475176-index11000.png
#EXTINF:1.918711,
132950702475176-index11001.png
#EXTINF:1.918711,
132950702475176-index11002.png
#EXTINF:1.918711,
132950702475176-index11003.png
#EXTINF:1.918711,
132950702475176-index11004.png
#EXTINF:1.918711,
132950702475176-index11005.png
#EXTINF:1.918711,
132950702475176-index11006.png
#EXTINF:1.626733,
132950702475176-index11007.png
#EXTINF:2.878067,
132950702475176-index11008.png
#EXTINF:1.918711,
132950702475176-index11009.png
#EXTINF:1.751867,
132950702475176-index11010.png
#EXTINF:1.918711,
132950702475176-index11011.png
#EXTINF:1.918711,
132950702475176-index11012.png
#EXTINF:1.918711,
132950702475176-index11013.png
#EXTINF:1.918711,
132950702475176-index11014.png
#EXTINF:1.960422,
132950702475176-index11015.png
#EXTINF:1.918711,
132950702475176-index11016.png
#EXTINF:1.918711,
132950702475176-index11017.png
#EXTINF:2.878067,
132950702475176-index11018.png
#EXTINF:1.585022,
132950702475176-index11019.png
#EXTINF:1.918711,
132950702475176-index11020.png
#EXTINF:1.918711,
132950702475176-index11021.png
#EXTINF:1.918711,
132950702475176-index11022.png
#EXTINF:1.918711,
132950702475176-index11023.png
#EXTINF:1.918711,
132950702475176-index11024.png
#EXTINF:2.669511,
132950702475176-index11025.png
#EXTINF:2.085556,
132950702475176-index11026.png
#EXTINF:1.918711,
132950702475176-index11027.png
#EXTINF:1.918711,
132950702475176-index11028.png
#EXTINF:1.918711,
132950702475176-index11029.png
#EXTINF:1.918711,
132950702475176-index11030.png
#EXTINF:1.918711,
132950702475176-index11031.png
#EXTINF:1.918711,
132950702475176-index11032.png
#EXTINF:1.918711,
132950702475176-index11033.png
#EXTINF:1.918711,
132950702475176-index11034.png
#EXTINF:1.877000,
132950702475176-index11035.png
#EXTINF:2.878067,
132950702475176-index11036.png
#EXTINF:1.918711,
132950702475176-index11037.png
#EXTINF:1.918711,
132950702475176-index11038.png
#EXTINF:1.918711,
132950702475176-index11039.png
#EXTINF:1.918711,
132950702475176-index11040.png
#EXTINF:1.543311,
132950702475176-index11041.png
#EXTINF:1.918711,
132950702475176-index11042.png
#EXTINF:1.918711,
132950702475176-index11043.png
#EXTINF:2.878067,
132950702475176-index11044.png
#EXTINF:1.751867,
132950702475176-index11045.png
#EXTINF:1.585022,
132950702475176-index11046.png
#EXTINF:1.918711,
132950702475176-index11047.png
#EXTINF:1.918711,
132950702475176-index11048.png
#EXTINF:2.878067,
132950702475176-index11049.png
#EXTINF:1.918711,
132950702475176-index11050.png
#EXTINF:1.918711,
132950702475176-index11051.png
#EXTINF:1.918711,
132950702475176-index11052.png
#EXTINF:1.918711,
132950702475176-index11053.png
#EXTINF:2.127267,
132950702475176-index11054.png
#EXTINF:1.918711,
132950702475176-index11055.png
#EXTINF:1.918711,
132950702475176-index11056.png
#EXTINF:1.918711,
132950702475176-index11057.png
#EXTINF:1.918711,
132950702475176-index11058.png
#EXTINF:1.918711,
132950702475176-index11059.png
#EXTINF:1.918711,
132950702475176-index11060.png
#EXTINF:1.918711,
132950702475176-index11061.png
#EXTINF:1.918711,
132950702475176-index11062.png
#EXTINF:2.878067,
132950702475176-index11063.png
#EXTINF:1.918711,
132950702475176-index11064.png
#EXTINF:1.459889,
132950702475176-index11065.png
#EXTINF:1.918711,
132950702475176-index11066.png
#EXTINF:2.127267,
132950702475176-index11067.png
#EXTINF:1.918711,
132950702475176-index11068.png
#EXTINF:1.918711,
132950702475176-index11069.png
#EXTINF:2.085556,
132950702475176-index11070.png
#EXTINF:1.918711,
132950702475176-index11071.png
#EXTINF:1.918711,
132950702475176-index11072.png
#EXTINF:1.918711,
132950702475176-index11073.png
#EXTINF:2.711222,
132950702475176-index11074.png
#EXTINF:1.918711,
132950702475176-index11075.png
#EXTINF:1.918711,
132950702475176-index11076.png
#EXTINF:1.918711,
132950702475176-index11077.png
#EXTINF:1.918711,
132950702475176-index11078.png
#EXTINF:1.918711,
132950702475176-index11079.png
#EXTINF:1.918711,
132950702475176-index11080.png
#EXTINF:1.751867,
132950702475176-index11081.png
#EXTINF:2.878067,
132950702475176-index11082.png
#EXTINF:1.626733,
132950702475176-index11083.png
#EXTINF:1.918711,
132950702475176-index11084.png
#EXTINF:1.918711,
132950702475176-index11085.png
#EXTINF:1.918711,
132950702475176-index11086.png
#EXTINF:2.502667,
132950702475176-index11087.png
#EXTINF:1.793578,
132950702475176-index11088.png
#EXTINF:1.918711,
132950702475176-index11089.png
#EXTINF:1.918711,
132950702475176-index11090.png
#EXTINF:1.918711,
132950702475176-index11091.png
#EXTINF:1.918711,
132950702475176-index11092.png
#EXTINF:1.918711,
132950702475176-index11093.png
#EXTINF:1.918711,
132950702475176-index11094.png
#EXTINF:1.918711,
132950702475176-index11095.png
#EXTINF:2.794644,
132950702475176-index11096.png
#EXTINF:1.918711,
132950702475176-index11097.png
#EXTINF:1.918711,
132950702475176-index11098.png
#EXTINF:1.918711,
132950702475176-index11099.png
#EXTINF:1.918711,
132950702475176-index11100.png
#EXTINF:1.918711,
132950702475176-index11101.png
#EXTINF:2.377533,
132950702475176-index11102.png
#EXTINF:1.459889,
132950702475176-index11103.png
#EXTINF:1.918711,
132950702475176-index11104.png
#EXTINF:1.918711,
132950702475176-index11105.png
#EXTINF:1.918711,
132950702475176-index11106.png
#EXTINF:2.919778,
132950702475176-index11107.png
#EXTINF:1.918711,
132950702475176-index11108.png
#EXTINF:1.918711,
132950702475176-index11109.png
#EXTINF:2.002133,
132950702475176-index11110.png
#EXTINF:1.918711,
132950702475176-index11111.png
#EXTINF:1.918711,
132950702475176-index11112.png
#EXTINF:1.960422,
132950702475176-index11113.png
#EXTINF:1.918711,
132950702475176-index11114.png
#EXTINF:1.918711,
132950702475176-index11115.png
#EXTINF:1.918711,
132950702475176-index11116.png
#EXTINF:2.294111,
132950702475176-index11117.png
#EXTINF:1.918711,
132950702475176-index11118.png
#EXTINF:1.918711,
132950702475176-index11119.png
#EXTINF:1.918711,
132950702475176-index11120.png
#EXTINF:1.918711,
132950702475176-index11121.png
#EXTINF:2.127267,
132950702475176-index11122.png
#EXTINF:1.918711,
132950702475176-index11123.png
#EXTINF:1.918711,
132950702475176-index11124.png
#EXTINF:2.002133,
132950702475176-index11125.png
#EXTINF:1.918711,
132950702475176-index11126.png
#EXTINF:1.918711,
132950702475176-index11127.png
#EXTINF:1.918711,
132950702475176-index11128.png
#EXTINF:2.878067,
132950702475176-index11129.png
#EXTINF:1.918711,
132950702475176-index11130.png
#EXTINF:1.293044,
132950702475176-index11131.png
#EXTINF:1.918711,
132950702475176-index11132.png
#EXTINF:2.627800,
132950702475176-index11133.png
#EXTINF:1.918711,
132950702475176-index11134.png
#EXTINF:1.918711,
132950702475176-index11135.png
#EXTINF:1.918711,
132950702475176-index11136.png
#EXTINF:1.877000,
132950702475176-index11137.png
#EXTINF:1.918711,
132950702475176-index11138.png
#EXTINF:2.252400,
132950702475176-index11139.png
#EXTINF:1.918711,
132950702475176-index11140.png
#EXTINF:1.918711,
132950702475176-index11141.png
#EXTINF:1.918711,
132950702475176-index11142.png
#EXTINF:2.335822,
132950702475176-index11143.png
#EXTINF:1.918711,
132950702475176-index11144.png
#EXTINF:1.918711,
132950702475176-index11145.png
#EXTINF:1.918711,
132950702475176-index11146.png
#EXTINF:1.918711,
132950702475176-index11147.png
#EXTINF:2.377533,
132950702475176-index11148.png
#EXTINF:1.918711,
132950702475176-index11149.png
#EXTINF:1.918711,
132950702475176-index11150.png
#EXTINF:2.002133,
132950702475176-index11151.png
#EXTINF:1.918711,
132950702475176-index11152.png
#EXTINF:1.918711,
132950702475176-index11153.png
#EXTINF:1.918711,
132950702475176-index11154.png
#EXTINF:1.918711,
132950702475176-index11155.png
#EXTINF:1.918711,
132950702475176-index11156.png
#EXTINF:2.669511,
132950702475176-index11157.png
#EXTINF:1.918711,
132950702475176-index11158.png
#EXTINF:1.543311,
132950702475176-index11159.png
#EXTINF:1.918711,
132950702475176-index11160.png
#EXTINF:2.627800,
132950702475176-index11161.png
#EXTINF:1.918711,
132950702475176-index11162.png
#EXTINF:1.918711,
132950702475176-index11163.png
#EXTINF:1.918711,
132950702475176-index11164.png
#EXTINF:2.294111,
132950702475176-index11165.png
#EXTINF:1.376467,
132950702475176-index11166.png
#EXTINF:1.960422,
132950702475176-index11167.png
#EXTINF:2.002133,
132950702475176-index11168.png
#EXTINF:1.918711,
132950702475176-index11169.png
#EXTINF:2.878067,
132950702475176-index11170.png
#EXTINF:2.002133,
132950702475176-index11171.png
#EXTINF:1.918711,
132950702475176-index11172.png
#EXTINF:1.918711,
132950702475176-index11173.png
#EXTINF:1.918711,
132950702475176-index11174.png
#EXTINF:1.918711,
132950702475176-index11175.png
#EXTINF:1.585022,
132950702475176-index11176.png
#EXTINF:1.918711,
132950702475176-index11177.png
#EXTINF:2.878067,
132950702475176-index11178.png
#EXTINF:1.710156,
132950702475176-index11179.png
#EXTINF:1.918711,
132950702475176-index11180.png
#EXTINF:1.918711,
132950702475176-index11181.png
#EXTINF:1.918711,
132950702475176-index11182.png
#EXTINF:1.918711,
132950702475176-index11183.png
#EXTINF:2.419244,
132950702475176-index11184.png
#EXTINF:1.877000,
132950702475176-index11185.png
#EXTINF:1.918711,
132950702475176-index11186.png
#EXTINF:1.918711,
132950702475176-index11187.png
#EXTINF:1.918711,
132950702475176-index11188.png
#EXTINF:1.918711,
132950702475176-index11189.png
#EXTINF:1.918711,
132950702475176-index11190.png
#EXTINF:1.918711,
132950702475176-index11191.png
#EXTINF:2.544378,
132950702475176-index11192.png
#EXTINF:1.918711,
132950702475176-index11193.png
#EXTINF:1.459889,
132950702475176-index11194.png
#EXTINF:2.419244,
132950702475176-index11195.png
#EXTINF:2.419244,
132950702475176-index11196.png
#EXTINF:1.918711,
132950702475176-index11197.png
#EXTINF:1.209622,
132950702475176-index11198.png
#EXTINF:2.878067,
132950702475176-index11199.png
#EXTINF:1.668444,
132950702475176-index11200.png
#EXTINF:1.918711,
132950702475176-index11201.png
#EXTINF:1.918711,
132950702475176-index11202.png
#EXTINF:1.918711,
132950702475176-index11203.png
#EXTINF:1.918711,
132950702475176-index11204.png
#EXTINF:1.918711,
132950702475176-index11205.png
#EXTINF:1.918711,
132950702475176-index11206.png
#EXTINF:2.711222,
132950702475176-index11207.png
#EXTINF:1.918711,
132950702475176-index11208.png
#EXTINF:1.918711,
132950702475176-index11209.png
#EXTINF:1.918711,
132950702475176-index11210.png
#EXTINF:1.501600,
132950702475176-index11211.png
#EXTINF:2.878067,
132950702475176-index11212.png
#EXTINF:1.918711,
132950702475176-index11213.png
#EXTINF:1.918711,
132950702475176-index11214.png
#EXTINF:1.918711,
132950702475176-index11215.png
#EXTINF:1.918711,
132950702475176-index11216.png
#EXTINF:1.918711,
132950702475176-index11217.png
#EXTINF:1.918711,
132950702475176-index11218.png
#EXTINF:1.918711,
132950702475176-index11219.png
#EXTINF:1.918711,
132950702475176-index11220.png
#EXTINF:1.918711,
132950702475176-index11221.png
#EXTINF:1.918711,
132950702475176-index11222.png
#EXTINF:1.918711,
132950702475176-index11223.png
#EXTINF:2.878067,
132950702475176-index11224.png
#EXTINF:1.918711,
132950702475176-index11225.png
#EXTINF:1.918711,
132950702475176-index11226.png
#EXTINF:1.877000,
132950702475176-index11227.png
#EXTINF:1.918711,
132950702475176-index11228.png
#EXTINF:1.501600,
132950702475176-index11229.png
#EXTINF:2.878067,
132950702475176-index11230.png
#EXTINF:1.084489,
132950702475176-index11231.png
#EXTINF:2.878067,
132950702475176-index11232.png
#EXTINF:1.835289,
132950702475176-index11233.png
#EXTINF:1.918711,
132950702475176-index11234.png
#EXTINF:1.918711,
132950702475176-index11235.png
#EXTINF:1.918711,
132950702475176-index11236.png
#EXTINF:1.918711,
132950702475176-index11237.png
#EXTINF:1.960422,
132950702475176-index11238.png
#EXTINF:2.210689,
132950702475176-index11239.png
#EXTINF:1.877000,
132950702475176-index11240.png
#EXTINF:1.918711,
132950702475176-index11241.png
#EXTINF:1.918711,
132950702475176-index11242.png
#EXTINF:1.918711,
132950702475176-index11243.png
#EXTINF:1.918711,
132950702475176-index11244.png
#EXTINF:1.918711,
132950702475176-index11245.png
#EXTINF:2.919778,
132950702475176-index11246.png
#EXTINF:1.793578,
132950702475176-index11247.png
#EXTINF:1.918711,
132950702475176-index11248.png
#EXTINF:1.918711,
132950702475176-index11249.png
#EXTINF:1.501600,
132950702475176-index11250.png
#EXTINF:2.878067,
132950702475176-index11251.png
#EXTINF:1.418178,
132950702475176-index11252.png
#EXTINF:1.918711,
132950702475176-index11253.png
#EXTINF:1.918711,
132950702475176-index11254.png
#EXTINF:1.918711,
132950702475176-index11255.png
#EXTINF:2.335822,
132950702475176-index11256.png
#EXTINF:1.918711,
132950702475176-index11257.png
#EXTINF:1.918711,
132950702475176-index11258.png
#EXTINF:1.751867,
132950702475176-index11259.png
#EXTINF:2.878067,
132950702475176-index11260.png
#EXTINF:1.918711,
132950702475176-index11261.png
#EXTINF:1.918711,
132950702475176-index11262.png
#EXTINF:1.918711,
132950702475176-index11263.png
#EXTINF:1.918711,
132950702475176-index11264.png
#EXTINF:1.751867,
132950702475176-index11265.png
#EXTINF:1.918711,
132950702475176-index11266.png
#EXTINF:1.918711,
132950702475176-index11267.png
#EXTINF:1.918711,
132950702475176-index11268.png
#EXTINF:2.085556,
132950702475176-index11269.png
#EXTINF:1.918711,
132950702475176-index11270.png
#EXTINF:1.918711,
132950702475176-index11271.png
#EXTINF:2.627800,
132950702475176-index11272.png
#EXTINF:1.918711,
132950702475176-index11273.png
#EXTINF:2.252400,
132950702475176-index11274.png
#EXTINF:1.918711,
132950702475176-index11275.png
#EXTINF:1.918711,
132950702475176-index11276.png
#EXTINF:1.918711,
132950702475176-index11277.png
#EXTINF:1.918711,
132950702475176-index11278.png
#EXTINF:1.918711,
132950702475176-index11279.png
#EXTINF:1.918711,
132950702475176-index11280.png
#EXTINF:1.751867,
132950702475176-index11281.png
#EXTINF:1.918711,
132950702475176-index11282.png
#EXTINF:2.878067,
132950702475176-index11283.png
#EXTINF:1.918711,
132950702475176-index11284.png
#EXTINF:1.918711,
132950702475176-index11285.png
#EXTINF:1.918711,
132950702475176-index11286.png
#EXTINF:1.918711,
132950702475176-index11287.png
#EXTINF:1.918711,
132950702475176-index11288.png
#EXTINF:1.918711,
132950702475176-index11289.png
#EXTINF:1.918711,
132950702475176-index11290.png
#EXTINF:1.918711,
132950702475176-index11291.png
#EXTINF:1.918711,
132950702475176-index11292.png
#EXTINF:2.002133,
132950702475176-index11293.png
#EXTINF:1.918711,
132950702475176-index11294.png
#EXTINF:1.918711,
132950702475176-index11295.png
#EXTINF:2.878067,
132950702475176-index11296.png
#EXTINF:1.126200,
132950702475176-index11297.png
#EXTINF:2.919778,
132950702475176-index11298.png
#EXTINF:1.918711,
132950702475176-index11299.png
#EXTINF:1.918711,
132950702475176-index11300.png
#EXTINF:1.459889,
132950702475176-index11301.png
#EXTINF:1.918711,
132950702475176-index11302.png
#EXTINF:2.085556,
132950702475176-index11303.png
#EXTINF:1.918711,
132950702475176-index11304.png
#EXTINF:2.711222,
132950702475176-index11305.png
#EXTINF:1.918711,
132950702475176-index11306.png
#EXTINF:1.293044,
132950702475176-index11307.png
#EXTINF:2.002133,
132950702475176-index11308.png
#EXTINF:2.752933,
132950702475176-index11309.png
#EXTINF:1.710156,
132950702475176-index11310.png
#EXTINF:1.918711,
132950702475176-index11311.png
#EXTINF:1.835289,
132950702475176-index11312.png
#EXTINF:1.918711,
132950702475176-index11313.png
#EXTINF:2.586089,
132950702475176-index11314.png
#EXTINF:1.918711,
132950702475176-index11315.png
#EXTINF:1.918711,
132950702475176-index11316.png
#EXTINF:2.085556,
132950702475176-index11317.png
#EXTINF:2.002133,
132950702475176-index11318.png
#EXTINF:1.918711,
132950702475176-index11319.png
#EXTINF:1.918711,
132950702475176-index11320.png
#EXTINF:1.501600,
132950702475176-index11321.png
#EXTINF:2.836356,
132950702475176-index11322.png
#EXTINF:1.918711,
132950702475176-index11323.png
#EXTINF:2.127267,
132950702475176-index11324.png
#EXTINF:1.918711,
132950702475176-index11325.png
#EXTINF:1.918711,
132950702475176-index11326.png
#EXTINF:1.543311,
132950702475176-index11327.png
#EXTINF:2.544378,
132950702475176-index11328.png
#EXTINF:1.668444,
132950702475176-index11329.png
#EXTINF:2.002133,
132950702475176-index11330.png
#EXTINF:1.918711,
132950702475176-index11331.png
#EXTINF:1.918711,
132950702475176-index11332.png
#EXTINF:2.586089,
132950702475176-index11333.png
#EXTINF:1.918711,
132950702475176-index11334.png
#EXTINF:1.918711,
132950702475176-index11335.png
#EXTINF:1.918711,
132950702475176-index11336.png
#EXTINF:1.293044,
132950702475176-index11337.png
#EXTINF:2.669511,
132950702475176-index11338.png
#EXTINF:1.918711,
132950702475176-index11339.png
#EXTINF:1.918711,
132950702475176-index11340.png
#EXTINF:1.918711,
132950702475176-index11341.png
#EXTINF:2.168978,
132950702475176-index11342.png
#EXTINF:1.918711,
132950702475176-index11343.png
#EXTINF:1.918711,
132950702475176-index11344.png
#EXTINF:1.918711,
132950702475176-index11345.png
#EXTINF:2.294111,
132950702475176-index11346.png
#EXTINF:1.918711,
132950702475176-index11347.png
#EXTINF:1.918711,
132950702475176-index11348.png
#EXTINF:1.918711,
132950702475176-index11349.png
#EXTINF:1.918711,
132950702475176-index11350.png
#EXTINF:2.168978,
132950702475176-index11351.png
#EXTINF:1.918711,
132950702475176-index11352.png
#EXTINF:1.835289,
132950702475176-index11353.png
#EXTINF:2.627800,
132950702475176-index11354.png
#EXTINF:1.418178,
132950702475176-index11355.png
#EXTINF:1.751867,
132950702475176-index11356.png
#EXTINF:2.878067,
132950702475176-index11357.png
#EXTINF:1.918711,
132950702475176-index11358.png
#EXTINF:1.918711,
132950702475176-index11359.png
#EXTINF:1.918711,
132950702475176-index11360.png
#EXTINF:1.751867,
132950702475176-index11361.png
#EXTINF:1.918711,
132950702475176-index11362.png
#EXTINF:2.544378,
132950702475176-index11363.png
#EXTINF:1.918711,
132950702475176-index11364.png
#EXTINF:1.918711,
132950702475176-index11365.png
#EXTINF:1.918711,
132950702475176-index11366.png
#EXTINF:2.085556,
132950702475176-index11367.png
#EXTINF:1.918711,
132950702475176-index11368.png
#EXTINF:1.918711,
132950702475176-index11369.png
#EXTINF:1.918711,
132950702475176-index11370.png
#EXTINF:1.918711,
132950702475176-index11371.png
#EXTINF:1.918711,
132950702475176-index11372.png
#EXTINF:1.918711,
132950702475176-index11373.png
#EXTINF:1.918711,
132950702475176-index11374.png
#EXTINF:2.294111,
132950702475176-index11375.png
#EXTINF:2.127267,
132950702475176-index11376.png
#EXTINF:1.918711,
132950702475176-index11377.png
#EXTINF:2.252400,
132950702475176-index11378.png
#EXTINF:1.918711,
132950702475176-index11379.png
#EXTINF:1.585022,
132950702475176-index11380.png
#EXTINF:1.918711,
132950702475176-index11381.png
#EXTINF:2.627800,
132950702475176-index11382.png
#EXTINF:1.877000,
132950702475176-index11383.png
#EXTINF:1.918711,
132950702475176-index11384.png
#EXTINF:1.918711,
132950702475176-index11385.png
#EXTINF:1.918711,
132950702475176-index11386.png
#EXTINF:1.918711,
132950702475176-index11387.png
#EXTINF:1.918711,
132950702475176-index11388.png
#EXTINF:1.918711,
132950702475176-index11389.png
#EXTINF:1.918711,
132950702475176-index11390.png
#EXTINF:1.918711,
132950702475176-index11391.png
#EXTINF:2.878067,
132950702475176-index11392.png
#EXTINF:1.918711,
132950702475176-index11393.png
#EXTINF:1.918711,
132950702475176-index11394.png
#EXTINF:1.918711,
132950702475176-index11395.png
#EXTINF:1.918711,
132950702475176-index11396.png
#EXTINF:1.918711,
132950702475176-index11397.png
#EXTINF:1.918711,
132950702475176-index11398.png
#EXTINF:1.918711,
132950702475176-index11399.png
#EXTINF:1.918711,
132950702475176-index11400.png
#EXTINF:1.918711,
132950702475176-index11401.png
#EXTINF:1.918711,
132950702475176-index11402.png
#EXTINF:1.918711,
132950702475176-index11403.png
#EXTINF:2.586089,
132950702475176-index11404.png
#EXTINF:1.918711,
132950702475176-index11405.png
#EXTINF:1.918711,
132950702475176-index11406.png
#EXTINF:1.668444,
132950702475176-index11407.png
#EXTINF:1.918711,
132950702475176-index11408.png
#EXTINF:2.878067,
132950702475176-index11409.png
#EXTINF:1.918711,
132950702475176-index11410.png
#EXTINF:1.918711,
132950702475176-index11411.png
#EXTINF:1.918711,
132950702475176-index11412.png
#EXTINF:1.918711,
132950702475176-index11413.png
#EXTINF:1.918711,
132950702475176-index11414.png
#EXTINF:1.918711,
132950702475176-index11415.png
#EXTINF:1.793578,
132950702475176-index11416.png
#EXTINF:1.918711,
132950702475176-index11417.png
#EXTINF:1.918711,
132950702475176-index11418.png
#EXTINF:2.878067,
132950702475176-index11419.png
#EXTINF:1.918711,
132950702475176-index11420.png
#EXTINF:1.418178,
132950702475176-index11421.png
#EXTINF:1.918711,
132950702475176-index11422.png
#EXTINF:1.918711,
132950702475176-index11423.png
#EXTINF:1.918711,
132950702475176-index11424.png
#EXTINF:2.752933,
132950702475176-index11425.png
#EXTINF:1.918711,
132950702475176-index11426.png
#EXTINF:1.918711,
132950702475176-index11427.png
#EXTINF:2.168978,
132950702475176-index11428.png
#EXTINF:1.918711,
132950702475176-index11429.png
#EXTINF:1.918711,
132950702475176-index11430.png
#EXTINF:1.918711,
132950702475176-index11431.png
#EXTINF:1.918711,
132950702475176-index11432.png
#EXTINF:2.294111,
132950702475176-index11433.png
#EXTINF:2.043844,
132950702475176-index11434.png
#EXTINF:1.918711,
132950702475176-index11435.png
#EXTINF:2.002133,
132950702475176-index11436.png
#EXTINF:1.918711,
132950702475176-index11437.png
#EXTINF:1.543311,
132950702475176-index11438.png
#EXTINF:2.711222,
132950702475176-index11439.png
#EXTINF:1.918711,
132950702475176-index11440.png
#EXTINF:1.459889,
132950702475176-index11441.png
#EXTINF:1.918711,
132950702475176-index11442.png
#EXTINF:1.918711,
132950702475176-index11443.png
#EXTINF:1.918711,
132950702475176-index11444.png
#EXTINF:2.878067,
132950702475176-index11445.png
#EXTINF:1.918711,
132950702475176-index11446.png
#EXTINF:1.918711,
132950702475176-index11447.png
#EXTINF:1.418178,
132950702475176-index11448.png
#EXTINF:2.544378,
132950702475176-index11449.png
#EXTINF:1.918711,
132950702475176-index11450.png
#EXTINF:1.835289,
132950702475176-index11451.png
#EXTINF:1.918711,
132950702475176-index11452.png
#EXTINF:1.918711,
132950702475176-index11453.png
#EXTINF:2.085556,
132950702475176-index11454.png
#EXTINF:1.918711,
132950702475176-index11455.png
#EXTINF:2.419244,
132950702475176-index11456.png
#EXTINF:1.877000,
132950702475176-index11457.png
#EXTINF:1.585022,
132950702475176-index11458.png
#EXTINF:2.460956,
132950702475176-index11459.png
#EXTINF:1.501600,
132950702475176-index11460.png
#EXTINF:2.502667,
132950702475176-index11461.png
#EXTINF:1.918711,
132950702475176-index11462.png
#EXTINF:1.751867,
132950702475176-index11463.png
#EXTINF:1.918711,
132950702475176-index11464.png
#EXTINF:2.043844,
132950702475176-index11465.png
#EXTINF:2.043844,
132950702475176-index11466.png
#EXTINF:2.294111,
132950702475176-index11467.png
#EXTINF:1.626733,
132950702475176-index11468.png
#EXTINF:1.918711,
132950702475176-index11469.png
#EXTINF:2.002133,
132950702475176-index11470.png
#EXTINF:1.918711,
132950702475176-index11471.png
#EXTINF:2.627800,
132950702475176-index11472.png
#EXTINF:1.835289,
132950702475176-index11473.png
#EXTINF:1.918711,
132950702475176-index11474.png
#EXTINF:1.877000,
132950702475176-index11475.png
#EXTINF:2.043844,
132950702475176-index11476.png
#EXTINF:1.877000,
132950702475176-index11477.png
#EXTINF:0.041711,
132950702475176-index11478.png
#EXT-X-ENDLIST
