#EXTM3U
#EXT-X-VERSION:3
#EXT-X-TARGETDURATION:15
#EXT-X-MEDIA-SEQUENCE:10001
#EXTINF:12.301500,
144731770373052-index10001.ts
#EXTINF:10.008000,
144731770373052-index10002.ts
#EXTINF:1.125900,
144731770373052-index10003.ts
#EXTINF:1.000800,
144731770373052-index10004.ts
#EXTINF:1.000800,
144731770373052-index10005.ts
#EXTINF:13.469100,
144731770373052-index10006.ts
#EXTINF:10.008000,
144731770373052-index10007.ts
#EXTINF:10.008000,
144731770373052-index10008.ts
#EXTINF:10.008000,
144731770373052-index10009.ts
#EXTINF:6.338400,
144731770373052-index10010.ts
#EXTINF:8.006400,
144731770373052-index10011.ts
#EXTINF:4.628700,
144731770373052-index10012.ts
#EXTINF:3.544500,
144731770373052-index10013.ts
#EXTINF:3.794700,
144731770373052-index10014.ts
#EXTINF:3.961500,
144731770373052-index10015.ts
#EXTINF:4.587000,
144731770373052-index10016.ts
#EXTINF:4.044900,
144731770373052-index10017.ts
#EXTINF:1.459500,
144731770373052-index10018.ts
#EXTINF:5.004000,
144731770373052-index10019.ts
#EXTINF:1.751400,
144731770373052-index10020.ts
#EXTINF:2.460300,
144731770373052-index10021.ts
#EXTINF:2.585400,
144731770373052-index10022.ts
#EXTINF:1.292700,
144731770373052-index10023.ts
#EXTINF:1.000800,
144731770373052-index10024.ts
#EXTINF:2.210100,
144731770373052-index10025.ts
#EXTINF:5.796300,
144731770373052-index10026.ts
#EXTINF:6.421800,
144731770373052-index10027.ts
#EXTINF:2.502000,
144731770373052-index10028.ts
#EXTINF:8.715300,
144731770373052-index10029.ts
#EXTINF:1.334400,
144731770373052-index10030.ts
#EXTINF:6.296700,
144731770373052-index10031.ts
#EXTINF:4.336800,
144731770373052-index10032.ts
#EXTINF:4.712100,
144731770373052-index10033.ts
#EXTINF:4.420200,
144731770373052-index10034.ts
#EXTINF:9.299100,
144731770373052-index10035.ts
#EXTINF:7.380900,
144731770373052-index10036.ts
#EXTINF:1.668000,
144731770373052-index10037.ts
#EXTINF:1.709700,
144731770373052-index10038.ts
#EXTINF:8.173200,
144731770373052-index10039.ts
#EXTINF:3.961500,
144731770373052-index10040.ts
#EXTINF:4.253400,
144731770373052-index10041.ts
#EXTINF:3.419400,
144731770373052-index10042.ts
#EXTINF:6.171600,
144731770373052-index10043.ts
#EXTINF:4.795500,
144731770373052-index10044.ts
#EXTINF:4.878900,
144731770373052-index10045.ts
#EXTINF:4.545300,
144731770373052-index10046.ts
#EXTINF:6.922200,
144731770373052-index10047.ts
#EXTINF:3.210900,
144731770373052-index10048.ts
#EXTINF:5.504400,
144731770373052-index10049.ts
#EXTINF:4.378500,
144731770373052-index10050.ts
#EXTINF:4.587000,
144731770373052-index10051.ts
#EXTINF:10.591800,
144731770373052-index10052.ts
#EXTINF:2.168400,
144731770373052-index10053.ts
#EXTINF:2.210100,
144731770373052-index10054.ts
#EXTINF:7.714500,
144731770373052-index10055.ts
#EXTINF:6.004800,
144731770373052-index10056.ts
#EXTINF:2.085000,
144731770373052-index10057.ts
#EXTINF:6.338400,
144731770373052-index10058.ts
#EXTINF:4.753800,
144731770373052-index10059.ts
#EXTINF:4.170000,
144731770373052-index10060.ts
#EXTINF:8.173200,
144731770373052-index10061.ts
#EXTINF:2.168400,
144731770373052-index10062.ts
#EXTINF:4.044900,
144731770373052-index10063.ts
#EXTINF:7.422600,
144731770373052-index10064.ts
#EXTINF:6.129900,
144731770373052-index10065.ts
#EXTINF:1.959900,
144731770373052-index10066.ts
#EXTINF:5.921400,
144731770373052-index10067.ts
#EXTINF:6.672000,
144731770373052-index10068.ts
#EXTINF:2.585400,
144731770373052-index10069.ts
#EXTINF:9.716100,
144731770373052-index10070.ts
#EXTINF:6.421800,
144731770373052-index10071.ts
#EXTINF:5.587800,
144731770373052-index10072.ts
#EXTINF:10.008000,
144731770373052-index10073.ts
#EXTINF:4.461900,
144731770373052-index10074.ts
#EXTINF:7.839600,
144731770373052-index10075.ts
#EXTINF:5.879700,
144731770373052-index10076.ts
#EXTINF:5.671200,
144731770373052-index10077.ts
#EXTINF:4.253400,
144731770373052-index10078.ts
#EXTINF:10.008000,
144731770373052-index10079.ts
#EXTINF:10.008000,
144731770373052-index10080.ts
#EXTINF:10.008000,
144731770373052-index10081.ts
#EXTINF:4.420200,
144731770373052-index10082.ts
#EXTINF:2.251800,
144731770373052-index10083.ts
#EXTINF:7.172400,
144731770373052-index10084.ts
#EXTINF:3.711300,
144731770373052-index10085.ts
#EXTINF:6.255000,
144731770373052-index10086.ts
#EXTINF:9.215700,
144731770373052-index10087.ts
#EXTINF:7.797900,
144731770373052-index10088.ts
#EXTINF:2.543700,
144731770373052-index10089.ts
#EXTINF:2.460300,
144731770373052-index10090.ts
#EXTINF:3.878100,
144731770373052-index10091.ts
#EXTINF:3.919800,
144731770373052-index10092.ts
#EXTINF:1.334400,
144731770373052-index10093.ts
#EXTINF:10.008000,
144731770373052-index10094.ts
#EXTINF:1.793100,
144731770373052-index10095.ts
#EXTINF:1.793100,
144731770373052-index10096.ts
#EXTINF:1.834800,
144731770373052-index10097.ts
#EXTINF:2.418600,
144731770373052-index10098.ts
#EXTINF:2.543700,
144731770373052-index10099.ts
#EXTINF:3.044100,
144731770373052-index10100.ts
#EXTINF:2.085000,
144731770373052-index10101.ts
#EXTINF:2.043300,
144731770373052-index10102.ts
#EXTINF:2.043300,
144731770373052-index10103.ts
#EXTINF:10.008000,
144731770373052-index10104.ts
#EXTINF:2.835600,
144731770373052-index10105.ts
#EXTINF:4.003200,
144731770373052-index10106.ts
#EXTINF:5.963100,
144731770373052-index10107.ts
#EXTINF:8.089800,
144731770373052-index10108.ts
#EXTINF:3.044100,
144731770373052-index10109.ts
#EXTINF:2.376900,
144731770373052-index10110.ts
#EXTINF:7.214100,
144731770373052-index10111.ts
#EXTINF:2.418600,
144731770373052-index10112.ts
#EXTINF:2.251800,
144731770373052-index10113.ts
#EXTINF:1.876500,
144731770373052-index10114.ts
#EXTINF:4.336800,
144731770373052-index10115.ts
#EXTINF:5.170800,
144731770373052-index10116.ts
#EXTINF:5.587800,
144731770373052-index10117.ts
#EXTINF:5.712900,
144731770373052-index10118.ts
#EXTINF:7.506000,
144731770373052-index10119.ts
#EXTINF:3.461100,
144731770373052-index10120.ts
#EXTINF:4.295100,
144731770373052-index10121.ts
#EXTINF:5.879700,
144731770373052-index10122.ts
#EXTINF:9.299100,
144731770373052-index10123.ts
#EXTINF:2.460300,
144731770373052-index10124.ts
#EXTINF:5.712900,
144731770373052-index10125.ts
#EXTINF:2.126700,
144731770373052-index10126.ts
#EXTINF:6.004800,
144731770373052-index10127.ts
#EXTINF:5.671200,
144731770373052-index10128.ts
#EXTINF:3.586200,
144731770373052-index10129.ts
#EXTINF:10.008000,
144731770373052-index10130.ts
#EXTINF:1.542900,
144731770373052-index10131.ts
#EXTINF:2.919000,
144731770373052-index10132.ts
#EXTINF:7.589400,
144731770373052-index10133.ts
#EXTINF:10.008000,
144731770373052-index10134.ts
#EXTINF:6.380100,
144731770373052-index10135.ts
#EXTINF:3.919800,
144731770373052-index10136.ts
#EXTINF:7.923000,
144731770373052-index10137.ts
#EXTINF:1.167600,
144731770373052-index10138.ts
#EXTINF:2.543700,
144731770373052-index10139.ts
#EXTINF:2.168400,
144731770373052-index10140.ts
#EXTINF:4.420200,
144731770373052-index10141.ts
#EXTINF:8.923800,
144731770373052-index10142.ts
#EXTINF:3.252600,
144731770373052-index10143.ts
#EXTINF:8.590200,
144731770373052-index10144.ts
#EXTINF:7.756200,
144731770373052-index10145.ts
#EXTINF:10.008000,
144731770373052-index10146.ts
#EXTINF:2.710500,
144731770373052-index10147.ts
#EXTINF:3.252600,
144731770373052-index10148.ts
#EXTINF:1.376100,
144731770373052-index10149.ts
#EXTINF:1.125900,
144731770373052-index10150.ts
#EXTINF:4.503600,
144731770373052-index10151.ts
#EXTINF:4.670400,
144731770373052-index10152.ts
#EXTINF:1.668000,
144731770373052-index10153.ts
#EXTINF:5.295900,
144731770373052-index10154.ts
#EXTINF:7.756200,
144731770373052-index10155.ts
#EXTINF:4.044900,
144731770373052-index10156.ts
#EXTINF:2.502000,
144731770373052-index10157.ts
#EXTINF:5.337600,
144731770373052-index10158.ts
#EXTINF:10.633500,
144731770373052-index10159.ts
#EXTINF:8.715300,
144731770373052-index10160.ts
#EXTINF:6.255000,
144731770373052-index10161.ts
#EXTINF:1.376100,
144731770373052-index10162.ts
#EXTINF:1.751400,
144731770373052-index10163.ts
#EXTINF:1.668000,
144731770373052-index10164.ts
#EXTINF:3.919800,
144731770373052-index10165.ts
#EXTINF:5.629500,
144731770373052-index10166.ts
#EXTINF:4.837200,
144731770373052-index10167.ts
#EXTINF:4.795500,
144731770373052-index10168.ts
#EXTINF:4.503600,
144731770373052-index10169.ts
#EXTINF:9.215700,
144731770373052-index10170.ts
#EXTINF:4.461900,
144731770373052-index10171.ts
#EXTINF:10.008000,
144731770373052-index10172.ts
#EXTINF:1.918200,
144731770373052-index10173.ts
#EXTINF:4.587000,
144731770373052-index10174.ts
#EXTINF:3.002400,
144731770373052-index10175.ts
#EXTINF:2.251800,
144731770373052-index10176.ts
#EXTINF:7.297500,
144731770373052-index10177.ts
#EXTINF:2.793900,
144731770373052-index10178.ts
#EXTINF:7.047300,
144731770373052-index10179.ts
#EXTINF:4.587000,
144731770373052-index10180.ts
#EXTINF:6.630300,
144731770373052-index10181.ts
#EXTINF:9.424200,
144731770373052-index10182.ts
#EXTINF:4.920600,
144731770373052-index10183.ts
#EXTINF:10.008000,
144731770373052-index10184.ts
#EXTINF:5.671200,
144731770373052-index10185.ts
#EXTINF:3.002400,
144731770373052-index10186.ts
#EXTINF:8.673600,
144731770373052-index10187.ts
#EXTINF:1.376100,
144731770373052-index10188.ts
#EXTINF:3.002400,
144731770373052-index10189.ts
#EXTINF:3.794700,
144731770373052-index10190.ts
#EXTINF:6.171600,
144731770373052-index10191.ts
#EXTINF:1.376100,
144731770373052-index10192.ts
#EXTINF:4.003200,
144731770373052-index10193.ts
#EXTINF:3.252600,
144731770373052-index10194.ts
#EXTINF:5.337600,
144731770373052-index10195.ts
#EXTINF:3.586200,
144731770373052-index10196.ts
#EXTINF:10.716900,
144731770373052-index10197.ts
#EXTINF:2.251800,
144731770373052-index10198.ts
#EXTINF:6.546900,
144731770373052-index10199.ts
#EXTINF:2.835600,
144731770373052-index10200.ts
#EXTINF:3.419400,
144731770373052-index10201.ts
#EXTINF:5.504400,
144731770373052-index10202.ts
#EXTINF:2.251800,
144731770373052-index10203.ts
#EXTINF:5.421000,
144731770373052-index10204.ts
#EXTINF:10.008000,
144731770373052-index10205.ts
#EXTINF:10.008000,
144731770373052-index10206.ts
#EXTINF:1.000800,
144731770373052-index10207.ts
#EXTINF:2.960700,
144731770373052-index10208.ts
#EXTINF:3.669600,
144731770373052-index10209.ts
#EXTINF:3.502800,
144731770373052-index10210.ts
#EXTINF:7.714500,
144731770373052-index10211.ts
#EXTINF:8.423400,
144731770373052-index10212.ts
#EXTINF:5.170800,
144731770373052-index10213.ts
#EXTINF:7.005600,
144731770373052-index10214.ts
#EXTINF:4.545300,
144731770373052-index10215.ts
#EXTINF:7.631100,
144731770373052-index10216.ts
#EXTINF:6.713700,
144731770373052-index10217.ts
#EXTINF:3.336000,
144731770373052-index10218.ts
#EXTINF:2.919000,
144731770373052-index10219.ts
#EXTINF:3.002400,
144731770373052-index10220.ts
#EXTINF:3.753000,
144731770373052-index10221.ts
#EXTINF:5.879700,
144731770373052-index10222.ts
#EXTINF:6.338400,
144731770373052-index10223.ts
#EXTINF:5.337600,
144731770373052-index10224.ts
#EXTINF:6.004800,
144731770373052-index10225.ts
#EXTINF:5.087400,
144731770373052-index10226.ts
#EXTINF:2.460300,
144731770373052-index10227.ts
#EXTINF:3.419400,
144731770373052-index10228.ts
#EXTINF:6.004800,
144731770373052-index10229.ts
#EXTINF:4.044900,
144731770373052-index10230.ts
#EXTINF:3.085800,
144731770373052-index10231.ts
#EXTINF:1.918200,
144731770373052-index10232.ts
#EXTINF:3.544500,
144731770373052-index10233.ts
#EXTINF:5.963100,
144731770373052-index10234.ts
#EXTINF:3.961500,
144731770373052-index10235.ts
#EXTINF:5.796300,
144731770373052-index10236.ts
#EXTINF:7.756200,
144731770373052-index10237.ts
#EXTINF:3.419400,
144731770373052-index10238.ts
#EXTINF:6.088200,
144731770373052-index10239.ts
#EXTINF:2.793900,
144731770373052-index10240.ts
#EXTINF:6.046500,
144731770373052-index10241.ts
#EXTINF:2.293500,
144731770373052-index10242.ts
#EXTINF:10.008000,
144731770373052-index10243.ts
#EXTINF:8.340000,
144731770373052-index10244.ts
#EXTINF:4.295100,
144731770373052-index10245.ts
#EXTINF:7.214100,
144731770373052-index10246.ts
#EXTINF:4.295100,
144731770373052-index10247.ts
#EXTINF:4.170000,
144731770373052-index10248.ts
#EXTINF:3.502800,
144731770373052-index10249.ts
#EXTINF:4.461900,
144731770373052-index10250.ts
#EXTINF:1.501200,
144731770373052-index10251.ts
#EXTINF:6.255000,
144731770373052-index10252.ts
#EXTINF:2.376900,
144731770373052-index10253.ts
#EXTINF:5.379300,
144731770373052-index10254.ts
#EXTINF:6.129900,
144731770373052-index10255.ts
#EXTINF:6.755400,
144731770373052-index10256.ts
#EXTINF:1.584600,
144731770373052-index10257.ts
#EXTINF:4.628700,
144731770373052-index10258.ts
#EXTINF:4.628700,
144731770373052-index10259.ts
#EXTINF:10.008000,
144731770373052-index10260.ts
#EXTINF:2.418600,
144731770373052-index10261.ts
#EXTINF:3.669600,
144731770373052-index10262.ts
#EXTINF:3.669600,
144731770373052-index10263.ts
#EXTINF:8.673600,
144731770373052-index10264.ts
#EXTINF:1.959900,
144731770373052-index10265.ts
#EXTINF:4.336800,
144731770373052-index10266.ts
#EXTINF:5.421000,
144731770373052-index10267.ts
#EXTINF:5.087400,
144731770373052-index10268.ts
#EXTINF:12.343200,
144731770373052-index10269.ts
#EXTINF:2.502000,
144731770373052-index10270.ts
#EXTINF:10.008000,
144731770373052-index10271.ts
#EXTINF:1.417800,
144731770373052-index10272.ts
#EXTINF:6.797100,
144731770373052-index10273.ts
#EXTINF:3.919800,
144731770373052-index10274.ts
#EXTINF:2.627100,
144731770373052-index10275.ts
#EXTINF:5.337600,
144731770373052-index10276.ts
#EXTINF:4.587000,
144731770373052-index10277.ts
#EXTINF:6.380100,
144731770373052-index10278.ts
#EXTINF:5.671200,
144731770373052-index10279.ts
#EXTINF:2.085000,
144731770373052-index10280.ts
#EXTINF:3.544500,
144731770373052-index10281.ts
#EXTINF:2.418600,
144731770373052-index10282.ts
#EXTINF:5.921400,
144731770373052-index10283.ts
#EXTINF:5.337600,
144731770373052-index10284.ts
#EXTINF:10.008000,
144731770373052-index10285.ts
#EXTINF:4.878900,
144731770373052-index10286.ts
#EXTINF:10.008000,
144731770373052-index10287.ts
#EXTINF:5.045700,
144731770373052-index10288.ts
#EXTINF:2.293500,
144731770373052-index10289.ts
#EXTINF:2.502000,
144731770373052-index10290.ts
#EXTINF:6.088200,
144731770373052-index10291.ts
#EXTINF:7.756200,
144731770373052-index10292.ts
#EXTINF:2.418600,
144731770373052-index10293.ts
#EXTINF:2.502000,
144731770373052-index10294.ts
#EXTINF:3.169200,
144731770373052-index10295.ts
#EXTINF:1.626300,
144731770373052-index10296.ts
#EXTINF:10.508400,
144731770373052-index10297.ts
#EXTINF:1.501200,
144731770373052-index10298.ts
#EXTINF:6.088200,
144731770373052-index10299.ts
#EXTINF:10.008000,
144731770373052-index10300.ts
#EXTINF:2.543700,
144731770373052-index10301.ts
#EXTINF:5.212500,
144731770373052-index10302.ts
#EXTINF:2.835600,
144731770373052-index10303.ts
#EXTINF:2.543700,
144731770373052-index10304.ts
#EXTINF:4.003200,
144731770373052-index10305.ts
#EXTINF:5.879700,
144731770373052-index10306.ts
#EXTINF:4.461900,
144731770373052-index10307.ts
#EXTINF:4.920600,
144731770373052-index10308.ts
#EXTINF:10.133100,
144731770373052-index10309.ts
#EXTINF:5.462700,
144731770373052-index10310.ts
#EXTINF:4.253400,
144731770373052-index10311.ts
#EXTINF:1.292700,
144731770373052-index10312.ts
#EXTINF:3.586200,
144731770373052-index10313.ts
#EXTINF:8.715300,
144731770373052-index10314.ts
#EXTINF:3.502800,
144731770373052-index10315.ts
#EXTINF:7.297500,
144731770373052-index10316.ts
#EXTINF:5.254200,
144731770373052-index10317.ts
#EXTINF:8.298300,
144731770373052-index10318.ts
#EXTINF:3.085800,
144731770373052-index10319.ts
#EXTINF:7.714500,
144731770373052-index10320.ts
#EXTINF:1.709700,
144731770373052-index10321.ts
#EXTINF:6.963900,
144731770373052-index10322.ts
#EXTINF:2.418600,
144731770373052-index10323.ts
#EXTINF:5.295900,
144731770373052-index10324.ts
#EXTINF:2.752200,
144731770373052-index10325.ts
#EXTINF:2.376900,
144731770373052-index10326.ts
#EXTINF:12.510000,
144731770373052-index10327.ts
#EXTINF:7.339200,
144731770373052-index10328.ts
#EXTINF:7.422600,
144731770373052-index10329.ts
#EXTINF:5.712900,
144731770373052-index10330.ts
#EXTINF:3.210900,
144731770373052-index10331.ts
#EXTINF:7.464300,
144731770373052-index10332.ts
#EXTINF:2.251800,
144731770373052-index10333.ts
#EXTINF:3.502800,
144731770373052-index10334.ts
#EXTINF:6.171600,
144731770373052-index10335.ts
#EXTINF:2.627100,
144731770373052-index10336.ts
#EXTINF:2.585400,
144731770373052-index10337.ts
#EXTINF:2.752200,
144731770373052-index10338.ts
#EXTINF:2.210100,
144731770373052-index10339.ts
#EXTINF:7.005600,
144731770373052-index10340.ts
#EXTINF:1.918200,
144731770373052-index10341.ts
#EXTINF:7.255800,
144731770373052-index10342.ts
#EXTINF:3.627900,
144731770373052-index10343.ts
#EXTINF:10.008000,
144731770373052-index10344.ts
#EXTINF:9.716100,
144731770373052-index10345.ts
#EXTINF:7.422600,
144731770373052-index10346.ts
#EXTINF:6.213300,
144731770373052-index10347.ts
#EXTINF:3.961500,
144731770373052-index10348.ts
#EXTINF:5.629500,
144731770373052-index10349.ts
#EXTINF:4.795500,
144731770373052-index10350.ts
#EXTINF:1.959900,
144731770373052-index10351.ts
#EXTINF:3.502800,
144731770373052-index10352.ts
#EXTINF:1.793100,
144731770373052-index10353.ts
#EXTINF:2.168400,
144731770373052-index10354.ts
#EXTINF:3.669600,
144731770373052-index10355.ts
#EXTINF:7.964700,
144731770373052-index10356.ts
#EXTINF:2.043300,
144731770373052-index10357.ts
#EXTINF:2.919000,
144731770373052-index10358.ts
#EXTINF:6.129900,
144731770373052-index10359.ts
#EXTINF:5.879700,
144731770373052-index10360.ts
#EXTINF:3.252600,
144731770373052-index10361.ts
#EXTINF:5.462700,
144731770373052-index10362.ts
#EXTINF:4.461900,
144731770373052-index10363.ts
#EXTINF:9.549300,
144731770373052-index10364.ts
#EXTINF:2.335200,
144731770373052-index10365.ts
#EXTINF:8.006400,
144731770373052-index10366.ts
#EXTINF:1.417800,
144731770373052-index10367.ts
#EXTINF:3.586200,
144731770373052-index10368.ts
#EXTINF:6.463500,
144731770373052-index10369.ts
#EXTINF:4.420200,
144731770373052-index10370.ts
#EXTINF:7.506000,
144731770373052-index10371.ts
#EXTINF:2.251800,
144731770373052-index10372.ts
#EXTINF:4.295100,
144731770373052-index10373.ts
#EXTINF:8.340000,
144731770373052-index10374.ts
#EXTINF:5.212500,
144731770373052-index10375.ts
#EXTINF:1.709700,
144731770373052-index10376.ts
#EXTINF:8.340000,
144731770373052-index10377.ts
#EXTINF:3.169200,
144731770373052-index10378.ts
#EXTINF:5.004000,
144731770373052-index10379.ts
#EXTINF:5.754600,
144731770373052-index10380.ts
#EXTINF:9.924600,
144731770373052-index10381.ts
#EXTINF:3.461100,
144731770373052-index10382.ts
#EXTINF:9.382500,
144731770373052-index10383.ts
#EXTINF:9.174000,
144731770373052-index10384.ts
#EXTINF:3.461100,
144731770373052-index10385.ts
#EXTINF:2.251800,
144731770373052-index10386.ts
#EXTINF:3.169200,
144731770373052-index10387.ts
#EXTINF:9.757800,
144731770373052-index10388.ts
#EXTINF:5.796300,
144731770373052-index10389.ts
#EXTINF:2.627100,
144731770373052-index10390.ts
#EXTINF:6.880500,
144731770373052-index10391.ts
#EXTINF:4.295100,
144731770373052-index10392.ts
#EXTINF:7.380900,
144731770373052-index10393.ts
#EXTINF:2.126700,
144731770373052-index10394.ts
#EXTINF:4.420200,
144731770373052-index10395.ts
#EXTINF:6.213300,
144731770373052-index10396.ts
#EXTINF:2.960700,
144731770373052-index10397.ts
#EXTINF:7.255800,
144731770373052-index10398.ts
#EXTINF:1.709700,
144731770373052-index10399.ts
#EXTINF:10.008000,
144731770373052-index10400.ts
#EXTINF:4.670400,
144731770373052-index10401.ts
#EXTINF:3.210900,
144731770373052-index10402.ts
#EXTINF:4.003200,
144731770373052-index10403.ts
#EXTINF:8.173200,
144731770373052-index10404.ts
#EXTINF:1.125900,
144731770373052-index10405.ts
#EXTINF:1.334400,
144731770373052-index10406.ts
#EXTINF:5.462700,
144731770373052-index10407.ts
#EXTINF:10.008000,
144731770373052-index10408.ts
#EXTINF:3.336000,
144731770373052-index10409.ts
#EXTINF:8.423400,
144731770373052-index10410.ts
#EXTINF:6.838800,
144731770373052-index10411.ts
#EXTINF:6.046500,
144731770373052-index10412.ts
#EXTINF:5.379300,
144731770373052-index10413.ts
#EXTINF:4.503600,
144731770373052-index10414.ts
#EXTINF:3.919800,
144731770373052-index10415.ts
#EXTINF:3.252600,
144731770373052-index10416.ts
#EXTINF:3.627900,
144731770373052-index10417.ts
#EXTINF:3.210900,
144731770373052-index10418.ts
#EXTINF:3.002400,
144731770373052-index10419.ts
#EXTINF:3.502800,
144731770373052-index10420.ts
#EXTINF:2.210100,
144731770373052-index10421.ts
#EXTINF:4.628700,
144731770373052-index10422.ts
#EXTINF:7.547700,
144731770373052-index10423.ts
#EXTINF:3.210900,
144731770373052-index10424.ts
#EXTINF:6.046500,
144731770373052-index10425.ts
#EXTINF:5.504400,
144731770373052-index10426.ts
#EXTINF:1.334400,
144731770373052-index10427.ts
#EXTINF:2.960700,
144731770373052-index10428.ts
#EXTINF:5.337600,
144731770373052-index10429.ts
#EXTINF:6.505200,
144731770373052-index10430.ts
#EXTINF:9.007200,
144731770373052-index10431.ts
#EXTINF:2.460300,
144731770373052-index10432.ts
#EXTINF:2.043300,
144731770373052-index10433.ts
#EXTINF:3.544500,
144731770373052-index10434.ts
#EXTINF:9.340800,
144731770373052-index10435.ts
#EXTINF:2.668800,
144731770373052-index10436.ts
#EXTINF:3.753000,
144731770373052-index10437.ts
#EXTINF:4.461900,
144731770373052-index10438.ts
#EXTINF:8.882100,
144731770373052-index10439.ts
#EXTINF:3.961500,
144731770373052-index10440.ts
#EXTINF:2.793900,
144731770373052-index10441.ts
#EXTINF:6.129900,
144731770373052-index10442.ts
#EXTINF:10.008000,
144731770373052-index10443.ts
#EXTINF:2.668800,
144731770373052-index10444.ts
#EXTINF:5.295900,
144731770373052-index10445.ts
#EXTINF:6.880500,
144731770373052-index10446.ts
#EXTINF:6.088200,
144731770373052-index10447.ts
#EXTINF:4.878900,
144731770373052-index10448.ts
#EXTINF:6.255000,
144731770373052-index10449.ts
#EXTINF:3.461100,
144731770373052-index10450.ts
#EXTINF:7.047300,
144731770373052-index10451.ts
#EXTINF:2.418600,
144731770373052-index10452.ts
#EXTINF:1.292700,
144731770373052-index10453.ts
#EXTINF:2.502000,
144731770373052-index10454.ts
#EXTINF:5.879700,
144731770373052-index10455.ts
#EXTINF:9.841200,
144731770373052-index10456.ts
#EXTINF:1.584600,
144731770373052-index10457.ts
#EXTINF:1.834800,
144731770373052-index10458.ts
#EXTINF:7.297500,
144731770373052-index10459.ts
#EXTINF:6.213300,
144731770373052-index10460.ts
#EXTINF:3.127500,
144731770373052-index10461.ts
#EXTINF:7.255800,
144731770373052-index10462.ts
#EXTINF:1.251000,
144731770373052-index10463.ts
#EXTINF:6.713700,
144731770373052-index10464.ts
#EXTINF:6.797100,
144731770373052-index10465.ts
#EXTINF:2.752200,
144731770373052-index10466.ts
#EXTINF:5.712900,
144731770373052-index10467.ts
#EXTINF:4.628700,
144731770373052-index10468.ts
#EXTINF:4.503600,
144731770373052-index10469.ts
#EXTINF:3.961500,
144731770373052-index10470.ts
#EXTINF:8.506800,
144731770373052-index10471.ts
#EXTINF:5.087400,
144731770373052-index10472.ts
#EXTINF:2.001600,
144731770373052-index10473.ts
#EXTINF:5.921400,
144731770373052-index10474.ts
#EXTINF:3.252600,
144731770373052-index10475.ts
#EXTINF:6.338400,
144731770373052-index10476.ts
#EXTINF:3.961500,
144731770373052-index10477.ts
#EXTINF:7.339200,
144731770373052-index10478.ts
#EXTINF:3.794700,
144731770373052-index10479.ts
#EXTINF:4.670400,
144731770373052-index10480.ts
#EXTINF:4.628700,
144731770373052-index10481.ts
#EXTINF:5.295900,
144731770373052-index10482.ts
#EXTINF:3.961500,
144731770373052-index10483.ts
#EXTINF:4.920600,
144731770373052-index10484.ts
#EXTINF:4.962300,
144731770373052-index10485.ts
#EXTINF:5.629500,
144731770373052-index10486.ts
#EXTINF:4.753800,
144731770373052-index10487.ts
#EXTINF:8.340000,
144731770373052-index10488.ts
#EXTINF:1.459500,
144731770373052-index10489.ts
#EXTINF:5.546100,
144731770373052-index10490.ts
#EXTINF:5.838000,
144731770373052-index10491.ts
#EXTINF:3.753000,
144731770373052-index10492.ts
#EXTINF:5.671200,
144731770373052-index10493.ts
#EXTINF:7.631100,
144731770373052-index10494.ts
#EXTINF:1.918200,
144731770373052-index10495.ts
#EXTINF:5.087400,
144731770373052-index10496.ts
#EXTINF:5.921400,
144731770373052-index10497.ts
#EXTINF:4.128300,
144731770373052-index10498.ts
#EXTINF:4.253400,
144731770373052-index10499.ts
#EXTINF:5.671200,
144731770373052-index10500.ts
#EXTINF:4.837200,
144731770373052-index10501.ts
#EXTINF:5.212500,
144731770373052-index10502.ts
#EXTINF:4.795500,
144731770373052-index10503.ts
#EXTINF:7.047300,
144731770373052-index10504.ts
#EXTINF:3.461100,
144731770373052-index10505.ts
#EXTINF:4.920600,
144731770373052-index10506.ts
#EXTINF:4.211700,
144731770373052-index10507.ts
#EXTINF:7.964700,
144731770373052-index10508.ts
#EXTINF:2.960700,
144731770373052-index10509.ts
#EXTINF:4.461900,
144731770373052-index10510.ts
#EXTINF:4.461900,
144731770373052-index10511.ts
#EXTINF:6.046500,
144731770373052-index10512.ts
#EXTINF:4.378500,
144731770373052-index10513.ts
#EXTINF:5.045700,
144731770373052-index10514.ts
#EXTINF:6.755400,
144731770373052-index10515.ts
#EXTINF:3.753000,
144731770373052-index10516.ts
#EXTINF:3.878100,
144731770373052-index10517.ts
#EXTINF:5.045700,
144731770373052-index10518.ts
#EXTINF:5.087400,
144731770373052-index10519.ts
#EXTINF:7.380900,
144731770373052-index10520.ts
#EXTINF:3.336000,
144731770373052-index10521.ts
#EXTINF:4.587000,
144731770373052-index10522.ts
#EXTINF:6.713700,
144731770373052-index10523.ts
#EXTINF:3.878100,
144731770373052-index10524.ts
#EXTINF:5.045700,
144731770373052-index10525.ts
#EXTINF:4.962300,
144731770373052-index10526.ts
#EXTINF:4.545300,
144731770373052-index10527.ts
#EXTINF:7.214100,
144731770373052-index10528.ts
#EXTINF:2.793900,
144731770373052-index10529.ts
#EXTINF:5.504400,
144731770373052-index10530.ts
#EXTINF:6.171600,
144731770373052-index10531.ts
#EXTINF:6.171600,
144731770373052-index10532.ts
#EXTINF:1.959900,
144731770373052-index10533.ts
#EXTINF:5.712900,
144731770373052-index10534.ts
#EXTINF:4.170000,
144731770373052-index10535.ts
#EXTINF:5.754600,
144731770373052-index10536.ts
#EXTINF:5.379300,
144731770373052-index10537.ts
#EXTINF:4.503600,
144731770373052-index10538.ts
#EXTINF:4.211700,
144731770373052-index10539.ts
#EXTINF:7.130700,
144731770373052-index10540.ts
#EXTINF:4.295100,
144731770373052-index10541.ts
#EXTINF:4.545300,
144731770373052-index10542.ts
#EXTINF:5.170800,
144731770373052-index10543.ts
#EXTINF:8.548500,
144731770373052-index10544.ts
#EXTINF:5.879700,
144731770373052-index10545.ts
#EXTINF:4.878900,
144731770373052-index10546.ts
#EXTINF:6.380100,
144731770373052-index10547.ts
#EXTINF:10.008000,
144731770373052-index10548.ts
#EXTINF:3.294300,
144731770373052-index10549.ts
#EXTINF:3.336000,
144731770373052-index10550.ts
#EXTINF:9.257400,
144731770373052-index10551.ts
#EXTINF:4.211700,
144731770373052-index10552.ts
#EXTINF:4.378500,
144731770373052-index10553.ts
#EXTINF:4.628700,
144731770373052-index10554.ts
#EXTINF:4.503600,
144731770373052-index10555.ts
#EXTINF:2.627100,
144731770373052-index10556.ts
#EXTINF:3.669600,
144731770373052-index10557.ts
#EXTINF:1.542900,
144731770373052-index10558.ts
#EXTINF:2.168400,
144731770373052-index10559.ts
#EXTINF:6.588600,
144731770373052-index10560.ts
#EXTINF:5.879700,
144731770373052-index10561.ts
#EXTINF:4.545300,
144731770373052-index10562.ts
#EXTINF:9.465900,
144731770373052-index10563.ts
#EXTINF:10.008000,
144731770373052-index10564.ts
#EXTINF:5.129100,
144731770373052-index10565.ts
#EXTINF:4.461900,
144731770373052-index10566.ts
#EXTINF:9.382500,
144731770373052-index10567.ts
#EXTINF:3.836400,
144731770373052-index10568.ts
#EXTINF:2.043300,
144731770373052-index10569.ts
#EXTINF:2.668800,
144731770373052-index10570.ts
#EXTINF:10.008000,
144731770373052-index10571.ts
#EXTINF:5.462700,
144731770373052-index10572.ts
#EXTINF:1.542900,
144731770373052-index10573.ts
#EXTINF:2.585400,
144731770373052-index10574.ts
#EXTINF:7.130700,
144731770373052-index10575.ts
#EXTINF:1.876500,
144731770373052-index10576.ts
#EXTINF:1.334400,
144731770373052-index10577.ts
#EXTINF:6.380100,
144731770373052-index10578.ts
#EXTINF:1.793100,
144731770373052-index10579.ts
#EXTINF:3.627900,
144731770373052-index10580.ts
#EXTINF:3.711300,
144731770373052-index10581.ts
#EXTINF:7.089000,
144731770373052-index10582.ts
#EXTINF:11.259000,
144731770373052-index10583.ts
#EXTINF:1.918200,
144731770373052-index10584.ts
#EXTINF:1.501200,
144731770373052-index10585.ts
#EXTINF:10.008000,
144731770373052-index10586.ts
#EXTINF:6.046500,
144731770373052-index10587.ts
#EXTINF:3.377700,
144731770373052-index10588.ts
#EXTINF:3.794700,
144731770373052-index10589.ts
#EXTINF:1.876500,
144731770373052-index10590.ts
#EXTINF:4.795500,
144731770373052-index10591.ts
#EXTINF:4.336800,
144731770373052-index10592.ts
#EXTINF:4.878900,
144731770373052-index10593.ts
#EXTINF:5.671200,
144731770373052-index10594.ts
#EXTINF:7.339200,
144731770373052-index10595.ts
#EXTINF:2.168400,
144731770373052-index10596.ts
#EXTINF:4.837200,
144731770373052-index10597.ts
#EXTINF:4.420200,
144731770373052-index10598.ts
#EXTINF:4.878900,
144731770373052-index10599.ts
#EXTINF:6.171600,
144731770373052-index10600.ts
#EXTINF:3.461100,
144731770373052-index10601.ts
#EXTINF:5.045700,
144731770373052-index10602.ts
#EXTINF:5.671200,
144731770373052-index10603.ts
#EXTINF:5.462700,
144731770373052-index10604.ts
#EXTINF:4.628700,
144731770373052-index10605.ts
#EXTINF:4.920600,
144731770373052-index10606.ts
#EXTINF:5.462700,
144731770373052-index10607.ts
#EXTINF:4.128300,
144731770373052-index10608.ts
#EXTINF:5.504400,
144731770373052-index10609.ts
#EXTINF:5.004000,
144731770373052-index10610.ts
#EXTINF:4.878900,
144731770373052-index10611.ts
#EXTINF:5.421000,
144731770373052-index10612.ts
#EXTINF:3.961500,
144731770373052-index10613.ts
#EXTINF:5.337600,
144731770373052-index10614.ts
#EXTINF:5.546100,
144731770373052-index10615.ts
#EXTINF:4.712100,
144731770373052-index10616.ts
#EXTINF:5.045700,
144731770373052-index10617.ts
#EXTINF:4.962300,
144731770373052-index10618.ts
#EXTINF:5.421000,
144731770373052-index10619.ts
#EXTINF:4.795500,
144731770373052-index10620.ts
#EXTINF:5.587800,
144731770373052-index10621.ts
#EXTINF:4.295100,
144731770373052-index10622.ts
#EXTINF:5.879700,
144731770373052-index10623.ts
#EXTINF:4.211700,
144731770373052-index10624.ts
#EXTINF:4.878900,
144731770373052-index10625.ts
#EXTINF:4.837200,
144731770373052-index10626.ts
#EXTINF:6.213300,
144731770373052-index10627.ts
#EXTINF:3.294300,
144731770373052-index10628.ts
#EXTINF:10.383300,
144731770373052-index10629.ts
#EXTINF:4.003200,
144731770373052-index10630.ts
#EXTINF:6.255000,
144731770373052-index10631.ts
#EXTINF:10.008000,
144731770373052-index10632.ts
#EXTINF:7.130700,
144731770373052-index10633.ts
#EXTINF:2.960700,
144731770373052-index10634.ts
#EXTINF:6.546900,
144731770373052-index10635.ts
#EXTINF:1.584600,
144731770373052-index10636.ts
#EXTINF:3.085800,
144731770373052-index10637.ts
#EXTINF:5.337600,
144731770373052-index10638.ts
#EXTINF:4.378500,
144731770373052-index10639.ts
#EXTINF:1.668000,
144731770373052-index10640.ts
#EXTINF:2.543700,
144731770373052-index10641.ts
#EXTINF:7.380900,
144731770373052-index10642.ts
#EXTINF:3.961500,
144731770373052-index10643.ts
#EXTINF:8.882100,
144731770373052-index10644.ts
#EXTINF:10.008000,
144731770373052-index10645.ts
#EXTINF:6.213300,
144731770373052-index10646.ts
#EXTINF:6.546900,
144731770373052-index10647.ts
#EXTINF:7.339200,
144731770373052-index10648.ts
#EXTINF:10.008000,
144731770373052-index10649.ts
#EXTINF:1.417800,
144731770373052-index10650.ts
#EXTINF:3.961500,
144731770373052-index10651.ts
#EXTINF:2.168400,
144731770373052-index10652.ts
#EXTINF:3.586200,
144731770373052-index10653.ts
#EXTINF:8.590200,
144731770373052-index10654.ts
#EXTINF:3.836400,
144731770373052-index10655.ts
#EXTINF:3.502800,
144731770373052-index10656.ts
#EXTINF:2.710500,
144731770373052-index10657.ts
#EXTINF:8.882100,
144731770373052-index10658.ts
#EXTINF:6.380100,
144731770373052-index10659.ts
#EXTINF:2.919000,
144731770373052-index10660.ts
#EXTINF:2.043300,
144731770373052-index10661.ts
#EXTINF:3.544500,
144731770373052-index10662.ts
#EXTINF:3.627900,
144731770373052-index10663.ts
#EXTINF:4.795500,
144731770373052-index10664.ts
#EXTINF:5.254200,
144731770373052-index10665.ts
#EXTINF:2.502000,
144731770373052-index10666.ts
#EXTINF:3.502800,
144731770373052-index10667.ts
#EXTINF:1.417800,
144731770373052-index10668.ts
#EXTINF:4.128300,
144731770373052-index10669.ts
#EXTINF:6.213300,
144731770373052-index10670.ts
#EXTINF:8.840400,
144731770373052-index10671.ts
#EXTINF:1.626300,
144731770373052-index10672.ts
#EXTINF:4.545300,
144731770373052-index10673.ts
#EXTINF:4.003200,
144731770373052-index10674.ts
#EXTINF:5.629500,
144731770373052-index10675.ts
#EXTINF:6.463500,
144731770373052-index10676.ts
#EXTINF:3.586200,
144731770373052-index10677.ts
#EXTINF:4.295100,
144731770373052-index10678.ts
#EXTINF:5.546100,
144731770373052-index10679.ts
#EXTINF:5.879700,
144731770373052-index10680.ts
#EXTINF:4.211700,
144731770373052-index10681.ts
#EXTINF:4.628700,
144731770373052-index10682.ts
#EXTINF:5.212500,
144731770373052-index10683.ts
#EXTINF:5.754600,
144731770373052-index10684.ts
#EXTINF:5.045700,
144731770373052-index10685.ts
#EXTINF:7.964700,
144731770373052-index10686.ts
#EXTINF:5.004000,
144731770373052-index10687.ts
#EXTINF:4.920600,
144731770373052-index10688.ts
#EXTINF:5.254200,
144731770373052-index10689.ts
#EXTINF:5.921400,
144731770373052-index10690.ts
#EXTINF:6.755400,
144731770373052-index10691.ts
#EXTINF:1.834800,
144731770373052-index10692.ts
#EXTINF:2.543700,
144731770373052-index10693.ts
#EXTINF:7.923000,
144731770373052-index10694.ts
#EXTINF:3.252600,
144731770373052-index10695.ts
#EXTINF:6.213300,
144731770373052-index10696.ts
#EXTINF:10.008000,
144731770373052-index10697.ts
#EXTINF:8.340000,
144731770373052-index10698.ts
#EXTINF:5.004000,
144731770373052-index10699.ts
#EXTINF:2.710500,
144731770373052-index10700.ts
#EXTINF:1.334400,
144731770373052-index10701.ts
#EXTINF:7.714500,
144731770373052-index10702.ts
#EXTINF:2.335200,
144731770373052-index10703.ts
#EXTINF:3.044100,
144731770373052-index10704.ts
#EXTINF:6.880500,
144731770373052-index10705.ts
#EXTINF:1.668000,
144731770373052-index10706.ts
#EXTINF:2.210100,
144731770373052-index10707.ts
#EXTINF:13.969500,
144731770373052-index10708.ts
#EXTINF:4.753800,
144731770373052-index10709.ts
#EXTINF:10.008000,
144731770373052-index10710.ts
#EXTINF:8.131500,
144731770373052-index10711.ts
#EXTINF:10.008000,
144731770373052-index10712.ts
#EXTINF:2.752200,
144731770373052-index10713.ts
#EXTINF:6.963900,
144731770373052-index10714.ts
#EXTINF:7.547700,
144731770373052-index10715.ts
#EXTINF:1.876500,
144731770373052-index10716.ts
#EXTINF:5.963100,
144731770373052-index10717.ts
#EXTINF:5.838000,
144731770373052-index10718.ts
#EXTINF:5.838000,
144731770373052-index10719.ts
#EXTINF:1.167600,
144731770373052-index10720.ts
#EXTINF:5.045700,
144731770373052-index10721.ts
#EXTINF:4.003200,
144731770373052-index10722.ts
#EXTINF:5.712900,
144731770373052-index10723.ts
#EXTINF:5.587800,
144731770373052-index10724.ts
#EXTINF:5.004000,
144731770373052-index10725.ts
#EXTINF:5.045700,
144731770373052-index10726.ts
#EXTINF:1.668000,
144731770373052-index10727.ts
#EXTINF:10.008000,
144731770373052-index10728.ts
#EXTINF:3.377700,
144731770373052-index10729.ts
#EXTINF:1.959900,
144731770373052-index10730.ts
#EXTINF:3.586200,
144731770373052-index10731.ts
#EXTINF:5.045700,
144731770373052-index10732.ts
#EXTINF:9.090600,
144731770373052-index10733.ts
#EXTINF:5.921400,
144731770373052-index10734.ts
#EXTINF:2.668800,
144731770373052-index10735.ts
#EXTINF:3.210900,
144731770373052-index10736.ts
#EXTINF:6.713700,
144731770373052-index10737.ts
#EXTINF:2.335200,
144731770373052-index10738.ts
#EXTINF:3.336000,
144731770373052-index10739.ts
#EXTINF:3.002400,
144731770373052-index10740.ts
#EXTINF:3.294300,
144731770373052-index10741.ts
#EXTINF:1.959900,
144731770373052-index10742.ts
#EXTINF:3.085800,
144731770373052-index10743.ts
#EXTINF:2.835600,
144731770373052-index10744.ts
#EXTINF:3.586200,
144731770373052-index10745.ts
#EXTINF:10.008000,
144731770373052-index10746.ts
#EXTINF:7.214100,
144731770373052-index10747.ts
#EXTINF:4.837200,
144731770373052-index10748.ts
#EXTINF:10.008000,
144731770373052-index10749.ts
#EXTINF:4.170000,
144731770373052-index10750.ts
#EXTINF:6.129900,
144731770373052-index10751.ts
#EXTINF:3.002400,
144731770373052-index10752.ts
#EXTINF:2.919000,
144731770373052-index10753.ts
#EXTINF:3.294300,
144731770373052-index10754.ts
#EXTINF:2.251800,
144731770373052-index10755.ts
#EXTINF:3.169200,
144731770373052-index10756.ts
#EXTINF:5.170800,
144731770373052-index10757.ts
#EXTINF:2.710500,
144731770373052-index10758.ts
#EXTINF:8.048100,
144731770373052-index10759.ts
#EXTINF:3.377700,
144731770373052-index10760.ts
#EXTINF:2.168400,
144731770373052-index10761.ts
#EXTINF:11.550900,
144731770373052-index10762.ts
#EXTINF:10.008000,
144731770373052-index10763.ts
#EXTINF:4.670400,
144731770373052-index10764.ts
#EXTINF:2.335200,
144731770373052-index10765.ts
#EXTINF:3.627900,
144731770373052-index10766.ts
#EXTINF:7.923000,
144731770373052-index10767.ts
#EXTINF:3.711300,
144731770373052-index10768.ts
#EXTINF:4.420200,
144731770373052-index10769.ts
#EXTINF:6.129900,
144731770373052-index10770.ts
#EXTINF:2.585400,
144731770373052-index10771.ts
#EXTINF:2.793900,
144731770373052-index10772.ts
#EXTINF:3.085800,
144731770373052-index10773.ts
#EXTINF:4.420200,
144731770373052-index10774.ts
#EXTINF:3.836400,
144731770373052-index10775.ts
#EXTINF:10.008000,
144731770373052-index10776.ts
#EXTINF:10.008000,
144731770373052-index10777.ts
#EXTINF:3.085800,
144731770373052-index10778.ts
#EXTINF:2.835600,
144731770373052-index10779.ts
#EXTINF:10.008000,
144731770373052-index10780.ts
#EXTINF:7.130700,
144731770373052-index10781.ts
#EXTINF:3.002400,
144731770373052-index10782.ts
#EXTINF:3.544500,
144731770373052-index10783.ts
#EXTINF:3.085800,
144731770373052-index10784.ts
#EXTINF:8.631900,
144731770373052-index10785.ts
#EXTINF:2.460300,
144731770373052-index10786.ts
#EXTINF:4.211700,
144731770373052-index10787.ts
#EXTINF:4.920600,
144731770373052-index10788.ts
#EXTINF:1.959900,
144731770373052-index10789.ts
#EXTINF:4.753800,
144731770373052-index10790.ts
#EXTINF:2.710500,
144731770373052-index10791.ts
#EXTINF:10.008000,
144731770373052-index10792.ts
#EXTINF:7.422600,
144731770373052-index10793.ts
#EXTINF:10.008000,
144731770373052-index10794.ts
#EXTINF:10.008000,
144731770373052-index10795.ts
#EXTINF:1.751400,
144731770373052-index10796.ts
#EXTINF:2.293500,
144731770373052-index10797.ts
#EXTINF:7.964700,
144731770373052-index10798.ts
#EXTINF:2.293500,
144731770373052-index10799.ts
#EXTINF:3.461100,
144731770373052-index10800.ts
#EXTINF:5.921400,
144731770373052-index10801.ts
#EXTINF:10.008000,
144731770373052-index10802.ts
#EXTINF:6.630300,
144731770373052-index10803.ts
#EXTINF:5.254200,
144731770373052-index10804.ts
#EXTINF:8.298300,
144731770373052-index10805.ts
#EXTINF:3.794700,
144731770373052-index10806.ts
#EXTINF:4.128300,
144731770373052-index10807.ts
#EXTINF:2.793900,
144731770373052-index10808.ts
#EXTINF:6.338400,
144731770373052-index10809.ts
#EXTINF:3.252600,
144731770373052-index10810.ts
#EXTINF:5.462700,
144731770373052-index10811.ts
#EXTINF:4.712100,
144731770373052-index10812.ts
#EXTINF:4.795500,
144731770373052-index10813.ts
#EXTINF:3.919800,
144731770373052-index10814.ts
#EXTINF:10.008000,
144731770373052-index10815.ts
#EXTINF:7.339200,
144731770373052-index10816.ts
#EXTINF:2.835600,
144731770373052-index10817.ts
#EXTINF:2.668800,
144731770373052-index10818.ts
#EXTINF:1.417800,
144731770373052-index10819.ts
#EXTINF:4.461900,
144731770373052-index10820.ts
#EXTINF:1.793100,
144731770373052-index10821.ts
#EXTINF:2.126700,
144731770373052-index10822.ts
#EXTINF:2.251800,
144731770373052-index10823.ts
#EXTINF:1.626300,
144731770373052-index10824.ts
#EXTINF:4.795500,
144731770373052-index10825.ts
#EXTINF:4.003200,
144731770373052-index10826.ts
#EXTINF:4.170000,
144731770373052-index10827.ts
#EXTINF:1.501200,
144731770373052-index10828.ts
#EXTINF:6.421800,
144731770373052-index10829.ts
#EXTINF:4.253400,
144731770373052-index10830.ts
#EXTINF:4.170000,
144731770373052-index10831.ts
#EXTINF:5.379300,
144731770373052-index10832.ts
#EXTINF:6.255000,
144731770373052-index10833.ts
#EXTINF:4.545300,
144731770373052-index10834.ts
#EXTINF:6.171600,
144731770373052-index10835.ts
#EXTINF:6.213300,
144731770373052-index10836.ts
#EXTINF:3.544500,
144731770373052-index10837.ts
#EXTINF:7.839600,
144731770373052-index10838.ts
#EXTINF:2.001600,
144731770373052-index10839.ts
#EXTINF:3.669600,
144731770373052-index10840.ts
#EXTINF:10.008000,
144731770373052-index10841.ts
#EXTINF:3.377700,
144731770373052-index10842.ts
#EXTINF:1.251000,
144731770373052-index10843.ts
#EXTINF:5.045700,
144731770373052-index10844.ts
#EXTINF:8.715300,
144731770373052-index10845.ts
#EXTINF:7.422600,
144731770373052-index10846.ts
#EXTINF:1.417800,
144731770373052-index10847.ts
#EXTINF:2.919000,
144731770373052-index10848.ts
#EXTINF:3.627900,
144731770373052-index10849.ts
#EXTINF:6.338400,
144731770373052-index10850.ts
#EXTINF:3.794700,
144731770373052-index10851.ts
#EXTINF:6.338400,
144731770373052-index10852.ts
#EXTINF:5.838000,
144731770373052-index10853.ts
#EXTINF:3.169200,
144731770373052-index10854.ts
#EXTINF:8.840400,
144731770373052-index10855.ts
#EXTINF:10.008000,
144731770373052-index10856.ts
#EXTINF:2.043300,
144731770373052-index10857.ts
#EXTINF:3.419400,
144731770373052-index10858.ts
#EXTINF:4.545300,
144731770373052-index10859.ts
#EXTINF:10.008000,
144731770373052-index10860.ts
#EXTINF:3.711300,
144731770373052-index10861.ts
#EXTINF:3.002400,
144731770373052-index10862.ts
#EXTINF:5.504400,
144731770373052-index10863.ts
#EXTINF:1.793100,
144731770373052-index10864.ts
#EXTINF:7.797900,
144731770373052-index10865.ts
#EXTINF:2.668800,
144731770373052-index10866.ts
#EXTINF:4.086600,
144731770373052-index10867.ts
#EXTINF:2.919000,
144731770373052-index10868.ts
#EXTINF:10.008000,
144731770373052-index10869.ts
#EXTINF:3.961500,
144731770373052-index10870.ts
#EXTINF:6.713700,
144731770373052-index10871.ts
#EXTINF:2.585400,
144731770373052-index10872.ts
#EXTINF:5.337600,
144731770373052-index10873.ts
#EXTINF:4.587000,
144731770373052-index10874.ts
#EXTINF:2.418600,
144731770373052-index10875.ts
#EXTINF:10.716900,
144731770373052-index10876.ts
#EXTINF:2.877300,
144731770373052-index10877.ts
#EXTINF:9.757800,
144731770373052-index10878.ts
#EXTINF:3.627900,
144731770373052-index10879.ts
#EXTINF:10.008000,
144731770373052-index10880.ts
#EXTINF:8.715300,
144731770373052-index10881.ts
#EXTINF:3.502800,
144731770373052-index10882.ts
#EXTINF:10.008000,
144731770373052-index10883.ts
#EXTINF:9.757800,
144731770373052-index10884.ts
#EXTINF:10.008000,
144731770373052-index10885.ts
#EXTINF:3.127500,
144731770373052-index10886.ts
#EXTINF:3.085800,
144731770373052-index10887.ts
#EXTINF:4.461900,
144731770373052-index10888.ts
#EXTINF:7.172400,
144731770373052-index10889.ts
#EXTINF:6.171600,
144731770373052-index10890.ts
#EXTINF:4.837200,
144731770373052-index10891.ts
#EXTINF:4.003200,
144731770373052-index10892.ts
#EXTINF:10.008000,
144731770373052-index10893.ts
#EXTINF:2.543700,
144731770373052-index10894.ts
#EXTINF:6.922200,
144731770373052-index10895.ts
#EXTINF:3.085800,
144731770373052-index10896.ts
#EXTINF:10.008000,
144731770373052-index10897.ts
#EXTINF:7.547700,
144731770373052-index10898.ts
#EXTINF:5.546100,
144731770373052-index10899.ts
#EXTINF:3.627900,
144731770373052-index10900.ts
#EXTINF:10.008000,
144731770373052-index10901.ts
#EXTINF:7.797900,
144731770373052-index10902.ts
#EXTINF:5.129100,
144731770373052-index10903.ts
#EXTINF:3.377700,
144731770373052-index10904.ts
#EXTINF:3.711300,
144731770373052-index10905.ts
#EXTINF:2.710500,
144731770373052-index10906.ts
#EXTINF:3.669600,
144731770373052-index10907.ts
#EXTINF:1.751400,
144731770373052-index10908.ts
#EXTINF:1.709700,
144731770373052-index10909.ts
#EXTINF:1.125900,
144731770373052-index10910.ts
#EXTINF:1.084200,
144731770373052-index10911.ts
#EXTINF:3.085800,
144731770373052-index10912.ts
#EXTINF:4.545300,
144731770373052-index10913.ts
#EXTINF:4.336800,
144731770373052-index10914.ts
#EXTINF:2.710500,
144731770373052-index10915.ts
#EXTINF:6.088200,
144731770373052-index10916.ts
#EXTINF:3.002400,
144731770373052-index10917.ts
#EXTINF:10.008000,
144731770373052-index10918.ts
#EXTINF:4.170000,
144731770373052-index10919.ts
#EXTINF:10.008000,
144731770373052-index10920.ts
#EXTINF:10.008000,
144731770373052-index10921.ts
#EXTINF:8.465100,
144731770373052-index10922.ts
#EXTINF:4.253400,
144731770373052-index10923.ts
#EXTINF:7.714500,
144731770373052-index10924.ts
#EXTINF:5.421000,
144731770373052-index10925.ts
#EXTINF:3.711300,
144731770373052-index10926.ts
#EXTINF:7.089000,
144731770373052-index10927.ts
#EXTINF:3.252600,
144731770373052-index10928.ts
#EXTINF:5.921400,
144731770373052-index10929.ts
#EXTINF:10.008000,
144731770373052-index10930.ts
#EXTINF:10.008000,
144731770373052-index10931.ts
#EXTINF:5.004000,
144731770373052-index10932.ts
#EXTINF:4.878900,
144731770373052-index10933.ts
#EXTINF:10.008000,
144731770373052-index10934.ts
#EXTINF:3.210900,
144731770373052-index10935.ts
#EXTINF:5.379300,
144731770373052-index10936.ts
#EXTINF:10.008000,
144731770373052-index10937.ts
#EXTINF:3.919800,
144731770373052-index10938.ts
#EXTINF:5.295900,
144731770373052-index10939.ts
#EXTINF:8.131500,
144731770373052-index10940.ts
#EXTINF:3.002400,
144731770373052-index10941.ts
#EXTINF:8.423400,
144731770373052-index10942.ts
#EXTINF:3.127500,
144731770373052-index10943.ts
#EXTINF:6.338400,
144731770373052-index10944.ts
#EXTINF:3.002400,
144731770373052-index10945.ts
#EXTINF:5.838000,
144731770373052-index10946.ts
#EXTINF:1.668000,
144731770373052-index10947.ts
#EXTINF:1.668000,
144731770373052-index10948.ts
#EXTINF:1.209300,
144731770373052-index10949.ts
#EXTINF:1.251000,
144731770373052-index10950.ts
#EXTINF:1.417800,
144731770373052-index10951.ts
#EXTINF:3.711300,
144731770373052-index10952.ts
#EXTINF:1.417800,
144731770373052-index10953.ts
#EXTINF:2.168400,
144731770373052-index10954.ts
#EXTINF:1.501200,
144731770373052-index10955.ts
#EXTINF:1.417800,
144731770373052-index10956.ts
#EXTINF:1.376100,
144731770373052-index10957.ts
#EXTINF:1.209300,
144731770373052-index10958.ts
#EXTINF:1.251000,
144731770373052-index10959.ts
#EXTINF:1.876500,
144731770373052-index10960.ts
#EXTINF:1.000800,
144731770373052-index10961.ts
#EXTINF:1.251000,
144731770373052-index10962.ts
#EXTINF:1.793100,
144731770373052-index10963.ts
#EXTINF:4.503600,
144731770373052-index10964.ts
#EXTINF:6.630300,
144731770373052-index10965.ts
#EXTINF:2.502000,
144731770373052-index10966.ts
#EXTINF:8.131500,
144731770373052-index10967.ts
#EXTINF:4.545300,
144731770373052-index10968.ts
#EXTINF:2.460300,
144731770373052-index10969.ts
#EXTINF:6.213300,
144731770373052-index10970.ts
#EXTINF:8.590200,
144731770373052-index10971.ts
#EXTINF:5.796300,
144731770373052-index10972.ts
#EXTINF:3.711300,
144731770373052-index10973.ts
#EXTINF:3.419400,
144731770373052-index10974.ts
#EXTINF:5.337600,
144731770373052-index10975.ts
#EXTINF:2.335200,
144731770373052-index10976.ts
#EXTINF:4.253400,
144731770373052-index10977.ts
#EXTINF:5.421000,
144731770373052-index10978.ts
#EXTINF:5.712900,
144731770373052-index10979.ts
#EXTINF:9.674400,
144731770373052-index10980.ts
#EXTINF:4.128300,
144731770373052-index10981.ts
#EXTINF:3.210900,
144731770373052-index10982.ts
#EXTINF:9.174000,
144731770373052-index10983.ts
#EXTINF:10.008000,
144731770373052-index10984.ts
#EXTINF:3.878100,
144731770373052-index10985.ts
#EXTINF:10.008000,
144731770373052-index10986.ts
#EXTINF:1.626300,
144731770373052-index10987.ts
#EXTINF:9.465900,
144731770373052-index10988.ts
#EXTINF:4.503600,
144731770373052-index10989.ts
#EXTINF:4.837200,
144731770373052-index10990.ts
#EXTINF:4.211700,
144731770373052-index10991.ts
#EXTINF:7.797900,
144731770373052-index10992.ts
#EXTINF:2.168400,
144731770373052-index10993.ts
#EXTINF:2.710500,
144731770373052-index10994.ts
#EXTINF:3.127500,
144731770373052-index10995.ts
#EXTINF:4.753800,
144731770373052-index10996.ts
#EXTINF:7.047300,
144731770373052-index10997.ts
#EXTINF:2.335200,
144731770373052-index10998.ts
#EXTINF:10.008000,
144731770373052-index10999.ts
#EXTINF:2.543700,
144731770373052-index11000.ts
#EXTINF:4.295100,
144731770373052-index11001.ts
#EXTINF:2.835600,
144731770373052-index11002.ts
#EXTINF:4.420200,
144731770373052-index11003.ts
#EXTINF:3.544500,
144731770373052-index11004.ts
#EXTINF:4.253400,
144731770373052-index11005.ts
#EXTINF:4.753800,
144731770373052-index11006.ts
#EXTINF:3.377700,
144731770373052-index11007.ts
#EXTINF:4.503600,
144731770373052-index11008.ts
#EXTINF:4.211700,
144731770373052-index11009.ts
#EXTINF:3.669600,
144731770373052-index11010.ts
#EXTINF:5.379300,
144731770373052-index11011.ts
#EXTINF:4.962300,
144731770373052-index11012.ts
#EXTINF:2.001600,
144731770373052-index11013.ts
#EXTINF:5.504400,
144731770373052-index11014.ts
#EXTINF:4.128300,
144731770373052-index11015.ts
#EXTINF:4.753800,
144731770373052-index11016.ts
#EXTINF:6.255000,
144731770373052-index11017.ts
#EXTINF:6.004800,
144731770373052-index11018.ts
#EXTINF:12.343200,
144731770373052-index11019.ts
#EXTINF:4.461900,
144731770373052-index11020.ts
#EXTINF:2.877300,
144731770373052-index11021.ts
#EXTINF:1.751400,
144731770373052-index11022.ts
#EXTINF:2.877300,
144731770373052-index11023.ts
#EXTINF:5.421000,
144731770373052-index11024.ts
#EXTINF:4.712100,
144731770373052-index11025.ts
#EXTINF:13.218900,
144731770373052-index11026.ts
#EXTINF:5.879700,
144731770373052-index11027.ts
#EXTINF:2.335200,
144731770373052-index11028.ts
#EXTINF:1.334400,
144731770373052-index11029.ts
#EXTINF:2.543700,
144731770373052-index11030.ts
#EXTINF:3.544500,
144731770373052-index11031.ts
#EXTINF:5.921400,
144731770373052-index11032.ts
#EXTINF:7.047300,
144731770373052-index11033.ts
#EXTINF:7.797900,
144731770373052-index11034.ts
#EXTINF:3.252600,
144731770373052-index11035.ts
#EXTINF:3.336000,
144731770373052-index11036.ts
#EXTINF:4.753800,
144731770373052-index11037.ts
#EXTINF:3.127500,
144731770373052-index11038.ts
#EXTINF:7.255800,
144731770373052-index11039.ts
#EXTINF:3.461100,
144731770373052-index11040.ts
#EXTINF:5.671200,
144731770373052-index11041.ts
#EXTINF:4.920600,
144731770373052-index11042.ts
#EXTINF:3.127500,
144731770373052-index11043.ts
#EXTINF:7.255800,
144731770373052-index11044.ts
#EXTINF:5.963100,
144731770373052-index11045.ts
#EXTINF:2.877300,
144731770373052-index11046.ts
#EXTINF:6.129900,
144731770373052-index11047.ts
#EXTINF:10.008000,
144731770373052-index11048.ts
#EXTINF:3.252600,
144731770373052-index11049.ts
#EXTINF:10.008000,
144731770373052-index11050.ts
#EXTINF:3.669600,
144731770373052-index11051.ts
#EXTINF:1.000800,
144731770373052-index11052.ts
#EXTINF:1.542900,
144731770373052-index11053.ts
#EXTINF:4.044900,
144731770373052-index11054.ts
#EXTINF:6.213300,
144731770373052-index11055.ts
#EXTINF:7.756200,
144731770373052-index11056.ts
#EXTINF:9.174000,
144731770373052-index11057.ts
#EXTINF:4.670400,
144731770373052-index11058.ts
#EXTINF:2.585400,
144731770373052-index11059.ts
#EXTINF:2.460300,
144731770373052-index11060.ts
#EXTINF:3.919800,
144731770373052-index11061.ts
#EXTINF:5.004000,
144731770373052-index11062.ts
#EXTINF:3.085800,
144731770373052-index11063.ts
#EXTINF:4.962300,
144731770373052-index11064.ts
#EXTINF:5.504400,
144731770373052-index11065.ts
#EXTINF:4.336800,
144731770373052-index11066.ts
#EXTINF:5.879700,
144731770373052-index11067.ts
#EXTINF:4.503600,
144731770373052-index11068.ts
#EXTINF:8.006400,
144731770373052-index11069.ts
#EXTINF:2.460300,
144731770373052-index11070.ts
#EXTINF:3.669600,
144731770373052-index11071.ts
#EXTINF:5.379300,
144731770373052-index11072.ts
#EXTINF:7.547700,
144731770373052-index11073.ts
#EXTINF:2.793900,
144731770373052-index11074.ts
#EXTINF:4.878900,
144731770373052-index11075.ts
#EXTINF:5.337600,
144731770373052-index11076.ts
#EXTINF:6.255000,
144731770373052-index11077.ts
#EXTINF:3.544500,
144731770373052-index11078.ts
#EXTINF:6.338400,
144731770373052-index11079.ts
#EXTINF:8.965500,
144731770373052-index11080.ts
#EXTINF:10.008000,
144731770373052-index11081.ts
#EXTINF:2.752200,
144731770373052-index11082.ts
#EXTINF:4.211700,
144731770373052-index11083.ts
#EXTINF:2.627100,
144731770373052-index11084.ts
#EXTINF:4.753800,
144731770373052-index11085.ts
#EXTINF:9.215700,
144731770373052-index11086.ts
#EXTINF:2.543700,
144731770373052-index11087.ts
#EXTINF:4.837200,
144731770373052-index11088.ts
#EXTINF:4.211700,
144731770373052-index11089.ts
#EXTINF:3.461100,
144731770373052-index11090.ts
#EXTINF:4.837200,
144731770373052-index11091.ts
#EXTINF:4.003200,
144731770373052-index11092.ts
#EXTINF:4.295100,
144731770373052-index11093.ts
#EXTINF:6.421800,
144731770373052-index11094.ts
#EXTINF:2.210100,
144731770373052-index11095.ts
#EXTINF:9.674400,
144731770373052-index11096.ts
#EXTINF:2.126700,
144731770373052-index11097.ts
#EXTINF:3.419400,
144731770373052-index11098.ts
#EXTINF:3.669600,
144731770373052-index11099.ts
#EXTINF:6.255000,
144731770373052-index11100.ts
#EXTINF:5.337600,
144731770373052-index11101.ts
#EXTINF:3.627900,
144731770373052-index11102.ts
#EXTINF:8.131500,
144731770373052-index11103.ts
#EXTINF:3.711300,
144731770373052-index11104.ts
#EXTINF:2.877300,
144731770373052-index11105.ts
#EXTINF:5.838000,
144731770373052-index11106.ts
#EXTINF:5.004000,
144731770373052-index11107.ts
#EXTINF:5.087400,
144731770373052-index11108.ts
#EXTINF:6.421800,
144731770373052-index11109.ts
#EXTINF:4.086600,
144731770373052-index11110.ts
#EXTINF:8.423400,
144731770373052-index11111.ts
#EXTINF:5.421000,
144731770373052-index11112.ts
#EXTINF:7.422600,
144731770373052-index11113.ts
#EXTINF:8.590200,
144731770373052-index11114.ts
#EXTINF:2.335200,
144731770373052-index11115.ts
#EXTINF:1.167600,
144731770373052-index11116.ts
#EXTINF:1.292700,
144731770373052-index11117.ts
#EXTINF:4.253400,
144731770373052-index11118.ts
#EXTINF:5.212500,
144731770373052-index11119.ts
#EXTINF:6.421800,
144731770373052-index11120.ts
#EXTINF:2.919000,
144731770373052-index11121.ts
#EXTINF:6.713700,
144731770373052-index11122.ts
#EXTINF:2.835600,
144731770373052-index11123.ts
#EXTINF:6.588600,
144731770373052-index11124.ts
#EXTINF:3.878100,
144731770373052-index11125.ts
#EXTINF:5.421000,
144731770373052-index11126.ts
#EXTINF:4.170000,
144731770373052-index11127.ts
#EXTINF:7.964700,
144731770373052-index11128.ts
#EXTINF:3.336000,
144731770373052-index11129.ts
#EXTINF:4.837200,
144731770373052-index11130.ts
#EXTINF:4.795500,
144731770373052-index11131.ts
#EXTINF:4.336800,
144731770373052-index11132.ts
#EXTINF:7.047300,
144731770373052-index11133.ts
#EXTINF:3.169200,
144731770373052-index11134.ts
#EXTINF:5.504400,
144731770373052-index11135.ts
#EXTINF:4.003200,
144731770373052-index11136.ts
#EXTINF:4.962300,
144731770373052-index11137.ts
#EXTINF:7.214100,
144731770373052-index11138.ts
#EXTINF:3.711300,
144731770373052-index11139.ts
#EXTINF:4.378500,
144731770373052-index11140.ts
#EXTINF:5.421000,
144731770373052-index11141.ts
#EXTINF:4.962300,
144731770373052-index11142.ts
#EXTINF:4.837200,
144731770373052-index11143.ts
#EXTINF:6.004800,
144731770373052-index11144.ts
#EXTINF:7.255800,
144731770373052-index11145.ts
#EXTINF:3.002400,
144731770373052-index11146.ts
#EXTINF:3.919800,
144731770373052-index11147.ts
#EXTINF:5.546100,
144731770373052-index11148.ts
#EXTINF:6.004800,
144731770373052-index11149.ts
#EXTINF:5.712900,
144731770373052-index11150.ts
#EXTINF:2.502000,
144731770373052-index11151.ts
#EXTINF:4.962300,
144731770373052-index11152.ts
#EXTINF:4.628700,
144731770373052-index11153.ts
#EXTINF:5.504400,
144731770373052-index11154.ts
#EXTINF:5.879700,
144731770373052-index11155.ts
#EXTINF:5.546100,
144731770373052-index11156.ts
#EXTINF:3.127500,
144731770373052-index11157.ts
#EXTINF:5.045700,
144731770373052-index11158.ts
#EXTINF:5.295900,
144731770373052-index11159.ts
#EXTINF:5.295900,
144731770373052-index11160.ts
#EXTINF:4.420200,
144731770373052-index11161.ts
#EXTINF:9.090600,
144731770373052-index11162.ts
#EXTINF:5.671200,
144731770373052-index11163.ts
#EXTINF:3.669600,
144731770373052-index11164.ts
#EXTINF:1.334400,
144731770373052-index11165.ts
#EXTINF:6.755400,
144731770373052-index11166.ts
#EXTINF:3.419400,
144731770373052-index11167.ts
#EXTINF:6.088200,
144731770373052-index11168.ts
#EXTINF:8.465100,
144731770373052-index11169.ts
#EXTINF:3.419400,
144731770373052-index11170.ts
#EXTINF:3.252600,
144731770373052-index11171.ts
#EXTINF:3.627900,
144731770373052-index11172.ts
#EXTINF:10.174800,
144731770373052-index11173.ts
#EXTINF:3.961500,
144731770373052-index11174.ts
#EXTINF:5.170800,
144731770373052-index11175.ts
#EXTINF:2.835600,
144731770373052-index11176.ts
#EXTINF:7.839600,
144731770373052-index11177.ts
#EXTINF:1.376100,
144731770373052-index11178.ts
#EXTINF:6.338400,
144731770373052-index11179.ts
#EXTINF:3.252600,
144731770373052-index11180.ts
#EXTINF:4.003200,
144731770373052-index11181.ts
#EXTINF:7.255800,
144731770373052-index11182.ts
#EXTINF:3.336000,
144731770373052-index11183.ts
#EXTINF:7.714500,
144731770373052-index11184.ts
#EXTINF:4.295100,
144731770373052-index11185.ts
#EXTINF:3.961500,
144731770373052-index11186.ts
#EXTINF:5.462700,
144731770373052-index11187.ts
#EXTINF:7.964700,
144731770373052-index11188.ts
#EXTINF:5.170800,
144731770373052-index11189.ts
#EXTINF:1.876500,
144731770373052-index11190.ts
#EXTINF:3.252600,
144731770373052-index11191.ts
#EXTINF:14.011200,
144731770373052-index11192.ts
#EXTINF:2.251800,
144731770373052-index11193.ts
#EXTINF:1.167600,
144731770373052-index11194.ts
#EXTINF:4.211700,
144731770373052-index11195.ts
#EXTINF:9.090600,
144731770373052-index11196.ts
#EXTINF:6.505200,
144731770373052-index11197.ts
#EXTINF:2.502000,
144731770373052-index11198.ts
#EXTINF:7.506000,
144731770373052-index11199.ts
#EXTINF:3.502800,
144731770373052-index11200.ts
#EXTINF:1.918200,
144731770373052-index11201.ts
#EXTINF:4.628700,
144731770373052-index11202.ts
#EXTINF:5.671200,
144731770373052-index11203.ts
#EXTINF:2.793900,
144731770373052-index11204.ts
#EXTINF:7.255800,
144731770373052-index11205.ts
#EXTINF:2.668800,
144731770373052-index11206.ts
#EXTINF:8.965500,
144731770373052-index11207.ts
#EXTINF:6.588600,
144731770373052-index11208.ts
#EXTINF:5.546100,
144731770373052-index11209.ts
#EXTINF:1.709700,
144731770373052-index11210.ts
#EXTINF:2.919000,
144731770373052-index11211.ts
#EXTINF:7.339200,
144731770373052-index11212.ts
#EXTINF:2.168400,
144731770373052-index11213.ts
#EXTINF:5.504400,
144731770373052-index11214.ts
#EXTINF:6.129900,
144731770373052-index11215.ts
#EXTINF:9.340800,
144731770373052-index11216.ts
#EXTINF:4.086600,
144731770373052-index11217.ts
#EXTINF:4.253400,
144731770373052-index11218.ts
#EXTINF:2.293500,
144731770373052-index11219.ts
#EXTINF:2.585400,
144731770373052-index11220.ts
#EXTINF:8.256600,
144731770373052-index11221.ts
#EXTINF:2.418600,
144731770373052-index11222.ts
#EXTINF:4.253400,
144731770373052-index11223.ts
#EXTINF:6.713700,
144731770373052-index11224.ts
#EXTINF:3.544500,
144731770373052-index11225.ts
#EXTINF:4.378500,
144731770373052-index11226.ts
#EXTINF:7.214100,
144731770373052-index11227.ts
#EXTINF:3.419400,
144731770373052-index11228.ts
#EXTINF:8.840400,
144731770373052-index11229.ts
#EXTINF:1.251000,
144731770373052-index11230.ts
#EXTINF:5.129100,
144731770373052-index11231.ts
#EXTINF:5.504400,
144731770373052-index11232.ts
#EXTINF:6.713700,
144731770373052-index11233.ts
#EXTINF:2.001600,
144731770373052-index11234.ts
#EXTINF:5.212500,
144731770373052-index11235.ts
#EXTINF:5.546100,
144731770373052-index11236.ts
#EXTINF:5.004000,
144731770373052-index11237.ts
#EXTINF:4.128300,
144731770373052-index11238.ts
#EXTINF:7.923000,
144731770373052-index11239.ts
#EXTINF:2.752200,
144731770373052-index11240.ts
#EXTINF:5.212500,
144731770373052-index11241.ts
#EXTINF:6.255000,
144731770373052-index11242.ts
#EXTINF:3.044100,
144731770373052-index11243.ts
#EXTINF:4.920600,
144731770373052-index11244.ts
#EXTINF:5.004000,
144731770373052-index11245.ts
#EXTINF:4.878900,
144731770373052-index11246.ts
#EXTINF:7.964700,
144731770373052-index11247.ts
#EXTINF:2.793900,
144731770373052-index11248.ts
#EXTINF:4.378500,
144731770373052-index11249.ts
#EXTINF:8.006400,
144731770373052-index11250.ts
#EXTINF:3.294300,
144731770373052-index11251.ts
#EXTINF:5.629500,
144731770373052-index11252.ts
#EXTINF:3.586200,
144731770373052-index11253.ts
#EXTINF:4.587000,
144731770373052-index11254.ts
#EXTINF:5.754600,
144731770373052-index11255.ts
#EXTINF:4.044900,
144731770373052-index11256.ts
#EXTINF:6.004800,
144731770373052-index11257.ts
#EXTINF:4.587000,
144731770373052-index11258.ts
#EXTINF:5.504400,
144731770373052-index11259.ts
#EXTINF:5.212500,
144731770373052-index11260.ts
#EXTINF:4.420200,
144731770373052-index11261.ts
#EXTINF:4.878900,
144731770373052-index11262.ts
#EXTINF:5.295900,
144731770373052-index11263.ts
#EXTINF:4.420200,
144731770373052-index11264.ts
#EXTINF:4.795500,
144731770373052-index11265.ts
#EXTINF:4.837200,
144731770373052-index11266.ts
#EXTINF:7.964700,
144731770373052-index11267.ts
#EXTINF:5.170800,
144731770373052-index11268.ts
#EXTINF:3.669600,
144731770373052-index11269.ts
#EXTINF:4.336800,
144731770373052-index11270.ts
#EXTINF:4.670400,
144731770373052-index11271.ts
#EXTINF:5.004000,
144731770373052-index11272.ts
#EXTINF:5.087400,
144731770373052-index11273.ts
#EXTINF:9.090600,
144731770373052-index11274.ts
#EXTINF:2.960700,
144731770373052-index11275.ts
#EXTINF:3.169200,
144731770373052-index11276.ts
#EXTINF:6.713700,
144731770373052-index11277.ts
#EXTINF:4.003200,
144731770373052-index11278.ts
#EXTINF:3.169200,
144731770373052-index11279.ts
#EXTINF:5.254200,
144731770373052-index11280.ts
#EXTINF:5.671200,
144731770373052-index11281.ts
#EXTINF:6.296700,
144731770373052-index11282.ts
#EXTINF:3.711300,
144731770373052-index11283.ts
#EXTINF:6.672000,
144731770373052-index11284.ts
#EXTINF:5.379300,
144731770373052-index11285.ts
#EXTINF:2.627100,
144731770373052-index11286.ts
#EXTINF:5.462700,
144731770373052-index11287.ts
#EXTINF:5.129100,
144731770373052-index11288.ts
#EXTINF:4.878900,
144731770373052-index11289.ts
#EXTINF:5.838000,
144731770373052-index11290.ts
#EXTINF:4.587000,
144731770373052-index11291.ts
#EXTINF:7.881300,
144731770373052-index11292.ts
#EXTINF:3.836400,
144731770373052-index11293.ts
#EXTINF:3.377700,
144731770373052-index11294.ts
#EXTINF:5.087400,
144731770373052-index11295.ts
#EXTINF:6.004800,
144731770373052-index11296.ts
#EXTINF:4.587000,
144731770373052-index11297.ts
#EXTINF:4.295100,
144731770373052-index11298.ts
#EXTINF:5.004000,
144731770373052-index11299.ts
#EXTINF:6.296700,
144731770373052-index11300.ts
#EXTINF:3.336000,
144731770373052-index11301.ts
#EXTINF:6.797100,
144731770373052-index11302.ts
#EXTINF:9.132300,
144731770373052-index11303.ts
#EXTINF:6.505200,
144731770373052-index11304.ts
#EXTINF:2.543700,
144731770373052-index11305.ts
#EXTINF:5.587800,
144731770373052-index11306.ts
#EXTINF:3.544500,
144731770373052-index11307.ts
#EXTINF:2.335200,
144731770373052-index11308.ts
#EXTINF:4.211700,
144731770373052-index11309.ts
#EXTINF:4.295100,
144731770373052-index11310.ts
#EXTINF:4.044900,
144731770373052-index11311.ts
#EXTINF:4.962300,
144731770373052-index11312.ts
#EXTINF:7.631100,
144731770373052-index11313.ts
#EXTINF:2.668800,
144731770373052-index11314.ts
#EXTINF:10.008000,
144731770373052-index11315.ts
#EXTINF:4.378500,
144731770373052-index11316.ts
#EXTINF:2.126700,
144731770373052-index11317.ts
#EXTINF:3.711300,
144731770373052-index11318.ts
#EXTINF:10.800300,
144731770373052-index11319.ts
#EXTINF:3.336000,
144731770373052-index11320.ts
#EXTINF:6.338400,
144731770373052-index11321.ts
#EXTINF:10.008000,
144731770373052-index11322.ts
#EXTINF:3.252600,
144731770373052-index11323.ts
#EXTINF:9.966300,
144731770373052-index11324.ts
#EXTINF:2.835600,
144731770373052-index11325.ts
#EXTINF:2.460300,
144731770373052-index11326.ts
#EXTINF:2.001600,
144731770373052-index11327.ts
#EXTINF:1.709700,
144731770373052-index11328.ts
#EXTINF:5.546100,
144731770373052-index11329.ts
#EXTINF:1.793100,
144731770373052-index11330.ts
#EXTINF:9.841200,
144731770373052-index11331.ts
#EXTINF:1.918200,
144731770373052-index11332.ts
#EXTINF:7.923000,
144731770373052-index11333.ts
#EXTINF:5.421000,
144731770373052-index11334.ts
#EXTINF:4.336800,
144731770373052-index11335.ts
#EXTINF:9.549300,
144731770373052-index11336.ts
#EXTINF:8.048100,
144731770373052-index11337.ts
#EXTINF:3.002400,
144731770373052-index11338.ts
#EXTINF:4.128300,
144731770373052-index11339.ts
#EXTINF:1.417800,
144731770373052-index11340.ts
#EXTINF:5.921400,
144731770373052-index11341.ts
#EXTINF:2.585400,
144731770373052-index11342.ts
#EXTINF:1.626300,
144731770373052-index11343.ts
#EXTINF:5.045700,
144731770373052-index11344.ts
#EXTINF:4.420200,
144731770373052-index11345.ts
#EXTINF:9.424200,
144731770373052-index11346.ts
#EXTINF:3.210900,
144731770373052-index11347.ts
#EXTINF:2.335200,
144731770373052-index11348.ts
#EXTINF:4.128300,
144731770373052-index11349.ts
#EXTINF:8.840400,
144731770373052-index11350.ts
#EXTINF:1.417800,
144731770373052-index11351.ts
#EXTINF:5.504400,
144731770373052-index11352.ts
#EXTINF:4.086600,
144731770373052-index11353.ts
#EXTINF:5.671200,
144731770373052-index11354.ts
#EXTINF:5.421000,
144731770373052-index11355.ts
#EXTINF:4.670400,
144731770373052-index11356.ts
#EXTINF:5.629500,
144731770373052-index11357.ts
#EXTINF:4.003200,
144731770373052-index11358.ts
#EXTINF:5.379300,
144731770373052-index11359.ts
#EXTINF:4.545300,
144731770373052-index11360.ts
#EXTINF:5.087400,
144731770373052-index11361.ts
#EXTINF:10.383300,
144731770373052-index11362.ts
#EXTINF:1.376100,
144731770373052-index11363.ts
#EXTINF:3.294300,
144731770373052-index11364.ts
#EXTINF:4.795500,
144731770373052-index11365.ts
#EXTINF:6.171600,
144731770373052-index11366.ts
#EXTINF:5.129100,
144731770373052-index11367.ts
#EXTINF:3.753000,
144731770373052-index11368.ts
#EXTINF:5.754600,
144731770373052-index11369.ts
#EXTINF:10.008000,
144731770373052-index11370.ts
#EXTINF:1.668000,
144731770373052-index11371.ts
#EXTINF:3.502800,
144731770373052-index11372.ts
#EXTINF:4.753800,
144731770373052-index11373.ts
#EXTINF:5.796300,
144731770373052-index11374.ts
#EXTINF:3.544500,
144731770373052-index11375.ts
#EXTINF:5.295900,
144731770373052-index11376.ts
#EXTINF:8.673600,
144731770373052-index11377.ts
#EXTINF:1.167600,
144731770373052-index11378.ts
#EXTINF:5.838000,
144731770373052-index11379.ts
#EXTINF:4.545300,
144731770373052-index11380.ts
#EXTINF:6.421800,
144731770373052-index11381.ts
#EXTINF:4.378500,
144731770373052-index11382.ts
#EXTINF:4.795500,
144731770373052-index11383.ts
#EXTINF:5.379300,
144731770373052-index11384.ts
#EXTINF:5.254200,
144731770373052-index11385.ts
#EXTINF:3.085800,
144731770373052-index11386.ts
#EXTINF:5.004000,
144731770373052-index11387.ts
#EXTINF:6.713700,
144731770373052-index11388.ts
#EXTINF:5.295900,
144731770373052-index11389.ts
#EXTINF:3.586200,
144731770373052-index11390.ts
#EXTINF:5.129100,
144731770373052-index11391.ts
#EXTINF:5.087400,
144731770373052-index11392.ts
#EXTINF:4.461900,
144731770373052-index11393.ts
#EXTINF:5.921400,
144731770373052-index11394.ts
#EXTINF:6.588600,
144731770373052-index11395.ts
#EXTINF:2.460300,
144731770373052-index11396.ts
#EXTINF:6.838800,
144731770373052-index11397.ts
#EXTINF:2.793900,
144731770373052-index11398.ts
#EXTINF:5.295900,
144731770373052-index11399.ts
#EXTINF:5.129100,
144731770373052-index11400.ts
#EXTINF:7.547700,
144731770373052-index11401.ts
#EXTINF:3.127500,
144731770373052-index11402.ts
#EXTINF:4.086600,
144731770373052-index11403.ts
#EXTINF:5.129100,
144731770373052-index11404.ts
#EXTINF:6.004800,
144731770373052-index11405.ts
#EXTINF:4.336800,
144731770373052-index11406.ts
#EXTINF:6.421800,
144731770373052-index11407.ts
#EXTINF:4.420200,
144731770373052-index11408.ts
#EXTINF:4.753800,
144731770373052-index11409.ts
#EXTINF:7.547700,
144731770373052-index11410.ts
#EXTINF:2.251800,
144731770373052-index11411.ts
#EXTINF:4.878900,
144731770373052-index11412.ts
#EXTINF:5.087400,
144731770373052-index11413.ts
#EXTINF:4.461900,
144731770373052-index11414.ts
#EXTINF:7.422600,
144731770373052-index11415.ts
#EXTINF:3.252600,
144731770373052-index11416.ts
#EXTINF:5.212500,
144731770373052-index11417.ts
#EXTINF:8.631900,
144731770373052-index11418.ts
#EXTINF:3.336000,
144731770373052-index11419.ts
#EXTINF:3.002400,
144731770373052-index11420.ts
#EXTINF:5.671200,
144731770373052-index11421.ts
#EXTINF:3.544500,
144731770373052-index11422.ts
#EXTINF:5.504400,
144731770373052-index11423.ts
#EXTINF:3.961500,
144731770373052-index11424.ts
#EXTINF:6.463500,
144731770373052-index11425.ts
#EXTINF:4.837200,
144731770373052-index11426.ts
#EXTINF:5.045700,
144731770373052-index11427.ts
#EXTINF:7.005600,
144731770373052-index11428.ts
#EXTINF:2.710500,
144731770373052-index11429.ts
#EXTINF:6.922200,
144731770373052-index11430.ts
#EXTINF:5.462700,
144731770373052-index11431.ts
#EXTINF:1.417800,
144731770373052-index11432.ts
#EXTINF:5.129100,
144731770373052-index11433.ts
#EXTINF:6.672000,
144731770373052-index11434.ts
#EXTINF:4.003200,
144731770373052-index11435.ts
#EXTINF:8.423400,
144731770373052-index11436.ts
#EXTINF:2.126700,
144731770373052-index11437.ts
#EXTINF:6.880500,
144731770373052-index11438.ts
#EXTINF:4.503600,
144731770373052-index11439.ts
#EXTINF:3.586200,
144731770373052-index11440.ts
#EXTINF:3.836400,
144731770373052-index11441.ts
#EXTINF:5.796300,
144731770373052-index11442.ts
#EXTINF:5.712900,
144731770373052-index11443.ts
#EXTINF:5.546100,
144731770373052-index11444.ts
#EXTINF:5.754600,
144731770373052-index11445.ts
#EXTINF:2.502000,
144731770373052-index11446.ts
#EXTINF:6.296700,
144731770373052-index11447.ts
#EXTINF:9.215700,
144731770373052-index11448.ts
#EXTINF:10.008000,
144731770373052-index11449.ts
#EXTINF:4.461900,
144731770373052-index11450.ts
#EXTINF:3.044100,
144731770373052-index11451.ts
#EXTINF:2.335200,
144731770373052-index11452.ts
#EXTINF:4.295100,
144731770373052-index11453.ts
#EXTINF:6.797100,
144731770373052-index11454.ts
#EXTINF:1.000800,
144731770373052-index11455.ts
#EXTINF:3.044100,
144731770373052-index11456.ts
#EXTINF:8.673600,
144731770373052-index11457.ts
#EXTINF:4.044900,
144731770373052-index11458.ts
#EXTINF:3.377700,
144731770373052-index11459.ts
#EXTINF:4.336800,
144731770373052-index11460.ts
#EXTINF:6.171600,
144731770373052-index11461.ts
#EXTINF:3.044100,
144731770373052-index11462.ts
#EXTINF:4.503600,
144731770373052-index11463.ts
#EXTINF:6.505200,
144731770373052-index11464.ts
#EXTINF:5.754600,
144731770373052-index11465.ts
#EXTINF:2.960700,
144731770373052-index11466.ts
#EXTINF:6.046500,
144731770373052-index11467.ts
#EXTINF:6.129900,
144731770373052-index11468.ts
#EXTINF:2.502000,
144731770373052-index11469.ts
#EXTINF:5.712900,
144731770373052-index11470.ts
#EXTINF:4.670400,
144731770373052-index11471.ts
#EXTINF:7.464300,
144731770373052-index11472.ts
#EXTINF:2.668800,
144731770373052-index11473.ts
#EXTINF:7.547700,
144731770373052-index11474.ts
#EXTINF:8.923800,
144731770373052-index11475.ts
#EXTINF:2.460300,
144731770373052-index11476.ts
#EXTINF:1.918200,
144731770373052-index11477.ts
#EXTINF:4.878900,
144731770373052-index11478.ts
#EXTINF:5.796300,
144731770373052-index11479.ts
#EXTINF:7.923000,
144731770373052-index11480.ts
#EXTINF:1.751400,
144731770373052-index11481.ts
#EXTINF:6.838800,
144731770373052-index11482.ts
#EXTINF:8.715300,
144731770373052-index11483.ts
#EXTINF:4.295100,
144731770373052-index11484.ts
#EXTINF:2.919000,
144731770373052-index11485.ts
#EXTINF:3.961500,
144731770373052-index11486.ts
#EXTINF:3.586200,
144731770373052-index11487.ts
#EXTINF:4.170000,
144731770373052-index11488.ts
#EXTINF:8.048100,
144731770373052-index11489.ts
#EXTINF:4.378500,
144731770373052-index11490.ts
#EXTINF:10.008000,
144731770373052-index11491.ts
#EXTINF:3.586200,
144731770373052-index11492.ts
#EXTINF:6.421800,
144731770373052-index11493.ts
#EXTINF:5.587800,
144731770373052-index11494.ts
#EXTINF:1.542900,
144731770373052-index11495.ts
#EXTINF:3.544500,
144731770373052-index11496.ts
#EXTINF:3.794700,
144731770373052-index11497.ts
#EXTINF:3.586200,
144731770373052-index11498.ts
#EXTINF:6.630300,
144731770373052-index11499.ts
#EXTINF:5.254200,
144731770373052-index11500.ts
#EXTINF:3.961500,
144731770373052-index11501.ts
#EXTINF:5.462700,
144731770373052-index11502.ts
#EXTINF:7.214100,
144731770373052-index11503.ts
#EXTINF:2.418600,
144731770373052-index11504.ts
#EXTINF:5.087400,
144731770373052-index11505.ts
#EXTINF:3.002400,
144731770373052-index11506.ts
#EXTINF:6.797100,
144731770373052-index11507.ts
#EXTINF:3.878100,
144731770373052-index11508.ts
#EXTINF:10.008000,
144731770373052-index11509.ts
#EXTINF:1.918200,
144731770373052-index11510.ts
#EXTINF:3.377700,
144731770373052-index11511.ts
#EXTINF:10.008000,
144731770373052-index11512.ts
#EXTINF:1.084200,
144731770373052-index11513.ts
#EXTINF:2.418600,
144731770373052-index11514.ts
#EXTINF:5.170800,
144731770373052-index11515.ts
#EXTINF:7.547700,
144731770373052-index11516.ts
#EXTINF:10.008000,
144731770373052-index11517.ts
#EXTINF:8.381700,
144731770373052-index11518.ts
#EXTINF:2.960700,
144731770373052-index11519.ts
#EXTINF:3.794700,
144731770373052-index11520.ts
#EXTINF:4.753800,
144731770373052-index11521.ts
#EXTINF:3.502800,
144731770373052-index11522.ts
#EXTINF:7.130700,
144731770373052-index11523.ts
#EXTINF:3.919800,
144731770373052-index11524.ts
#EXTINF:3.919800,
144731770373052-index11525.ts
#EXTINF:2.293500,
144731770373052-index11526.ts
#EXTINF:8.757000,
144731770373052-index11527.ts
#EXTINF:1.876500,
144731770373052-index11528.ts
#EXTINF:2.668800,
144731770373052-index11529.ts
#EXTINF:3.669600,
144731770373052-index11530.ts
#EXTINF:10.008000,
144731770373052-index11531.ts
#EXTINF:6.463500,
144731770373052-index11532.ts
#EXTINF:10.008000,
144731770373052-index11533.ts
#EXTINF:5.379300,
144731770373052-index11534.ts
#EXTINF:6.713700,
144731770373052-index11535.ts
#EXTINF:6.713700,
144731770373052-index11536.ts
#EXTINF:6.755400,
144731770373052-index11537.ts
#EXTINF:6.630300,
144731770373052-index11538.ts
#EXTINF:6.213300,
144731770373052-index11539.ts
#EXTINF:10.008000,
144731770373052-index11540.ts
#EXTINF:8.465100,
144731770373052-index11541.ts
#EXTINF:4.878900,
144731770373052-index11542.ts
#EXTINF:6.338400,
144731770373052-index11543.ts
#EXTINF:10.008000,
144731770373052-index11544.ts
#EXTINF:2.126700,
144731770373052-index11545.ts
#EXTINF:3.586200,
144731770373052-index11546.ts
#EXTINF:5.546100,
144731770373052-index11547.ts
#EXTINF:5.004000,
144731770373052-index11548.ts
#EXTINF:2.668800,
144731770373052-index11549.ts
#EXTINF:9.507600,
144731770373052-index11550.ts
#EXTINF:3.753000,
144731770373052-index11551.ts
#EXTINF:1.334400,
144731770373052-index11552.ts
#EXTINF:2.043300,
144731770373052-index11553.ts
#EXTINF:1.376100,
144731770373052-index11554.ts
#EXTINF:4.837200,
144731770373052-index11555.ts
#EXTINF:1.626300,
144731770373052-index11556.ts
#EXTINF:4.628700,
144731770373052-index11557.ts
#EXTINF:2.085000,
144731770373052-index11558.ts
#EXTINF:10.008000,
144731770373052-index11559.ts
#EXTINF:1.626300,
144731770373052-index11560.ts
#EXTINF:1.834800,
144731770373052-index11561.ts
#EXTINF:4.086600,
144731770373052-index11562.ts
#EXTINF:2.085000,
144731770373052-index11563.ts
#EXTINF:3.169200,
144731770373052-index11564.ts
#EXTINF:2.919000,
144731770373052-index11565.ts
#EXTINF:2.043300,
144731770373052-index11566.ts
#EXTINF:2.251800,
144731770373052-index11567.ts
#EXTINF:4.962300,
144731770373052-index11568.ts
#EXTINF:7.464300,
144731770373052-index11569.ts
#EXTINF:5.629500,
144731770373052-index11570.ts
#EXTINF:6.213300,
144731770373052-index11571.ts
#EXTINF:6.755400,
144731770373052-index11572.ts
#EXTINF:2.627100,
144731770373052-index11573.ts
#EXTINF:2.793900,
144731770373052-index11574.ts
#EXTINF:10.008000,
144731770373052-index11575.ts
#EXTINF:10.008000,
144731770373052-index11576.ts
#EXTINF:10.008000,
144731770373052-index11577.ts
#EXTINF:10.008000,
144731770373052-index11578.ts
#EXTINF:10.008000,
144731770373052-index11579.ts
#EXTINF:10.008000,
144731770373052-index11580.ts
#EXTINF:10.008000,
144731770373052-index11581.ts
#EXTINF:10.008000,
144731770373052-index11582.ts
#EXTINF:10.008000,
144731770373052-index11583.ts
#EXTINF:10.008000,
144731770373052-index11584.ts
#EXTINF:10.008000,
144731770373052-index11585.ts
#EXTINF:10.008000,
144731770373052-index11586.ts
#EXTINF:10.008000,
144731770373052-index11587.ts
#EXTINF:10.008000,
144731770373052-index11588.ts
#EXTINF:10.008000,
144731770373052-index11589.ts
#EXTINF:10.008000,
144731770373052-index11590.ts
#EXTINF:10.008000,
144731770373052-index11591.ts
#EXTINF:10.008000,
144731770373052-index11592.ts
#EXTINF:10.008000,
144731770373052-index11593.ts
#EXTINF:10.008000,
144731770373052-index11594.ts
#EXTINF:10.008000,
144731770373052-index11595.ts
#EXTINF:10.008000,
144731770373052-index11596.ts
#EXTINF:10.008000,
144731770373052-index11597.ts
#EXTINF:10.008000,
144731770373052-index11598.ts
#EXTINF:10.008000,
144731770373052-index11599.ts
#EXTINF:10.008000,
144731770373052-index11600.ts
#EXTINF:10.008000,
144731770373052-index11601.ts
#EXTINF:10.008000,
144731770373052-index11602.ts
#EXTINF:10.008000,
144731770373052-index11603.ts
#EXTINF:10.008000,
144731770373052-index11604.ts
#EXTINF:10.008000,
144731770373052-index11605.ts
#EXTINF:10.008000,
144731770373052-index11606.ts
#EXTINF:10.008000,
144731770373052-index11607.ts
#EXTINF:10.008000,
144731770373052-index11608.ts
#EXTINF:10.008000,
144731770373052-index11609.ts
#EXTINF:10.008000,
144731770373052-index11610.ts
#EXTINF:10.008000,
144731770373052-index11611.ts
#EXTINF:10.008000,
144731770373052-index11612.ts
#EXTINF:10.008000,
144731770373052-index11613.ts
#EXTINF:10.008000,
144731770373052-index11614.ts
#EXTINF:1.417800,
144731770373052-index11615.ts
#EXTINF:10.008000,
144731770373052-index11616.ts
#EXTINF:3.794700,
144731770373052-index11617.ts
#EXTINF:3.002400,
144731770373052-index11618.ts
#EXTINF:3.919800,
144731770373052-index11619.ts
#EXT-X-ENDLIST
