#EXTM3U
#EXT-X-VERSION:3
#EXT-X-TARGETDURATION:11
#EXT-X-MEDIA-SEQUENCE:10001
#EXTINF:10.522022,
147715077632003-index10001.png
#EXTINF:1.916667,
147715077632003-index10002.png
#EXTINF:1.916667,
147715077632003-index10003.png
#EXTINF:4.875000,
147715077632003-index10004.png
#EXTINF:5.708333,
147715077632003-index10005.png
#EXTINF:2.708333,
147715077632003-index10006.png
#EXTINF:1.625000,
147715077632003-index10007.png
#EXTINF:2.291667,
147715077632003-index10008.png
#EXTINF:1.125000,
147715077632003-index10009.png
#EXTINF:2.250000,
147715077632003-index10010.png
#EXTINF:1.041667,
147715077632003-index10011.png
#EXTINF:1.041667,
147715077632003-index10012.png
#EXTINF:1.125000,
147715077632003-index10013.png
#EXTINF:5.166667,
147715077632003-index10014.png
#EXTINF:1.375000,
147715077632003-index10015.png
#EXTINF:1.000000,
147715077632003-index10016.png
#EXTINF:1.375000,
147715077632003-index10017.png
#EXTINF:4.833333,
147715077632003-index10018.png
#EXTINF:5.083333,
147715077632003-index10019.png
#EXTINF:5.208333,
147715077632003-index10020.png
#EXTINF:2.875000,
147715077632003-index10021.png
#EXTINF:5.291667,
147715077632003-index10022.png
#EXTINF:2.083333,
147715077632003-index10023.png
#EXTINF:7.041667,
147715077632003-index10024.png
#EXTINF:1.458333,
147715077632003-index10025.png
#EXTINF:1.375000,
147715077632003-index10026.png
#EXTINF:1.625000,
147715077632003-index10027.png
#EXTINF:1.208333,
147715077632003-index10028.png
#EXTINF:3.625000,
147715077632003-index10029.png
#EXTINF:2.250000,
147715077632003-index10030.png
#EXTINF:6.833333,
147715077632003-index10031.png
#EXTINF:4.375000,
147715077632003-index10032.png
#EXTINF:2.416667,
147715077632003-index10033.png
#EXTINF:1.750000,
147715077632003-index10034.png
#EXTINF:1.333333,
147715077632003-index10035.png
#EXTINF:1.958333,
147715077632003-index10036.png
#EXTINF:2.000000,
147715077632003-index10037.png
#EXTINF:2.291667,
147715077632003-index10038.png
#EXTINF:5.791667,
147715077632003-index10039.png
#EXTINF:5.375000,
147715077632003-index10040.png
#EXTINF:3.916667,
147715077632003-index10041.png
#EXTINF:1.875000,
147715077632003-index10042.png
#EXTINF:9.958333,
147715077632003-index10043.png
#EXTINF:4.708333,
147715077632003-index10044.png
#EXTINF:2.583333,
147715077632003-index10045.png
#EXTINF:2.708333,
147715077632003-index10046.png
#EXTINF:7.000000,
147715077632003-index10047.png
#EXTINF:3.583333,
147715077632003-index10048.png
#EXTINF:3.583333,
147715077632003-index10049.png
#EXTINF:6.708333,
147715077632003-index10050.png
#EXTINF:5.666667,
147715077632003-index10051.png
#EXTINF:5.291667,
147715077632003-index10052.png
#EXTINF:3.666667,
147715077632003-index10053.png
#EXTINF:3.500000,
147715077632003-index10054.png
#EXTINF:3.041667,
147715077632003-index10055.png
#EXTINF:1.666667,
147715077632003-index10056.png
#EXTINF:1.583333,
147715077632003-index10057.png
#EXTINF:1.583333,
147715077632003-index10058.png
#EXTINF:1.291667,
147715077632003-index10059.png
#EXTINF:4.625000,
147715077632003-index10060.png
#EXTINF:3.500000,
147715077632003-index10061.png
#EXTINF:3.166667,
147715077632003-index10062.png
#EXTINF:1.708333,
147715077632003-index10063.png
#EXTINF:2.791667,
147715077632003-index10064.png
#EXTINF:1.208333,
147715077632003-index10065.png
#EXTINF:10.416667,
147715077632003-index10066.png
#EXTINF:2.375000,
147715077632003-index10067.png
#EXTINF:5.458333,
147715077632003-index10068.png
#EXTINF:3.083333,
147715077632003-index10069.png
#EXTINF:2.833333,
147715077632003-index10070.png
#EXTINF:1.166667,
147715077632003-index10071.png
#EXTINF:3.666667,
147715077632003-index10072.png
#EXTINF:1.625000,
147715077632003-index10073.png
#EXTINF:1.416667,
147715077632003-index10074.png
#EXTINF:5.125000,
147715077632003-index10075.png
#EXTINF:3.333333,
147715077632003-index10076.png
#EXTINF:2.541667,
147715077632003-index10077.png
#EXTINF:8.416667,
147715077632003-index10078.png
#EXTINF:8.375000,
147715077632003-index10079.png
#EXTINF:2.208333,
147715077632003-index10080.png
#EXTINF:1.625000,
147715077632003-index10081.png
#EXTINF:1.291667,
147715077632003-index10082.png
#EXTINF:2.041667,
147715077632003-index10083.png
#EXTINF:5.000000,
147715077632003-index10084.png
#EXTINF:6.291667,
147715077632003-index10085.png
#EXTINF:6.708333,
147715077632003-index10086.png
#EXTINF:3.875000,
147715077632003-index10087.png
#EXTINF:3.000000,
147715077632003-index10088.png
#EXTINF:4.416667,
147715077632003-index10089.png
#EXTINF:4.500000,
147715077632003-index10090.png
#EXTINF:3.583333,
147715077632003-index10091.png
#EXTINF:1.583333,
147715077632003-index10092.png
#EXTINF:1.000000,
147715077632003-index10093.png
#EXTINF:1.916667,
147715077632003-index10094.png
#EXTINF:2.416667,
147715077632003-index10095.png
#EXTINF:3.625000,
147715077632003-index10096.png
#EXTINF:1.541667,
147715077632003-index10097.png
#EXTINF:4.541667,
147715077632003-index10098.png
#EXTINF:2.083333,
147715077632003-index10099.png
#EXTINF:2.125000,
147715077632003-index10100.png
#EXTINF:1.750000,
147715077632003-index10101.png
#EXTINF:1.750000,
147715077632003-index10102.png
#EXTINF:1.791667,
147715077632003-index10103.png
#EXTINF:4.958333,
147715077632003-index10104.png
#EXTINF:3.375000,
147715077632003-index10105.png
#EXTINF:2.625000,
147715077632003-index10106.png
#EXTINF:3.208333,
147715077632003-index10107.png
#EXTINF:5.833333,
147715077632003-index10108.png
#EXTINF:2.875000,
147715077632003-index10109.png
#EXTINF:1.666667,
147715077632003-index10110.png
#EXTINF:1.250000,
147715077632003-index10111.png
#EXTINF:2.166667,
147715077632003-index10112.png
#EXTINF:1.833333,
147715077632003-index10113.png
#EXTINF:2.250000,
147715077632003-index10114.png
#EXTINF:2.458333,
147715077632003-index10115.png
#EXTINF:2.708333,
147715077632003-index10116.png
#EXTINF:2.750000,
147715077632003-index10117.png
#EXTINF:2.750000,
147715077632003-index10118.png
#EXTINF:2.708333,
147715077632003-index10119.png
#EXTINF:6.041667,
147715077632003-index10120.png
#EXTINF:2.375000,
147715077632003-index10121.png
#EXTINF:1.916667,
147715077632003-index10122.png
#EXTINF:5.500000,
147715077632003-index10123.png
#EXTINF:3.291667,
147715077632003-index10124.png
#EXTINF:3.500000,
147715077632003-index10125.png
#EXTINF:3.041667,
147715077632003-index10126.png
#EXTINF:1.791667,
147715077632003-index10127.png
#EXTINF:3.041667,
147715077632003-index10128.png
#EXTINF:2.791667,
147715077632003-index10129.png
#EXTINF:1.291667,
147715077632003-index10130.png
#EXTINF:6.750000,
147715077632003-index10131.png
#EXTINF:1.291667,
147715077632003-index10132.png
#EXTINF:2.000000,
147715077632003-index10133.png
#EXTINF:2.250000,
147715077632003-index10134.png
#EXTINF:1.333333,
147715077632003-index10135.png
#EXTINF:2.875000,
147715077632003-index10136.png
#EXTINF:5.041667,
147715077632003-index10137.png
#EXTINF:3.375000,
147715077632003-index10138.png
#EXTINF:3.000000,
147715077632003-index10139.png
#EXTINF:1.541667,
147715077632003-index10140.png
#EXTINF:4.041667,
147715077632003-index10141.png
#EXTINF:1.583333,
147715077632003-index10142.png
#EXTINF:6.000000,
147715077632003-index10143.png
#EXTINF:2.541667,
147715077632003-index10144.png
#EXTINF:1.583333,
147715077632003-index10145.png
#EXTINF:3.333333,
147715077632003-index10146.png
#EXTINF:5.000000,
147715077632003-index10147.png
#EXTINF:5.541667,
147715077632003-index10148.png
#EXTINF:3.416667,
147715077632003-index10149.png
#EXTINF:2.166667,
147715077632003-index10150.png
#EXTINF:4.333333,
147715077632003-index10151.png
#EXTINF:1.541667,
147715077632003-index10152.png
#EXTINF:6.541667,
147715077632003-index10153.png
#EXTINF:3.791667,
147715077632003-index10154.png
#EXTINF:3.583333,
147715077632003-index10155.png
#EXTINF:1.291667,
147715077632003-index10156.png
#EXTINF:1.500000,
147715077632003-index10157.png
#EXTINF:3.916667,
147715077632003-index10158.png
#EXTINF:2.041667,
147715077632003-index10159.png
#EXTINF:10.416667,
147715077632003-index10160.png
#EXTINF:4.208333,
147715077632003-index10161.png
#EXTINF:7.541667,
147715077632003-index10162.png
#EXTINF:10.416667,
147715077632003-index10163.png
#EXTINF:6.875000,
147715077632003-index10164.png
#EXTINF:10.416667,
147715077632003-index10165.png
#EXTINF:10.416667,
147715077632003-index10166.png
#EXTINF:6.041667,
147715077632003-index10167.png
#EXTINF:5.458333,
147715077632003-index10168.png
#EXTINF:10.041667,
147715077632003-index10169.png
#EXTINF:7.458333,
147715077632003-index10170.png
#EXTINF:2.958333,
147715077632003-index10171.png
#EXT-X-ENDLIST
