#EXTM3U
#EXT-X-VERSION:3
#EXT-X-TARGETDURATION:11
#EXT-X-MEDIA-SEQUENCE:10001
#EXTINF:10.449111,
156224821176793-index10001.png
#EXTINF:10.427778,
156224821176793-index10002.png
#EXTINF:10.427778,
156224821176793-index10003.png
#EXTINF:10.427778,
156224821176793-index10004.png
#EXTINF:10.427778,
156224821176793-index10005.png
#EXTINF:10.427778,
156224821176793-index10006.png
#EXTINF:10.427778,
156224821176793-index10007.png
#EXTINF:10.427778,
156224821176793-index10008.png
#EXTINF:10.427778,
156224821176793-index10009.png
#EXTINF:2.544422,
156224821176793-index10010.png
#EXT-X-ENDLIST
