#EXTM3U
#EXT-X-VERSION:3
#EXT-X-TARGETDURATION:11
#EXT-X-MEDIA-SEQUENCE:10001
#EXTINF:10.008000,
157872516247961-index10001.png
#EXTINF:10.008000,
157872516247961-index10002.png
#EXTINF:10.008000,
157872516247961-index10003.png
#EXTINF:6.004800,
157872516247961-index10004.png
#EXTINF:3.169200,
157872516247961-index10005.png
#EXTINF:7.589400,
157872516247961-index10006.png
#EXTINF:10.008000,
157872516247961-index10007.png
#EXTINF:2.460300,
157872516247961-index10008.png
#EXTINF:1.751400,
157872516247961-index10009.png
#EXTINF:3.878100,
157872516247961-index10010.png
#EXTINF:5.879700,
157872516247961-index10011.png
#EXTINF:3.252600,
157872516247961-index10012.png
#EXTINF:2.710500,
157872516247961-index10013.png
#EXTINF:2.251800,
157872516247961-index10014.png
#EXTINF:5.087400,
157872516247961-index10015.png
#EXTINF:3.210900,
157872516247961-index10016.png
#EXTINF:3.669600,
157872516247961-index10017.png
#EXTINF:3.711300,
157872516247961-index10018.png
#EXTINF:2.335200,
157872516247961-index10019.png
#EXTINF:1.584600,
157872516247961-index10020.png
#EXTINF:1.084200,
157872516247961-index10021.png
#EXTINF:7.005600,
157872516247961-index10022.png
#EXTINF:3.252600,
157872516247961-index10023.png
#EXTINF:2.585400,
157872516247961-index10024.png
#EXTINF:2.335200,
157872516247961-index10025.png
#EXTINF:4.253400,
157872516247961-index10026.png
#EXTINF:7.297500,
157872516247961-index10027.png
#EXTINF:4.503600,
157872516247961-index10028.png
#EXTINF:3.336000,
157872516247961-index10029.png
#EXTINF:6.797100,
157872516247961-index10030.png
#EXTINF:7.964700,
157872516247961-index10031.png
#EXTINF:4.461900,
157872516247961-index10032.png
#EXTINF:4.587000,
157872516247961-index10033.png
#EXTINF:3.461100,
157872516247961-index10034.png
#EXTINF:1.959900,
157872516247961-index10035.png
#EXTINF:6.463500,
157872516247961-index10036.png
#EXTINF:6.463500,
157872516247961-index10037.png
#EXTINF:6.046500,
157872516247961-index10038.png
#EXTINF:6.421800,
157872516247961-index10039.png
#EXTINF:6.463500,
157872516247961-index10040.png
#EXTINF:2.960700,
157872516247961-index10041.png
#EXTINF:3.336000,
157872516247961-index10042.png
#EXTINF:8.965500,
157872516247961-index10043.png
#EXTINF:9.132300,
157872516247961-index10044.png
#EXTINF:3.461100,
157872516247961-index10045.png
#EXTINF:10.008000,
157872516247961-index10046.png
#EXTINF:10.008000,
157872516247961-index10047.png
#EXTINF:1.376100,
157872516247961-index10048.png
#EXTINF:8.506800,
157872516247961-index10049.png
#EXTINF:7.964700,
157872516247961-index10050.png
#EXTINF:4.211700,
157872516247961-index10051.png
#EXTINF:5.587800,
157872516247961-index10052.png
#EXTINF:4.962300,
157872516247961-index10053.png
#EXTINF:2.251800,
157872516247961-index10054.png
#EXTINF:1.751400,
157872516247961-index10055.png
#EXTINF:10.008000,
157872516247961-index10056.png
#EXTINF:6.338400,
157872516247961-index10057.png
#EXTINF:6.088200,
157872516247961-index10058.png
#EXTINF:5.712900,
157872516247961-index10059.png
#EXTINF:5.963100,
157872516247961-index10060.png
#EXTINF:6.171600,
157872516247961-index10061.png
#EXTINF:1.959900,
157872516247961-index10062.png
#EXTINF:3.461100,
157872516247961-index10063.png
#EXTINF:4.962300,
157872516247961-index10064.png
#EXTINF:6.129900,
157872516247961-index10065.png
#EXTINF:9.841200,
157872516247961-index10066.png
#EXTINF:8.423400,
157872516247961-index10067.png
#EXTINF:6.004800,
157872516247961-index10068.png
#EXTINF:8.340000,
157872516247961-index10069.png
#EXTINF:6.338400,
157872516247961-index10070.png
#EXTINF:4.962300,
157872516247961-index10071.png
#EXTINF:6.630300,
157872516247961-index10072.png
#EXTINF:9.924600,
157872516247961-index10073.png
#EXTINF:3.753000,
157872516247961-index10074.png
#EXTINF:9.465900,
157872516247961-index10075.png
#EXTINF:5.963100,
157872516247961-index10076.png
#EXTINF:3.961500,
157872516247961-index10077.png
#EXTINF:6.713700,
157872516247961-index10078.png
#EXTINF:6.922200,
157872516247961-index10079.png
#EXTINF:6.213300,
157872516247961-index10080.png
#EXTINF:8.715300,
157872516247961-index10081.png
#EXTINF:9.924600,
157872516247961-index10082.png
#EXTINF:2.585400,
157872516247961-index10083.png
#EXTINF:3.586200,
157872516247961-index10084.png
#EXTINF:2.502000,
157872516247961-index10085.png
#EXTINF:3.502800,
157872516247961-index10086.png
#EXTINF:2.460300,
157872516247961-index10087.png
#EXTINF:4.420200,
157872516247961-index10088.png
#EXTINF:1.959900,
157872516247961-index10089.png
#EXTINF:3.461100,
157872516247961-index10090.png
#EXTINF:1.959900,
157872516247961-index10091.png
#EXTINF:3.210900,
157872516247961-index10092.png
#EXTINF:4.461900,
157872516247961-index10093.png
#EXTINF:9.882900,
157872516247961-index10094.png
#EXTINF:2.460300,
157872516247961-index10095.png
#EXTINF:5.295900,
157872516247961-index10096.png
#EXTINF:5.462700,
157872516247961-index10097.png
#EXTINF:5.671200,
157872516247961-index10098.png
#EXTINF:1.459500,
157872516247961-index10099.png
#EXTINF:4.461900,
157872516247961-index10100.png
#EXTINF:7.756200,
157872516247961-index10101.png
#EXTINF:3.002400,
157872516247961-index10102.png
#EXTINF:3.502800,
157872516247961-index10103.png
#EXTINF:5.004000,
157872516247961-index10104.png
#EXTINF:5.379300,
157872516247961-index10105.png
#EXTINF:1.959900,
157872516247961-index10106.png
#EXTINF:3.252600,
157872516247961-index10107.png
#EXTINF:2.210100,
157872516247961-index10108.png
#EXTINF:10.008000,
157872516247961-index10109.png
#EXTINF:2.085000,
157872516247961-index10110.png
#EXTINF:10.008000,
157872516247961-index10111.png
#EXTINF:10.008000,
157872516247961-index10112.png
#EXTINF:8.840400,
157872516247961-index10113.png
#EXTINF:10.008000,
157872516247961-index10114.png
#EXTINF:10.008000,
157872516247961-index10115.png
#EXTINF:10.008000,
157872516247961-index10116.png
#EXTINF:10.008000,
157872516247961-index10117.png
#EXTINF:10.008000,
157872516247961-index10118.png
#EXTINF:10.008000,
157872516247961-index10119.png
#EXTINF:7.756200,
157872516247961-index10120.png
#EXTINF:5.712900,
157872516247961-index10121.png
#EXTINF:3.711300,
157872516247961-index10122.png
#EXTINF:2.627100,
157872516247961-index10123.png
#EXTINF:5.587800,
157872516247961-index10124.png
#EXTINF:8.214900,
157872516247961-index10125.png
#EXTINF:1.709700,
157872516247961-index10126.png
#EXTINF:1.626300,
157872516247961-index10127.png
#EXTINF:2.460300,
157872516247961-index10128.png
#EXTINF:2.752200,
157872516247961-index10129.png
#EXTINF:1.959900,
157872516247961-index10130.png
#EXTINF:6.213300,
157872516247961-index10131.png
#EXTINF:5.004000,
157872516247961-index10132.png
#EXTINF:2.710500,
157872516247961-index10133.png
#EXTINF:4.920600,
157872516247961-index10134.png
#EXTINF:1.959900,
157872516247961-index10135.png
#EXTINF:3.210900,
157872516247961-index10136.png
#EXTINF:6.963900,
157872516247961-index10137.png
#EXTINF:2.460300,
157872516247961-index10138.png
#EXTINF:2.210100,
157872516247961-index10139.png
#EXTINF:3.169200,
157872516247961-index10140.png
#EXTINF:3.961500,
157872516247961-index10141.png
#EXTINF:4.920600,
157872516247961-index10142.png
#EXTINF:2.960700,
157872516247961-index10143.png
#EXTINF:1.459500,
157872516247961-index10144.png
#EXTINF:1.668000,
157872516247961-index10145.png
#EXTINF:1.668000,
157872516247961-index10146.png
#EXTINF:3.878100,
157872516247961-index10147.png
#EXTINF:3.586200,
157872516247961-index10148.png
#EXTINF:2.960700,
157872516247961-index10149.png
#EXTINF:2.960700,
157872516247961-index10150.png
#EXTINF:5.462700,
157872516247961-index10151.png
#EXTINF:7.923000,
157872516247961-index10152.png
#EXTINF:4.336800,
157872516247961-index10153.png
#EXTINF:1.459500,
157872516247961-index10154.png
#EXTINF:1.459500,
157872516247961-index10155.png
#EXTINF:2.210100,
157872516247961-index10156.png
#EXTINF:2.877300,
157872516247961-index10157.png
#EXTINF:2.335200,
157872516247961-index10158.png
#EXTINF:3.210900,
157872516247961-index10159.png
#EXTINF:2.835600,
157872516247961-index10160.png
#EXTINF:2.960700,
157872516247961-index10161.png
#EXTINF:5.838000,
157872516247961-index10162.png
#EXTINF:3.836400,
157872516247961-index10163.png
#EXTINF:3.252600,
157872516247961-index10164.png
#EXTINF:2.460300,
157872516247961-index10165.png
#EXTINF:1.584600,
157872516247961-index10166.png
#EXTINF:2.543700,
157872516247961-index10167.png
#EXTINF:1.626300,
157872516247961-index10168.png
#EXTINF:3.169200,
157872516247961-index10169.png
#EXTINF:5.212500,
157872516247961-index10170.png
#EXTINF:4.461900,
157872516247961-index10171.png
#EXTINF:4.712100,
157872516247961-index10172.png
#EXTINF:3.919800,
157872516247961-index10173.png
#EXTINF:1.709700,
157872516247961-index10174.png
#EXTINF:4.420200,
157872516247961-index10175.png
#EXTINF:4.545300,
157872516247961-index10176.png
#EXTINF:3.210900,
157872516247961-index10177.png
#EXTINF:3.878100,
157872516247961-index10178.png
#EXTINF:3.461100,
157872516247961-index10179.png
#EXTINF:7.631100,
157872516247961-index10180.png
#EXTINF:3.336000,
157872516247961-index10181.png
#EXTINF:3.502800,
157872516247961-index10182.png
#EXTINF:1.709700,
157872516247961-index10183.png
#EXTINF:1.292700,
157872516247961-index10184.png
#EXTINF:1.918200,
157872516247961-index10185.png
#EXTINF:2.210100,
157872516247961-index10186.png
#EXTINF:4.044900,
157872516247961-index10187.png
#EXTINF:2.001600,
157872516247961-index10188.png
#EXTINF:3.794700,
157872516247961-index10189.png
#EXTINF:1.959900,
157872516247961-index10190.png
#EXTINF:7.464300,
157872516247961-index10191.png
#EXTINF:4.795500,
157872516247961-index10192.png
#EXTINF:8.381700,
157872516247961-index10193.png
#EXTINF:6.338400,
157872516247961-index10194.png
#EXTINF:5.963100,
157872516247961-index10195.png
#EXTINF:5.546100,
157872516247961-index10196.png
#EXTINF:5.963100,
157872516247961-index10197.png
#EXTINF:8.465100,
157872516247961-index10198.png
#EXTINF:5.462700,
157872516247961-index10199.png
#EXTINF:4.712100,
157872516247961-index10200.png
#EXTINF:2.460300,
157872516247961-index10201.png
#EXTINF:4.086600,
157872516247961-index10202.png
#EXTINF:3.210900,
157872516247961-index10203.png
#EXTINF:2.960700,
157872516247961-index10204.png
#EXTINF:2.460300,
157872516247961-index10205.png
#EXTINF:6.463500,
157872516247961-index10206.png
#EXTINF:5.462700,
157872516247961-index10207.png
#EXTINF:4.962300,
157872516247961-index10208.png
#EXTINF:5.963100,
157872516247961-index10209.png
#EXTINF:2.960700,
157872516247961-index10210.png
#EXTINF:1.417800,
157872516247961-index10211.png
#EXTINF:4.003200,
157872516247961-index10212.png
#EXTINF:9.174000,
157872516247961-index10213.png
#EXTINF:5.087400,
157872516247961-index10214.png
#EXTINF:5.838000,
157872516247961-index10215.png
#EXTINF:3.961500,
157872516247961-index10216.png
#EXTINF:2.960700,
157872516247961-index10217.png
#EXTINF:2.585400,
157872516247961-index10218.png
#EXTINF:3.377700,
157872516247961-index10219.png
#EXTINF:2.502000,
157872516247961-index10220.png
#EXTINF:4.461900,
157872516247961-index10221.png
#EXTINF:2.960700,
157872516247961-index10222.png
#EXTINF:9.299100,
157872516247961-index10223.png
#EXTINF:3.961500,
157872516247961-index10224.png
#EXTINF:5.462700,
157872516247961-index10225.png
#EXTINF:10.008000,
157872516247961-index10226.png
#EXTINF:6.463500,
157872516247961-index10227.png
#EXTINF:3.461100,
157872516247961-index10228.png
#EXTINF:1.709700,
157872516247961-index10229.png
#EXTINF:3.711300,
157872516247961-index10230.png
#EXTINF:10.008000,
157872516247961-index10231.png
#EXTINF:8.506800,
157872516247961-index10232.png
#EXTINF:6.963900,
157872516247961-index10233.png
#EXTINF:10.008000,
157872516247961-index10234.png
#EXTINF:9.424200,
157872516247961-index10235.png
#EXTINF:9.382500,
157872516247961-index10236.png
#EXTINF:8.465100,
157872516247961-index10237.png
#EXTINF:8.340000,
157872516247961-index10238.png
#EXTINF:5.421000,
157872516247961-index10239.png
#EXTINF:10.008000,
157872516247961-index10240.png
#EXTINF:8.298300,
157872516247961-index10241.png
#EXTINF:10.008000,
157872516247961-index10242.png
#EXTINF:10.008000,
157872516247961-index10243.png
#EXTINF:10.008000,
157872516247961-index10244.png
#EXTINF:10.008000,
157872516247961-index10245.png
#EXTINF:10.008000,
157872516247961-index10246.png
#EXTINF:10.008000,
157872516247961-index10247.png
#EXTINF:9.549300,
157872516247961-index10248.png
#EXTINF:9.674400,
157872516247961-index10249.png
#EXTINF:8.465100,
157872516247961-index10250.png
#EXTINF:9.674400,
157872516247961-index10251.png
#EXTINF:6.213300,
157872516247961-index10252.png
#EXTINF:10.008000,
157872516247961-index10253.png
#EXTINF:5.879700,
157872516247961-index10254.png
#EXTINF:10.008000,
157872516247961-index10255.png
#EXTINF:1.042500,
157872516247961-index10256.png
#EXTINF:6.672000,
157872516247961-index10257.png
#EXTINF:2.085000,
157872516247961-index10258.png
#EXTINF:5.671200,
157872516247961-index10259.png
#EXTINF:3.586200,
157872516247961-index10260.png
#EXTINF:4.878900,
157872516247961-index10261.png
#EXTINF:10.008000,
157872516247961-index10262.png
#EXTINF:8.131500,
157872516247961-index10263.png
#EXTINF:5.921400,
157872516247961-index10264.png
#EXTINF:7.756200,
157872516247961-index10265.png
#EXTINF:3.044100,
157872516247961-index10266.png
#EXTINF:6.922200,
157872516247961-index10267.png
#EXTINF:10.008000,
157872516247961-index10268.png
#EXTINF:8.840400,
157872516247961-index10269.png
#EXTINF:6.463500,
157872516247961-index10270.png
#EXTINF:5.004000,
157872516247961-index10271.png
#EXTINF:5.004000,
157872516247961-index10272.png
#EXT-X-ENDLIST
