#EXTM3U
#EXT-X-VERSION:3
#EXT-X-TARGETDURATION:11
#EXT-X-MEDIA-SEQUENCE:10001
#EXTINF:10.869444,
160882535080114-index10001.ts
#EXTINF:10.869444,
160882535080114-index10002.ts
#EXTINF:10.869444,
160882535080114-index10003.ts
#EXTINF:10.869444,
160882535080114-index10004.ts
#EXTINF:10.869444,
160882535080114-index10005.ts
#EXTINF:5.434722,
160882535080114-index10006.ts
#EXTINF:10.869444,
160882535080114-index10007.ts
#EXTINF:3.826044,
160882535080114-index10008.ts
#EXTINF:8.434689,
160882535080114-index10009.ts
#EXTINF:8.608600,
160882535080114-index10010.ts
#EXTINF:2.434756,
160882535080114-index10011.ts
#EXTINF:6.869489,
160882535080114-index10012.ts
#EXTINF:4.912989,
160882535080114-index10013.ts
#EXTINF:5.869500,
160882535080114-index10014.ts
#EXTINF:1.695633,
160882535080114-index10015.ts
#EXTINF:2.739100,
160882535080114-index10016.ts
#EXTINF:8.739033,
160882535080114-index10017.ts
#EXTINF:5.912978,
160882535080114-index10018.ts
#EXTINF:2.304322,
160882535080114-index10019.ts
#EXTINF:4.695600,
160882535080114-index10020.ts
#EXTINF:5.304289,
160882535080114-index10021.ts
#EXTINF:5.608633,
160882535080114-index10022.ts
#EXTINF:5.739067,
160882535080114-index10023.ts
#EXTINF:7.260789,
160882535080114-index10024.ts
#EXTINF:4.434733,
160882535080114-index10025.ts
#EXTINF:2.434756,
160882535080114-index10026.ts
#EXTINF:4.347778,
160882535080114-index10027.ts
#EXTINF:10.869444,
160882535080114-index10028.ts
#EXTINF:3.434744,
160882535080114-index10029.ts
#EXTINF:2.130411,
160882535080114-index10030.ts
#EXTINF:5.695589,
160882535080114-index10031.ts
#EXTINF:6.652100,
160882535080114-index10032.ts
#EXTINF:4.434733,
160882535080114-index10033.ts
#EXTINF:3.304311,
160882535080114-index10034.ts
#EXTINF:4.173867,
160882535080114-index10035.ts
#EXTINF:2.217367,
160882535080114-index10036.ts
#EXTINF:1.826067,
160882535080114-index10037.ts
#EXTINF:3.739089,
160882535080114-index10038.ts
#EXTINF:8.999900,
160882535080114-index10039.ts
#EXTINF:5.391244,
160882535080114-index10040.ts
#EXTINF:4.043433,
160882535080114-index10041.ts
#EXTINF:10.521622,
160882535080114-index10042.ts
#EXTINF:10.043367,
160882535080114-index10043.ts
#EXTINF:4.347778,
160882535080114-index10044.ts
#EXTINF:5.347767,
160882535080114-index10045.ts
#EXTINF:7.608611,
160882535080114-index10046.ts
#EXTINF:8.217300,
160882535080114-index10047.ts
#EXTINF:8.260778,
160882535080114-index10048.ts
#EXTINF:1.217378,
160882535080114-index10049.ts
#EXTINF:1.826067,
160882535080114-index10050.ts
#EXTINF:2.695622,
160882535080114-index10051.ts
#EXTINF:4.782556,
160882535080114-index10052.ts
#EXTINF:10.869444,
160882535080114-index10053.ts
#EXTINF:10.608578,
160882535080114-index10054.ts
#EXTINF:8.912944,
160882535080114-index10055.ts
#EXTINF:7.695567,
160882535080114-index10056.ts
#EXTINF:8.434689,
160882535080114-index10057.ts
#EXTINF:3.999956,
160882535080114-index10058.ts
#EXTINF:4.912989,
160882535080114-index10059.ts
#EXTINF:8.912944,
160882535080114-index10060.ts
#EXTINF:5.173856,
160882535080114-index10061.ts
#EXTINF:10.869444,
160882535080114-index10062.ts
#EXTINF:7.173833,
160882535080114-index10063.ts
#EXTINF:2.999967,
160882535080114-index10064.ts
#EXTINF:10.869444,
160882535080114-index10065.ts
#EXTINF:10.869444,
160882535080114-index10066.ts
#EXTINF:9.086856,
160882535080114-index10067.ts
#EXTINF:7.826000,
160882535080114-index10068.ts
#EXTINF:4.434733,
160882535080114-index10069.ts
#EXTINF:7.869478,
160882535080114-index10070.ts
#EXTINF:10.478144,
160882535080114-index10071.ts
#EXTINF:10.869444,
160882535080114-index10072.ts
#EXTINF:4.043433,
160882535080114-index10073.ts
#EXTINF:10.869444,
160882535080114-index10074.ts
#EXTINF:10.869444,
160882535080114-index10075.ts
#EXTINF:10.869444,
160882535080114-index10076.ts
#EXTINF:10.869444,
160882535080114-index10077.ts
#EXTINF:10.869444,
160882535080114-index10078.ts
#EXTINF:5.130378,
160882535080114-index10079.ts
#EXTINF:6.695578,
160882535080114-index10080.ts
#EXTINF:9.608589,
160882535080114-index10081.ts
#EXTINF:7.869478,
160882535080114-index10082.ts
#EXTINF:7.999911,
160882535080114-index10083.ts
#EXTINF:10.478144,
160882535080114-index10084.ts
#EXTINF:10.869444,
160882535080114-index10085.ts
#EXTINF:10.869444,
160882535080114-index10086.ts
#EXTINF:5.608633,
160882535080114-index10087.ts
#EXTINF:10.869444,
160882535080114-index10088.ts
#EXTINF:8.652078,
160882535080114-index10089.ts
#EXTINF:9.521633,
160882535080114-index10090.ts
#EXTINF:10.652056,
160882535080114-index10091.ts
#EXTINF:8.347733,
160882535080114-index10092.ts
#EXTINF:3.043444,
160882535080114-index10093.ts
#EXTINF:8.869467,
160882535080114-index10094.ts
#EXTINF:8.999900,
160882535080114-index10095.ts
#EXTINF:10.869444,
160882535080114-index10096.ts
#EXTINF:6.782533,
160882535080114-index10097.ts
#EXTINF:10.043367,
160882535080114-index10098.ts
#EXTINF:6.086889,
160882535080114-index10099.ts
#EXTINF:4.434733,
160882535080114-index10100.ts
#EXTINF:10.869444,
160882535080114-index10101.ts
#EXTINF:10.869444,
160882535080114-index10102.ts
#EXTINF:3.086922,
160882535080114-index10103.ts
#EXTINF:1.826067,
160882535080114-index10104.ts
#EXTINF:5.782544,
160882535080114-index10105.ts
#EXTINF:10.869444,
160882535080114-index10106.ts
#EXTINF:6.739056,
160882535080114-index10107.ts
#EXTINF:6.956444,
160882535080114-index10108.ts
#EXTINF:3.652133,
160882535080114-index10109.ts
#EXTINF:4.347778,
160882535080114-index10110.ts
#EXTINF:10.565100,
160882535080114-index10111.ts
#EXTINF:9.521633,
160882535080114-index10112.ts
#EXTINF:10.869444,
160882535080114-index10113.ts
#EXTINF:7.695567,
160882535080114-index10114.ts
#EXTINF:5.869500,
160882535080114-index10115.ts
#EXTINF:5.652111,
160882535080114-index10116.ts
#EXTINF:7.782522,
160882535080114-index10117.ts
#EXTINF:2.130411,
160882535080114-index10118.ts
#EXTINF:5.826022,
160882535080114-index10119.ts
#EXTINF:6.391233,
160882535080114-index10120.ts
#EXTINF:5.652111,
160882535080114-index10121.ts
#EXTINF:5.173856,
160882535080114-index10122.ts
#EXTINF:1.652156,
160882535080114-index10123.ts
#EXTINF:10.695533,
160882535080114-index10124.ts
#EXTINF:6.347756,
160882535080114-index10125.ts
#EXTINF:1.652156,
160882535080114-index10126.ts
#EXTINF:5.260811,
160882535080114-index10127.ts
#EXTINF:1.869544,
160882535080114-index10128.ts
#EXTINF:3.869522,
160882535080114-index10129.ts
#EXTINF:1.521722,
160882535080114-index10130.ts
#EXTINF:2.565189,
160882535080114-index10131.ts
#EXTINF:10.869444,
160882535080114-index10132.ts
#EXTINF:10.565100,
160882535080114-index10133.ts
#EXTINF:10.217278,
160882535080114-index10134.ts
#EXT-X-ENDLIST
