#EXTM3U
#EXT-X-VERSION:3
#EXT-X-TARGETDURATION:6
#EXT-X-MEDIA-SEQUENCE:10001
#EXTINF:5.339022,
165235236287116-index10001.png
#EXTINF:5.339022,
165235236287116-index10002.png
#EXTINF:5.339022,
165235236287116-index10003.png
#EXTINF:5.339022,
165235236287116-index10004.png
#EXTINF:5.339022,
165235236287116-index10005.png
#EXTINF:5.339022,
165235236287116-index10006.png
#EXTINF:5.339022,
165235236287116-index10007.png
#EXTINF:5.339022,
165235236287116-index10008.png
#EXTINF:5.339022,
165235236287116-index10009.png
#EXTINF:5.339022,
165235236287116-index10010.png
#EXTINF:5.339022,
165235236287116-index10011.png
#EXTINF:5.339022,
165235236287116-index10012.png
#EXTINF:5.339022,
165235236287116-index10013.png
#EXTINF:5.339022,
165235236287116-index10014.png
#EXTINF:5.339022,
165235236287116-index10015.png
#EXTINF:5.339022,
165235236287116-index10016.png
#EXTINF:5.339022,
165235236287116-index10017.png
#EXTINF:5.130467,
165235236287116-index10018.png
#EXTINF:0.208556,
165235236287116-index10019.png
#EXTINF:0.625667,
165235236287116-index10020.png
#EXTINF:4.713356,
165235236287116-index10021.png
#EXTINF:5.339022,
165235236287116-index10022.png
#EXTINF:5.339022,
165235236287116-index10023.png
#EXTINF:5.339022,
165235236287116-index10024.png
#EXTINF:5.339022,
165235236287116-index10025.png
#EXTINF:5.339022,
165235236287116-index10026.png
#EXTINF:5.339022,
165235236287116-index10027.png
#EXTINF:5.339022,
165235236287116-index10028.png
#EXTINF:5.339022,
165235236287116-index10029.png
#EXTINF:5.339022,
165235236287116-index10030.png
#EXTINF:5.339022,
165235236287116-index10031.png
#EXTINF:5.339022,
165235236287116-index10032.png
#EXTINF:5.339022,
165235236287116-index10033.png
#EXTINF:5.339022,
165235236287116-index10034.png
#EXTINF:5.339022,
165235236287116-index10035.png
#EXTINF:5.339022,
165235236287116-index10036.png
#EXTINF:5.339022,
165235236287116-index10037.png
#EXTINF:5.339022,
165235236287116-index10038.png
#EXTINF:5.339022,
165235236287116-index10039.png
#EXTINF:5.339022,
165235236287116-index10040.png
#EXTINF:5.339022,
165235236287116-index10041.png
#EXTINF:5.339022,
165235236287116-index10042.png
#EXTINF:5.339022,
165235236287116-index10043.png
#EXTINF:5.339022,
165235236287116-index10044.png
#EXTINF:1.293044,
165235236287116-index10045.png
#EXT-X-ENDLIST
