#EXTM3U
#EXT-X-VERSION:3
#EXT-X-TARGETDURATION:11
#EXT-X-MEDIA-SEQUENCE:10001
#EXTINF:10.008000,
190630363093482-index10001.png
#EXTINF:10.008000,
190630363093482-index10002.png
#EXTINF:10.008000,
190630363093482-index10003.png
#EXTINF:5.587800,
190630363093482-index10004.png
#EXTINF:10.008000,
190630363093482-index10005.png
#EXTINF:10.008000,
190630363093482-index10006.png
#EXTINF:10.008000,
190630363093482-index10007.png
#EXTINF:10.008000,
190630363093482-index10008.png
#EXTINF:4.336800,
190630363093482-index10009.png
#EXTINF:3.836400,
190630363093482-index10010.png
#EXTINF:2.752200,
190630363093482-index10011.png
#EXTINF:1.084200,
190630363093482-index10012.png
#EXTINF:1.584600,
190630363093482-index10013.png
#EXTINF:2.668800,
190630363093482-index10014.png
#EXTINF:2.752200,
190630363093482-index10015.png
#EXTINF:2.126700,
190630363093482-index10016.png
#EXTINF:3.461100,
190630363093482-index10017.png
#EXTINF:1.334400,
190630363093482-index10018.png
#EXTINF:6.421800,
190630363093482-index10019.png
#EXTINF:2.752200,
190630363093482-index10020.png
#EXTINF:2.793900,
190630363093482-index10021.png
#EXTINF:1.959900,
190630363093482-index10022.png
#EXTINF:2.835600,
190630363093482-index10023.png
#EXTINF:1.376100,
190630363093482-index10024.png
#EXTINF:3.961500,
190630363093482-index10025.png
#EXTINF:4.003200,
190630363093482-index10026.png
#EXTINF:2.126700,
190630363093482-index10027.png
#EXTINF:3.169200,
190630363093482-index10028.png
#EXTINF:4.128300,
190630363093482-index10029.png
#EXTINF:1.834800,
190630363093482-index10030.png
#EXTINF:3.044100,
190630363093482-index10031.png
#EXTINF:1.417800,
190630363093482-index10032.png
#EXTINF:2.001600,
190630363093482-index10033.png
#EXTINF:2.126700,
190630363093482-index10034.png
#EXTINF:1.751400,
190630363093482-index10035.png
#EXTINF:2.960700,
190630363093482-index10036.png
#EXTINF:5.462700,
190630363093482-index10037.png
#EXTINF:1.209300,
190630363093482-index10038.png
#EXTINF:2.919000,
190630363093482-index10039.png
#EXTINF:4.170000,
190630363093482-index10040.png
#EXTINF:4.003200,
190630363093482-index10041.png
#EXTINF:2.001600,
190630363093482-index10042.png
#EXTINF:2.627100,
190630363093482-index10043.png
#EXTINF:2.752200,
190630363093482-index10044.png
#EXTINF:10.008000,
190630363093482-index10045.png
#EXTINF:6.129900,
190630363093482-index10046.png
#EXTINF:3.085800,
190630363093482-index10047.png
#EXTINF:1.501200,
190630363093482-index10048.png
#EXTINF:7.255800,
190630363093482-index10049.png
#EXTINF:2.752200,
190630363093482-index10050.png
#EXTINF:1.751400,
190630363093482-index10051.png
#EXTINF:2.251800,
190630363093482-index10052.png
#EXTINF:5.712900,
190630363093482-index10053.png
#EXTINF:3.627900,
190630363093482-index10054.png
#EXTINF:9.340800,
190630363093482-index10055.png
#EXTINF:10.008000,
190630363093482-index10056.png
#EXTINF:8.381700,
190630363093482-index10057.png
#EXTINF:8.131500,
190630363093482-index10058.png
#EXTINF:7.005600,
190630363093482-index10059.png
#EXTINF:6.963900,
190630363093482-index10060.png
#EXTINF:6.755400,
190630363093482-index10061.png
#EXTINF:7.255800,
190630363093482-index10062.png
#EXTINF:6.505200,
190630363093482-index10063.png
#EXTINF:4.003200,
190630363093482-index10064.png
#EXTINF:7.005600,
190630363093482-index10065.png
#EXTINF:7.631100,
190630363093482-index10066.png
#EXTINF:5.254200,
190630363093482-index10067.png
#EXTINF:2.502000,
190630363093482-index10068.png
#EXTINF:8.256600,
190630363093482-index10069.png
#EXTINF:3.794700,
190630363093482-index10070.png
#EXTINF:6.380100,
190630363093482-index10071.png
#EXTINF:2.502000,
190630363093482-index10072.png
#EXTINF:10.008000,
190630363093482-index10073.png
#EXTINF:10.008000,
190630363093482-index10074.png
#EXTINF:5.546100,
190630363093482-index10075.png
#EXTINF:4.753800,
190630363093482-index10076.png
#EXTINF:3.002400,
190630363093482-index10077.png
#EXTINF:6.004800,
190630363093482-index10078.png
#EXTINF:4.378500,
190630363093482-index10079.png
#EXTINF:3.252600,
190630363093482-index10080.png
#EXTINF:5.004000,
190630363093482-index10081.png
#EXTINF:1.751400,
190630363093482-index10082.png
#EXTINF:3.502800,
190630363093482-index10083.png
#EXTINF:1.000800,
190630363093482-index10084.png
#EXTINF:2.001600,
190630363093482-index10085.png
#EXTINF:7.005600,
190630363093482-index10086.png
#EXTINF:5.254200,
190630363093482-index10087.png
#EXTINF:4.503600,
190630363093482-index10088.png
#EXTINF:2.502000,
190630363093482-index10089.png
#EXTINF:8.256600,
190630363093482-index10090.png
#EXTINF:7.255800,
190630363093482-index10091.png
#EXTINF:1.751400,
190630363093482-index10092.png
#EXTINF:10.008000,
190630363093482-index10093.png
#EXTINF:3.127500,
190630363093482-index10094.png
#EXTINF:4.878900,
190630363093482-index10095.png
#EXTINF:3.502800,
190630363093482-index10096.png
#EXTINF:5.754600,
190630363093482-index10097.png
#EXTINF:4.878900,
190630363093482-index10098.png
#EXTINF:5.254200,
190630363093482-index10099.png
#EXTINF:6.004800,
190630363093482-index10100.png
#EXTINF:5.129100,
190630363093482-index10101.png
#EXTINF:3.502800,
190630363093482-index10102.png
#EXTINF:10.008000,
190630363093482-index10103.png
#EXTINF:2.251800,
190630363093482-index10104.png
#EXTINF:2.085000,
190630363093482-index10105.png
#EXTINF:4.253400,
190630363093482-index10106.png
#EXTINF:3.002400,
190630363093482-index10107.png
#EXTINF:6.505200,
190630363093482-index10108.png
#EXTINF:7.464300,
190630363093482-index10109.png
#EXTINF:6.004800,
190630363093482-index10110.png
#EXTINF:1.501200,
190630363093482-index10111.png
#EXTINF:3.502800,
190630363093482-index10112.png
#EXTINF:5.504400,
190630363093482-index10113.png
#EXTINF:6.129900,
190630363093482-index10114.png
#EXTINF:5.504400,
190630363093482-index10115.png
#EXTINF:5.379300,
190630363093482-index10116.png
#EXTINF:7.631100,
190630363093482-index10117.png
#EXTINF:10.008000,
190630363093482-index10118.png
#EXTINF:10.008000,
190630363093482-index10119.png
#EXTINF:10.008000,
190630363093482-index10120.png
#EXTINF:10.008000,
190630363093482-index10121.png
#EXTINF:7.005600,
190630363093482-index10122.png
#EXTINF:7.380900,
190630363093482-index10123.png
#EXTINF:5.004000,
190630363093482-index10124.png
#EXTINF:10.008000,
190630363093482-index10125.png
#EXTINF:10.008000,
190630363093482-index10126.png
#EXTINF:10.008000,
190630363093482-index10127.png
#EXTINF:7.380900,
190630363093482-index10128.png
#EXTINF:6.129900,
190630363093482-index10129.png
#EXTINF:10.008000,
190630363093482-index10130.png
#EXTINF:5.629500,
190630363093482-index10131.png
#EXTINF:6.255000,
190630363093482-index10132.png
#EXTINF:7.005600,
190630363093482-index10133.png
#EXTINF:4.003200,
190630363093482-index10134.png
#EXTINF:5.671200,
190630363093482-index10135.png
#EXTINF:6.255000,
190630363093482-index10136.png
#EXTINF:4.003200,
190630363093482-index10137.png
#EXTINF:7.255800,
190630363093482-index10138.png
#EXTINF:7.005600,
190630363093482-index10139.png
#EXTINF:10.008000,
190630363093482-index10140.png
#EXTINF:10.008000,
190630363093482-index10141.png
#EXTINF:7.631100,
190630363093482-index10142.png
#EXTINF:1.084200,
190630363093482-index10143.png
#EXTINF:4.170000,
190630363093482-index10144.png
#EXTINF:4.003200,
190630363093482-index10145.png
#EXTINF:2.001600,
190630363093482-index10146.png
#EXTINF:1.251000,
190630363093482-index10147.png
#EXTINF:2.502000,
190630363093482-index10148.png
#EXTINF:2.001600,
190630363093482-index10149.png
#EXTINF:10.008000,
190630363093482-index10150.png
#EXTINF:1.876500,
190630363093482-index10151.png
#EXTINF:10.008000,
190630363093482-index10152.png
#EXTINF:10.008000,
190630363093482-index10153.png
#EXTINF:4.253400,
190630363093482-index10154.png
#EXTINF:9.007200,
190630363093482-index10155.png
#EXTINF:4.003200,
190630363093482-index10156.png
#EXTINF:2.001600,
190630363093482-index10157.png
#EXTINF:4.253400,
190630363093482-index10158.png
#EXTINF:8.631900,
190630363093482-index10159.png
#EXTINF:3.127500,
190630363093482-index10160.png
#EXTINF:2.001600,
190630363093482-index10161.png
#EXTINF:2.251800,
190630363093482-index10162.png
#EXTINF:9.257400,
190630363093482-index10163.png
#EXTINF:7.130700,
190630363093482-index10164.png
#EXTINF:7.089000,
190630363093482-index10165.png
#EXTINF:4.420200,
190630363093482-index10166.png
#EXTINF:10.008000,
190630363093482-index10167.png
#EXTINF:3.753000,
190630363093482-index10168.png
#EXTINF:10.008000,
190630363093482-index10169.png
#EXTINF:4.378500,
190630363093482-index10170.png
#EXTINF:2.752200,
190630363093482-index10171.png
#EXTINF:10.008000,
190630363093482-index10172.png
#EXTINF:4.128300,
190630363093482-index10173.png
#EXTINF:9.132300,
190630363093482-index10174.png
#EXTINF:2.001600,
190630363093482-index10175.png
#EXTINF:9.591000,
190630363093482-index10176.png
#EXTINF:4.003200,
190630363093482-index10177.png
#EXTINF:6.380100,
190630363093482-index10178.png
#EXTINF:1.751400,
190630363093482-index10179.png
#EXTINF:3.377700,
190630363093482-index10180.png
#EXTINF:10.008000,
190630363093482-index10181.png
#EXTINF:1.876500,
190630363093482-index10182.png
#EXTINF:5.754600,
190630363093482-index10183.png
#EXTINF:10.008000,
190630363093482-index10184.png
#EXTINF:9.382500,
190630363093482-index10185.png
#EXTINF:6.546900,
190630363093482-index10186.png
#EXTINF:2.502000,
190630363093482-index10187.png
#EXTINF:2.251800,
190630363093482-index10188.png
#EXTINF:1.501200,
190630363093482-index10189.png
#EXTINF:9.174000,
190630363093482-index10190.png
#EXTINF:3.252600,
190630363093482-index10191.png
#EXTINF:7.756200,
190630363093482-index10192.png
#EXTINF:2.627100,
190630363093482-index10193.png
#EXTINF:5.629500,
190630363093482-index10194.png
#EXTINF:4.753800,
190630363093482-index10195.png
#EXTINF:5.504400,
190630363093482-index10196.png
#EXTINF:6.004800,
190630363093482-index10197.png
#EXTINF:2.877300,
190630363093482-index10198.png
#EXTINF:4.128300,
190630363093482-index10199.png
#EXTINF:10.008000,
190630363093482-index10200.png
#EXTINF:2.251800,
190630363093482-index10201.png
#EXTINF:5.004000,
190630363093482-index10202.png
#EXTINF:2.001600,
190630363093482-index10203.png
#EXTINF:10.008000,
190630363093482-index10204.png
#EXTINF:3.627900,
190630363093482-index10205.png
#EXTINF:9.757800,
190630363093482-index10206.png
#EXTINF:7.255800,
190630363093482-index10207.png
#EXTINF:2.877300,
190630363093482-index10208.png
#EXTINF:10.008000,
190630363093482-index10209.png
#EXTINF:10.008000,
190630363093482-index10210.png
#EXTINF:10.008000,
190630363093482-index10211.png
#EXTINF:10.008000,
190630363093482-index10212.png
#EXTINF:6.380100,
190630363093482-index10213.png
#EXTINF:9.007200,
190630363093482-index10214.png
#EXTINF:7.380900,
190630363093482-index10215.png
#EXTINF:10.008000,
190630363093482-index10216.png
#EXTINF:10.008000,
190630363093482-index10217.png
#EXTINF:10.008000,
190630363093482-index10218.png
#EXTINF:10.008000,
190630363093482-index10219.png
#EXTINF:10.008000,
190630363093482-index10220.png
#EXTINF:8.631900,
190630363093482-index10221.png
#EXTINF:5.879700,
190630363093482-index10222.png
#EXTINF:8.131500,
190630363093482-index10223.png
#EXTINF:10.008000,
190630363093482-index10224.png
#EXTINF:9.257400,
190630363093482-index10225.png
#EXTINF:1.000800,
190630363093482-index10226.png
#EXTINF:2.251800,
190630363093482-index10227.png
#EXTINF:6.755400,
190630363093482-index10228.png
#EXTINF:7.130700,
190630363093482-index10229.png
#EXTINF:4.878900,
190630363093482-index10230.png
#EXTINF:3.002400,
190630363093482-index10231.png
#EXTINF:7.506000,
190630363093482-index10232.png
#EXTINF:3.502800,
190630363093482-index10233.png
#EXTINF:4.503600,
190630363093482-index10234.png
#EXTINF:2.251800,
190630363093482-index10235.png
#EXTINF:7.047300,
190630363093482-index10236.png
#EXTINF:4.628700,
190630363093482-index10237.png
#EXTINF:10.008000,
190630363093482-index10238.png
#EXTINF:10.008000,
190630363093482-index10239.png
#EXTINF:10.008000,
190630363093482-index10240.png
#EXTINF:10.008000,
190630363093482-index10241.png
#EXTINF:10.008000,
190630363093482-index10242.png
#EXTINF:10.008000,
190630363093482-index10243.png
#EXTINF:10.008000,
190630363093482-index10244.png
#EXTINF:7.380900,
190630363093482-index10245.png
#EXTINF:6.880500,
190630363093482-index10246.png
#EXT-X-ENDLIST
