#EXTM3U
#EXT-X-VERSION:3
#EXT-X-TARGETDURATION:10
#EXT-X-MEDIA-SEQUENCE:10001
#EXTINF:3.440000,
193126263303889-index10001.png
#EXTINF:4.840000,
193126263303889-index10002.png
#EXTINF:1.000000,
193126263303889-index10003.png
#EXTINF:5.040000,
193126263303889-index10004.png
#EXTINF:5.960000,
193126263303889-index10005.png
#EXTINF:6.800000,
193126263303889-index10006.png
#EXTINF:5.960000,
193126263303889-index10007.png
#EXTINF:6.720000,
193126263303889-index10008.png
#EXTINF:6.640000,
193126263303889-index10009.png
#EXTINF:6.520000,
193126263303889-index10010.png
#EXTINF:6.800000,
193126263303889-index10011.png
#EXTINF:6.640000,
193126263303889-index10012.png
#EXTINF:6.680000,
193126263303889-index10013.png
#EXTINF:6.640000,
193126263303889-index10014.png
#EXTINF:10.000000,
193126263303889-index10015.png
#EXTINF:3.240000,
193126263303889-index10016.png
#EXTINF:6.600000,
193126263303889-index10017.png
#EXTINF:7.160000,
193126263303889-index10018.png
#EXTINF:6.160000,
193126263303889-index10019.png
#EXTINF:6.680000,
193126263303889-index10020.png
#EXTINF:6.680000,
193126263303889-index10021.png
#EXTINF:3.880000,
193126263303889-index10022.png
#EXTINF:10.000000,
193126263303889-index10023.png
#EXTINF:3.600000,
193126263303889-index10024.png
#EXTINF:10.000000,
193126263303889-index10025.png
#EXTINF:10.000000,
193126263303889-index10026.png
#EXTINF:3.840000,
193126263303889-index10027.png
#EXTINF:7.120000,
193126263303889-index10028.png
#EXTINF:3.600000,
193126263303889-index10029.png
#EXTINF:1.720000,
193126263303889-index10030.png
#EXTINF:5.160000,
193126263303889-index10031.png
#EXTINF:3.640000,
193126263303889-index10032.png
#EXTINF:4.160000,
193126263303889-index10033.png
#EXTINF:2.800000,
193126263303889-index10034.png
#EXTINF:4.520000,
193126263303889-index10035.png
#EXTINF:3.120000,
193126263303889-index10036.png
#EXTINF:3.600000,
193126263303889-index10037.png
#EXTINF:2.680000,
193126263303889-index10038.png
#EXTINF:7.720000,
193126263303889-index10039.png
#EXTINF:3.920000,
193126263303889-index10040.png
#EXTINF:6.720000,
193126263303889-index10041.png
#EXTINF:5.040000,
193126263303889-index10042.png
#EXTINF:5.480000,
193126263303889-index10043.png
#EXTINF:4.600000,
193126263303889-index10044.png
#EXTINF:6.080000,
193126263303889-index10045.png
#EXTINF:10.000000,
193126263303889-index10046.png
#EXTINF:4.120000,
193126263303889-index10047.png
#EXTINF:6.120000,
193126263303889-index10048.png
#EXTINF:3.480000,
193126263303889-index10049.png
#EXTINF:1.840000,
193126263303889-index10050.png
#EXTINF:4.280000,
193126263303889-index10051.png
#EXTINF:2.840000,
193126263303889-index10052.png
#EXTINF:4.840000,
193126263303889-index10053.png
#EXTINF:9.800000,
193126263303889-index10054.png
#EXTINF:3.240000,
193126263303889-index10055.png
#EXTINF:4.920000,
193126263303889-index10056.png
#EXTINF:5.440000,
193126263303889-index10057.png
#EXTINF:6.560000,
193126263303889-index10058.png
#EXTINF:4.120000,
193126263303889-index10059.png
#EXTINF:1.800000,
193126263303889-index10060.png
#EXTINF:2.400000,
193126263303889-index10061.png
#EXTINF:3.440000,
193126263303889-index10062.png
#EXTINF:3.880000,
193126263303889-index10063.png
#EXTINF:5.720000,
193126263303889-index10064.png
#EXTINF:5.160000,
193126263303889-index10065.png
#EXTINF:5.040000,
193126263303889-index10066.png
#EXTINF:5.040000,
193126263303889-index10067.png
#EXTINF:4.240000,
193126263303889-index10068.png
#EXTINF:3.400000,
193126263303889-index10069.png
#EXTINF:6.000000,
193126263303889-index10070.png
#EXTINF:4.640000,
193126263303889-index10071.png
#EXTINF:1.840000,
193126263303889-index10072.png
#EXTINF:2.840000,
193126263303889-index10073.png
#EXTINF:5.600000,
193126263303889-index10074.png
#EXTINF:4.960000,
193126263303889-index10075.png
#EXTINF:4.480000,
193126263303889-index10076.png
#EXTINF:6.640000,
193126263303889-index10077.png
#EXTINF:5.760000,
193126263303889-index10078.png
#EXTINF:3.120000,
193126263303889-index10079.png
#EXTINF:1.680000,
193126263303889-index10080.png
#EXTINF:2.320000,
193126263303889-index10081.png
#EXTINF:1.040000,
193126263303889-index10082.png
#EXTINF:2.000000,
193126263303889-index10083.png
#EXTINF:3.000000,
193126263303889-index10084.png
#EXTINF:1.600000,
193126263303889-index10085.png
#EXTINF:3.600000,
193126263303889-index10086.png
#EXTINF:2.480000,
193126263303889-index10087.png
#EXTINF:3.160000,
193126263303889-index10088.png
#EXTINF:2.160000,
193126263303889-index10089.png
#EXTINF:5.560000,
193126263303889-index10090.png
#EXTINF:2.080000,
193126263303889-index10091.png
#EXTINF:2.240000,
193126263303889-index10092.png
#EXTINF:6.160000,
193126263303889-index10093.png
#EXTINF:1.280000,
193126263303889-index10094.png
#EXTINF:1.120000,
193126263303889-index10095.png
#EXTINF:1.600000,
193126263303889-index10096.png
#EXTINF:1.960000,
193126263303889-index10097.png
#EXTINF:1.440000,
193126263303889-index10098.png
#EXTINF:1.320000,
193126263303889-index10099.png
#EXTINF:1.040000,
193126263303889-index10100.png
#EXTINF:4.120000,
193126263303889-index10101.png
#EXTINF:10.000000,
193126263303889-index10102.png
#EXTINF:10.000000,
193126263303889-index10103.png
#EXTINF:10.000000,
193126263303889-index10104.png
#EXTINF:10.000000,
193126263303889-index10105.png
#EXTINF:7.560000,
193126263303889-index10106.png
#EXTINF:10.000000,
193126263303889-index10107.png
#EXTINF:2.320000,
193126263303889-index10108.png
#EXT-X-ENDLIST
