#EXTM3U
#EXT-X-VERSION:3
#EXT-X-TARGETDURATION:9
#EXT-X-MEDIA-SEQUENCE:10001
#EXTINF:8.363000,
194938878218332-index10001.png
#EXTINF:8.341667,
194938878218332-index10002.png
#EXTINF:8.341667,
194938878218332-index10003.png
#EXTINF:8.341667,
194938878218332-index10004.png
#EXTINF:8.341667,
194938878218332-index10005.png
#EXTINF:8.341667,
194938878218332-index10006.png
#EXTINF:8.341667,
194938878218332-index10007.png
#EXTINF:8.341667,
194938878218332-index10008.png
#EXTINF:8.341667,
194938878218332-index10009.png
#EXTINF:8.341667,
194938878218332-index10010.png
#EXTINF:8.341667,
194938878218332-index10011.png
#EXTINF:8.341667,
194938878218332-index10012.png
#EXTINF:8.341667,
194938878218332-index10013.png
#EXTINF:8.341667,
194938878218332-index10014.png
#EXTINF:8.341667,
194938878218332-index10015.png
#EXTINF:8.341667,
194938878218332-index10016.png
#EXTINF:8.341667,
194938878218332-index10017.png
#EXTINF:8.341667,
194938878218332-index10018.png
#EXTINF:8.341667,
194938878218332-index10019.png
#EXTINF:8.341667,
194938878218332-index10020.png
#EXTINF:8.341667,
194938878218332-index10021.png
#EXTINF:8.341667,
194938878218332-index10022.png
#EXTINF:8.341667,
194938878218332-index10023.png
#EXTINF:8.341667,
194938878218332-index10024.png
#EXTINF:8.341667,
194938878218332-index10025.png
#EXTINF:8.341667,
194938878218332-index10026.png
#EXTINF:8.341667,
194938878218332-index10027.png
#EXTINF:8.341667,
194938878218332-index10028.png
#EXTINF:8.341667,
194938878218332-index10029.png
#EXTINF:8.341667,
194938878218332-index10030.png
#EXTINF:8.341667,
194938878218332-index10031.png
#EXTINF:8.341667,
194938878218332-index10032.png
#EXTINF:8.341667,
194938878218332-index10033.png
#EXTINF:8.341667,
194938878218332-index10034.png
#EXTINF:8.341667,
194938878218332-index10035.png
#EXTINF:8.341667,
194938878218332-index10036.png
#EXTINF:8.341667,
194938878218332-index10037.png
#EXTINF:8.341667,
194938878218332-index10038.png
#EXTINF:8.341667,
194938878218332-index10039.png
#EXTINF:8.341667,
194938878218332-index10040.png
#EXTINF:8.341667,
194938878218332-index10041.png
#EXTINF:8.341667,
194938878218332-index10042.png
#EXTINF:8.341667,
194938878218332-index10043.png
#EXTINF:8.341667,
194938878218332-index10044.png
#EXTINF:8.341667,
194938878218332-index10045.png
#EXTINF:8.341667,
194938878218332-index10046.png
#EXTINF:8.341667,
194938878218332-index10047.png
#EXTINF:8.341667,
194938878218332-index10048.png
#EXTINF:8.341667,
194938878218332-index10049.png
#EXTINF:8.341667,
194938878218332-index10050.png
#EXTINF:8.341667,
194938878218332-index10051.png
#EXTINF:8.341667,
194938878218332-index10052.png
#EXTINF:8.341667,
194938878218332-index10053.png
#EXTINF:8.341667,
194938878218332-index10054.png
#EXTINF:8.341667,
194938878218332-index10055.png
#EXTINF:8.341667,
194938878218332-index10056.png
#EXTINF:8.341667,
194938878218332-index10057.png
#EXTINF:8.341667,
194938878218332-index10058.png
#EXTINF:8.341667,
194938878218332-index10059.png
#EXTINF:8.341667,
194938878218332-index10060.png
#EXTINF:8.341667,
194938878218332-index10061.png
#EXTINF:8.341667,
194938878218332-index10062.png
#EXTINF:8.341667,
194938878218332-index10063.png
#EXTINF:8.341667,
194938878218332-index10064.png
#EXTINF:8.341667,
194938878218332-index10065.png
#EXTINF:8.341667,
194938878218332-index10066.png
#EXTINF:8.341667,
194938878218332-index10067.png
#EXTINF:8.341667,
194938878218332-index10068.png
#EXTINF:8.341667,
194938878218332-index10069.png
#EXTINF:8.341667,
194938878218332-index10070.png
#EXTINF:8.341667,
194938878218332-index10071.png
#EXTINF:8.341667,
194938878218332-index10072.png
#EXTINF:8.341667,
194938878218332-index10073.png
#EXTINF:8.341667,
194938878218332-index10074.png
#EXTINF:8.341667,
194938878218332-index10075.png
#EXTINF:8.341667,
194938878218332-index10076.png
#EXTINF:8.341667,
194938878218332-index10077.png
#EXTINF:8.341667,
194938878218332-index10078.png
#EXTINF:8.341667,
194938878218332-index10079.png
#EXTINF:8.341667,
194938878218332-index10080.png
#EXTINF:8.341667,
194938878218332-index10081.png
#EXTINF:8.341667,
194938878218332-index10082.png
#EXTINF:8.341667,
194938878218332-index10083.png
#EXTINF:8.341667,
194938878218332-index10084.png
#EXTINF:8.341667,
194938878218332-index10085.png
#EXTINF:8.341667,
194938878218332-index10086.png
#EXTINF:8.341667,
194938878218332-index10087.png
#EXTINF:8.341667,
194938878218332-index10088.png
#EXTINF:8.341667,
194938878218332-index10089.png
#EXTINF:8.341667,
194938878218332-index10090.png
#EXTINF:8.341667,
194938878218332-index10091.png
#EXTINF:8.341667,
194938878218332-index10092.png
#EXTINF:8.341667,
194938878218332-index10093.png
#EXTINF:8.341667,
194938878218332-index10094.png
#EXTINF:8.341667,
194938878218332-index10095.png
#EXTINF:8.341667,
194938878218332-index10096.png
#EXTINF:8.341667,
194938878218332-index10097.png
#EXTINF:8.341667,
194938878218332-index10098.png
#EXTINF:8.341667,
194938878218332-index10099.png
#EXTINF:8.341667,
194938878218332-index10100.png
#EXTINF:8.341667,
194938878218332-index10101.png
#EXTINF:8.341667,
194938878218332-index10102.png
#EXTINF:8.341667,
194938878218332-index10103.png
#EXTINF:8.341667,
194938878218332-index10104.png
#EXTINF:8.341667,
194938878218332-index10105.png
#EXTINF:8.341667,
194938878218332-index10106.png
#EXTINF:8.341667,
194938878218332-index10107.png
#EXTINF:8.341667,
194938878218332-index10108.png
#EXTINF:8.341667,
194938878218332-index10109.png
#EXTINF:8.341667,
194938878218332-index10110.png
#EXTINF:8.341667,
194938878218332-index10111.png
#EXTINF:8.341667,
194938878218332-index10112.png
#EXTINF:8.341667,
194938878218332-index10113.png
#EXTINF:8.341667,
194938878218332-index10114.png
#EXTINF:8.341667,
194938878218332-index10115.png
#EXTINF:8.341667,
194938878218332-index10116.png
#EXTINF:8.341667,
194938878218332-index10117.png
#EXTINF:8.341667,
194938878218332-index10118.png
#EXTINF:8.341667,
194938878218332-index10119.png
#EXTINF:8.341667,
194938878218332-index10120.png
#EXTINF:8.341667,
194938878218332-index10121.png
#EXTINF:8.341667,
194938878218332-index10122.png
#EXTINF:8.341667,
194938878218332-index10123.png
#EXTINF:8.341667,
194938878218332-index10124.png
#EXTINF:8.341667,
194938878218332-index10125.png
#EXTINF:8.341667,
194938878218332-index10126.png
#EXTINF:8.341667,
194938878218332-index10127.png
#EXTINF:8.341667,
194938878218332-index10128.png
#EXTINF:8.341667,
194938878218332-index10129.png
#EXTINF:8.341667,
194938878218332-index10130.png
#EXTINF:8.341667,
194938878218332-index10131.png
#EXTINF:8.341667,
194938878218332-index10132.png
#EXTINF:8.341667,
194938878218332-index10133.png
#EXTINF:8.341667,
194938878218332-index10134.png
#EXTINF:8.341667,
194938878218332-index10135.png
#EXTINF:8.341667,
194938878218332-index10136.png
#EXTINF:8.341667,
194938878218332-index10137.png
#EXTINF:8.341667,
194938878218332-index10138.png
#EXTINF:8.341667,
194938878218332-index10139.png
#EXTINF:8.341667,
194938878218332-index10140.png
#EXTINF:8.341667,
194938878218332-index10141.png
#EXTINF:8.341667,
194938878218332-index10142.png
#EXTINF:8.341667,
194938878218332-index10143.png
#EXTINF:8.341667,
194938878218332-index10144.png
#EXTINF:8.341667,
194938878218332-index10145.png
#EXTINF:8.341667,
194938878218332-index10146.png
#EXTINF:8.341667,
194938878218332-index10147.png
#EXTINF:8.341667,
194938878218332-index10148.png
#EXTINF:8.341667,
194938878218332-index10149.png
#EXTINF:8.341667,
194938878218332-index10150.png
#EXTINF:8.341667,
194938878218332-index10151.png
#EXTINF:8.341667,
194938878218332-index10152.png
#EXTINF:8.341667,
194938878218332-index10153.png
#EXTINF:8.341667,
194938878218332-index10154.png
#EXTINF:8.341667,
194938878218332-index10155.png
#EXTINF:8.341667,
194938878218332-index10156.png
#EXTINF:8.341667,
194938878218332-index10157.png
#EXTINF:8.341667,
194938878218332-index10158.png
#EXTINF:8.341667,
194938878218332-index10159.png
#EXTINF:8.341667,
194938878218332-index10160.png
#EXTINF:8.341667,
194938878218332-index10161.png
#EXTINF:8.341667,
194938878218332-index10162.png
#EXTINF:8.341667,
194938878218332-index10163.png
#EXTINF:8.341667,
194938878218332-index10164.png
#EXTINF:8.341667,
194938878218332-index10165.png
#EXTINF:8.341667,
194938878218332-index10166.png
#EXTINF:8.341667,
194938878218332-index10167.png
#EXTINF:8.341667,
194938878218332-index10168.png
#EXTINF:8.341667,
194938878218332-index10169.png
#EXTINF:8.341667,
194938878218332-index10170.png
#EXTINF:8.341667,
194938878218332-index10171.png
#EXTINF:8.341667,
194938878218332-index10172.png
#EXTINF:8.341667,
194938878218332-index10173.png
#EXTINF:8.341667,
194938878218332-index10174.png
#EXTINF:8.341667,
194938878218332-index10175.png
#EXTINF:8.341667,
194938878218332-index10176.png
#EXTINF:8.341667,
194938878218332-index10177.png
#EXTINF:8.341667,
194938878218332-index10178.png
#EXTINF:8.341667,
194938878218332-index10179.png
#EXTINF:8.341667,
194938878218332-index10180.png
#EXTINF:8.341667,
194938878218332-index10181.png
#EXTINF:8.341667,
194938878218332-index10182.png
#EXTINF:8.341667,
194938878218332-index10183.png
#EXTINF:8.341667,
194938878218332-index10184.png
#EXTINF:8.341667,
194938878218332-index10185.png
#EXTINF:8.341667,
194938878218332-index10186.png
#EXTINF:8.341667,
194938878218332-index10187.png
#EXTINF:8.341667,
194938878218332-index10188.png
#EXTINF:8.341667,
194938878218332-index10189.png
#EXTINF:8.341667,
194938878218332-index10190.png
#EXTINF:8.341667,
194938878218332-index10191.png
#EXTINF:8.341667,
194938878218332-index10192.png
#EXTINF:8.341667,
194938878218332-index10193.png
#EXTINF:8.341667,
194938878218332-index10194.png
#EXTINF:8.341667,
194938878218332-index10195.png
#EXTINF:8.341667,
194938878218332-index10196.png
#EXTINF:8.341667,
194938878218332-index10197.png
#EXTINF:8.341667,
194938878218332-index10198.png
#EXTINF:8.341667,
194938878218332-index10199.png
#EXTINF:8.341667,
194938878218332-index10200.png
#EXTINF:8.341667,
194938878218332-index10201.png
#EXTINF:8.341667,
194938878218332-index10202.png
#EXTINF:8.341667,
194938878218332-index10203.png
#EXTINF:8.341667,
194938878218332-index10204.png
#EXTINF:8.341667,
194938878218332-index10205.png
#EXTINF:8.341667,
194938878218332-index10206.png
#EXTINF:8.341667,
194938878218332-index10207.png
#EXTINF:8.341667,
194938878218332-index10208.png
#EXTINF:8.341667,
194938878218332-index10209.png
#EXTINF:8.341667,
194938878218332-index10210.png
#EXTINF:8.341667,
194938878218332-index10211.png
#EXTINF:8.341667,
194938878218332-index10212.png
#EXTINF:8.341667,
194938878218332-index10213.png
#EXTINF:8.341667,
194938878218332-index10214.png
#EXTINF:8.341667,
194938878218332-index10215.png
#EXTINF:8.341667,
194938878218332-index10216.png
#EXTINF:8.341667,
194938878218332-index10217.png
#EXTINF:8.341667,
194938878218332-index10218.png
#EXTINF:8.341667,
194938878218332-index10219.png
#EXTINF:8.341667,
194938878218332-index10220.png
#EXTINF:8.341667,
194938878218332-index10221.png
#EXTINF:8.341667,
194938878218332-index10222.png
#EXTINF:8.341667,
194938878218332-index10223.png
#EXTINF:8.341667,
194938878218332-index10224.png
#EXTINF:8.341667,
194938878218332-index10225.png
#EXTINF:8.341667,
194938878218332-index10226.png
#EXTINF:8.341667,
194938878218332-index10227.png
#EXTINF:8.341667,
194938878218332-index10228.png
#EXTINF:8.341667,
194938878218332-index10229.png
#EXTINF:8.341667,
194938878218332-index10230.png
#EXTINF:8.341667,
194938878218332-index10231.png
#EXTINF:8.341667,
194938878218332-index10232.png
#EXTINF:8.341667,
194938878218332-index10233.png
#EXTINF:8.341667,
194938878218332-index10234.png
#EXTINF:8.341667,
194938878218332-index10235.png
#EXTINF:8.341667,
194938878218332-index10236.png
#EXTINF:8.341667,
194938878218332-index10237.png
#EXTINF:8.341667,
194938878218332-index10238.png
#EXTINF:8.341667,
194938878218332-index10239.png
#EXTINF:8.341667,
194938878218332-index10240.png
#EXTINF:8.341667,
194938878218332-index10241.png
#EXTINF:8.341667,
194938878218332-index10242.png
#EXTINF:8.341667,
194938878218332-index10243.png
#EXTINF:8.341667,
194938878218332-index10244.png
#EXTINF:8.341667,
194938878218332-index10245.png
#EXTINF:8.341667,
194938878218332-index10246.png
#EXTINF:8.341667,
194938878218332-index10247.png
#EXTINF:8.341667,
194938878218332-index10248.png
#EXTINF:8.341667,
194938878218332-index10249.png
#EXTINF:8.341667,
194938878218332-index10250.png
#EXTINF:8.341667,
194938878218332-index10251.png
#EXTINF:8.341667,
194938878218332-index10252.png
#EXTINF:8.341667,
194938878218332-index10253.png
#EXTINF:8.341667,
194938878218332-index10254.png
#EXTINF:8.341667,
194938878218332-index10255.png
#EXTINF:8.341667,
194938878218332-index10256.png
#EXTINF:8.341667,
194938878218332-index10257.png
#EXTINF:8.341667,
194938878218332-index10258.png
#EXTINF:8.341667,
194938878218332-index10259.png
#EXTINF:8.341667,
194938878218332-index10260.png
#EXTINF:8.341667,
194938878218332-index10261.png
#EXTINF:8.341667,
194938878218332-index10262.png
#EXTINF:8.341667,
194938878218332-index10263.png
#EXTINF:8.341667,
194938878218332-index10264.png
#EXTINF:8.341667,
194938878218332-index10265.png
#EXTINF:8.341667,
194938878218332-index10266.png
#EXTINF:8.341667,
194938878218332-index10267.png
#EXTINF:8.341667,
194938878218332-index10268.png
#EXTINF:8.341667,
194938878218332-index10269.png
#EXTINF:8.341667,
194938878218332-index10270.png
#EXTINF:8.341667,
194938878218332-index10271.png
#EXTINF:8.341667,
194938878218332-index10272.png
#EXTINF:8.341667,
194938878218332-index10273.png
#EXTINF:8.341667,
194938878218332-index10274.png
#EXTINF:8.341667,
194938878218332-index10275.png
#EXTINF:8.341667,
194938878218332-index10276.png
#EXTINF:8.341667,
194938878218332-index10277.png
#EXTINF:8.341667,
194938878218332-index10278.png
#EXTINF:8.341667,
194938878218332-index10279.png
#EXTINF:8.341667,
194938878218332-index10280.png
#EXTINF:8.341667,
194938878218332-index10281.png
#EXTINF:8.341667,
194938878218332-index10282.png
#EXTINF:8.341667,
194938878218332-index10283.png
#EXTINF:8.341667,
194938878218332-index10284.png
#EXTINF:8.341667,
194938878218332-index10285.png
#EXTINF:8.341667,
194938878218332-index10286.png
#EXTINF:8.341667,
194938878218332-index10287.png
#EXTINF:8.341667,
194938878218332-index10288.png
#EXTINF:8.341667,
194938878218332-index10289.png
#EXTINF:8.341667,
194938878218332-index10290.png
#EXTINF:8.341667,
194938878218332-index10291.png
#EXTINF:8.341667,
194938878218332-index10292.png
#EXTINF:8.341667,
194938878218332-index10293.png
#EXTINF:8.341667,
194938878218332-index10294.png
#EXTINF:8.341667,
194938878218332-index10295.png
#EXTINF:8.341667,
194938878218332-index10296.png
#EXTINF:8.341667,
194938878218332-index10297.png
#EXTINF:8.341667,
194938878218332-index10298.png
#EXTINF:8.341667,
194938878218332-index10299.png
#EXTINF:8.341667,
194938878218332-index10300.png
#EXTINF:8.341667,
194938878218332-index10301.png
#EXTINF:8.341667,
194938878218332-index10302.png
#EXTINF:8.341667,
194938878218332-index10303.png
#EXTINF:8.341667,
194938878218332-index10304.png
#EXTINF:8.341667,
194938878218332-index10305.png
#EXTINF:8.341667,
194938878218332-index10306.png
#EXTINF:8.341667,
194938878218332-index10307.png
#EXTINF:8.341667,
194938878218332-index10308.png
#EXTINF:8.341667,
194938878218332-index10309.png
#EXTINF:8.341667,
194938878218332-index10310.png
#EXTINF:8.341667,
194938878218332-index10311.png
#EXTINF:8.341667,
194938878218332-index10312.png
#EXTINF:8.341667,
194938878218332-index10313.png
#EXTINF:8.341667,
194938878218332-index10314.png
#EXTINF:8.341667,
194938878218332-index10315.png
#EXTINF:8.341667,
194938878218332-index10316.png
#EXTINF:8.341667,
194938878218332-index10317.png
#EXTINF:8.341667,
194938878218332-index10318.png
#EXTINF:8.341667,
194938878218332-index10319.png
#EXTINF:8.341667,
194938878218332-index10320.png
#EXTINF:8.341667,
194938878218332-index10321.png
#EXTINF:8.341667,
194938878218332-index10322.png
#EXTINF:8.341667,
194938878218332-index10323.png
#EXTINF:8.341667,
194938878218332-index10324.png
#EXTINF:8.341667,
194938878218332-index10325.png
#EXTINF:8.341667,
194938878218332-index10326.png
#EXTINF:8.341667,
194938878218332-index10327.png
#EXTINF:8.341667,
194938878218332-index10328.png
#EXTINF:8.341667,
194938878218332-index10329.png
#EXTINF:8.341667,
194938878218332-index10330.png
#EXTINF:8.341667,
194938878218332-index10331.png
#EXTINF:8.341667,
194938878218332-index10332.png
#EXTINF:8.341667,
194938878218332-index10333.png
#EXTINF:8.341667,
194938878218332-index10334.png
#EXTINF:8.341667,
194938878218332-index10335.png
#EXTINF:8.341667,
194938878218332-index10336.png
#EXTINF:8.341667,
194938878218332-index10337.png
#EXTINF:8.341667,
194938878218332-index10338.png
#EXTINF:8.341667,
194938878218332-index10339.png
#EXTINF:8.341667,
194938878218332-index10340.png
#EXTINF:8.341667,
194938878218332-index10341.png
#EXTINF:8.341667,
194938878218332-index10342.png
#EXTINF:8.341667,
194938878218332-index10343.png
#EXTINF:8.341667,
194938878218332-index10344.png
#EXTINF:8.341667,
194938878218332-index10345.png
#EXTINF:8.341667,
194938878218332-index10346.png
#EXTINF:8.341667,
194938878218332-index10347.png
#EXTINF:8.341667,
194938878218332-index10348.png
#EXTINF:8.341667,
194938878218332-index10349.png
#EXTINF:8.341667,
194938878218332-index10350.png
#EXTINF:8.341667,
194938878218332-index10351.png
#EXTINF:8.341667,
194938878218332-index10352.png
#EXTINF:8.341667,
194938878218332-index10353.png
#EXTINF:8.341667,
194938878218332-index10354.png
#EXTINF:8.341667,
194938878218332-index10355.png
#EXTINF:8.341667,
194938878218332-index10356.png
#EXTINF:8.341667,
194938878218332-index10357.png
#EXTINF:8.341667,
194938878218332-index10358.png
#EXTINF:8.341667,
194938878218332-index10359.png
#EXTINF:8.341667,
194938878218332-index10360.png
#EXTINF:8.341667,
194938878218332-index10361.png
#EXTINF:8.341667,
194938878218332-index10362.png
#EXTINF:8.341667,
194938878218332-index10363.png
#EXTINF:8.341667,
194938878218332-index10364.png
#EXTINF:8.341667,
194938878218332-index10365.png
#EXTINF:8.341667,
194938878218332-index10366.png
#EXTINF:8.341667,
194938878218332-index10367.png
#EXTINF:8.341667,
194938878218332-index10368.png
#EXTINF:8.341667,
194938878218332-index10369.png
#EXTINF:8.341667,
194938878218332-index10370.png
#EXTINF:8.341667,
194938878218332-index10371.png
#EXTINF:8.341667,
194938878218332-index10372.png
#EXTINF:8.341667,
194938878218332-index10373.png
#EXTINF:8.341667,
194938878218332-index10374.png
#EXTINF:8.341667,
194938878218332-index10375.png
#EXTINF:8.341667,
194938878218332-index10376.png
#EXTINF:8.341667,
194938878218332-index10377.png
#EXTINF:8.341667,
194938878218332-index10378.png
#EXTINF:8.341667,
194938878218332-index10379.png
#EXTINF:8.341667,
194938878218332-index10380.png
#EXTINF:8.341667,
194938878218332-index10381.png
#EXTINF:8.341667,
194938878218332-index10382.png
#EXTINF:8.341667,
194938878218332-index10383.png
#EXTINF:8.341667,
194938878218332-index10384.png
#EXTINF:8.341667,
194938878218332-index10385.png
#EXTINF:8.341667,
194938878218332-index10386.png
#EXTINF:8.341667,
194938878218332-index10387.png
#EXTINF:8.341667,
194938878218332-index10388.png
#EXTINF:8.341667,
194938878218332-index10389.png
#EXTINF:8.341667,
194938878218332-index10390.png
#EXTINF:8.341667,
194938878218332-index10391.png
#EXTINF:8.341667,
194938878218332-index10392.png
#EXTINF:8.341667,
194938878218332-index10393.png
#EXTINF:8.341667,
194938878218332-index10394.png
#EXTINF:8.341667,
194938878218332-index10395.png
#EXTINF:8.341667,
194938878218332-index10396.png
#EXTINF:8.341667,
194938878218332-index10397.png
#EXTINF:8.341667,
194938878218332-index10398.png
#EXTINF:8.341667,
194938878218332-index10399.png
#EXTINF:8.341667,
194938878218332-index10400.png
#EXTINF:8.341667,
194938878218332-index10401.png
#EXTINF:8.341667,
194938878218332-index10402.png
#EXTINF:8.341667,
194938878218332-index10403.png
#EXTINF:8.341667,
194938878218332-index10404.png
#EXTINF:8.341667,
194938878218332-index10405.png
#EXTINF:8.341667,
194938878218332-index10406.png
#EXTINF:8.341667,
194938878218332-index10407.png
#EXTINF:8.341667,
194938878218332-index10408.png
#EXTINF:8.341667,
194938878218332-index10409.png
#EXTINF:8.341667,
194938878218332-index10410.png
#EXTINF:8.341667,
194938878218332-index10411.png
#EXTINF:8.341667,
194938878218332-index10412.png
#EXTINF:8.341667,
194938878218332-index10413.png
#EXTINF:8.341667,
194938878218332-index10414.png
#EXTINF:8.341667,
194938878218332-index10415.png
#EXTINF:8.341667,
194938878218332-index10416.png
#EXTINF:8.341667,
194938878218332-index10417.png
#EXTINF:8.341667,
194938878218332-index10418.png
#EXTINF:8.341667,
194938878218332-index10419.png
#EXTINF:8.341667,
194938878218332-index10420.png
#EXTINF:8.341667,
194938878218332-index10421.png
#EXTINF:8.341667,
194938878218332-index10422.png
#EXTINF:8.341667,
194938878218332-index10423.png
#EXTINF:8.341667,
194938878218332-index10424.png
#EXTINF:8.341667,
194938878218332-index10425.png
#EXTINF:8.341667,
194938878218332-index10426.png
#EXTINF:8.341667,
194938878218332-index10427.png
#EXTINF:8.341667,
194938878218332-index10428.png
#EXTINF:8.341667,
194938878218332-index10429.png
#EXTINF:8.341667,
194938878218332-index10430.png
#EXTINF:8.008744,
194938878218332-index10431.png
#EXT-X-ENDLIST
