#EXTM3U
#EXT-X-VERSION:3
#EXT-X-TARGETDURATION:11
#EXT-X-MEDIA-SEQUENCE:10001
#EXTINF:6.004800,
200603536019722-index10001.png
#EXTINF:6.255000,
200603536019722-index10002.png
#EXTINF:3.919800,
200603536019722-index10003.png
#EXTINF:6.713700,
200603536019722-index10004.png
#EXTINF:3.085800,
200603536019722-index10005.png
#EXTINF:4.170000,
200603536019722-index10006.png
#EXTINF:2.960700,
200603536019722-index10007.png
#EXTINF:3.836400,
200603536019722-index10008.png
#EXTINF:2.293500,
200603536019722-index10009.png
#EXTINF:4.670400,
200603536019722-index10010.png
#EXTINF:2.543700,
200603536019722-index10011.png
#EXTINF:3.252600,
200603536019722-index10012.png
#EXTINF:2.960700,
200603536019722-index10013.png
#EXTINF:1.334400,
200603536019722-index10014.png
#EXTINF:1.876500,
200603536019722-index10015.png
#EXTINF:10.216500,
200603536019722-index10016.png
#EXTINF:0.959100,
200603536019722-index10017.png
#EXTINF:4.295100,
200603536019722-index10018.png
#EXTINF:2.960700,
200603536019722-index10019.png
#EXTINF:3.669600,
200603536019722-index10020.png
#EXTINF:5.045700,
200603536019722-index10021.png
#EXTINF:4.086600,
200603536019722-index10022.png
#EXTINF:4.378500,
200603536019722-index10023.png
#EXTINF:7.881300,
200603536019722-index10024.png
#EXTINF:6.421800,
200603536019722-index10025.png
#EXTINF:10.425000,
200603536019722-index10026.png
#EXTINF:5.796300,
200603536019722-index10027.png
#EXTINF:10.425000,
200603536019722-index10028.png
#EXTINF:4.878900,
200603536019722-index10029.png
#EXTINF:6.213300,
200603536019722-index10030.png
#EXTINF:8.006400,
200603536019722-index10031.png
#EXTINF:4.962300,
200603536019722-index10032.png
#EXTINF:10.425000,
200603536019722-index10033.png
#EXTINF:3.336000,
200603536019722-index10034.png
#EXTINF:4.962300,
200603536019722-index10035.png
#EXTINF:5.587800,
200603536019722-index10036.png
#EXTINF:10.425000,
200603536019722-index10037.png
#EXTINF:10.425000,
200603536019722-index10038.png
#EXTINF:10.425000,
200603536019722-index10039.png
#EXTINF:10.425000,
200603536019722-index10040.png
#EXTINF:10.425000,
200603536019722-index10041.png
#EXTINF:6.546900,
200603536019722-index10042.png
#EXTINF:10.425000,
200603536019722-index10043.png
#EXTINF:7.422600,
200603536019722-index10044.png
#EXTINF:3.919800,
200603536019722-index10045.png
#EXTINF:7.380900,
200603536019722-index10046.png
#EXTINF:10.425000,
200603536019722-index10047.png
#EXTINF:5.170800,
200603536019722-index10048.png
#EXTINF:7.464300,
200603536019722-index10049.png
#EXTINF:10.258200,
200603536019722-index10050.png
#EXTINF:10.299900,
200603536019722-index10051.png
#EXTINF:5.129100,
200603536019722-index10052.png
#EXTINF:9.549300,
200603536019722-index10053.png
#EXTINF:4.753800,
200603536019722-index10054.png
#EXTINF:3.669600,
200603536019722-index10055.png
#EXTINF:7.547700,
200603536019722-index10056.png
#EXTINF:8.548500,
200603536019722-index10057.png
#EXTINF:2.793900,
200603536019722-index10058.png
#EXTINF:6.046500,
200603536019722-index10059.png
#EXTINF:10.425000,
200603536019722-index10060.png
#EXTINF:10.425000,
200603536019722-index10061.png
#EXTINF:3.794700,
200603536019722-index10062.png
#EXTINF:10.425000,
200603536019722-index10063.png
#EXTINF:2.502000,
200603536019722-index10064.png
#EXTINF:6.838800,
200603536019722-index10065.png
#EXTINF:10.425000,
200603536019722-index10066.png
#EXTINF:10.133100,
200603536019722-index10067.png
#EXTINF:4.503600,
200603536019722-index10068.png
#EXTINF:4.503600,
200603536019722-index10069.png
#EXTINF:9.799500,
200603536019722-index10070.png
#EXTINF:6.838800,
200603536019722-index10071.png
#EXTINF:3.294300,
200603536019722-index10072.png
#EXTINF:8.173200,
200603536019722-index10073.png
#EXTINF:4.545300,
200603536019722-index10074.png
#EXTINF:5.587800,
200603536019722-index10075.png
#EXTINF:6.588600,
200603536019722-index10076.png
#EXTINF:10.425000,
200603536019722-index10077.png
#EXTINF:6.296700,
200603536019722-index10078.png
#EXTINF:3.502800,
200603536019722-index10079.png
#EXTINF:10.425000,
200603536019722-index10080.png
#EXTINF:10.425000,
200603536019722-index10081.png
#EXTINF:10.425000,
200603536019722-index10082.png
#EXTINF:10.425000,
200603536019722-index10083.png
#EXTINF:10.425000,
200603536019722-index10084.png
#EXTINF:10.425000,
200603536019722-index10085.png
#EXTINF:6.129900,
200603536019722-index10086.png
#EXTINF:3.461100,
200603536019722-index10087.png
#EXTINF:4.295100,
200603536019722-index10088.png
#EXTINF:5.087400,
200603536019722-index10089.png
#EXTINF:5.295900,
200603536019722-index10090.png
#EXTINF:2.585400,
200603536019722-index10091.png
#EXTINF:10.425000,
200603536019722-index10092.png
#EXTINF:4.920600,
200603536019722-index10093.png
#EXTINF:4.920600,
200603536019722-index10094.png
#EXTINF:2.085000,
200603536019722-index10095.png
#EXTINF:7.631100,
200603536019722-index10096.png
#EXTINF:10.425000,
200603536019722-index10097.png
#EXTINF:6.088200,
200603536019722-index10098.png
#EXTINF:9.966300,
200603536019722-index10099.png
#EXTINF:5.379300,
200603536019722-index10100.png
#EXTINF:4.128300,
200603536019722-index10101.png
#EXTINF:2.585400,
200603536019722-index10102.png
#EXTINF:10.425000,
200603536019722-index10103.png
#EXTINF:5.712900,
200603536019722-index10104.png
#EXTINF:6.797100,
200603536019722-index10105.png
#EXTINF:7.130700,
200603536019722-index10106.png
#EXTINF:5.254200,
200603536019722-index10107.png
#EXTINF:4.295100,
200603536019722-index10108.png
#EXTINF:10.425000,
200603536019722-index10109.png
#EXTINF:6.922200,
200603536019722-index10110.png
#EXTINF:10.425000,
200603536019722-index10111.png
#EXTINF:5.921400,
200603536019722-index10112.png
#EXTINF:9.549300,
200603536019722-index10113.png
#EXTINF:7.547700,
200603536019722-index10114.png
#EXTINF:9.507600,
200603536019722-index10115.png
#EXTINF:8.965500,
200603536019722-index10116.png
#EXTINF:7.047300,
200603536019722-index10117.png
#EXTINF:2.168400,
200603536019722-index10118.png
#EXTINF:10.174800,
200603536019722-index10119.png
#EXTINF:8.340000,
200603536019722-index10120.png
#EXTINF:5.629500,
200603536019722-index10121.png
#EXTINF:4.795500,
200603536019722-index10122.png
#EXTINF:1.459500,
200603536019722-index10123.png
#EXTINF:2.460300,
200603536019722-index10124.png
#EXTINF:2.710500,
200603536019722-index10125.png
#EXTINF:10.425000,
200603536019722-index10126.png
#EXTINF:10.425000,
200603536019722-index10127.png
#EXTINF:2.668800,
200603536019722-index10128.png
#EXTINF:3.002400,
200603536019722-index10129.png
#EXTINF:3.878100,
200603536019722-index10130.png
#EXTINF:2.627100,
200603536019722-index10131.png
#EXTINF:3.794700,
200603536019722-index10132.png
#EXTINF:4.336800,
200603536019722-index10133.png
#EXTINF:2.543700,
200603536019722-index10134.png
#EXTINF:8.757000,
200603536019722-index10135.png
#EXTINF:4.670400,
200603536019722-index10136.png
#EXTINF:7.380900,
200603536019722-index10137.png
#EXTINF:6.963900,
200603536019722-index10138.png
#EXTINF:9.340800,
200603536019722-index10139.png
#EXTINF:3.586200,
200603536019722-index10140.png
#EXTINF:3.794700,
200603536019722-index10141.png
#EXTINF:9.841200,
200603536019722-index10142.png
#EXTINF:10.425000,
200603536019722-index10143.png
#EXTINF:10.425000,
200603536019722-index10144.png
#EXTINF:10.425000,
200603536019722-index10145.png
#EXTINF:7.547700,
200603536019722-index10146.png
#EXTINF:6.880500,
200603536019722-index10147.png
#EXTINF:8.381700,
200603536019722-index10148.png
#EXTINF:6.046500,
200603536019722-index10149.png
#EXTINF:6.922200,
200603536019722-index10150.png
#EXTINF:8.173200,
200603536019722-index10151.png
#EXTINF:10.299900,
200603536019722-index10152.png
#EXTINF:7.547700,
200603536019722-index10153.png
#EXTINF:8.256600,
200603536019722-index10154.png
#EXTINF:7.714500,
200603536019722-index10155.png
#EXTINF:4.587000,
200603536019722-index10156.png
#EXTINF:3.252600,
200603536019722-index10157.png
#EXTINF:9.215700,
200603536019722-index10158.png
#EXTINF:10.091400,
200603536019722-index10159.png
#EXTINF:7.923000,
200603536019722-index10160.png
#EXTINF:2.502000,
200603536019722-index10161.png
#EXTINF:4.795500,
200603536019722-index10162.png
#EXTINF:5.963100,
200603536019722-index10163.png
#EXTINF:9.382500,
200603536019722-index10164.png
#EXTINF:3.961500,
200603536019722-index10165.png
#EXTINF:7.672800,
200603536019722-index10166.png
#EXTINF:1.376100,
200603536019722-index10167.png
#EXTINF:7.923000,
200603536019722-index10168.png
#EXTINF:8.923800,
200603536019722-index10169.png
#EXTINF:5.879700,
200603536019722-index10170.png
#EXTINF:3.252600,
200603536019722-index10171.png
#EXTINF:9.382500,
200603536019722-index10172.png
#EXTINF:8.590200,
200603536019722-index10173.png
#EXTINF:10.425000,
200603536019722-index10174.png
#EXTINF:3.210900,
200603536019722-index10175.png
#EXTINF:6.505200,
200603536019722-index10176.png
#EXTINF:8.131500,
200603536019722-index10177.png
#EXTINF:8.423400,
200603536019722-index10178.png
#EXTINF:3.669600,
200603536019722-index10179.png
#EXTINF:7.047300,
200603536019722-index10180.png
#EXTINF:4.003200,
200603536019722-index10181.png
#EXTINF:3.044100,
200603536019722-index10182.png
#EXTINF:8.173200,
200603536019722-index10183.png
#EXTINF:10.425000,
200603536019722-index10184.png
#EXTINF:6.421800,
200603536019722-index10185.png
#EXTINF:5.963100,
200603536019722-index10186.png
#EXTINF:10.425000,
200603536019722-index10187.png
#EXTINF:10.425000,
200603536019722-index10188.png
#EXTINF:7.339200,
200603536019722-index10189.png
#EXTINF:10.425000,
200603536019722-index10190.png
#EXTINF:6.380100,
200603536019722-index10191.png
#EXTINF:5.004000,
200603536019722-index10192.png
#EXTINF:2.710500,
200603536019722-index10193.png
#EXTINF:5.712900,
200603536019722-index10194.png
#EXTINF:3.002400,
200603536019722-index10195.png
#EXTINF:9.924600,
200603536019722-index10196.png
#EXTINF:10.425000,
200603536019722-index10197.png
#EXTINF:3.878100,
200603536019722-index10198.png
#EXTINF:4.003200,
200603536019722-index10199.png
#EXTINF:3.878100,
200603536019722-index10200.png
#EXTINF:6.213300,
200603536019722-index10201.png
#EXTINF:10.425000,
200603536019722-index10202.png
#EXTINF:6.129900,
200603536019722-index10203.png
#EXTINF:5.796300,
200603536019722-index10204.png
#EXTINF:5.754600,
200603536019722-index10205.png
#EXTINF:8.923800,
200603536019722-index10206.png
#EXTINF:2.543700,
200603536019722-index10207.png
#EXTINF:3.169200,
200603536019722-index10208.png
#EXTINF:1.876500,
200603536019722-index10209.png
#EXTINF:10.425000,
200603536019722-index10210.png
#EXTINF:5.796300,
200603536019722-index10211.png
#EXTINF:3.961500,
200603536019722-index10212.png
#EXTINF:5.045700,
200603536019722-index10213.png
#EXTINF:3.169200,
200603536019722-index10214.png
#EXTINF:3.044100,
200603536019722-index10215.png
#EXTINF:3.627900,
200603536019722-index10216.png
#EXTINF:3.753000,
200603536019722-index10217.png
#EXTINF:2.793900,
200603536019722-index10218.png
#EXTINF:6.463500,
200603536019722-index10219.png
#EXTINF:9.757800,
200603536019722-index10220.png
#EXTINF:9.007200,
200603536019722-index10221.png
#EXTINF:9.132300,
200603536019722-index10222.png
#EXTINF:5.087400,
200603536019722-index10223.png
#EXTINF:3.044100,
200603536019722-index10224.png
#EXTINF:2.251800,
200603536019722-index10225.png
#EXTINF:2.043300,
200603536019722-index10226.png
#EXTINF:6.129900,
200603536019722-index10227.png
#EXTINF:3.085800,
200603536019722-index10228.png
#EXTINF:2.376900,
200603536019722-index10229.png
#EXTINF:2.293500,
200603536019722-index10230.png
#EXTINF:1.793100,
200603536019722-index10231.png
#EXTINF:2.460300,
200603536019722-index10232.png
#EXTINF:2.251800,
200603536019722-index10233.png
#EXTINF:8.340000,
200603536019722-index10234.png
#EXTINF:4.336800,
200603536019722-index10235.png
#EXTINF:3.294300,
200603536019722-index10236.png
#EXTINF:2.835600,
200603536019722-index10237.png
#EXTINF:5.295900,
200603536019722-index10238.png
#EXTINF:2.710500,
200603536019722-index10239.png
#EXTINF:3.044100,
200603536019722-index10240.png
#EXTINF:8.965500,
200603536019722-index10241.png
#EXTINF:5.170800,
200603536019722-index10242.png
#EXTINF:10.049700,
200603536019722-index10243.png
#EXTINF:5.587800,
200603536019722-index10244.png
#EXTINF:2.335200,
200603536019722-index10245.png
#EXTINF:2.126700,
200603536019722-index10246.png
#EXTINF:2.418600,
200603536019722-index10247.png
#EXTINF:3.878100,
200603536019722-index10248.png
#EXTINF:2.502000,
200603536019722-index10249.png
#EXTINF:10.425000,
200603536019722-index10250.png
#EXTINF:7.214100,
200603536019722-index10251.png
#EXTINF:3.544500,
200603536019722-index10252.png
#EXTINF:4.712100,
200603536019722-index10253.png
#EXTINF:10.425000,
200603536019722-index10254.png
#EXTINF:9.090600,
200603536019722-index10255.png
#EXTINF:3.169200,
200603536019722-index10256.png
#EXTINF:5.587800,
200603536019722-index10257.png
#EXTINF:7.130700,
200603536019722-index10258.png
#EXTINF:2.376900,
200603536019722-index10259.png
#EXTINF:7.839600,
200603536019722-index10260.png
#EXTINF:3.586200,
200603536019722-index10261.png
#EXTINF:10.383300,
200603536019722-index10262.png
#EXTINF:3.252600,
200603536019722-index10263.png
#EXTINF:4.795500,
200603536019722-index10264.png
#EXTINF:6.421800,
200603536019722-index10265.png
#EXTINF:4.420200,
200603536019722-index10266.png
#EXTINF:5.671200,
200603536019722-index10267.png
#EXTINF:3.794700,
200603536019722-index10268.png
#EXTINF:10.425000,
200603536019722-index10269.png
#EXTINF:6.463500,
200603536019722-index10270.png
#EXTINF:2.543700,
200603536019722-index10271.png
#EXTINF:2.418600,
200603536019722-index10272.png
#EXTINF:7.047300,
200603536019722-index10273.png
#EXTINF:4.170000,
200603536019722-index10274.png
#EXTINF:2.960700,
200603536019722-index10275.png
#EXTINF:3.336000,
200603536019722-index10276.png
#EXTINF:3.252600,
200603536019722-index10277.png
#EXTINF:8.006400,
200603536019722-index10278.png
#EXTINF:4.211700,
200603536019722-index10279.png
#EXTINF:5.754600,
200603536019722-index10280.png
#EXTINF:4.378500,
200603536019722-index10281.png
#EXTINF:4.795500,
200603536019722-index10282.png
#EXTINF:3.085800,
200603536019722-index10283.png
#EXTINF:3.419400,
200603536019722-index10284.png
#EXTINF:2.919000,
200603536019722-index10285.png
#EXTINF:3.502800,
200603536019722-index10286.png
#EXTINF:4.253400,
200603536019722-index10287.png
#EXTINF:8.673600,
200603536019722-index10288.png
#EXTINF:9.007200,
200603536019722-index10289.png
#EXTINF:3.169200,
200603536019722-index10290.png
#EXTINF:2.251800,
200603536019722-index10291.png
#EXTINF:2.543700,
200603536019722-index10292.png
#EXTINF:2.126700,
200603536019722-index10293.png
#EXTINF:4.336800,
200603536019722-index10294.png
#EXTINF:2.710500,
200603536019722-index10295.png
#EXTINF:2.126700,
200603536019722-index10296.png
#EXTINF:10.425000,
200603536019722-index10297.png
#EXTINF:3.294300,
200603536019722-index10298.png
#EXTINF:10.425000,
200603536019722-index10299.png
#EXTINF:10.425000,
200603536019722-index10300.png
#EXTINF:10.425000,
200603536019722-index10301.png
#EXTINF:10.425000,
200603536019722-index10302.png
#EXTINF:10.425000,
200603536019722-index10303.png
#EXTINF:7.089000,
200603536019722-index10304.png
#EXTINF:7.714500,
200603536019722-index10305.png
#EXTINF:9.507600,
200603536019722-index10306.png
#EXTINF:10.425000,
200603536019722-index10307.png
#EXTINF:1.584600,
200603536019722-index10308.png
#EXTINF:4.753800,
200603536019722-index10309.png
#EXTINF:2.668800,
200603536019722-index10310.png
#EXTINF:3.419400,
200603536019722-index10311.png
#EXTINF:2.502000,
200603536019722-index10312.png
#EXTINF:6.463500,
200603536019722-index10313.png
#EXTINF:3.210900,
200603536019722-index10314.png
#EXTINF:6.129900,
200603536019722-index10315.png
#EXTINF:7.797900,
200603536019722-index10316.png
#EXTINF:10.425000,
200603536019722-index10317.png
#EXTINF:8.590200,
200603536019722-index10318.png
#EXTINF:3.794700,
200603536019722-index10319.png
#EXTINF:3.753000,
200603536019722-index10320.png
#EXTINF:5.379300,
200603536019722-index10321.png
#EXTINF:10.425000,
200603536019722-index10322.png
#EXTINF:4.170000,
200603536019722-index10323.png
#EXTINF:4.461900,
200603536019722-index10324.png
#EXTINF:8.340000,
200603536019722-index10325.png
#EXTINF:10.425000,
200603536019722-index10326.png
#EXTINF:4.086600,
200603536019722-index10327.png
#EXTINF:7.214100,
200603536019722-index10328.png
#EXTINF:7.756200,
200603536019722-index10329.png
#EXTINF:5.254200,
200603536019722-index10330.png
#EXTINF:8.548500,
200603536019722-index10331.png
#EXTINF:8.590200,
200603536019722-index10332.png
#EXTINF:3.336000,
200603536019722-index10333.png
#EXTINF:3.377700,
200603536019722-index10334.png
#EXTINF:10.425000,
200603536019722-index10335.png
#EXTINF:3.127500,
200603536019722-index10336.png
#EXTINF:10.425000,
200603536019722-index10337.png
#EXTINF:1.709700,
200603536019722-index10338.png
#EXTINF:5.504400,
200603536019722-index10339.png
#EXTINF:5.963100,
200603536019722-index10340.png
#EXTINF:7.297500,
200603536019722-index10341.png
#EXTINF:6.088200,
200603536019722-index10342.png
#EXTINF:4.044900,
200603536019722-index10343.png
#EXTINF:9.090600,
200603536019722-index10344.png
#EXTINF:3.586200,
200603536019722-index10345.png
#EXTINF:4.837200,
200603536019722-index10346.png
#EXTINF:4.044900,
200603536019722-index10347.png
#EXTINF:2.877300,
200603536019722-index10348.png
#EXTINF:3.127500,
200603536019722-index10349.png
#EXTINF:3.252600,
200603536019722-index10350.png
#EXTINF:4.378500,
200603536019722-index10351.png
#EXTINF:4.253400,
200603536019722-index10352.png
#EXTINF:9.424200,
200603536019722-index10353.png
#EXTINF:4.086600,
200603536019722-index10354.png
#EXTINF:3.002400,
200603536019722-index10355.png
#EXTINF:3.252600,
200603536019722-index10356.png
#EXTINF:6.880500,
200603536019722-index10357.png
#EXTINF:9.090600,
200603536019722-index10358.png
#EXTINF:4.920600,
200603536019722-index10359.png
#EXTINF:6.713700,
200603536019722-index10360.png
#EXTINF:3.544500,
200603536019722-index10361.png
#EXTINF:8.256600,
200603536019722-index10362.png
#EXTINF:3.419400,
200603536019722-index10363.png
#EXTINF:10.425000,
200603536019722-index10364.png
#EXTINF:5.087400,
200603536019722-index10365.png
#EXTINF:6.296700,
200603536019722-index10366.png
#EXTINF:5.462700,
200603536019722-index10367.png
#EXTINF:4.628700,
200603536019722-index10368.png
#EXTINF:3.044100,
200603536019722-index10369.png
#EXTINF:3.377700,
200603536019722-index10370.png
#EXTINF:3.961500,
200603536019722-index10371.png
#EXTINF:8.590200,
200603536019722-index10372.png
#EXTINF:4.211700,
200603536019722-index10373.png
#EXTINF:3.669600,
200603536019722-index10374.png
#EXTINF:2.543700,
200603536019722-index10375.png
#EXTINF:7.047300,
200603536019722-index10376.png
#EXTINF:3.294300,
200603536019722-index10377.png
#EXTINF:3.085800,
200603536019722-index10378.png
#EXTINF:3.002400,
200603536019722-index10379.png
#EXTINF:5.671200,
200603536019722-index10380.png
#EXTINF:5.087400,
200603536019722-index10381.png
#EXTINF:5.504400,
200603536019722-index10382.png
#EXTINF:7.506000,
200603536019722-index10383.png
#EXTINF:6.546900,
200603536019722-index10384.png
#EXTINF:4.712100,
200603536019722-index10385.png
#EXTINF:4.628700,
200603536019722-index10386.png
#EXTINF:3.544500,
200603536019722-index10387.png
#EXTINF:4.670400,
200603536019722-index10388.png
#EXTINF:8.006400,
200603536019722-index10389.png
#EXTINF:10.425000,
200603536019722-index10390.png
#EXTINF:2.543700,
200603536019722-index10391.png
#EXTINF:10.425000,
200603536019722-index10392.png
#EXTINF:7.339200,
200603536019722-index10393.png
#EXTINF:5.671200,
200603536019722-index10394.png
#EXTINF:10.425000,
200603536019722-index10395.png
#EXTINF:10.425000,
200603536019722-index10396.png
#EXTINF:6.838800,
200603536019722-index10397.png
#EXTINF:9.132300,
200603536019722-index10398.png
#EXTINF:4.461900,
200603536019722-index10399.png
#EXTINF:10.425000,
200603536019722-index10400.png
#EXTINF:5.254200,
200603536019722-index10401.png
#EXTINF:3.878100,
200603536019722-index10402.png
#EXTINF:3.252600,
200603536019722-index10403.png
#EXTINF:10.425000,
200603536019722-index10404.png
#EXTINF:3.669600,
200603536019722-index10405.png
#EXTINF:6.630300,
200603536019722-index10406.png
#EXTINF:5.796300,
200603536019722-index10407.png
#EXTINF:7.214100,
200603536019722-index10408.png
#EXTINF:9.174000,
200603536019722-index10409.png
#EXTINF:4.336800,
200603536019722-index10410.png
#EXTINF:5.546100,
200603536019722-index10411.png
#EXTINF:5.295900,
200603536019722-index10412.png
#EXTINF:3.669600,
200603536019722-index10413.png
#EXTINF:6.380100,
200603536019722-index10414.png
#EXTINF:8.757000,
200603536019722-index10415.png
#EXTINF:8.548500,
200603536019722-index10416.png
#EXTINF:2.251800,
200603536019722-index10417.png
#EXTINF:9.841200,
200603536019722-index10418.png
#EXTINF:3.002400,
200603536019722-index10419.png
#EXTINF:4.962300,
200603536019722-index10420.png
#EXTINF:10.258200,
200603536019722-index10421.png
#EXTINF:2.001600,
200603536019722-index10422.png
#EXTINF:10.425000,
200603536019722-index10423.png
#EXTINF:4.587000,
200603536019722-index10424.png
#EXTINF:6.755400,
200603536019722-index10425.png
#EXTINF:6.129900,
200603536019722-index10426.png
#EXTINF:10.425000,
200603536019722-index10427.png
#EXTINF:4.962300,
200603536019722-index10428.png
#EXTINF:6.922200,
200603536019722-index10429.png
#EXTINF:7.797900,
200603536019722-index10430.png
#EXTINF:6.338400,
200603536019722-index10431.png
#EXTINF:10.425000,
200603536019722-index10432.png
#EXTINF:10.425000,
200603536019722-index10433.png
#EXTINF:8.882100,
200603536019722-index10434.png
#EXTINF:7.506000,
200603536019722-index10435.png
#EXTINF:10.425000,
200603536019722-index10436.png
#EXTINF:10.425000,
200603536019722-index10437.png
#EXTINF:3.502800,
200603536019722-index10438.png
#EXTINF:9.174000,
200603536019722-index10439.png
#EXTINF:5.170800,
200603536019722-index10440.png
#EXTINF:5.295900,
200603536019722-index10441.png
#EXTINF:10.425000,
200603536019722-index10442.png
#EXTINF:6.463500,
200603536019722-index10443.png
#EXTINF:7.380900,
200603536019722-index10444.png
#EXTINF:10.425000,
200603536019722-index10445.png
#EXTINF:10.425000,
200603536019722-index10446.png
#EXTINF:8.840400,
200603536019722-index10447.png
#EXTINF:3.461100,
200603536019722-index10448.png
#EXTINF:10.425000,
200603536019722-index10449.png
#EXTINF:4.837200,
200603536019722-index10450.png
#EXTINF:10.425000,
200603536019722-index10451.png
#EXTINF:9.424200,
200603536019722-index10452.png
#EXTINF:7.797900,
200603536019722-index10453.png
#EXTINF:10.425000,
200603536019722-index10454.png
#EXTINF:8.631900,
200603536019722-index10455.png
#EXTINF:7.756200,
200603536019722-index10456.png
#EXTINF:6.755400,
200603536019722-index10457.png
#EXTINF:7.506000,
200603536019722-index10458.png
#EXTINF:6.630300,
200603536019722-index10459.png
#EXTINF:9.382500,
200603536019722-index10460.png
#EXTINF:10.425000,
200603536019722-index10461.png
#EXTINF:10.425000,
200603536019722-index10462.png
#EXTINF:10.425000,
200603536019722-index10463.png
#EXTINF:4.253400,
200603536019722-index10464.png
#EXTINF:10.425000,
200603536019722-index10465.png
#EXTINF:10.425000,
200603536019722-index10466.png
#EXTINF:9.966300,
200603536019722-index10467.png
#EXTINF:6.380100,
200603536019722-index10468.png
#EXTINF:4.670400,
200603536019722-index10469.png
#EXTINF:6.922200,
200603536019722-index10470.png
#EXTINF:3.919800,
200603536019722-index10471.png
#EXTINF:6.838800,
200603536019722-index10472.png
#EXTINF:5.379300,
200603536019722-index10473.png
#EXTINF:6.588600,
200603536019722-index10474.png
#EXTINF:8.882100,
200603536019722-index10475.png
#EXTINF:9.048900,
200603536019722-index10476.png
#EXTINF:10.425000,
200603536019722-index10477.png
#EXTINF:10.425000,
200603536019722-index10478.png
#EXTINF:10.425000,
200603536019722-index10479.png
#EXTINF:3.127500,
200603536019722-index10480.png
#EXTINF:8.089800,
200603536019722-index10481.png
#EXTINF:10.008000,
200603536019722-index10482.png
#EXTINF:10.425000,
200603536019722-index10483.png
#EXTINF:6.338400,
200603536019722-index10484.png
#EXTINF:10.425000,
200603536019722-index10485.png
#EXTINF:10.425000,
200603536019722-index10486.png
#EXTINF:4.878900,
200603536019722-index10487.png
#EXTINF:9.382500,
200603536019722-index10488.png
#EXTINF:10.425000,
200603536019722-index10489.png
#EXTINF:7.547700,
200603536019722-index10490.png
#EXTINF:10.425000,
200603536019722-index10491.png
#EXTINF:10.425000,
200603536019722-index10492.png
#EXTINF:10.425000,
200603536019722-index10493.png
#EXTINF:8.548500,
200603536019722-index10494.png
#EXTINF:7.339200,
200603536019722-index10495.png
#EXTINF:8.840400,
200603536019722-index10496.png
#EXTINF:4.336800,
200603536019722-index10497.png
#EXTINF:7.005600,
200603536019722-index10498.png
#EXTINF:9.257400,
200603536019722-index10499.png
#EXTINF:2.376900,
200603536019722-index10500.png
#EXTINF:4.128300,
200603536019722-index10501.png
#EXTINF:9.257400,
200603536019722-index10502.png
#EXTINF:7.005600,
200603536019722-index10503.png
#EXTINF:6.755400,
200603536019722-index10504.png
#EXTINF:4.003200,
200603536019722-index10505.png
#EXTINF:10.425000,
200603536019722-index10506.png
#EXTINF:3.002400,
200603536019722-index10507.png
#EXTINF:7.130700,
200603536019722-index10508.png
#EXTINF:10.425000,
200603536019722-index10509.png
#EXTINF:8.798700,
200603536019722-index10510.png
#EXTINF:8.423400,
200603536019722-index10511.png
#EXTINF:3.169200,
200603536019722-index10512.png
#EXTINF:5.879700,
200603536019722-index10513.png
#EXTINF:4.128300,
200603536019722-index10514.png
#EXTINF:5.295900,
200603536019722-index10515.png
#EXTINF:10.425000,
200603536019722-index10516.png
#EXTINF:3.502800,
200603536019722-index10517.png
#EXTINF:10.425000,
200603536019722-index10518.png
#EXTINF:10.425000,
200603536019722-index10519.png
#EXTINF:10.425000,
200603536019722-index10520.png
#EXTINF:10.425000,
200603536019722-index10521.png
#EXTINF:10.425000,
200603536019722-index10522.png
#EXTINF:10.425000,
200603536019722-index10523.png
#EXTINF:9.465900,
200603536019722-index10524.png
#EXTINF:7.464300,
200603536019722-index10525.png
#EXTINF:9.174000,
200603536019722-index10526.png
#EXTINF:10.425000,
200603536019722-index10527.png
#EXTINF:10.425000,
200603536019722-index10528.png
#EXTINF:2.043300,
200603536019722-index10529.png
#EXTINF:4.962300,
200603536019722-index10530.png
#EXTINF:10.425000,
200603536019722-index10531.png
#EXTINF:10.425000,
200603536019722-index10532.png
#EXTINF:1.751400,
200603536019722-index10533.png
#EXTINF:10.425000,
200603536019722-index10534.png
#EXTINF:9.757800,
200603536019722-index10535.png
#EXTINF:6.296700,
200603536019722-index10536.png
#EXTINF:10.425000,
200603536019722-index10537.png
#EXTINF:5.170800,
200603536019722-index10538.png
#EXTINF:8.131500,
200603536019722-index10539.png
#EXTINF:6.713700,
200603536019722-index10540.png
#EXTINF:10.425000,
200603536019722-index10541.png
#EXTINF:10.425000,
200603536019722-index10542.png
#EXTINF:10.425000,
200603536019722-index10543.png
#EXTINF:8.006400,
200603536019722-index10544.png
#EXTINF:10.425000,
200603536019722-index10545.png
#EXTINF:9.382500,
200603536019722-index10546.png
#EXTINF:10.425000,
200603536019722-index10547.png
#EXTINF:10.425000,
200603536019722-index10548.png
#EXTINF:10.425000,
200603536019722-index10549.png
#EXTINF:10.425000,
200603536019722-index10550.png
#EXTINF:3.294300,
200603536019722-index10551.png
#EXTINF:6.255000,
200603536019722-index10552.png
#EXTINF:7.214100,
200603536019722-index10553.png
#EXTINF:1.834800,
200603536019722-index10554.png
#EXTINF:7.547700,
200603536019722-index10555.png
#EXTINF:10.425000,
200603536019722-index10556.png
#EXTINF:10.425000,
200603536019722-index10557.png
#EXTINF:10.425000,
200603536019722-index10558.png
#EXTINF:5.129100,
200603536019722-index10559.png
#EXTINF:9.716100,
200603536019722-index10560.png
#EXTINF:3.336000,
200603536019722-index10561.png
#EXTINF:8.798700,
200603536019722-index10562.png
#EXTINF:6.963900,
200603536019722-index10563.png
#EXTINF:4.545300,
200603536019722-index10564.png
#EXTINF:4.003200,
200603536019722-index10565.png
#EXTINF:6.380100,
200603536019722-index10566.png
#EXTINF:9.549300,
200603536019722-index10567.png
#EXTINF:3.961500,
200603536019722-index10568.png
#EXTINF:8.506800,
200603536019722-index10569.png
#EXTINF:10.425000,
200603536019722-index10570.png
#EXTINF:8.214900,
200603536019722-index10571.png
#EXTINF:10.425000,
200603536019722-index10572.png
#EXTINF:5.337600,
200603536019722-index10573.png
#EXTINF:10.425000,
200603536019722-index10574.png
#EXTINF:1.542900,
200603536019722-index10575.png
#EXTINF:10.425000,
200603536019722-index10576.png
#EXTINF:3.878100,
200603536019722-index10577.png
#EXTINF:10.425000,
200603536019722-index10578.png
#EXTINF:10.425000,
200603536019722-index10579.png
#EXTINF:10.425000,
200603536019722-index10580.png
#EXTINF:5.587800,
200603536019722-index10581.png
#EXTINF:5.712900,
200603536019722-index10582.png
#EXTINF:4.378500,
200603536019722-index10583.png
#EXTINF:7.214100,
200603536019722-index10584.png
#EXTINF:7.631100,
200603536019722-index10585.png
#EXTINF:3.169200,
200603536019722-index10586.png
#EXTINF:7.297500,
200603536019722-index10587.png
#EXTINF:4.503600,
200603536019722-index10588.png
#EXTINF:4.837200,
200603536019722-index10589.png
#EXTINF:4.628700,
200603536019722-index10590.png
#EXTINF:5.629500,
200603536019722-index10591.png
#EXTINF:4.128300,
200603536019722-index10592.png
#EXTINF:5.129100,
200603536019722-index10593.png
#EXTINF:3.002400,
200603536019722-index10594.png
#EXTINF:3.044100,
200603536019722-index10595.png
#EXTINF:3.794700,
200603536019722-index10596.png
#EXTINF:2.835600,
200603536019722-index10597.png
#EXTINF:3.961500,
200603536019722-index10598.png
#EXTINF:10.425000,
200603536019722-index10599.png
#EXTINF:1.584600,
200603536019722-index10600.png
#EXTINF:7.506000,
200603536019722-index10601.png
#EXTINF:3.919800,
200603536019722-index10602.png
#EXTINF:8.048100,
200603536019722-index10603.png
#EXTINF:10.425000,
200603536019722-index10604.png
#EXTINF:10.008000,
200603536019722-index10605.png
#EXTINF:8.882100,
200603536019722-index10606.png
#EXTINF:4.962300,
200603536019722-index10607.png
#EXTINF:10.425000,
200603536019722-index10608.png
#EXTINF:10.425000,
200603536019722-index10609.png
#EXTINF:3.419400,
200603536019722-index10610.png
#EXTINF:4.420200,
200603536019722-index10611.png
#EXTINF:10.425000,
200603536019722-index10612.png
#EXTINF:10.425000,
200603536019722-index10613.png
#EXTINF:10.425000,
200603536019722-index10614.png
#EXTINF:2.293500,
200603536019722-index10615.png
#EXTINF:10.425000,
200603536019722-index10616.png
#EXTINF:3.794700,
200603536019722-index10617.png
#EXTINF:4.420200,
200603536019722-index10618.png
#EXTINF:10.425000,
200603536019722-index10619.png
#EXTINF:7.422600,
200603536019722-index10620.png
#EXTINF:10.425000,
200603536019722-index10621.png
#EXTINF:9.465900,
200603536019722-index10622.png
#EXTINF:10.425000,
200603536019722-index10623.png
#EXTINF:1.417800,
200603536019722-index10624.png
#EXTINF:6.255000,
200603536019722-index10625.png
#EXTINF:6.046500,
200603536019722-index10626.png
#EXTINF:5.170800,
200603536019722-index10627.png
#EXTINF:4.420200,
200603536019722-index10628.png
#EXTINF:5.295900,
200603536019722-index10629.png
#EXTINF:7.547700,
200603536019722-index10630.png
#EXTINF:9.340800,
200603536019722-index10631.png
#EXTINF:10.425000,
200603536019722-index10632.png
#EXTINF:2.251800,
200603536019722-index10633.png
#EXTINF:3.753000,
200603536019722-index10634.png
#EXTINF:3.002400,
200603536019722-index10635.png
#EXTINF:6.963900,
200603536019722-index10636.png
#EXTINF:3.669600,
200603536019722-index10637.png
#EXTINF:2.460300,
200603536019722-index10638.png
#EXTINF:4.128300,
200603536019722-index10639.png
#EXTINF:5.712900,
200603536019722-index10640.png
#EXTINF:2.502000,
200603536019722-index10641.png
#EXTINF:7.130700,
200603536019722-index10642.png
#EXTINF:9.465900,
200603536019722-index10643.png
#EXTINF:5.504400,
200603536019722-index10644.png
#EXTINF:6.755400,
200603536019722-index10645.png
#EXTINF:6.672000,
200603536019722-index10646.png
#EXTINF:7.172400,
200603536019722-index10647.png
#EXTINF:10.425000,
200603536019722-index10648.png
#EXTINF:10.425000,
200603536019722-index10649.png
#EXTINF:10.425000,
200603536019722-index10650.png
#EXTINF:3.794700,
200603536019722-index10651.png
#EXTINF:10.425000,
200603536019722-index10652.png
#EXTINF:9.507600,
200603536019722-index10653.png
#EXTINF:9.048900,
200603536019722-index10654.png
#EXTINF:1.959900,
200603536019722-index10655.png
#EXTINF:1.292700,
200603536019722-index10656.png
#EXTINF:6.338400,
200603536019722-index10657.png
#EXTINF:2.835600,
200603536019722-index10658.png
#EXTINF:8.757000,
200603536019722-index10659.png
#EXTINF:3.336000,
200603536019722-index10660.png
#EXTINF:6.672000,
200603536019722-index10661.png
#EXTINF:10.425000,
200603536019722-index10662.png
#EXTINF:4.920600,
200603536019722-index10663.png
#EXTINF:5.587800,
200603536019722-index10664.png
#EXTINF:10.425000,
200603536019722-index10665.png
#EXTINF:10.425000,
200603536019722-index10666.png
#EXTINF:3.919800,
200603536019722-index10667.png
#EXTINF:8.673600,
200603536019722-index10668.png
#EXTINF:4.587000,
200603536019722-index10669.png
#EXTINF:3.502800,
200603536019722-index10670.png
#EXTINF:6.755400,
200603536019722-index10671.png
#EXTINF:5.671200,
200603536019722-index10672.png
#EXTINF:4.170000,
200603536019722-index10673.png
#EXTINF:4.962300,
200603536019722-index10674.png
#EXTINF:2.585400,
200603536019722-index10675.png
#EXTINF:5.087400,
200603536019722-index10676.png
#EXTINF:4.336800,
200603536019722-index10677.png
#EXTINF:9.507600,
200603536019722-index10678.png
#EXTINF:9.757800,
200603536019722-index10679.png
#EXTINF:10.425000,
200603536019722-index10680.png
#EXTINF:3.085800,
200603536019722-index10681.png
#EXTINF:5.921400,
200603536019722-index10682.png
#EXTINF:2.627100,
200603536019722-index10683.png
#EXTINF:3.377700,
200603536019722-index10684.png
#EXTINF:7.130700,
200603536019722-index10685.png
#EXTINF:2.418600,
200603536019722-index10686.png
#EXTINF:3.252600,
200603536019722-index10687.png
#EXTINF:4.795500,
200603536019722-index10688.png
#EXTINF:10.425000,
200603536019722-index10689.png
#EXTINF:10.425000,
200603536019722-index10690.png
#EXTINF:8.298300,
200603536019722-index10691.png
#EXTINF:10.425000,
200603536019722-index10692.png
#EXTINF:5.295900,
200603536019722-index10693.png
#EXTINF:6.755400,
200603536019722-index10694.png
#EXTINF:10.425000,
200603536019722-index10695.png
#EXTINF:7.631100,
200603536019722-index10696.png
#EXTINF:9.132300,
200603536019722-index10697.png
#EXTINF:3.210900,
200603536019722-index10698.png
#EXTINF:8.214900,
200603536019722-index10699.png
#EXTINF:2.960700,
200603536019722-index10700.png
#EXTINF:7.839600,
200603536019722-index10701.png
#EXTINF:10.425000,
200603536019722-index10702.png
#EXTINF:3.753000,
200603536019722-index10703.png
#EXTINF:9.048900,
200603536019722-index10704.png
#EXTINF:5.504400,
200603536019722-index10705.png
#EXTINF:3.919800,
200603536019722-index10706.png
#EXTINF:5.546100,
200603536019722-index10707.png
#EXTINF:10.425000,
200603536019722-index10708.png
#EXTINF:8.173200,
200603536019722-index10709.png
#EXTINF:6.046500,
200603536019722-index10710.png
#EXTINF:4.753800,
200603536019722-index10711.png
#EXTINF:9.257400,
200603536019722-index10712.png
#EXTINF:5.504400,
200603536019722-index10713.png
#EXTINF:3.127500,
200603536019722-index10714.png
#EXTINF:2.877300,
200603536019722-index10715.png
#EXTINF:7.547700,
200603536019722-index10716.png
#EXTINF:5.963100,
200603536019722-index10717.png
#EXTINF:3.586200,
200603536019722-index10718.png
#EXTINF:3.252600,
200603536019722-index10719.png
#EXTINF:2.835600,
200603536019722-index10720.png
#EXTINF:2.793900,
200603536019722-index10721.png
#EXTINF:3.502800,
200603536019722-index10722.png
#EXTINF:2.085000,
200603536019722-index10723.png
#EXTINF:2.376900,
200603536019722-index10724.png
#EXTINF:4.003200,
200603536019722-index10725.png
#EXTINF:2.835600,
200603536019722-index10726.png
#EXTINF:4.086600,
200603536019722-index10727.png
#EXTINF:3.461100,
200603536019722-index10728.png
#EXTINF:5.129100,
200603536019722-index10729.png
#EXTINF:4.628700,
200603536019722-index10730.png
#EXTINF:6.838800,
200603536019722-index10731.png
#EXTINF:2.168400,
200603536019722-index10732.png
#EXTINF:10.425000,
200603536019722-index10733.png
#EXTINF:4.712100,
200603536019722-index10734.png
#EXTINF:9.716100,
200603536019722-index10735.png
#EXTINF:10.425000,
200603536019722-index10736.png
#EXTINF:10.425000,
200603536019722-index10737.png
#EXTINF:8.173200,
200603536019722-index10738.png
#EXTINF:3.794700,
200603536019722-index10739.png
#EXTINF:4.336800,
200603536019722-index10740.png
#EXTINF:3.836400,
200603536019722-index10741.png
#EXTINF:5.754600,
200603536019722-index10742.png
#EXTINF:4.253400,
200603536019722-index10743.png
#EXTINF:1.000800,
200603536019722-index10744.png
#EXTINF:1.876500,
200603536019722-index10745.png
#EXTINF:2.960700,
200603536019722-index10746.png
#EXTINF:1.084200,
200603536019722-index10747.png
#EXTINF:2.543700,
200603536019722-index10748.png
#EXTINF:10.425000,
200603536019722-index10749.png
#EXTINF:6.213300,
200603536019722-index10750.png
#EXT-X-ENDLIST
