#EXTM3U
#EXT-X-VERSION:3
#EXT-X-TARGETDURATION:8
#EXT-X-MEDIA-SEQUENCE:10001
#EXTINF:6.840167,
201012080742253-index10001.png
#EXTINF:5.438767,
201012080742253-index10002.png
#EXTINF:4.404400,
201012080742253-index10003.png
#EXTINF:6.072733,
201012080742253-index10004.png
#EXTINF:4.437767,
201012080742253-index10005.png
#EXTINF:5.572233,
201012080742253-index10006.png
#EXTINF:4.938267,
201012080742253-index10007.png
#EXTINF:3.136467,
201012080742253-index10008.png
#EXTINF:6.740067,
201012080742253-index10009.png
#EXTINF:6.840167,
201012080742253-index10010.png
#EXTINF:3.003000,
201012080742253-index10011.png
#EXTINF:3.770433,
201012080742253-index10012.png
#EXTINF:4.037367,
201012080742253-index10013.png
#EXTINF:6.106100,
201012080742253-index10014.png
#EXTINF:6.473133,
201012080742253-index10015.png
#EXTINF:7.007000,
201012080742253-index10016.png
#EXTINF:4.537867,
201012080742253-index10017.png
#EXTINF:6.239567,
201012080742253-index10018.png
#EXTINF:5.372033,
201012080742253-index10019.png
#EXTINF:4.571233,
201012080742253-index10020.png
#EXTINF:6.373033,
201012080742253-index10021.png
#EXTINF:4.571233,
201012080742253-index10022.png
#EXTINF:5.705700,
201012080742253-index10023.png
#EXTINF:6.973633,
201012080742253-index10024.png
#EXTINF:6.239567,
201012080742253-index10025.png
#EXTINF:3.003000,
201012080742253-index10026.png
#EXTINF:5.805800,
201012080742253-index10027.png
#EXTINF:6.172833,
201012080742253-index10028.png
#EXTINF:4.371033,
201012080742253-index10029.png
#EXTINF:5.238567,
201012080742253-index10030.png
#EXTINF:6.106100,
201012080742253-index10031.png
#EXTINF:7.007000,
201012080742253-index10032.png
#EXTINF:3.403400,
201012080742253-index10033.png
#EXTINF:6.006000,
201012080742253-index10034.png
#EXTINF:4.804800,
201012080742253-index10035.png
#EXTINF:4.504500,
201012080742253-index10036.png
#EXTINF:5.105100,
201012080742253-index10037.png
#EXTINF:6.373033,
201012080742253-index10038.png
#EXTINF:6.706700,
201012080742253-index10039.png
#EXTINF:5.438767,
201012080742253-index10040.png
#EXTINF:3.003000,
201012080742253-index10041.png
#EXTINF:5.472133,
201012080742253-index10042.png
#EXTINF:3.003000,
201012080742253-index10043.png
#EXTINF:4.938267,
201012080742253-index10044.png
#EXTINF:7.007000,
201012080742253-index10045.png
#EXTINF:4.704700,
201012080742253-index10046.png
#EXTINF:6.673333,
201012080742253-index10047.png
#EXTINF:5.338667,
201012080742253-index10048.png
#EXTINF:3.003000,
201012080742253-index10049.png
#EXTINF:4.137467,
201012080742253-index10050.png
#EXTINF:3.003000,
201012080742253-index10051.png
#EXTINF:6.940267,
201012080742253-index10052.png
#EXTINF:6.272933,
201012080742253-index10053.png
#EXTINF:3.970633,
201012080742253-index10054.png
#EXTINF:5.839167,
201012080742253-index10055.png
#EXTINF:6.973633,
201012080742253-index10056.png
#EXTINF:4.571233,
201012080742253-index10057.png
#EXTINF:5.839167,
201012080742253-index10058.png
#EXTINF:6.339667,
201012080742253-index10059.png
#EXTINF:6.573233,
201012080742253-index10060.png
#EXTINF:3.003000,
201012080742253-index10061.png
#EXTINF:6.339667,
201012080742253-index10062.png
#EXTINF:6.940267,
201012080742253-index10063.png
#EXTINF:3.203200,
201012080742253-index10064.png
#EXTINF:3.470133,
201012080742253-index10065.png
#EXTINF:4.070733,
201012080742253-index10066.png
#EXTINF:6.906900,
201012080742253-index10067.png
#EXTINF:6.973633,
201012080742253-index10068.png
#EXTINF:3.003000,
201012080742253-index10069.png
#EXTINF:5.839167,
201012080742253-index10070.png
#EXTINF:3.003000,
201012080742253-index10071.png
#EXTINF:6.973633,
201012080742253-index10072.png
#EXTINF:3.737067,
201012080742253-index10073.png
#EXTINF:3.770433,
201012080742253-index10074.png
#EXTINF:4.904900,
201012080742253-index10075.png
#EXTINF:5.739067,
201012080742253-index10076.png
#EXTINF:5.839167,
201012080742253-index10077.png
#EXTINF:3.003000,
201012080742253-index10078.png
#EXTINF:5.171833,
201012080742253-index10079.png
#EXTINF:6.239567,
201012080742253-index10080.png
#EXTINF:6.840167,
201012080742253-index10081.png
#EXTINF:3.003000,
201012080742253-index10082.png
#EXTINF:6.740067,
201012080742253-index10083.png
#EXTINF:6.506500,
201012080742253-index10084.png
#EXTINF:3.003000,
201012080742253-index10085.png
#EXTINF:7.007000,
201012080742253-index10086.png
#EXTINF:3.470133,
201012080742253-index10087.png
#EXTINF:6.840167,
201012080742253-index10088.png
#EXTINF:6.306300,
201012080742253-index10089.png
#EXTINF:3.403400,
201012080742253-index10090.png
#EXTINF:6.873533,
201012080742253-index10091.png
#EXTINF:5.071733,
201012080742253-index10092.png
#EXTINF:3.003000,
201012080742253-index10093.png
#EXTINF:5.472133,
201012080742253-index10094.png
#EXTINF:7.007000,
201012080742253-index10095.png
#EXTINF:3.870533,
201012080742253-index10096.png
#EXTINF:7.007000,
201012080742253-index10097.png
#EXTINF:4.771433,
201012080742253-index10098.png
#EXTINF:6.439767,
201012080742253-index10099.png
#EXTINF:5.939267,
201012080742253-index10100.png
#EXTINF:4.637967,
201012080742253-index10101.png
#EXTINF:3.003000,
201012080742253-index10102.png
#EXTINF:7.007000,
201012080742253-index10103.png
#EXTINF:3.036367,
201012080742253-index10104.png
#EXTINF:5.839167,
201012080742253-index10105.png
#EXTINF:3.336667,
201012080742253-index10106.png
#EXTINF:4.270933,
201012080742253-index10107.png
#EXTINF:3.003000,
201012080742253-index10108.png
#EXTINF:6.139467,
201012080742253-index10109.png
#EXTINF:5.005000,
201012080742253-index10110.png
#EXTINF:5.805800,
201012080742253-index10111.png
#EXTINF:5.739067,
201012080742253-index10112.png
#EXTINF:5.805800,
201012080742253-index10113.png
#EXTINF:6.373033,
201012080742253-index10114.png
#EXTINF:5.739067,
201012080742253-index10115.png
#EXTINF:4.804800,
201012080742253-index10116.png
#EXTINF:6.740067,
201012080742253-index10117.png
#EXTINF:6.239567,
201012080742253-index10118.png
#EXTINF:5.005000,
201012080742253-index10119.png
#EXTINF:4.871533,
201012080742253-index10120.png
#EXTINF:5.805800,
201012080742253-index10121.png
#EXTINF:5.972633,
201012080742253-index10122.png
#EXTINF:3.737067,
201012080742253-index10123.png
#EXTINF:7.007000,
201012080742253-index10124.png
#EXTINF:6.740067,
201012080742253-index10125.png
#EXTINF:5.772433,
201012080742253-index10126.png
#EXTINF:6.139467,
201012080742253-index10127.png
#EXTINF:6.339667,
201012080742253-index10128.png
#EXTINF:6.239567,
201012080742253-index10129.png
#EXTINF:6.072733,
201012080742253-index10130.png
#EXTINF:5.405400,
201012080742253-index10131.png
#EXTINF:4.337667,
201012080742253-index10132.png
#EXTINF:3.036367,
201012080742253-index10133.png
#EXTINF:6.539867,
201012080742253-index10134.png
#EXTINF:3.003000,
201012080742253-index10135.png
#EXTINF:5.372033,
201012080742253-index10136.png
#EXTINF:4.104100,
201012080742253-index10137.png
#EXTINF:6.473133,
201012080742253-index10138.png
#EXTINF:5.105100,
201012080742253-index10139.png
#EXTINF:3.570233,
201012080742253-index10140.png
#EXTINF:6.673333,
201012080742253-index10141.png
#EXTINF:3.003000,
201012080742253-index10142.png
#EXTINF:6.139467,
201012080742253-index10143.png
#EXTINF:3.136467,
201012080742253-index10144.png
#EXTINF:6.406400,
201012080742253-index10145.png
#EXTINF:3.003000,
201012080742253-index10146.png
#EXTINF:5.638967,
201012080742253-index10147.png
#EXTINF:5.672333,
201012080742253-index10148.png
#EXTINF:6.072733,
201012080742253-index10149.png
#EXTINF:3.436767,
201012080742253-index10150.png
#EXTINF:4.804800,
201012080742253-index10151.png
#EXTINF:3.536867,
201012080742253-index10152.png
#EXTINF:5.872533,
201012080742253-index10153.png
#EXTINF:6.706700,
201012080742253-index10154.png
#EXTINF:5.772433,
201012080742253-index10155.png
#EXTINF:5.905900,
201012080742253-index10156.png
#EXTINF:4.270933,
201012080742253-index10157.png
#EXTINF:4.838167,
201012080742253-index10158.png
#EXTINF:5.038367,
201012080742253-index10159.png
#EXTINF:4.571233,
201012080742253-index10160.png
#EXTINF:6.106100,
201012080742253-index10161.png
#EXTINF:6.940267,
201012080742253-index10162.png
#EXTINF:3.203200,
201012080742253-index10163.png
#EXTINF:6.172833,
201012080742253-index10164.png
#EXTINF:6.306300,
201012080742253-index10165.png
#EXTINF:6.106100,
201012080742253-index10166.png
#EXTINF:5.038367,
201012080742253-index10167.png
#EXTINF:6.272933,
201012080742253-index10168.png
#EXTINF:6.506500,
201012080742253-index10169.png
#EXTINF:6.740067,
201012080742253-index10170.png
#EXTINF:4.604600,
201012080742253-index10171.png
#EXTINF:4.771433,
201012080742253-index10172.png
#EXTINF:4.170833,
201012080742253-index10173.png
#EXTINF:4.704700,
201012080742253-index10174.png
#EXTINF:6.673333,
201012080742253-index10175.png
#EXTINF:3.003000,
201012080742253-index10176.png
#EXTINF:3.436767,
201012080742253-index10177.png
#EXTINF:6.306300,
201012080742253-index10178.png
#EXTINF:3.670333,
201012080742253-index10179.png
#EXTINF:4.137467,
201012080742253-index10180.png
#EXTINF:3.003000,
201012080742253-index10181.png
#EXTINF:6.639967,
201012080742253-index10182.png
#EXTINF:6.573233,
201012080742253-index10183.png
#EXTINF:5.705700,
201012080742253-index10184.png
#EXTINF:3.503500,
201012080742253-index10185.png
#EXTINF:6.840167,
201012080742253-index10186.png
#EXTINF:5.805800,
201012080742253-index10187.png
#EXTINF:3.470133,
201012080742253-index10188.png
#EXTINF:6.239567,
201012080742253-index10189.png
#EXTINF:3.003000,
201012080742253-index10190.png
#EXTINF:4.838167,
201012080742253-index10191.png
#EXTINF:5.338667,
201012080742253-index10192.png
#EXTINF:4.237567,
201012080742253-index10193.png
#EXTINF:6.272933,
201012080742253-index10194.png
#EXTINF:4.237567,
201012080742253-index10195.png
#EXTINF:5.672333,
201012080742253-index10196.png
#EXTINF:3.003000,
201012080742253-index10197.png
#EXTINF:6.673333,
201012080742253-index10198.png
#EXTINF:6.906900,
201012080742253-index10199.png
#EXTINF:4.437767,
201012080742253-index10200.png
#EXTINF:7.007000,
201012080742253-index10201.png
#EXTINF:5.505500,
201012080742253-index10202.png
#EXTINF:5.238567,
201012080742253-index10203.png
#EXTINF:3.970633,
201012080742253-index10204.png
#EXTINF:5.572233,
201012080742253-index10205.png
#EXTINF:6.072733,
201012080742253-index10206.png
#EXTINF:4.838167,
201012080742253-index10207.png
#EXTINF:3.003000,
201012080742253-index10208.png
#EXTINF:6.840167,
201012080742253-index10209.png
#EXTINF:4.504500,
201012080742253-index10210.png
#EXTINF:3.003000,
201012080742253-index10211.png
#EXTINF:4.537867,
201012080742253-index10212.png
#EXTINF:4.170833,
201012080742253-index10213.png
#EXTINF:7.007000,
201012080742253-index10214.png
#EXTINF:3.536867,
201012080742253-index10215.png
#EXTINF:5.305300,
201012080742253-index10216.png
#EXTINF:3.003000,
201012080742253-index10217.png
#EXTINF:5.505500,
201012080742253-index10218.png
#EXTINF:7.007000,
201012080742253-index10219.png
#EXTINF:6.940267,
201012080742253-index10220.png
#EXTINF:4.838167,
201012080742253-index10221.png
#EXTINF:3.003000,
201012080742253-index10222.png
#EXTINF:5.038367,
201012080742253-index10223.png
#EXTINF:6.973633,
201012080742253-index10224.png
#EXTINF:6.639967,
201012080742253-index10225.png
#EXTINF:6.072733,
201012080742253-index10226.png
#EXTINF:3.003000,
201012080742253-index10227.png
#EXTINF:6.706700,
201012080742253-index10228.png
#EXTINF:5.839167,
201012080742253-index10229.png
#EXTINF:5.071733,
201012080742253-index10230.png
#EXTINF:5.238567,
201012080742253-index10231.png
#EXTINF:5.638967,
201012080742253-index10232.png
#EXTINF:3.003000,
201012080742253-index10233.png
#EXTINF:5.538867,
201012080742253-index10234.png
#EXTINF:4.070733,
201012080742253-index10235.png
#EXTINF:6.072733,
201012080742253-index10236.png
#EXTINF:3.003000,
201012080742253-index10237.png
#EXTINF:3.703700,
201012080742253-index10238.png
#EXTINF:6.406400,
201012080742253-index10239.png
#EXTINF:4.437767,
201012080742253-index10240.png
#EXTINF:3.436767,
201012080742253-index10241.png
#EXTINF:7.007000,
201012080742253-index10242.png
#EXTINF:3.203200,
201012080742253-index10243.png
#EXTINF:5.839167,
201012080742253-index10244.png
#EXTINF:3.003000,
201012080742253-index10245.png
#EXTINF:3.570233,
201012080742253-index10246.png
#EXTINF:3.036367,
201012080742253-index10247.png
#EXTINF:6.940267,
201012080742253-index10248.png
#EXTINF:5.939267,
201012080742253-index10249.png
#EXTINF:4.437767,
201012080742253-index10250.png
#EXTINF:3.837167,
201012080742253-index10251.png
#EXTINF:6.306300,
201012080742253-index10252.png
#EXTINF:6.306300,
201012080742253-index10253.png
#EXTINF:6.973633,
201012080742253-index10254.png
#EXTINF:6.773433,
201012080742253-index10255.png
#EXTINF:7.007000,
201012080742253-index10256.png
#EXTINF:5.772433,
201012080742253-index10257.png
#EXTINF:3.269933,
201012080742253-index10258.png
#EXTINF:5.171833,
201012080742253-index10259.png
#EXTINF:5.005000,
201012080742253-index10260.png
#EXTINF:5.338667,
201012080742253-index10261.png
#EXTINF:4.571233,
201012080742253-index10262.png
#EXTINF:3.503500,
201012080742253-index10263.png
#EXTINF:5.205200,
201012080742253-index10264.png
#EXTINF:3.003000,
201012080742253-index10265.png
#EXTINF:6.906900,
201012080742253-index10266.png
#EXTINF:5.672333,
201012080742253-index10267.png
#EXTINF:6.706700,
201012080742253-index10268.png
#EXTINF:5.972633,
201012080742253-index10269.png
#EXTINF:5.005000,
201012080742253-index10270.png
#EXTINF:3.670333,
201012080742253-index10271.png
#EXTINF:3.370033,
201012080742253-index10272.png
#EXTINF:5.005000,
201012080742253-index10273.png
#EXTINF:6.072733,
201012080742253-index10274.png
#EXTINF:7.007000,
201012080742253-index10275.png
#EXTINF:3.036367,
201012080742253-index10276.png
#EXTINF:4.037367,
201012080742253-index10277.png
#EXTINF:3.003000,
201012080742253-index10278.png
#EXTINF:3.970633,
201012080742253-index10279.png
#EXTINF:4.004000,
201012080742253-index10280.png
#EXTINF:7.007000,
201012080742253-index10281.png
#EXTINF:7.007000,
201012080742253-index10282.png
#EXTINF:5.005000,
201012080742253-index10283.png
#EXTINF:6.973633,
201012080742253-index10284.png
#EXTINF:7.007000,
201012080742253-index10285.png
#EXTINF:7.007000,
201012080742253-index10286.png
#EXTINF:3.003000,
201012080742253-index10287.png
#EXTINF:6.573233,
201012080742253-index10288.png
#EXTINF:5.839167,
201012080742253-index10289.png
#EXTINF:6.773433,
201012080742253-index10290.png
#EXTINF:5.872533,
201012080742253-index10291.png
#EXTINF:5.772433,
201012080742253-index10292.png
#EXTINF:5.005000,
201012080742253-index10293.png
#EXTINF:6.473133,
201012080742253-index10294.png
#EXTINF:6.406400,
201012080742253-index10295.png
#EXTINF:4.971633,
201012080742253-index10296.png
#EXTINF:6.906900,
201012080742253-index10297.png
#EXTINF:4.738067,
201012080742253-index10298.png
#EXTINF:3.036367,
201012080742253-index10299.png
#EXTINF:5.038367,
201012080742253-index10300.png
#EXTINF:4.971633,
201012080742253-index10301.png
#EXTINF:5.972633,
201012080742253-index10302.png
#EXTINF:5.672333,
201012080742253-index10303.png
#EXTINF:3.003000,
201012080742253-index10304.png
#EXTINF:5.405400,
201012080742253-index10305.png
#EXTINF:3.937267,
201012080742253-index10306.png
#EXTINF:5.972633,
201012080742253-index10307.png
#EXTINF:3.003000,
201012080742253-index10308.png
#EXTINF:5.705700,
201012080742253-index10309.png
#EXTINF:6.406400,
201012080742253-index10310.png
#EXTINF:5.305300,
201012080742253-index10311.png
#EXTINF:4.004000,
201012080742253-index10312.png
#EXTINF:6.973633,
201012080742253-index10313.png
#EXTINF:5.138467,
201012080742253-index10314.png
#EXTINF:6.973633,
201012080742253-index10315.png
#EXTINF:3.003000,
201012080742253-index10316.png
#EXTINF:7.007000,
201012080742253-index10317.png
#EXTINF:3.303300,
201012080742253-index10318.png
#EXTINF:4.404400,
201012080742253-index10319.png
#EXTINF:3.003000,
201012080742253-index10320.png
#EXTINF:7.007000,
201012080742253-index10321.png
#EXTINF:5.005000,
201012080742253-index10322.png
#EXTINF:6.673333,
201012080742253-index10323.png
#EXTINF:5.939267,
201012080742253-index10324.png
#EXTINF:6.039367,
201012080742253-index10325.png
#EXTINF:5.705700,
201012080742253-index10326.png
#EXTINF:6.773433,
201012080742253-index10327.png
#EXTINF:3.036367,
201012080742253-index10328.png
#EXTINF:4.437767,
201012080742253-index10329.png
#EXTINF:5.005000,
201012080742253-index10330.png
#EXTINF:5.472133,
201012080742253-index10331.png
#EXTINF:6.539867,
201012080742253-index10332.png
#EXTINF:6.806800,
201012080742253-index10333.png
#EXTINF:4.738067,
201012080742253-index10334.png
#EXTINF:6.206200,
201012080742253-index10335.png
#EXTINF:6.039367,
201012080742253-index10336.png
#EXTINF:5.205200,
201012080742253-index10337.png
#EXTINF:4.871533,
201012080742253-index10338.png
#EXTINF:4.504500,
201012080742253-index10339.png
#EXTINF:3.003000,
201012080742253-index10340.png
#EXTINF:7.007000,
201012080742253-index10341.png
#EXTINF:3.269933,
201012080742253-index10342.png
#EXTINF:3.436767,
201012080742253-index10343.png
#EXTINF:3.903900,
201012080742253-index10344.png
#EXTINF:6.673333,
201012080742253-index10345.png
#EXTINF:6.639967,
201012080742253-index10346.png
#EXTINF:4.504500,
201012080742253-index10347.png
#EXTINF:5.705700,
201012080742253-index10348.png
#EXTINF:3.403400,
201012080742253-index10349.png
#EXTINF:5.405400,
201012080742253-index10350.png
#EXTINF:5.839167,
201012080742253-index10351.png
#EXTINF:6.706700,
201012080742253-index10352.png
#EXTINF:6.840167,
201012080742253-index10353.png
#EXTINF:5.905900,
201012080742253-index10354.png
#EXTINF:5.372033,
201012080742253-index10355.png
#EXTINF:5.138467,
201012080742253-index10356.png
#EXTINF:4.738067,
201012080742253-index10357.png
#EXTINF:3.003000,
201012080742253-index10358.png
#EXTINF:6.940267,
201012080742253-index10359.png
#EXTINF:3.036367,
201012080742253-index10360.png
#EXTINF:5.338667,
201012080742253-index10361.png
#EXTINF:3.003000,
201012080742253-index10362.png
#EXTINF:6.573233,
201012080742253-index10363.png
#EXTINF:6.773433,
201012080742253-index10364.png
#EXTINF:4.004000,
201012080742253-index10365.png
#EXTINF:4.671333,
201012080742253-index10366.png
#EXTINF:4.704700,
201012080742253-index10367.png
#EXTINF:4.537867,
201012080742253-index10368.png
#EXTINF:6.706700,
201012080742253-index10369.png
#EXTINF:4.537867,
201012080742253-index10370.png
#EXTINF:4.537867,
201012080742253-index10371.png
#EXTINF:6.973633,
201012080742253-index10372.png
#EXTINF:5.605600,
201012080742253-index10373.png
#EXTINF:4.104100,
201012080742253-index10374.png
#EXTINF:3.603600,
201012080742253-index10375.png
#EXTINF:4.738067,
201012080742253-index10376.png
#EXTINF:4.938267,
201012080742253-index10377.png
#EXTINF:5.839167,
201012080742253-index10378.png
#EXTINF:5.572233,
201012080742253-index10379.png
#EXTINF:4.838167,
201012080742253-index10380.png
#EXTINF:6.740067,
201012080742253-index10381.png
#EXTINF:6.206200,
201012080742253-index10382.png
#EXTINF:4.838167,
201012080742253-index10383.png
#EXTINF:6.740067,
201012080742253-index10384.png
#EXTINF:5.338667,
201012080742253-index10385.png
#EXTINF:6.072733,
201012080742253-index10386.png
#EXTINF:4.704700,
201012080742253-index10387.png
#EXTINF:4.904900,
201012080742253-index10388.png
#EXTINF:5.839167,
201012080742253-index10389.png
#EXTINF:6.039367,
201012080742253-index10390.png
#EXTINF:3.803800,
201012080742253-index10391.png
#EXTINF:5.939267,
201012080742253-index10392.png
#EXTINF:3.403400,
201012080742253-index10393.png
#EXTINF:4.037367,
201012080742253-index10394.png
#EXTINF:3.003000,
201012080742253-index10395.png
#EXTINF:6.006000,
201012080742253-index10396.png
#EXTINF:4.204200,
201012080742253-index10397.png
#EXTINF:7.007000,
201012080742253-index10398.png
#EXTINF:4.471133,
201012080742253-index10399.png
#EXTINF:4.971633,
201012080742253-index10400.png
#EXTINF:3.203200,
201012080742253-index10401.png
#EXTINF:5.438767,
201012080742253-index10402.png
#EXTINF:5.405400,
201012080742253-index10403.png
#EXTINF:6.239567,
201012080742253-index10404.png
#EXTINF:5.472133,
201012080742253-index10405.png
#EXTINF:6.973633,
201012080742253-index10406.png
#EXTINF:6.239567,
201012080742253-index10407.png
#EXTINF:6.072733,
201012080742253-index10408.png
#EXTINF:4.404400,
201012080742253-index10409.png
#EXTINF:5.338667,
201012080742253-index10410.png
#EXTINF:6.973633,
201012080742253-index10411.png
#EXTINF:4.671333,
201012080742253-index10412.png
#EXTINF:7.007000,
201012080742253-index10413.png
#EXTINF:3.003000,
201012080742253-index10414.png
#EXTINF:5.705700,
201012080742253-index10415.png
#EXT-X-ENDLIST
