#EXTM3U
#EXT-X-VERSION:3
#EXT-X-TARGETDURATION:10
#EXT-X-MEDIA-SEQUENCE:10001
#EXTINF:2.419000,
204069113151894-index10001.ts
#EXTINF:2.173000,
204069113151894-index10002.ts
#EXTINF:3.034000,
204069113151894-index10003.ts
#EXTINF:3.280000,
204069113151894-index10004.ts
#EXTINF:2.993000,
204069113151894-index10005.ts
#EXTINF:2.788000,
204069113151894-index10006.ts
#EXTINF:2.788000,
204069113151894-index10007.ts
#EXTINF:1.640000,
204069113151894-index10008.ts
#EXTINF:2.747000,
204069113151894-index10009.ts
#EXTINF:1.107000,
204069113151894-index10010.ts
#EXTINF:1.107000,
204069113151894-index10011.ts
#EXTINF:1.189000,
204069113151894-index10012.ts
#EXTINF:1.025000,
204069113151894-index10013.ts
#EXTINF:6.970000,
204069113151894-index10014.ts
#EXTINF:2.091000,
204069113151894-index10015.ts
#EXTINF:2.624000,
204069113151894-index10016.ts
#EXTINF:3.116000,
204069113151894-index10017.ts
#EXTINF:1.312000,
204069113151894-index10018.ts
#EXTINF:4.387000,
204069113151894-index10019.ts
#EXTINF:5.740000,
204069113151894-index10020.ts
#EXTINF:3.772000,
204069113151894-index10021.ts
#EXTINF:5.166000,
204069113151894-index10022.ts
#EXTINF:1.722000,
204069113151894-index10023.ts
#EXTINF:7.503000,
204069113151894-index10024.ts
#EXTINF:2.132000,
204069113151894-index10025.ts
#EXTINF:7.421000,
204069113151894-index10026.ts
#EXTINF:5.207000,
204069113151894-index10027.ts
#EXTINF:4.018000,
204069113151894-index10028.ts
#EXTINF:8.979000,
204069113151894-index10029.ts
#EXTINF:6.560000,
204069113151894-index10030.ts
#EXTINF:2.542000,
204069113151894-index10031.ts
#EXTINF:1.394000,
204069113151894-index10032.ts
#EXTINF:2.665000,
204069113151894-index10033.ts
#EXTINF:1.394000,
204069113151894-index10034.ts
#EXTINF:4.059000,
204069113151894-index10035.ts
#EXTINF:2.132000,
204069113151894-index10036.ts
#EXTINF:1.353000,
204069113151894-index10037.ts
#EXTINF:0.943000,
204069113151894-index10038.ts
#EXTINF:1.804000,
204069113151894-index10039.ts
#EXTINF:3.116000,
204069113151894-index10040.ts
#EXTINF:1.353000,
204069113151894-index10041.ts
#EXTINF:5.535000,
204069113151894-index10042.ts
#EXTINF:4.756000,
204069113151894-index10043.ts
#EXTINF:1.271000,
204069113151894-index10044.ts
#EXTINF:4.387000,
204069113151894-index10045.ts
#EXTINF:3.526000,
204069113151894-index10046.ts
#EXTINF:8.036000,
204069113151894-index10047.ts
#EXTINF:2.337000,
204069113151894-index10048.ts
#EXTINF:6.601000,
204069113151894-index10049.ts
#EXTINF:2.009000,
204069113151894-index10050.ts
#EXTINF:1.517000,
204069113151894-index10051.ts
#EXTINF:2.378000,
204069113151894-index10052.ts
#EXTINF:3.936000,
204069113151894-index10053.ts
#EXTINF:2.337000,
204069113151894-index10054.ts
#EXTINF:1.189000,
204069113151894-index10055.ts
#EXTINF:0.984000,
204069113151894-index10056.ts
#EXTINF:4.797000,
204069113151894-index10057.ts
#EXTINF:3.772000,
204069113151894-index10058.ts
#EXTINF:1.271000,
204069113151894-index10059.ts
#EXTINF:6.601000,
204069113151894-index10060.ts
#EXTINF:2.542000,
204069113151894-index10061.ts
#EXTINF:2.337000,
204069113151894-index10062.ts
#EXTINF:0.984000,
204069113151894-index10063.ts
#EXTINF:3.321000,
204069113151894-index10064.ts
#EXTINF:9.184000,
204069113151894-index10065.ts
#EXTINF:5.576000,
204069113151894-index10066.ts
#EXTINF:2.911000,
204069113151894-index10067.ts
#EXTINF:1.271000,
204069113151894-index10068.ts
#EXTINF:1.845000,
204069113151894-index10069.ts
#EXTINF:4.838000,
204069113151894-index10070.ts
#EXTINF:4.756000,
204069113151894-index10071.ts
#EXTINF:2.173000,
204069113151894-index10072.ts
#EXTINF:1.558000,
204069113151894-index10073.ts
#EXTINF:1.066000,
204069113151894-index10074.ts
#EXTINF:1.230000,
204069113151894-index10075.ts
#EXTINF:0.943000,
204069113151894-index10076.ts
#EXTINF:1.107000,
204069113151894-index10077.ts
#EXTINF:1.107000,
204069113151894-index10078.ts
#EXTINF:0.984000,
204069113151894-index10079.ts
#EXTINF:0.984000,
204069113151894-index10080.ts
#EXTINF:3.034000,
204069113151894-index10081.ts
#EXTINF:3.321000,
204069113151894-index10082.ts
#EXTINF:1.763000,
204069113151894-index10083.ts
#EXTINF:1.189000,
204069113151894-index10084.ts
#EXTINF:2.747000,
204069113151894-index10085.ts
#EXTINF:3.854000,
204069113151894-index10086.ts
#EXTINF:4.633000,
204069113151894-index10087.ts
#EXTINF:4.879000,
204069113151894-index10088.ts
#EXTINF:4.223000,
204069113151894-index10089.ts
#EXTINF:2.542000,
204069113151894-index10090.ts
#EXTINF:5.371000,
204069113151894-index10091.ts
#EXTINF:2.911000,
204069113151894-index10092.ts
#EXTINF:2.050000,
204069113151894-index10093.ts
#EXTINF:5.863000,
204069113151894-index10094.ts
#EXTINF:2.911000,
204069113151894-index10095.ts
#EXTINF:2.829000,
204069113151894-index10096.ts
#EXTINF:2.911000,
204069113151894-index10097.ts
#EXTINF:2.829000,
204069113151894-index10098.ts
#EXTINF:2.911000,
204069113151894-index10099.ts
#EXTINF:3.034000,
204069113151894-index10100.ts
#EXTINF:1.025000,
204069113151894-index10101.ts
#EXTINF:3.690000,
204069113151894-index10102.ts
#EXTINF:2.870000,
204069113151894-index10103.ts
#EXTINF:1.353000,
204069113151894-index10104.ts
#EXTINF:2.993000,
204069113151894-index10105.ts
#EXTINF:3.690000,
204069113151894-index10106.ts
#EXTINF:2.747000,
204069113151894-index10107.ts
#EXTINF:1.353000,
204069113151894-index10108.ts
#EXTINF:3.895000,
204069113151894-index10109.ts
#EXTINF:2.911000,
204069113151894-index10110.ts
#EXTINF:3.280000,
204069113151894-index10111.ts
#EXTINF:3.321000,
204069113151894-index10112.ts
#EXTINF:7.462000,
204069113151894-index10113.ts
#EXTINF:1.353000,
204069113151894-index10114.ts
#EXTINF:2.337000,
204069113151894-index10115.ts
#EXTINF:9.840000,
204069113151894-index10116.ts
#EXTINF:0.943000,
204069113151894-index10117.ts
#EXTINF:6.068000,
204069113151894-index10118.ts
#EXTINF:2.911000,
204069113151894-index10119.ts
#EXTINF:3.157000,
204069113151894-index10120.ts
#EXTINF:4.879000,
204069113151894-index10121.ts
#EXTINF:2.050000,
204069113151894-index10122.ts
#EXTINF:5.863000,
204069113151894-index10123.ts
#EXTINF:5.002000,
204069113151894-index10124.ts
#EXTINF:2.952000,
204069113151894-index10125.ts
#EXTINF:1.107000,
204069113151894-index10126.ts
#EXTINF:0.943000,
204069113151894-index10127.ts
#EXTINF:0.984000,
204069113151894-index10128.ts
#EXTINF:0.984000,
204069113151894-index10129.ts
#EXTINF:0.984000,
204069113151894-index10130.ts
#EXTINF:1.435000,
204069113151894-index10131.ts
#EXTINF:2.870000,
204069113151894-index10132.ts
#EXTINF:1.763000,
204069113151894-index10133.ts
#EXTINF:1.599000,
204069113151894-index10134.ts
#EXTINF:1.681000,
204069113151894-index10135.ts
#EXTINF:1.722000,
204069113151894-index10136.ts
#EXTINF:2.378000,
204069113151894-index10137.ts
#EXTINF:1.148000,
204069113151894-index10138.ts
#EXTINF:2.624000,
204069113151894-index10139.ts
#EXTINF:0.984000,
204069113151894-index10140.ts
#EXTINF:1.681000,
204069113151894-index10141.ts
#EXTINF:3.895000,
204069113151894-index10142.ts
#EXTINF:0.943000,
204069113151894-index10143.ts
#EXTINF:1.271000,
204069113151894-index10144.ts
#EXTINF:1.025000,
204069113151894-index10145.ts
#EXTINF:2.460000,
204069113151894-index10146.ts
#EXTINF:1.804000,
204069113151894-index10147.ts
#EXTINF:0.943000,
204069113151894-index10148.ts
#EXTINF:1.517000,
204069113151894-index10149.ts
#EXTINF:1.148000,
204069113151894-index10150.ts
#EXTINF:0.984000,
204069113151894-index10151.ts
#EXTINF:2.501000,
204069113151894-index10152.ts
#EXTINF:4.879000,
204069113151894-index10153.ts
#EXTINF:1.435000,
204069113151894-index10154.ts
#EXTINF:3.321000,
204069113151894-index10155.ts
#EXTINF:1.763000,
204069113151894-index10156.ts
#EXTINF:4.920000,
204069113151894-index10157.ts
#EXTINF:2.624000,
204069113151894-index10158.ts
#EXTINF:1.353000,
204069113151894-index10159.ts
#EXTINF:1.599000,
204069113151894-index10160.ts
#EXTINF:1.476000,
204069113151894-index10161.ts
#EXTINF:1.517000,
204069113151894-index10162.ts
#EXTINF:1.886000,
204069113151894-index10163.ts
#EXTINF:2.911000,
204069113151894-index10164.ts
#EXTINF:4.305000,
204069113151894-index10165.ts
#EXTINF:3.731000,
204069113151894-index10166.ts
#EXTINF:6.683000,
204069113151894-index10167.ts
#EXTINF:2.829000,
204069113151894-index10168.ts
#EXTINF:3.813000,
204069113151894-index10169.ts
#EXTINF:1.599000,
204069113151894-index10170.ts
#EXTINF:2.665000,
204069113151894-index10171.ts
#EXTINF:2.173000,
204069113151894-index10172.ts
#EXTINF:2.460000,
204069113151894-index10173.ts
#EXTINF:3.649000,
204069113151894-index10174.ts
#EXTINF:4.387000,
204069113151894-index10175.ts
#EXTINF:1.558000,
204069113151894-index10176.ts
#EXTINF:5.125000,
204069113151894-index10177.ts
#EXTINF:4.879000,
204069113151894-index10178.ts
#EXTINF:4.387000,
204069113151894-index10179.ts
#EXTINF:2.829000,
204069113151894-index10180.ts
#EXTINF:4.223000,
204069113151894-index10181.ts
#EXTINF:2.870000,
204069113151894-index10182.ts
#EXTINF:1.886000,
204069113151894-index10183.ts
#EXTINF:9.840000,
204069113151894-index10184.ts
#EXTINF:3.116000,
204069113151894-index10185.ts
#EXTINF:4.797000,
204069113151894-index10186.ts
#EXTINF:8.077000,
204069113151894-index10187.ts
#EXTINF:5.494000,
204069113151894-index10188.ts
#EXTINF:5.576000,
204069113151894-index10189.ts
#EXTINF:2.378000,
204069113151894-index10190.ts
#EXTINF:5.781000,
204069113151894-index10191.ts
#EXTINF:2.911000,
204069113151894-index10192.ts
#EXTINF:2.173000,
204069113151894-index10193.ts
#EXTINF:5.863000,
204069113151894-index10194.ts
#EXTINF:3.116000,
204069113151894-index10195.ts
#EXTINF:2.132000,
204069113151894-index10196.ts
#EXTINF:2.542000,
204069113151894-index10197.ts
#EXTINF:1.763000,
204069113151894-index10198.ts
#EXTINF:5.125000,
204069113151894-index10199.ts
#EXTINF:3.731000,
204069113151894-index10200.ts
#EXTINF:2.952000,
204069113151894-index10201.ts
#EXTINF:1.435000,
204069113151894-index10202.ts
#EXTINF:4.879000,
204069113151894-index10203.ts
#EXTINF:2.214000,
204069113151894-index10204.ts
#EXTINF:1.681000,
204069113151894-index10205.ts
#EXTINF:3.895000,
204069113151894-index10206.ts
#EXTINF:2.419000,
204069113151894-index10207.ts
#EXTINF:5.371000,
204069113151894-index10208.ts
#EXTINF:3.198000,
204069113151894-index10209.ts
#EXTINF:2.378000,
204069113151894-index10210.ts
#EXTINF:1.927000,
204069113151894-index10211.ts
#EXTINF:4.264000,
204069113151894-index10212.ts
#EXTINF:1.681000,
204069113151894-index10213.ts
#EXTINF:2.419000,
204069113151894-index10214.ts
#EXTINF:0.943000,
204069113151894-index10215.ts
#EXTINF:0.984000,
204069113151894-index10216.ts
#EXTINF:1.476000,
204069113151894-index10217.ts
#EXTINF:0.943000,
204069113151894-index10218.ts
#EXTINF:2.460000,
204069113151894-index10219.ts
#EXTINF:0.984000,
204069113151894-index10220.ts
#EXTINF:0.984000,
204069113151894-index10221.ts
#EXTINF:2.419000,
204069113151894-index10222.ts
#EXTINF:1.763000,
204069113151894-index10223.ts
#EXTINF:3.034000,
204069113151894-index10224.ts
#EXTINF:3.321000,
204069113151894-index10225.ts
#EXTINF:1.066000,
204069113151894-index10226.ts
#EXTINF:6.478000,
204069113151894-index10227.ts
#EXTINF:7.216000,
204069113151894-index10228.ts
#EXTINF:3.075000,
204069113151894-index10229.ts
#EXTINF:7.421000,
204069113151894-index10230.ts
#EXTINF:9.840000,
204069113151894-index10231.ts
#EXTINF:7.339000,
204069113151894-index10232.ts
#EXTINF:1.722000,
204069113151894-index10233.ts
#EXTINF:2.419000,
204069113151894-index10234.ts
#EXTINF:2.337000,
204069113151894-index10235.ts
#EXTINF:1.599000,
204069113151894-index10236.ts
#EXTINF:2.624000,
204069113151894-index10237.ts
#EXTINF:3.690000,
204069113151894-index10238.ts
#EXTINF:5.904000,
204069113151894-index10239.ts
#EXTINF:2.624000,
204069113151894-index10240.ts
#EXTINF:1.353000,
204069113151894-index10241.ts
#EXTINF:6.355000,
204069113151894-index10242.ts
#EXTINF:5.330000,
204069113151894-index10243.ts
#EXTINF:5.494000,
204069113151894-index10244.ts
#EXTINF:2.870000,
204069113151894-index10245.ts
#EXTINF:4.387000,
204069113151894-index10246.ts
#EXTINF:9.061000,
204069113151894-index10247.ts
#EXTINF:1.107000,
204069113151894-index10248.ts
#EXTINF:6.273000,
204069113151894-index10249.ts
#EXTINF:1.230000,
204069113151894-index10250.ts
#EXTINF:2.419000,
204069113151894-index10251.ts
#EXTINF:2.460000,
204069113151894-index10252.ts
#EXTINF:2.501000,
204069113151894-index10253.ts
#EXTINF:1.845000,
204069113151894-index10254.ts
#EXTINF:2.460000,
204069113151894-index10255.ts
#EXTINF:0.984000,
204069113151894-index10256.ts
#EXTINF:1.517000,
204069113151894-index10257.ts
#EXTINF:0.984000,
204069113151894-index10258.ts
#EXTINF:1.476000,
204069113151894-index10259.ts
#EXTINF:0.984000,
204069113151894-index10260.ts
#EXTINF:2.337000,
204069113151894-index10261.ts
#EXTINF:0.943000,
204069113151894-index10262.ts
#EXTINF:0.984000,
204069113151894-index10263.ts
#EXTINF:1.230000,
204069113151894-index10264.ts
#EXTINF:3.690000,
204069113151894-index10265.ts
#EXTINF:4.879000,
204069113151894-index10266.ts
#EXTINF:2.542000,
204069113151894-index10267.ts
#EXTINF:1.845000,
204069113151894-index10268.ts
#EXTINF:2.460000,
204069113151894-index10269.ts
#EXTINF:0.984000,
204069113151894-index10270.ts
#EXTINF:0.984000,
204069113151894-index10271.ts
#EXTINF:0.984000,
204069113151894-index10272.ts
#EXTINF:0.984000,
204069113151894-index10273.ts
#EXTINF:0.984000,
204069113151894-index10274.ts
#EXTINF:1.107000,
204069113151894-index10275.ts
#EXTINF:3.649000,
204069113151894-index10276.ts
#EXTINF:1.271000,
204069113151894-index10277.ts
#EXTINF:1.599000,
204069113151894-index10278.ts
#EXTINF:3.526000,
204069113151894-index10279.ts
#EXTINF:2.091000,
204069113151894-index10280.ts
#EXTINF:0.943000,
204069113151894-index10281.ts
#EXTINF:1.148000,
204069113151894-index10282.ts
#EXTINF:1.148000,
204069113151894-index10283.ts
#EXTINF:2.378000,
204069113151894-index10284.ts
#EXTINF:1.394000,
204069113151894-index10285.ts
#EXTINF:1.025000,
204069113151894-index10286.ts
#EXTINF:1.476000,
204069113151894-index10287.ts
#EXTINF:1.066000,
204069113151894-index10288.ts
#EXTINF:1.312000,
204069113151894-index10289.ts
#EXTINF:1.025000,
204069113151894-index10290.ts
#EXTINF:1.312000,
204069113151894-index10291.ts
#EXTINF:1.025000,
204069113151894-index10292.ts
#EXTINF:0.984000,
204069113151894-index10293.ts
#EXTINF:2.255000,
204069113151894-index10294.ts
#EXTINF:2.788000,
204069113151894-index10295.ts
#EXTINF:5.576000,
204069113151894-index10296.ts
#EXTINF:4.674000,
204069113151894-index10297.ts
#EXTINF:3.321000,
204069113151894-index10298.ts
#EXTINF:3.280000,
204069113151894-index10299.ts
#EXTINF:4.920000,
204069113151894-index10300.ts
#EXTINF:4.674000,
204069113151894-index10301.ts
#EXTINF:3.239000,
204069113151894-index10302.ts
#EXTINF:1.927000,
204069113151894-index10303.ts
#EXTINF:9.840000,
204069113151894-index10304.ts
#EXTINF:2.173000,
204069113151894-index10305.ts
#EXTINF:7.503000,
204069113151894-index10306.ts
#EXTINF:4.141000,
204069113151894-index10307.ts
#EXTINF:3.157000,
204069113151894-index10308.ts
#EXTINF:7.380000,
204069113151894-index10309.ts
#EXTINF:4.920000,
204069113151894-index10310.ts
#EXTINF:1.722000,
204069113151894-index10311.ts
#EXTINF:4.428000,
204069113151894-index10312.ts
#EXTINF:5.371000,
204069113151894-index10313.ts
#EXTINF:5.986000,
204069113151894-index10314.ts
#EXTINF:2.255000,
204069113151894-index10315.ts
#EXTINF:1.148000,
204069113151894-index10316.ts
#EXTINF:3.280000,
204069113151894-index10317.ts
#EXTINF:5.043000,
204069113151894-index10318.ts
#EXTINF:0.984000,
204069113151894-index10319.ts
#EXTINF:5.535000,
204069113151894-index10320.ts
#EXTINF:1.025000,
204069113151894-index10321.ts
#EXTINF:1.640000,
204069113151894-index10322.ts
#EXTINF:1.148000,
204069113151894-index10323.ts
#EXTINF:0.984000,
204069113151894-index10324.ts
#EXTINF:3.198000,
204069113151894-index10325.ts
#EXTINF:0.943000,
204069113151894-index10326.ts
#EXTINF:4.715000,
204069113151894-index10327.ts
#EXTINF:8.446000,
204069113151894-index10328.ts
#EXTINF:4.018000,
204069113151894-index10329.ts
#EXTINF:2.747000,
204069113151894-index10330.ts
#EXTINF:9.840000,
204069113151894-index10331.ts
#EXTINF:5.945000,
204069113151894-index10332.ts
#EXTINF:4.633000,
204069113151894-index10333.ts
#EXTINF:4.797000,
204069113151894-index10334.ts
#EXTINF:4.838000,
204069113151894-index10335.ts
#EXTINF:1.722000,
204069113151894-index10336.ts
#EXTINF:1.722000,
204069113151894-index10337.ts
#EXTINF:1.558000,
204069113151894-index10338.ts
#EXTINF:1.968000,
204069113151894-index10339.ts
#EXTINF:2.542000,
204069113151894-index10340.ts
#EXTINF:7.872000,
204069113151894-index10341.ts
#EXTINF:6.642000,
204069113151894-index10342.ts
#EXTINF:3.034000,
204069113151894-index10343.ts
#EXTINF:2.132000,
204069113151894-index10344.ts
#EXTINF:9.840000,
204069113151894-index10345.ts
#EXTINF:5.289000,
204069113151894-index10346.ts
#EXTINF:2.952000,
204069113151894-index10347.ts
#EXTINF:2.009000,
204069113151894-index10348.ts
#EXTINF:2.214000,
204069113151894-index10349.ts
#EXTINF:1.025000,
204069113151894-index10350.ts
#EXTINF:1.517000,
204069113151894-index10351.ts
#EXTINF:3.157000,
204069113151894-index10352.ts
#EXTINF:1.394000,
204069113151894-index10353.ts
#EXTINF:1.025000,
204069113151894-index10354.ts
#EXTINF:1.763000,
204069113151894-index10355.ts
#EXTINF:1.066000,
204069113151894-index10356.ts
#EXTINF:2.091000,
204069113151894-index10357.ts
#EXTINF:1.435000,
204069113151894-index10358.ts
#EXTINF:2.460000,
204069113151894-index10359.ts
#EXTINF:3.936000,
204069113151894-index10360.ts
#EXTINF:3.608000,
204069113151894-index10361.ts
#EXTINF:2.050000,
204069113151894-index10362.ts
#EXTINF:1.148000,
204069113151894-index10363.ts
#EXTINF:1.886000,
204069113151894-index10364.ts
#EXTINF:1.230000,
204069113151894-index10365.ts
#EXTINF:0.984000,
204069113151894-index10366.ts
#EXTINF:1.476000,
204069113151894-index10367.ts
#EXTINF:2.460000,
204069113151894-index10368.ts
#EXTINF:5.576000,
204069113151894-index10369.ts
#EXTINF:2.501000,
204069113151894-index10370.ts
#EXTINF:0.984000,
204069113151894-index10371.ts
#EXTINF:4.100000,
204069113151894-index10372.ts
#EXTINF:2.419000,
204069113151894-index10373.ts
#EXTINF:1.394000,
204069113151894-index10374.ts
#EXTINF:2.255000,
204069113151894-index10375.ts
#EXTINF:1.517000,
204069113151894-index10376.ts
#EXTINF:2.583000,
204069113151894-index10377.ts
#EXTINF:2.173000,
204069113151894-index10378.ts
#EXTINF:3.157000,
204069113151894-index10379.ts
#EXTINF:1.066000,
204069113151894-index10380.ts
#EXTINF:2.829000,
204069113151894-index10381.ts
#EXTINF:1.025000,
204069113151894-index10382.ts
#EXTINF:2.296000,
204069113151894-index10383.ts
#EXTINF:2.132000,
204069113151894-index10384.ts
#EXTINF:1.107000,
204069113151894-index10385.ts
#EXTINF:1.189000,
204069113151894-index10386.ts
#EXTINF:3.936000,
204069113151894-index10387.ts
#EXTINF:1.189000,
204069113151894-index10388.ts
#EXTINF:4.387000,
204069113151894-index10389.ts
#EXTINF:5.207000,
204069113151894-index10390.ts
#EXTINF:9.430000,
204069113151894-index10391.ts
#EXTINF:6.560000,
204069113151894-index10392.ts
#EXTINF:3.280000,
204069113151894-index10393.ts
#EXTINF:2.542000,
204069113151894-index10394.ts
#EXTINF:8.282000,
204069113151894-index10395.ts
#EXTINF:1.394000,
204069113151894-index10396.ts
#EXTINF:6.314000,
204069113151894-index10397.ts
#EXTINF:5.207000,
204069113151894-index10398.ts
#EXTINF:3.567000,
204069113151894-index10399.ts
#EXTINF:9.471000,
204069113151894-index10400.ts
#EXTINF:3.157000,
204069113151894-index10401.ts
#EXTINF:9.430000,
204069113151894-index10402.ts
#EXTINF:1.230000,
204069113151894-index10403.ts
#EXTINF:4.592000,
204069113151894-index10404.ts
#EXTINF:4.018000,
204069113151894-index10405.ts
#EXTINF:9.635000,
204069113151894-index10406.ts
#EXTINF:7.134000,
204069113151894-index10407.ts
#EXTINF:6.027000,
204069113151894-index10408.ts
#EXTINF:3.198000,
204069113151894-index10409.ts
#EXTINF:5.371000,
204069113151894-index10410.ts
#EXTINF:9.676000,
204069113151894-index10411.ts
#EXTINF:1.845000,
204069113151894-index10412.ts
#EXTINF:3.034000,
204069113151894-index10413.ts
#EXTINF:7.011000,
204069113151894-index10414.ts
#EXTINF:3.772000,
204069113151894-index10415.ts
#EXTINF:4.756000,
204069113151894-index10416.ts
#EXTINF:6.232000,
204069113151894-index10417.ts
#EXTINF:2.132000,
204069113151894-index10418.ts
#EXTINF:5.412000,
204069113151894-index10419.ts
#EXTINF:1.435000,
204069113151894-index10420.ts
#EXTINF:1.271000,
204069113151894-index10421.ts
#EXTINF:1.148000,
204069113151894-index10422.ts
#EXTINF:1.394000,
204069113151894-index10423.ts
#EXTINF:2.009000,
204069113151894-index10424.ts
#EXTINF:4.797000,
204069113151894-index10425.ts
#EXTINF:2.050000,
204069113151894-index10426.ts
#EXTINF:1.722000,
204069113151894-index10427.ts
#EXTINF:1.599000,
204069113151894-index10428.ts
#EXTINF:0.984000,
204069113151894-index10429.ts
#EXTINF:2.583000,
204069113151894-index10430.ts
#EXTINF:0.943000,
204069113151894-index10431.ts
#EXTINF:1.025000,
204069113151894-index10432.ts
#EXTINF:1.763000,
204069113151894-index10433.ts
#EXTINF:1.640000,
204069113151894-index10434.ts
#EXTINF:1.599000,
204069113151894-index10435.ts
#EXTINF:1.927000,
204069113151894-index10436.ts
#EXTINF:2.952000,
204069113151894-index10437.ts
#EXTINF:7.790000,
204069113151894-index10438.ts
#EXTINF:2.255000,
204069113151894-index10439.ts
#EXTINF:5.904000,
204069113151894-index10440.ts
#EXTINF:1.722000,
204069113151894-index10441.ts
#EXTINF:1.025000,
204069113151894-index10442.ts
#EXTINF:3.198000,
204069113151894-index10443.ts
#EXTINF:6.478000,
204069113151894-index10444.ts
#EXTINF:5.084000,
204069113151894-index10445.ts
#EXTINF:2.993000,
204069113151894-index10446.ts
#EXTINF:2.624000,
204069113151894-index10447.ts
#EXTINF:2.460000,
204069113151894-index10448.ts
#EXTINF:4.182000,
204069113151894-index10449.ts
#EXTINF:4.674000,
204069113151894-index10450.ts
#EXT-X-ENDLIST
