#EXTM3U
#EXT-X-VERSION:3
#EXT-X-TARGETDURATION:10
#EXT-X-MEDIA-SEQUENCE:10001
#EXTINF:10.000000,
218366477638482-index10001.png
#EXTINF:10.000000,
218366477638482-index10002.png
#EXTINF:10.000000,
218366477638482-index10003.png
#EXTINF:10.000000,
218366477638482-index10004.png
#EXTINF:10.000000,
218366477638482-index10005.png
#EXTINF:10.000000,
218366477638482-index10006.png
#EXTINF:10.000000,
218366477638482-index10007.png
#EXTINF:10.000000,
218366477638482-index10008.png
#EXTINF:10.000000,
218366477638482-index10009.png
#EXTINF:10.000000,
218366477638482-index10010.png
#EXTINF:10.000000,
218366477638482-index10011.png
#EXTINF:10.000000,
218366477638482-index10012.png
#EXTINF:10.000000,
218366477638482-index10013.png
#EXTINF:10.000000,
218366477638482-index10014.png
#EXTINF:10.000000,
218366477638482-index10015.png
#EXTINF:10.000000,
218366477638482-index10016.png
#EXTINF:10.000000,
218366477638482-index10017.png
#EXTINF:10.000000,
218366477638482-index10018.png
#EXTINF:10.000000,
218366477638482-index10019.png
#EXTINF:10.000000,
218366477638482-index10020.png
#EXTINF:10.000000,
218366477638482-index10021.png
#EXTINF:10.000000,
218366477638482-index10022.png
#EXTINF:10.000000,
218366477638482-index10023.png
#EXTINF:10.000000,
218366477638482-index10024.png
#EXTINF:10.000000,
218366477638482-index10025.png
#EXTINF:10.000000,
218366477638482-index10026.png
#EXTINF:10.000000,
218366477638482-index10027.png
#EXTINF:10.000000,
218366477638482-index10028.png
#EXTINF:10.000000,
218366477638482-index10029.png
#EXTINF:10.000000,
218366477638482-index10030.png
#EXTINF:10.000000,
218366477638482-index10031.png
#EXTINF:10.000000,
218366477638482-index10032.png
#EXTINF:10.000000,
218366477638482-index10033.png
#EXTINF:10.000000,
218366477638482-index10034.png
#EXTINF:10.000000,
218366477638482-index10035.png
#EXTINF:10.000000,
218366477638482-index10036.png
#EXTINF:10.000000,
218366477638482-index10037.png
#EXTINF:10.000000,
218366477638482-index10038.png
#EXTINF:10.000000,
218366477638482-index10039.png
#EXTINF:10.000000,
218366477638482-index10040.png
#EXTINF:10.000000,
218366477638482-index10041.png
#EXTINF:10.000000,
218366477638482-index10042.png
#EXTINF:10.000000,
218366477638482-index10043.png
#EXTINF:10.000000,
218366477638482-index10044.png
#EXTINF:10.000000,
218366477638482-index10045.png
#EXTINF:10.000000,
218366477638482-index10046.png
#EXTINF:10.000000,
218366477638482-index10047.png
#EXTINF:10.000000,
218366477638482-index10048.png
#EXTINF:10.000000,
218366477638482-index10049.png
#EXTINF:10.000000,
218366477638482-index10050.png
#EXTINF:10.000000,
218366477638482-index10051.png
#EXTINF:10.000000,
218366477638482-index10052.png
#EXTINF:10.000000,
218366477638482-index10053.png
#EXTINF:10.000000,
218366477638482-index10054.png
#EXTINF:10.000000,
218366477638482-index10055.png
#EXTINF:10.000000,
218366477638482-index10056.png
#EXTINF:10.000000,
218366477638482-index10057.png
#EXTINF:10.000000,
218366477638482-index10058.png
#EXTINF:10.000000,
218366477638482-index10059.png
#EXTINF:10.000000,
218366477638482-index10060.png
#EXTINF:10.000000,
218366477638482-index10061.png
#EXTINF:10.000000,
218366477638482-index10062.png
#EXTINF:10.000000,
218366477638482-index10063.png
#EXTINF:10.000000,
218366477638482-index10064.png
#EXTINF:10.000000,
218366477638482-index10065.png
#EXTINF:10.000000,
218366477638482-index10066.png
#EXTINF:10.000000,
218366477638482-index10067.png
#EXTINF:10.000000,
218366477638482-index10068.png
#EXTINF:10.000000,
218366477638482-index10069.png
#EXTINF:10.000000,
218366477638482-index10070.png
#EXTINF:10.000000,
218366477638482-index10071.png
#EXTINF:10.000000,
218366477638482-index10072.png
#EXTINF:10.000000,
218366477638482-index10073.png
#EXTINF:10.000000,
218366477638482-index10074.png
#EXTINF:10.000000,
218366477638482-index10075.png
#EXTINF:10.000000,
218366477638482-index10076.png
#EXTINF:10.000000,
218366477638482-index10077.png
#EXTINF:10.000000,
218366477638482-index10078.png
#EXTINF:10.000000,
218366477638482-index10079.png
#EXTINF:10.000000,
218366477638482-index10080.png
#EXTINF:10.000000,
218366477638482-index10081.png
#EXTINF:10.000000,
218366477638482-index10082.png
#EXTINF:10.000000,
218366477638482-index10083.png
#EXTINF:10.000000,
218366477638482-index10084.png
#EXTINF:10.000000,
218366477638482-index10085.png
#EXTINF:10.000000,
218366477638482-index10086.png
#EXTINF:10.000000,
218366477638482-index10087.png
#EXTINF:10.000000,
218366477638482-index10088.png
#EXTINF:10.000000,
218366477638482-index10089.png
#EXTINF:10.000000,
218366477638482-index10090.png
#EXTINF:10.000000,
218366477638482-index10091.png
#EXTINF:10.000000,
218366477638482-index10092.png
#EXTINF:10.000000,
218366477638482-index10093.png
#EXTINF:10.000000,
218366477638482-index10094.png
#EXTINF:10.000000,
218366477638482-index10095.png
#EXTINF:10.000000,
218366477638482-index10096.png
#EXTINF:10.000000,
218366477638482-index10097.png
#EXTINF:10.000000,
218366477638482-index10098.png
#EXTINF:10.000000,
218366477638482-index10099.png
#EXTINF:10.000000,
218366477638482-index10100.png
#EXTINF:10.000000,
218366477638482-index10101.png
#EXTINF:10.000000,
218366477638482-index10102.png
#EXTINF:10.000000,
218366477638482-index10103.png
#EXTINF:10.000000,
218366477638482-index10104.png
#EXTINF:10.000000,
218366477638482-index10105.png
#EXTINF:10.000000,
218366477638482-index10106.png
#EXTINF:10.000000,
218366477638482-index10107.png
#EXTINF:10.000000,
218366477638482-index10108.png
#EXTINF:10.000000,
218366477638482-index10109.png
#EXTINF:10.000000,
218366477638482-index10110.png
#EXTINF:10.000000,
218366477638482-index10111.png
#EXTINF:10.000000,
218366477638482-index10112.png
#EXTINF:10.000000,
218366477638482-index10113.png
#EXTINF:10.000000,
218366477638482-index10114.png
#EXTINF:10.000000,
218366477638482-index10115.png
#EXTINF:10.000000,
218366477638482-index10116.png
#EXTINF:10.000000,
218366477638482-index10117.png
#EXTINF:10.000000,
218366477638482-index10118.png
#EXTINF:10.000000,
218366477638482-index10119.png
#EXTINF:10.000000,
218366477638482-index10120.png
#EXTINF:10.000000,
218366477638482-index10121.png
#EXTINF:10.000000,
218366477638482-index10122.png
#EXTINF:10.000000,
218366477638482-index10123.png
#EXTINF:10.000000,
218366477638482-index10124.png
#EXTINF:10.000000,
218366477638482-index10125.png
#EXTINF:10.000000,
218366477638482-index10126.png
#EXTINF:10.000000,
218366477638482-index10127.png
#EXTINF:10.000000,
218366477638482-index10128.png
#EXTINF:10.000000,
218366477638482-index10129.png
#EXTINF:10.000000,
218366477638482-index10130.png
#EXTINF:10.000000,
218366477638482-index10131.png
#EXTINF:10.000000,
218366477638482-index10132.png
#EXTINF:10.000000,
218366477638482-index10133.png
#EXTINF:10.000000,
218366477638482-index10134.png
#EXTINF:10.000000,
218366477638482-index10135.png
#EXTINF:10.000000,
218366477638482-index10136.png
#EXTINF:10.000000,
218366477638482-index10137.png
#EXTINF:10.000000,
218366477638482-index10138.png
#EXTINF:10.000000,
218366477638482-index10139.png
#EXTINF:10.000000,
218366477638482-index10140.png
#EXTINF:10.000000,
218366477638482-index10141.png
#EXTINF:10.000000,
218366477638482-index10142.png
#EXTINF:10.000000,
218366477638482-index10143.png
#EXTINF:10.000000,
218366477638482-index10144.png
#EXTINF:10.000000,
218366477638482-index10145.png
#EXTINF:10.000000,
218366477638482-index10146.png
#EXTINF:10.000000,
218366477638482-index10147.png
#EXTINF:10.000000,
218366477638482-index10148.png
#EXTINF:10.000000,
218366477638482-index10149.png
#EXTINF:10.000000,
218366477638482-index10150.png
#EXTINF:10.000000,
218366477638482-index10151.png
#EXTINF:10.000000,
218366477638482-index10152.png
#EXTINF:10.000000,
218366477638482-index10153.png
#EXTINF:10.000000,
218366477638482-index10154.png
#EXTINF:10.000000,
218366477638482-index10155.png
#EXTINF:10.000000,
218366477638482-index10156.png
#EXTINF:10.000000,
218366477638482-index10157.png
#EXTINF:10.000000,
218366477638482-index10158.png
#EXTINF:10.000000,
218366477638482-index10159.png
#EXTINF:10.000000,
218366477638482-index10160.png
#EXTINF:10.000000,
218366477638482-index10161.png
#EXTINF:10.000000,
218366477638482-index10162.png
#EXTINF:10.000000,
218366477638482-index10163.png
#EXTINF:10.000000,
218366477638482-index10164.png
#EXTINF:10.000000,
218366477638482-index10165.png
#EXTINF:10.000000,
218366477638482-index10166.png
#EXTINF:10.000000,
218366477638482-index10167.png
#EXTINF:10.000000,
218366477638482-index10168.png
#EXTINF:10.000000,
218366477638482-index10169.png
#EXTINF:10.000000,
218366477638482-index10170.png
#EXTINF:10.000000,
218366477638482-index10171.png
#EXTINF:10.000000,
218366477638482-index10172.png
#EXTINF:10.000000,
218366477638482-index10173.png
#EXTINF:10.000000,
218366477638482-index10174.png
#EXTINF:10.000000,
218366477638482-index10175.png
#EXTINF:10.000000,
218366477638482-index10176.png
#EXTINF:10.000000,
218366477638482-index10177.png
#EXTINF:10.000000,
218366477638482-index10178.png
#EXTINF:10.000000,
218366477638482-index10179.png
#EXTINF:10.000000,
218366477638482-index10180.png
#EXTINF:10.000000,
218366477638482-index10181.png
#EXTINF:10.000000,
218366477638482-index10182.png
#EXTINF:10.000000,
218366477638482-index10183.png
#EXTINF:10.000000,
218366477638482-index10184.png
#EXTINF:10.000000,
218366477638482-index10185.png
#EXTINF:10.000000,
218366477638482-index10186.png
#EXTINF:10.000000,
218366477638482-index10187.png
#EXTINF:10.000000,
218366477638482-index10188.png
#EXTINF:10.000000,
218366477638482-index10189.png
#EXTINF:10.000000,
218366477638482-index10190.png
#EXTINF:10.000000,
218366477638482-index10191.png
#EXTINF:10.000000,
218366477638482-index10192.png
#EXTINF:10.000000,
218366477638482-index10193.png
#EXTINF:10.000000,
218366477638482-index10194.png
#EXTINF:10.000000,
218366477638482-index10195.png
#EXTINF:10.000000,
218366477638482-index10196.png
#EXTINF:10.000000,
218366477638482-index10197.png
#EXTINF:10.000000,
218366477638482-index10198.png
#EXTINF:10.000000,
218366477638482-index10199.png
#EXTINF:10.000000,
218366477638482-index10200.png
#EXTINF:10.000000,
218366477638482-index10201.png
#EXTINF:10.000000,
218366477638482-index10202.png
#EXTINF:10.000000,
218366477638482-index10203.png
#EXTINF:10.000000,
218366477638482-index10204.png
#EXTINF:10.000000,
218366477638482-index10205.png
#EXTINF:10.000000,
218366477638482-index10206.png
#EXTINF:10.000000,
218366477638482-index10207.png
#EXTINF:10.000000,
218366477638482-index10208.png
#EXTINF:10.000000,
218366477638482-index10209.png
#EXTINF:10.000000,
218366477638482-index10210.png
#EXTINF:0.800000,
218366477638482-index10211.png
#EXT-X-ENDLIST
