#EXTM3U
#EXT-X-VERSION:3
#EXT-X-TARGETDURATION:11
#EXT-X-MEDIA-SEQUENCE:10001
#EXTINF:10.434667,
222913898113700-index10001.png
#EXTINF:10.869444,
222913898113700-index10002.png
#EXTINF:10.869444,
222913898113700-index10003.png
#EXTINF:3.956478,
222913898113700-index10004.png
#EXTINF:4.826033,
222913898113700-index10005.png
#EXTINF:2.478233,
222913898113700-index10006.png
#EXTINF:5.130378,
222913898113700-index10007.png
#EXTINF:9.043378,
222913898113700-index10008.png
#EXTINF:6.782533,
222913898113700-index10009.png
#EXTINF:10.869444,
222913898113700-index10010.png
#EXTINF:6.869489,
222913898113700-index10011.png
#EXTINF:10.869444,
222913898113700-index10012.png
#EXTINF:10.869444,
222913898113700-index10013.png
#EXTINF:10.869444,
222913898113700-index10014.png
#EXTINF:10.869444,
222913898113700-index10015.png
#EXTINF:10.869444,
222913898113700-index10016.png
#EXTINF:10.869444,
222913898113700-index10017.png
#EXTINF:10.869444,
222913898113700-index10018.png
#EXTINF:10.869444,
222913898113700-index10019.png
#EXTINF:10.869444,
222913898113700-index10020.png
#EXTINF:10.869444,
222913898113700-index10021.png
#EXTINF:8.086867,
222913898113700-index10022.png
#EXTINF:10.869444,
222913898113700-index10023.png
#EXTINF:8.086867,
222913898113700-index10024.png
#EXTINF:10.869444,
222913898113700-index10025.png
#EXTINF:10.869444,
222913898113700-index10026.png
#EXTINF:10.869444,
222913898113700-index10027.png
#EXTINF:4.912989,
222913898113700-index10028.png
#EXTINF:10.869444,
222913898113700-index10029.png
#EXTINF:10.869444,
222913898113700-index10030.png
#EXTINF:10.304233,
222913898113700-index10031.png
#EXTINF:10.869444,
222913898113700-index10032.png
#EXTINF:10.869444,
222913898113700-index10033.png
#EXTINF:10.869444,
222913898113700-index10034.png
#EXTINF:9.825978,
222913898113700-index10035.png
#EXTINF:10.869444,
222913898113700-index10036.png
#EXTINF:10.869444,
222913898113700-index10037.png
#EXTINF:10.869444,
222913898113700-index10038.png
#EXTINF:10.869444,
222913898113700-index10039.png
#EXTINF:10.869444,
222913898113700-index10040.png
#EXTINF:10.869444,
222913898113700-index10041.png
#EXTINF:10.869444,
222913898113700-index10042.png
#EXTINF:10.869444,
222913898113700-index10043.png
#EXTINF:10.869444,
222913898113700-index10044.png
#EXTINF:10.869444,
222913898113700-index10045.png
#EXTINF:10.739011,
222913898113700-index10046.png
#EXTINF:10.869444,
222913898113700-index10047.png
#EXTINF:10.869444,
222913898113700-index10048.png
#EXTINF:10.869444,
222913898113700-index10049.png
#EXTINF:10.869444,
222913898113700-index10050.png
#EXTINF:9.347722,
222913898113700-index10051.png
#EXTINF:9.869456,
222913898113700-index10052.png
#EXTINF:10.869444,
222913898113700-index10053.png
#EXTINF:3.260833,
222913898113700-index10054.png
#EXTINF:8.086867,
222913898113700-index10055.png
#EXTINF:10.869444,
222913898113700-index10056.png
#EXTINF:9.825978,
222913898113700-index10057.png
#EXTINF:10.217278,
222913898113700-index10058.png
#EXTINF:10.869444,
222913898113700-index10059.png
#EXTINF:7.347744,
222913898113700-index10060.png
#EXTINF:10.043367,
222913898113700-index10061.png
#EXTINF:10.869444,
222913898113700-index10062.png
#EXTINF:10.869444,
222913898113700-index10063.png
#EXTINF:10.869444,
222913898113700-index10064.png
#EXTINF:10.869444,
222913898113700-index10065.png
#EXTINF:10.869444,
222913898113700-index10066.png
#EXTINF:9.652067,
222913898113700-index10067.png
#EXTINF:5.260811,
222913898113700-index10068.png
#EXTINF:7.869478,
222913898113700-index10069.png
#EXTINF:6.739056,
222913898113700-index10070.png
#EXTINF:5.086900,
222913898113700-index10071.png
#EXTINF:6.739056,
222913898113700-index10072.png
#EXTINF:7.434700,
222913898113700-index10073.png
#EXTINF:5.869500,
222913898113700-index10074.png
#EXTINF:9.869456,
222913898113700-index10075.png
#EXTINF:8.086867,
222913898113700-index10076.png
#EXTINF:7.999911,
222913898113700-index10077.png
#EXTINF:10.869444,
222913898113700-index10078.png
#EXTINF:8.521644,
222913898113700-index10079.png
#EXTINF:8.217300,
222913898113700-index10080.png
#EXTINF:8.173822,
222913898113700-index10081.png
#EXTINF:4.956467,
222913898113700-index10082.png
#EXTINF:8.608600,
222913898113700-index10083.png
#EXTINF:2.913011,
222913898113700-index10084.png
#EXTINF:7.652089,
222913898113700-index10085.png
#EXTINF:10.869444,
222913898113700-index10086.png
#EXTINF:10.869444,
222913898113700-index10087.png
#EXTINF:10.869444,
222913898113700-index10088.png
#EXTINF:10.739011,
222913898113700-index10089.png
#EXTINF:10.869444,
222913898113700-index10090.png
#EXTINF:10.869444,
222913898113700-index10091.png
#EXTINF:7.086878,
222913898113700-index10092.png
#EXTINF:10.869444,
222913898113700-index10093.png
#EXTINF:10.869444,
222913898113700-index10094.png
#EXTINF:10.869444,
222913898113700-index10095.png
#EXTINF:6.521667,
222913898113700-index10096.png
#EXTINF:10.869444,
222913898113700-index10097.png
#EXTINF:10.869444,
222913898113700-index10098.png
#EXTINF:10.869444,
222913898113700-index10099.png
#EXTINF:10.869444,
222913898113700-index10100.png
#EXTINF:10.869444,
222913898113700-index10101.png
#EXTINF:10.869444,
222913898113700-index10102.png
#EXTINF:10.869444,
222913898113700-index10103.png
#EXTINF:10.869444,
222913898113700-index10104.png
#EXTINF:10.869444,
222913898113700-index10105.png
#EXTINF:10.869444,
222913898113700-index10106.png
#EXTINF:7.478178,
222913898113700-index10107.png
#EXTINF:4.999944,
222913898113700-index10108.png
#EXTINF:10.869444,
222913898113700-index10109.png
#EXTINF:10.869444,
222913898113700-index10110.png
#EXTINF:10.869444,
222913898113700-index10111.png
#EXTINF:5.782544,
222913898113700-index10112.png
#EXTINF:6.999922,
222913898113700-index10113.png
#EXTINF:8.260778,
222913898113700-index10114.png
#EXTINF:3.739089,
222913898113700-index10115.png
#EXTINF:5.739067,
222913898113700-index10116.png
#EXTINF:10.695533,
222913898113700-index10117.png
#EXTINF:10.869444,
222913898113700-index10118.png
#EXTINF:10.869444,
222913898113700-index10119.png
#EXTINF:6.826011,
222913898113700-index10120.png
#EXTINF:10.869444,
222913898113700-index10121.png
#EXTINF:10.869444,
222913898113700-index10122.png
#EXTINF:10.869444,
222913898113700-index10123.png
#EXTINF:1.869544,
222913898113700-index10124.png
#EXT-X-ENDLIST
