#EXTM3U
#EXT-X-VERSION:3
#EXT-X-TARGETDURATION:11
#EXT-X-MEDIA-SEQUENCE:10001
#EXTINF:10.869444,
224403061386611-index10001.png
#EXTINF:6.086889,
224403061386611-index10002.png
#EXTINF:2.913011,
224403061386611-index10003.png
#EXTINF:2.173889,
224403061386611-index10004.png
#EXTINF:2.391278,
224403061386611-index10005.png
#EXTINF:2.565189,
224403061386611-index10006.png
#EXTINF:2.478233,
224403061386611-index10007.png
#EXTINF:4.130389,
224403061386611-index10008.png
#EXTINF:1.304333,
224403061386611-index10009.png
#EXTINF:4.434733,
224403061386611-index10010.png
#EXTINF:2.913011,
224403061386611-index10011.png
#EXTINF:1.956500,
224403061386611-index10012.png
#EXTINF:1.608678,
224403061386611-index10013.png
#EXTINF:1.347811,
224403061386611-index10014.png
#EXTINF:1.999978,
224403061386611-index10015.png
#EXTINF:6.086889,
224403061386611-index10016.png
#EXTINF:2.521711,
224403061386611-index10017.png
#EXTINF:1.391289,
224403061386611-index10018.png
#EXTINF:6.565144,
224403061386611-index10019.png
#EXTINF:2.739100,
224403061386611-index10020.png
#EXTINF:3.695611,
224403061386611-index10021.png
#EXTINF:5.521678,
224403061386611-index10022.png
#EXTINF:2.478233,
224403061386611-index10023.png
#EXTINF:3.173878,
224403061386611-index10024.png
#EXTINF:2.869533,
224403061386611-index10025.png
#EXTINF:10.869444,
224403061386611-index10026.png
#EXTINF:3.478222,
224403061386611-index10027.png
#EXTINF:3.913000,
224403061386611-index10028.png
#EXTINF:4.608644,
224403061386611-index10029.png
#EXTINF:5.999933,
224403061386611-index10030.png
#EXTINF:10.869444,
224403061386611-index10031.png
#EXTINF:8.260778,
224403061386611-index10032.png
#EXTINF:4.999944,
224403061386611-index10033.png
#EXTINF:9.695544,
224403061386611-index10034.png
#EXTINF:5.999933,
224403061386611-index10035.png
#EXTINF:5.999933,
224403061386611-index10036.png
#EXTINF:6.260800,
224403061386611-index10037.png
#EXTINF:9.999889,
224403061386611-index10038.png
#EXTINF:7.304267,
224403061386611-index10039.png
#EXTINF:4.521689,
224403061386611-index10040.png
#EXTINF:10.173800,
224403061386611-index10041.png
#EXTINF:6.565144,
224403061386611-index10042.png
#EXTINF:9.043378,
224403061386611-index10043.png
#EXTINF:7.869478,
224403061386611-index10044.png
#EXTINF:10.869444,
224403061386611-index10045.png
#EXTINF:10.869444,
224403061386611-index10046.png
#EXTINF:10.869444,
224403061386611-index10047.png
#EXTINF:5.869500,
224403061386611-index10048.png
#EXTINF:5.478200,
224403061386611-index10049.png
#EXTINF:4.260822,
224403061386611-index10050.png
#EXTINF:10.869444,
224403061386611-index10051.png
#EXTINF:5.478200,
224403061386611-index10052.png
#EXTINF:10.869444,
224403061386611-index10053.png
#EXTINF:8.217300,
224403061386611-index10054.png
#EXTINF:10.869444,
224403061386611-index10055.png
#EXTINF:7.043400,
224403061386611-index10056.png
#EXTINF:10.695533,
224403061386611-index10057.png
#EXTINF:7.260789,
224403061386611-index10058.png
#EXTINF:6.912967,
224403061386611-index10059.png
#EXTINF:10.391189,
224403061386611-index10060.png
#EXTINF:3.999956,
224403061386611-index10061.png
#EXTINF:5.347767,
224403061386611-index10062.png
#EXTINF:5.912978,
224403061386611-index10063.png
#EXTINF:10.869444,
224403061386611-index10064.png
#EXTINF:9.173811,
224403061386611-index10065.png
#EXTINF:8.782511,
224403061386611-index10066.png
#EXTINF:6.956444,
224403061386611-index10067.png
#EXTINF:10.869444,
224403061386611-index10068.png
#EXTINF:6.347756,
224403061386611-index10069.png
#EXTINF:8.825989,
224403061386611-index10070.png
#EXTINF:10.869444,
224403061386611-index10071.png
#EXTINF:7.217311,
224403061386611-index10072.png
#EXTINF:6.782533,
224403061386611-index10073.png
#EXTINF:6.695578,
224403061386611-index10074.png
#EXTINF:2.999967,
224403061386611-index10075.png
#EXTINF:9.434678,
224403061386611-index10076.png
#EXTINF:3.999956,
224403061386611-index10077.png
#EXTINF:6.826011,
224403061386611-index10078.png
#EXTINF:8.434689,
224403061386611-index10079.png
#EXTINF:10.869444,
224403061386611-index10080.png
#EXTINF:10.869444,
224403061386611-index10081.png
#EXTINF:10.869444,
224403061386611-index10082.png
#EXTINF:10.869444,
224403061386611-index10083.png
#EXTINF:10.869444,
224403061386611-index10084.png
#EXTINF:10.869444,
224403061386611-index10085.png
#EXTINF:10.869444,
224403061386611-index10086.png
#EXTINF:4.304300,
224403061386611-index10087.png
#EXT-X-ENDLIST
