#EXTM3U
#EXT-X-VERSION:3
#EXT-X-TARGETDURATION:11
#EXT-X-MEDIA-SEQUENCE:10001
#EXTINF:10.522022,
232507491277323-index10001.png
#EXTINF:1.916667,
232507491277323-index10002.png
#EXTINF:1.916667,
232507491277323-index10003.png
#EXTINF:4.875000,
232507491277323-index10004.png
#EXTINF:5.708333,
232507491277323-index10005.png
#EXTINF:2.708333,
232507491277323-index10006.png
#EXTINF:1.625000,
232507491277323-index10007.png
#EXTINF:2.291667,
232507491277323-index10008.png
#EXTINF:1.125000,
232507491277323-index10009.png
#EXTINF:2.250000,
232507491277323-index10010.png
#EXTINF:1.041667,
232507491277323-index10011.png
#EXTINF:1.041667,
232507491277323-index10012.png
#EXTINF:1.125000,
232507491277323-index10013.png
#EXTINF:5.166667,
232507491277323-index10014.png
#EXTINF:1.375000,
232507491277323-index10015.png
#EXTINF:1.000000,
232507491277323-index10016.png
#EXTINF:1.375000,
232507491277323-index10017.png
#EXTINF:4.833333,
232507491277323-index10018.png
#EXTINF:5.083333,
232507491277323-index10019.png
#EXTINF:5.208333,
232507491277323-index10020.png
#EXTINF:2.875000,
232507491277323-index10021.png
#EXTINF:5.291667,
232507491277323-index10022.png
#EXTINF:2.083333,
232507491277323-index10023.png
#EXTINF:7.041667,
232507491277323-index10024.png
#EXTINF:1.458333,
232507491277323-index10025.png
#EXTINF:1.375000,
232507491277323-index10026.png
#EXTINF:1.625000,
232507491277323-index10027.png
#EXTINF:1.208333,
232507491277323-index10028.png
#EXTINF:3.583333,
232507491277323-index10029.png
#EXTINF:2.291667,
232507491277323-index10030.png
#EXTINF:6.833333,
232507491277323-index10031.png
#EXTINF:2.125000,
232507491277323-index10032.png
#EXTINF:1.291667,
232507491277323-index10033.png
#EXTINF:1.916667,
232507491277323-index10034.png
#EXTINF:2.625000,
232507491277323-index10035.png
#EXTINF:2.041667,
232507491277323-index10036.png
#EXTINF:4.625000,
232507491277323-index10037.png
#EXTINF:2.500000,
232507491277323-index10038.png
#EXTINF:2.125000,
232507491277323-index10039.png
#EXTINF:1.791667,
232507491277323-index10040.png
#EXTINF:4.041667,
232507491277323-index10041.png
#EXTINF:1.833333,
232507491277323-index10042.png
#EXTINF:1.666667,
232507491277323-index10043.png
#EXTINF:4.791667,
232507491277323-index10044.png
#EXTINF:8.250000,
232507491277323-index10045.png
#EXTINF:2.583333,
232507491277323-index10046.png
#EXTINF:3.291667,
232507491277323-index10047.png
#EXTINF:5.166667,
232507491277323-index10048.png
#EXTINF:1.833333,
232507491277323-index10049.png
#EXTINF:5.375000,
232507491277323-index10050.png
#EXTINF:6.083333,
232507491277323-index10051.png
#EXTINF:3.375000,
232507491277323-index10052.png
#EXTINF:1.416667,
232507491277323-index10053.png
#EXTINF:3.458333,
232507491277323-index10054.png
#EXTINF:1.791667,
232507491277323-index10055.png
#EXTINF:4.125000,
232507491277323-index10056.png
#EXTINF:2.958333,
232507491277323-index10057.png
#EXTINF:3.833333,
232507491277323-index10058.png
#EXTINF:1.083333,
232507491277323-index10059.png
#EXTINF:3.541667,
232507491277323-index10060.png
#EXTINF:4.666667,
232507491277323-index10061.png
#EXTINF:3.458333,
232507491277323-index10062.png
#EXTINF:2.000000,
232507491277323-index10063.png
#EXTINF:5.458333,
232507491277323-index10064.png
#EXTINF:4.000000,
232507491277323-index10065.png
#EXTINF:1.916667,
232507491277323-index10066.png
#EXTINF:3.250000,
232507491277323-index10067.png
#EXTINF:3.791667,
232507491277323-index10068.png
#EXTINF:1.166667,
232507491277323-index10069.png
#EXTINF:2.666667,
232507491277323-index10070.png
#EXTINF:1.625000,
232507491277323-index10071.png
#EXTINF:5.166667,
232507491277323-index10072.png
#EXTINF:2.625000,
232507491277323-index10073.png
#EXTINF:4.541667,
232507491277323-index10074.png
#EXTINF:1.166667,
232507491277323-index10075.png
#EXTINF:3.500000,
232507491277323-index10076.png
#EXTINF:2.458333,
232507491277323-index10077.png
#EXTINF:2.833333,
232507491277323-index10078.png
#EXTINF:4.791667,
232507491277323-index10079.png
#EXTINF:2.125000,
232507491277323-index10080.png
#EXTINF:2.000000,
232507491277323-index10081.png
#EXTINF:1.708333,
232507491277323-index10082.png
#EXTINF:1.708333,
232507491277323-index10083.png
#EXTINF:2.666667,
232507491277323-index10084.png
#EXTINF:1.958333,
232507491277323-index10085.png
#EXTINF:1.291667,
232507491277323-index10086.png
#EXTINF:2.291667,
232507491277323-index10087.png
#EXTINF:9.166667,
232507491277323-index10088.png
#EXTINF:2.833333,
232507491277323-index10089.png
#EXTINF:3.583333,
232507491277323-index10090.png
#EXTINF:3.583333,
232507491277323-index10091.png
#EXTINF:3.208333,
232507491277323-index10092.png
#EXTINF:3.125000,
232507491277323-index10093.png
#EXTINF:3.791667,
232507491277323-index10094.png
#EXTINF:5.458333,
232507491277323-index10095.png
#EXTINF:2.708333,
232507491277323-index10096.png
#EXTINF:2.250000,
232507491277323-index10097.png
#EXTINF:3.625000,
232507491277323-index10098.png
#EXTINF:4.166667,
232507491277323-index10099.png
#EXTINF:4.583333,
232507491277323-index10100.png
#EXTINF:2.458333,
232507491277323-index10101.png
#EXTINF:5.708333,
232507491277323-index10102.png
#EXTINF:1.000000,
232507491277323-index10103.png
#EXTINF:4.708333,
232507491277323-index10104.png
#EXTINF:3.125000,
232507491277323-index10105.png
#EXTINF:1.375000,
232507491277323-index10106.png
#EXTINF:3.666667,
232507491277323-index10107.png
#EXTINF:2.750000,
232507491277323-index10108.png
#EXTINF:4.875000,
232507491277323-index10109.png
#EXTINF:1.500000,
232507491277323-index10110.png
#EXTINF:1.125000,
232507491277323-index10111.png
#EXTINF:2.375000,
232507491277323-index10112.png
#EXTINF:3.166667,
232507491277323-index10113.png
#EXTINF:2.666667,
232507491277323-index10114.png
#EXTINF:4.833333,
232507491277323-index10115.png
#EXTINF:5.083333,
232507491277323-index10116.png
#EXTINF:3.041667,
232507491277323-index10117.png
#EXTINF:3.375000,
232507491277323-index10118.png
#EXTINF:4.875000,
232507491277323-index10119.png
#EXTINF:1.500000,
232507491277323-index10120.png
#EXTINF:7.458333,
232507491277323-index10121.png
#EXTINF:1.416667,
232507491277323-index10122.png
#EXTINF:1.208333,
232507491277323-index10123.png
#EXTINF:3.166667,
232507491277323-index10124.png
#EXTINF:1.541667,
232507491277323-index10125.png
#EXTINF:2.500000,
232507491277323-index10126.png
#EXTINF:4.083333,
232507491277323-index10127.png
#EXTINF:4.208333,
232507491277323-index10128.png
#EXTINF:6.375000,
232507491277323-index10129.png
#EXTINF:3.708333,
232507491277323-index10130.png
#EXTINF:4.583333,
232507491277323-index10131.png
#EXTINF:4.666667,
232507491277323-index10132.png
#EXTINF:3.208333,
232507491277323-index10133.png
#EXTINF:3.375000,
232507491277323-index10134.png
#EXTINF:3.041667,
232507491277323-index10135.png
#EXTINF:1.625000,
232507491277323-index10136.png
#EXTINF:3.083333,
232507491277323-index10137.png
#EXTINF:2.583333,
232507491277323-index10138.png
#EXTINF:4.458333,
232507491277323-index10139.png
#EXTINF:1.916667,
232507491277323-index10140.png
#EXTINF:1.958333,
232507491277323-index10141.png
#EXTINF:1.958333,
232507491277323-index10142.png
#EXTINF:5.083333,
232507491277323-index10143.png
#EXTINF:1.291667,
232507491277323-index10144.png
#EXTINF:2.666667,
232507491277323-index10145.png
#EXTINF:5.041667,
232507491277323-index10146.png
#EXTINF:5.375000,
232507491277323-index10147.png
#EXTINF:2.291667,
232507491277323-index10148.png
#EXTINF:3.375000,
232507491277323-index10149.png
#EXTINF:3.000000,
232507491277323-index10150.png
#EXTINF:2.958333,
232507491277323-index10151.png
#EXTINF:2.375000,
232507491277323-index10152.png
#EXTINF:3.666667,
232507491277323-index10153.png
#EXTINF:3.166667,
232507491277323-index10154.png
#EXTINF:10.416667,
232507491277323-index10155.png
#EXTINF:4.208333,
232507491277323-index10156.png
#EXTINF:7.541667,
232507491277323-index10157.png
#EXTINF:10.416667,
232507491277323-index10158.png
#EXTINF:6.875000,
232507491277323-index10159.png
#EXTINF:10.416667,
232507491277323-index10160.png
#EXTINF:10.416667,
232507491277323-index10161.png
#EXTINF:6.041667,
232507491277323-index10162.png
#EXTINF:5.458333,
232507491277323-index10163.png
#EXTINF:10.041667,
232507491277323-index10164.png
#EXTINF:7.458333,
232507491277323-index10165.png
#EXTINF:2.958333,
232507491277323-index10166.png
#EXT-X-ENDLIST
