#EXTM3U
#EXT-X-VERSION:3
#EXT-X-TARGETDURATION:6
#EXT-X-MEDIA-SEQUENCE:10001
#EXTINF:3.800000,
232830868413050-index10001.png
#EXTINF:1.320000,
232830868413050-index10002.png
#EXTINF:5.000000,
232830868413050-index10003.png
#EXTINF:0.120000,
232830868413050-index10004.png
#EXTINF:3.000000,
232830868413050-index10005.png
#EXTINF:2.120000,
232830868413050-index10006.png
#EXTINF:1.520000,
232830868413050-index10007.png
#EXTINF:0.840000,
232830868413050-index10008.png
#EXTINF:1.440000,
232830868413050-index10009.png
#EXTINF:1.320000,
232830868413050-index10010.png
#EXTINF:2.040000,
232830868413050-index10011.png
#EXTINF:2.400000,
232830868413050-index10012.png
#EXTINF:2.080000,
232830868413050-index10013.png
#EXTINF:2.160000,
232830868413050-index10014.png
#EXTINF:1.560000,
232830868413050-index10015.png
#EXTINF:2.200000,
232830868413050-index10016.png
#EXTINF:2.640000,
232830868413050-index10017.png
#EXTINF:1.520000,
232830868413050-index10018.png
#EXTINF:3.880000,
232830868413050-index10019.png
#EXTINF:1.200000,
232830868413050-index10020.png
#EXTINF:3.200000,
232830868413050-index10021.png
#EXTINF:0.040000,
232830868413050-index10022.png
#EXTINF:0.680000,
232830868413050-index10023.png
#EXTINF:5.120000,
232830868413050-index10024.png
#EXTINF:0.320000,
232830868413050-index10025.png
#EXTINF:2.000000,
232830868413050-index10026.png
#EXTINF:2.800000,
232830868413050-index10027.png
#EXTINF:1.480000,
232830868413050-index10028.png
#EXTINF:2.280000,
232830868413050-index10029.png
#EXTINF:1.360000,
232830868413050-index10030.png
#EXTINF:0.880000,
232830868413050-index10031.png
#EXTINF:2.360000,
232830868413050-index10032.png
#EXTINF:1.720000,
232830868413050-index10033.png
#EXTINF:5.280000,
232830868413050-index10034.png
#EXTINF:0.200000,
232830868413050-index10035.png
#EXTINF:0.200000,
232830868413050-index10036.png
#EXTINF:3.120000,
232830868413050-index10037.png
#EXTINF:1.600000,
232830868413050-index10038.png
#EXTINF:3.000000,
232830868413050-index10039.png
#EXTINF:2.120000,
232830868413050-index10040.png
#EXTINF:0.520000,
232830868413050-index10041.png
#EXTINF:2.520000,
232830868413050-index10042.png
#EXTINF:1.240000,
232830868413050-index10043.png
#EXTINF:1.880000,
232830868413050-index10044.png
#EXTINF:2.440000,
232830868413050-index10045.png
#EXTINF:1.640000,
232830868413050-index10046.png
#EXTINF:2.080000,
232830868413050-index10047.png
#EXTINF:2.160000,
232830868413050-index10048.png
#EXTINF:1.680000,
232830868413050-index10049.png
#EXTINF:2.920000,
232830868413050-index10050.png
#EXTINF:1.080000,
232830868413050-index10051.png
#EXTINF:3.720000,
232830868413050-index10052.png
#EXTINF:1.560000,
232830868413050-index10053.png
#EXTINF:2.080000,
232830868413050-index10054.png
#EXTINF:2.440000,
232830868413050-index10055.png
#EXTINF:0.760000,
232830868413050-index10056.png
#EXTINF:5.120000,
232830868413050-index10057.png
#EXTINF:1.720000,
232830868413050-index10058.png
#EXTINF:1.040000,
232830868413050-index10059.png
#EXTINF:1.920000,
232830868413050-index10060.png
#EXTINF:0.440000,
232830868413050-index10061.png
#EXTINF:1.280000,
232830868413050-index10062.png
#EXTINF:3.840000,
232830868413050-index10063.png
#EXTINF:5.120000,
232830868413050-index10064.png
#EXTINF:5.120000,
232830868413050-index10065.png
#EXTINF:0.640000,
232830868413050-index10066.png
#EXTINF:3.080000,
232830868413050-index10067.png
#EXTINF:1.400000,
232830868413050-index10068.png
#EXTINF:1.280000,
232830868413050-index10069.png
#EXTINF:2.320000,
232830868413050-index10070.png
#EXTINF:1.520000,
232830868413050-index10071.png
#EXTINF:0.400000,
232830868413050-index10072.png
#EXTINF:3.560000,
232830868413050-index10073.png
#EXTINF:1.160000,
232830868413050-index10074.png
#EXTINF:0.560000,
232830868413050-index10075.png
#EXTINF:1.560000,
232830868413050-index10076.png
#EXTINF:2.800000,
232830868413050-index10077.png
#EXTINF:0.200000,
232830868413050-index10078.png
#EXTINF:2.160000,
232830868413050-index10079.png
#EXTINF:0.040000,
232830868413050-index10080.png
#EXTINF:1.080000,
232830868413050-index10081.png
#EXTINF:2.080000,
232830868413050-index10082.png
#EXTINF:3.600000,
232830868413050-index10083.png
#EXTINF:0.440000,
232830868413050-index10084.png
#EXTINF:1.960000,
232830868413050-index10085.png
#EXTINF:2.080000,
232830868413050-index10086.png
#EXTINF:1.920000,
232830868413050-index10087.png
#EXTINF:2.960000,
232830868413050-index10088.png
#EXTINF:1.120000,
232830868413050-index10089.png
#EXTINF:2.640000,
232830868413050-index10090.png
#EXTINF:1.920000,
232830868413050-index10091.png
#EXTINF:1.600000,
232830868413050-index10092.png
#EXTINF:2.120000,
232830868413050-index10093.png
#EXTINF:1.560000,
232830868413050-index10094.png
#EXTINF:2.080000,
232830868413050-index10095.png
#EXTINF:2.640000,
232830868413050-index10096.png
#EXTINF:1.840000,
232830868413050-index10097.png
#EXTINF:1.520000,
232830868413050-index10098.png
#EXTINF:3.600000,
232830868413050-index10099.png
#EXTINF:1.360000,
232830868413050-index10100.png
#EXTINF:2.200000,
232830868413050-index10101.png
#EXTINF:1.560000,
232830868413050-index10102.png
#EXTINF:2.720000,
232830868413050-index10103.png
#EXTINF:0.920000,
232830868413050-index10104.png
#EXTINF:2.120000,
232830868413050-index10105.png
#EXTINF:3.560000,
232830868413050-index10106.png
#EXTINF:0.800000,
232830868413050-index10107.png
#EXTINF:1.200000,
232830868413050-index10108.png
#EXTINF:3.080000,
232830868413050-index10109.png
#EXTINF:0.960000,
232830868413050-index10110.png
#EXTINF:3.520000,
232830868413050-index10111.png
#EXTINF:1.240000,
232830868413050-index10112.png
#EXTINF:1.160000,
232830868413050-index10113.png
#EXTINF:2.080000,
232830868413050-index10114.png
#EXTINF:2.040000,
232830868413050-index10115.png
#EXTINF:1.840000,
232830868413050-index10116.png
#EXTINF:2.920000,
232830868413050-index10117.png
#EXTINF:1.880000,
232830868413050-index10118.png
#EXTINF:4.360000,
232830868413050-index10119.png
#EXTINF:1.600000,
232830868413050-index10120.png
#EXTINF:0.040000,
232830868413050-index10121.png
#EXTINF:0.600000,
232830868413050-index10122.png
#EXT-X-ENDLIST
