#EXTM3U
#EXT-X-VERSION:3
#EXT-X-TARGETDURATION:12
#EXT-X-MEDIA-SEQUENCE:10001
#EXTINF:8.770778,
247587558709912-index10001.ts
#EXTINF:11.361111,
247587558709912-index10002.ts
#EXTINF:11.361111,
247587558709912-index10003.ts
#EXTINF:4.135444,
247587558709912-index10004.ts
#EXTINF:3.817333,
247587558709912-index10005.ts
#EXTINF:4.044556,
247587558709912-index10006.ts
#EXTINF:1.636000,
247587558709912-index10007.ts
#EXTINF:3.681000,
247587558709912-index10008.ts
#EXTINF:5.271556,
247587558709912-index10009.ts
#EXTINF:1.363333,
247587558709912-index10010.ts
#EXTINF:4.771667,
247587558709912-index10011.ts
#EXTINF:2.181333,
247587558709912-index10012.ts
#EXTINF:9.134333,
247587558709912-index10013.ts
#EXTINF:4.726222,
247587558709912-index10014.ts
#EXTINF:6.407667,
247587558709912-index10015.ts
#EXTINF:7.134778,
247587558709912-index10016.ts
#EXTINF:6.862111,
247587558709912-index10017.ts
#EXTINF:7.907333,
247587558709912-index10018.ts
#EXTINF:6.498556,
247587558709912-index10019.ts
#EXTINF:8.225444,
247587558709912-index10020.ts
#EXTINF:11.361111,
247587558709912-index10021.ts
#EXTINF:8.952556,
247587558709912-index10022.ts
#EXTINF:10.497667,
247587558709912-index10023.ts
#EXTINF:3.181111,
247587558709912-index10024.ts
#EXTINF:1.136111,
247587558709912-index10025.ts
#EXTINF:11.361111,
247587558709912-index10026.ts
#EXTINF:8.316333,
247587558709912-index10027.ts
#EXTINF:11.361111,
247587558709912-index10028.ts
#EXTINF:8.770778,
247587558709912-index10029.ts
#EXTINF:5.907778,
247587558709912-index10030.ts
#EXTINF:8.998000,
247587558709912-index10031.ts
#EXTINF:9.361556,
247587558709912-index10032.ts
#EXTINF:9.906889,
247587558709912-index10033.ts
#EXTINF:7.861889,
247587558709912-index10034.ts
#EXTINF:9.588778,
247587558709912-index10035.ts
#EXTINF:8.089111,
247587558709912-index10036.ts
#EXTINF:10.906667,
247587558709912-index10037.ts
#EXTINF:10.043222,
247587558709912-index10038.ts
#EXTINF:8.543556,
247587558709912-index10039.ts
#EXTINF:8.907111,
247587558709912-index10040.ts
#EXTINF:6.907556,
247587558709912-index10041.ts
#EXTINF:6.998444,
247587558709912-index10042.ts
#EXTINF:9.270667,
247587558709912-index10043.ts
#EXTINF:11.361111,
247587558709912-index10044.ts
#EXTINF:11.361111,
247587558709912-index10045.ts
#EXTINF:9.725111,
247587558709912-index10046.ts
#EXTINF:8.634444,
247587558709912-index10047.ts
#EXTINF:11.361111,
247587558709912-index10048.ts
#EXTINF:11.361111,
247587558709912-index10049.ts
#EXTINF:4.953444,
247587558709912-index10050.ts
#EXTINF:7.407444,
247587558709912-index10051.ts
#EXTINF:10.225000,
247587558709912-index10052.ts
#EXTINF:11.361111,
247587558709912-index10053.ts
#EXTINF:10.406778,
247587558709912-index10054.ts
#EXTINF:11.361111,
247587558709912-index10055.ts
#EXTINF:10.179556,
247587558709912-index10056.ts
#EXTINF:6.862111,
247587558709912-index10057.ts
#EXTINF:6.453111,
247587558709912-index10058.ts
#EXTINF:11.133889,
247587558709912-index10059.ts
#EXTINF:5.907778,
247587558709912-index10060.ts
#EXTINF:7.589222,
247587558709912-index10061.ts
#EXTINF:7.498333,
247587558709912-index10062.ts
#EXTINF:10.997556,
247587558709912-index10063.ts
#EXTINF:11.133889,
247587558709912-index10064.ts
#EXTINF:9.543333,
247587558709912-index10065.ts
#EXTINF:11.361111,
247587558709912-index10066.ts
#EXTINF:9.952333,
247587558709912-index10067.ts
#EXTINF:10.997556,
247587558709912-index10068.ts
#EXTINF:8.270889,
247587558709912-index10069.ts
#EXTINF:8.861667,
247587558709912-index10070.ts
#EXTINF:11.361111,
247587558709912-index10071.ts
#EXTINF:7.907333,
247587558709912-index10072.ts
#EXTINF:11.361111,
247587558709912-index10073.ts
#EXTINF:1.227000,
247587558709912-index10074.ts
#EXTINF:8.998000,
247587558709912-index10075.ts
#EXTINF:5.362444,
247587558709912-index10076.ts
#EXTINF:6.634889,
247587558709912-index10077.ts
#EXTINF:4.499000,
247587558709912-index10078.ts
#EXTINF:7.271111,
247587558709912-index10079.ts
#EXTINF:9.725111,
247587558709912-index10080.ts
#EXTINF:11.361111,
247587558709912-index10081.ts
#EXTINF:9.361556,
247587558709912-index10082.ts
#EXTINF:3.771889,
247587558709912-index10083.ts
#EXTINF:1.999556,
247587558709912-index10084.ts
#EXTINF:4.680778,
247587558709912-index10085.ts
#EXTINF:10.225000,
247587558709912-index10086.ts
#EXTINF:11.361111,
247587558709912-index10087.ts
#EXTINF:10.815778,
247587558709912-index10088.ts
#EXTINF:11.361111,
247587558709912-index10089.ts
#EXTINF:10.497667,
247587558709912-index10090.ts
#EXTINF:6.771222,
247587558709912-index10091.ts
#EXTINF:11.361111,
247587558709912-index10092.ts
#EXTINF:4.044556,
247587558709912-index10093.ts
#EXT-X-ENDLIST
