#EXTM3U
#EXT-X-VERSION:3
#EXT-X-TARGETDURATION:11
#EXT-X-MEDIA-SEQUENCE:10001
#EXTINF:6.630300,
248759501924117-index10001.png
#EXTINF:3.711300,
248759501924117-index10002.png
#EXTINF:2.376900,
248759501924117-index10003.png
#EXTINF:3.294300,
248759501924117-index10004.png
#EXTINF:3.586200,
248759501924117-index10005.png
#EXTINF:10.425000,
248759501924117-index10006.png
#EXTINF:9.465900,
248759501924117-index10007.png
#EXTINF:9.841200,
248759501924117-index10008.png
#EXTINF:10.425000,
248759501924117-index10009.png
#EXTINF:8.173200,
248759501924117-index10010.png
#EXTINF:10.425000,
248759501924117-index10011.png
#EXTINF:10.425000,
248759501924117-index10012.png
#EXTINF:10.425000,
248759501924117-index10013.png
#EXTINF:10.425000,
248759501924117-index10014.png
#EXTINF:10.425000,
248759501924117-index10015.png
#EXTINF:10.425000,
248759501924117-index10016.png
#EXTINF:10.049700,
248759501924117-index10017.png
#EXTINF:10.425000,
248759501924117-index10018.png
#EXTINF:10.425000,
248759501924117-index10019.png
#EXTINF:10.425000,
248759501924117-index10020.png
#EXTINF:10.425000,
248759501924117-index10021.png
#EXTINF:10.425000,
248759501924117-index10022.png
#EXTINF:10.425000,
248759501924117-index10023.png
#EXTINF:10.425000,
248759501924117-index10024.png
#EXTINF:10.425000,
248759501924117-index10025.png
#EXTINF:10.425000,
248759501924117-index10026.png
#EXTINF:10.425000,
248759501924117-index10027.png
#EXTINF:10.425000,
248759501924117-index10028.png
#EXTINF:10.425000,
248759501924117-index10029.png
#EXTINF:10.425000,
248759501924117-index10030.png
#EXTINF:6.672000,
248759501924117-index10031.png
#EXTINF:10.425000,
248759501924117-index10032.png
#EXTINF:10.425000,
248759501924117-index10033.png
#EXTINF:10.425000,
248759501924117-index10034.png
#EXTINF:5.254200,
248759501924117-index10035.png
#EXTINF:9.882900,
248759501924117-index10036.png
#EXTINF:9.132300,
248759501924117-index10037.png
#EXTINF:10.049700,
248759501924117-index10038.png
#EXTINF:9.174000,
248759501924117-index10039.png
#EXTINF:8.840400,
248759501924117-index10040.png
#EXTINF:8.381700,
248759501924117-index10041.png
#EXTINF:10.425000,
248759501924117-index10042.png
#EXTINF:10.425000,
248759501924117-index10043.png
#EXTINF:5.712900,
248759501924117-index10044.png
#EXTINF:10.425000,
248759501924117-index10045.png
#EXTINF:6.922200,
248759501924117-index10046.png
#EXTINF:8.757000,
248759501924117-index10047.png
#EXTINF:7.756200,
248759501924117-index10048.png
#EXTINF:8.256600,
248759501924117-index10049.png
#EXTINF:5.963100,
248759501924117-index10050.png
#EXTINF:7.881300,
248759501924117-index10051.png
#EXTINF:8.465100,
248759501924117-index10052.png
#EXTINF:6.546900,
248759501924117-index10053.png
#EXTINF:6.296700,
248759501924117-index10054.png
#EXTINF:2.877300,
248759501924117-index10055.png
#EXTINF:7.297500,
248759501924117-index10056.png
#EXTINF:8.048100,
248759501924117-index10057.png
#EXTINF:8.882100,
248759501924117-index10058.png
#EXTINF:9.799500,
248759501924117-index10059.png
#EXTINF:10.425000,
248759501924117-index10060.png
#EXTINF:5.546100,
248759501924117-index10061.png
#EXTINF:3.794700,
248759501924117-index10062.png
#EXTINF:9.841200,
248759501924117-index10063.png
#EXTINF:10.425000,
248759501924117-index10064.png
#EXTINF:9.966300,
248759501924117-index10065.png
#EXTINF:9.674400,
248759501924117-index10066.png
#EXTINF:10.425000,
248759501924117-index10067.png
#EXTINF:8.631900,
248759501924117-index10068.png
#EXTINF:10.425000,
248759501924117-index10069.png
#EXTINF:9.966300,
248759501924117-index10070.png
#EXTINF:10.425000,
248759501924117-index10071.png
#EXTINF:10.425000,
248759501924117-index10072.png
#EXTINF:10.425000,
248759501924117-index10073.png
#EXTINF:10.425000,
248759501924117-index10074.png
#EXTINF:9.841200,
248759501924117-index10075.png
#EXTINF:8.798700,
248759501924117-index10076.png
#EXTINF:10.425000,
248759501924117-index10077.png
#EXTINF:10.425000,
248759501924117-index10078.png
#EXTINF:10.425000,
248759501924117-index10079.png
#EXTINF:10.425000,
248759501924117-index10080.png
#EXTINF:10.425000,
248759501924117-index10081.png
#EXTINF:10.425000,
248759501924117-index10082.png
#EXTINF:10.425000,
248759501924117-index10083.png
#EXTINF:10.425000,
248759501924117-index10084.png
#EXTINF:8.548500,
248759501924117-index10085.png
#EXTINF:10.425000,
248759501924117-index10086.png
#EXTINF:10.425000,
248759501924117-index10087.png
#EXTINF:10.425000,
248759501924117-index10088.png
#EXTINF:10.425000,
248759501924117-index10089.png
#EXTINF:5.963100,
248759501924117-index10090.png
#EXTINF:9.549300,
248759501924117-index10091.png
#EXTINF:7.380900,
248759501924117-index10092.png
#EXTINF:8.631900,
248759501924117-index10093.png
#EXTINF:10.425000,
248759501924117-index10094.png
#EXTINF:10.425000,
248759501924117-index10095.png
#EXTINF:4.086600,
248759501924117-index10096.png
#EXTINF:9.674400,
248759501924117-index10097.png
#EXTINF:5.170800,
248759501924117-index10098.png
#EXTINF:9.841200,
248759501924117-index10099.png
#EXTINF:10.425000,
248759501924117-index10100.png
#EXTINF:10.425000,
248759501924117-index10101.png
#EXTINF:7.756200,
248759501924117-index10102.png
#EXTINF:10.425000,
248759501924117-index10103.png
#EXTINF:10.425000,
248759501924117-index10104.png
#EXTINF:10.425000,
248759501924117-index10105.png
#EXTINF:10.425000,
248759501924117-index10106.png
#EXTINF:8.923800,
248759501924117-index10107.png
#EXTINF:10.383300,
248759501924117-index10108.png
#EXTINF:10.425000,
248759501924117-index10109.png
#EXTINF:10.425000,
248759501924117-index10110.png
#EXTINF:10.383300,
248759501924117-index10111.png
#EXTINF:10.425000,
248759501924117-index10112.png
#EXTINF:7.923000,
248759501924117-index10113.png
#EXTINF:9.882900,
248759501924117-index10114.png
#EXTINF:10.425000,
248759501924117-index10115.png
#EXTINF:7.756200,
248759501924117-index10116.png
#EXTINF:10.425000,
248759501924117-index10117.png
#EXTINF:10.425000,
248759501924117-index10118.png
#EXTINF:10.299900,
248759501924117-index10119.png
#EXTINF:9.382500,
248759501924117-index10120.png
#EXTINF:8.590200,
248759501924117-index10121.png
#EXTINF:10.425000,
248759501924117-index10122.png
#EXTINF:5.421000,
248759501924117-index10123.png
#EXTINF:6.463500,
248759501924117-index10124.png
#EXTINF:10.216500,
248759501924117-index10125.png
#EXTINF:7.881300,
248759501924117-index10126.png
#EXTINF:5.712900,
248759501924117-index10127.png
#EXTINF:10.425000,
248759501924117-index10128.png
#EXTINF:10.425000,
248759501924117-index10129.png
#EXTINF:10.425000,
248759501924117-index10130.png
#EXTINF:8.340000,
248759501924117-index10131.png
#EXTINF:6.588600,
248759501924117-index10132.png
#EXTINF:8.298300,
248759501924117-index10133.png
#EXTINF:10.425000,
248759501924117-index10134.png
#EXTINF:10.425000,
248759501924117-index10135.png
#EXTINF:7.547700,
248759501924117-index10136.png
#EXTINF:10.425000,
248759501924117-index10137.png
#EXTINF:6.088200,
248759501924117-index10138.png
#EXTINF:7.464300,
248759501924117-index10139.png
#EXTINF:10.299900,
248759501924117-index10140.png
#EXTINF:9.632700,
248759501924117-index10141.png
#EXTINF:7.589400,
248759501924117-index10142.png
#EXTINF:10.425000,
248759501924117-index10143.png
#EXTINF:10.425000,
248759501924117-index10144.png
#EXTINF:9.340800,
248759501924117-index10145.png
#EXTINF:10.425000,
248759501924117-index10146.png
#EXTINF:10.425000,
248759501924117-index10147.png
#EXTINF:10.425000,
248759501924117-index10148.png
#EXTINF:10.425000,
248759501924117-index10149.png
#EXTINF:8.590200,
248759501924117-index10150.png
#EXTINF:10.174800,
248759501924117-index10151.png
#EXTINF:10.425000,
248759501924117-index10152.png
#EXTINF:7.297500,
248759501924117-index10153.png
#EXTINF:7.339200,
248759501924117-index10154.png
#EXTINF:10.425000,
248759501924117-index10155.png
#EXTINF:10.425000,
248759501924117-index10156.png
#EXTINF:10.341600,
248759501924117-index10157.png
#EXTINF:10.425000,
248759501924117-index10158.png
#EXTINF:10.341600,
248759501924117-index10159.png
#EXTINF:8.256600,
248759501924117-index10160.png
#EXTINF:10.425000,
248759501924117-index10161.png
#EXTINF:10.425000,
248759501924117-index10162.png
#EXTINF:8.048100,
248759501924117-index10163.png
#EXTINF:10.425000,
248759501924117-index10164.png
#EXTINF:10.425000,
248759501924117-index10165.png
#EXTINF:10.425000,
248759501924117-index10166.png
#EXTINF:7.672800,
248759501924117-index10167.png
#EXTINF:10.425000,
248759501924117-index10168.png
#EXTINF:10.299900,
248759501924117-index10169.png
#EXTINF:6.630300,
248759501924117-index10170.png
#EXTINF:8.798700,
248759501924117-index10171.png
#EXTINF:10.425000,
248759501924117-index10172.png
#EXTINF:10.425000,
248759501924117-index10173.png
#EXTINF:10.425000,
248759501924117-index10174.png
#EXTINF:10.425000,
248759501924117-index10175.png
#EXTINF:10.425000,
248759501924117-index10176.png
#EXTINF:9.299100,
248759501924117-index10177.png
#EXTINF:9.465900,
248759501924117-index10178.png
#EXTINF:10.425000,
248759501924117-index10179.png
#EXTINF:10.425000,
248759501924117-index10180.png
#EXTINF:10.425000,
248759501924117-index10181.png
#EXTINF:10.425000,
248759501924117-index10182.png
#EXTINF:5.087400,
248759501924117-index10183.png
#EXTINF:8.757000,
248759501924117-index10184.png
#EXTINF:2.835600,
248759501924117-index10185.png
#EXTINF:10.425000,
248759501924117-index10186.png
#EXTINF:10.425000,
248759501924117-index10187.png
#EXTINF:10.425000,
248759501924117-index10188.png
#EXTINF:9.299100,
248759501924117-index10189.png
#EXTINF:6.922200,
248759501924117-index10190.png
#EXTINF:7.881300,
248759501924117-index10191.png
#EXTINF:6.922200,
248759501924117-index10192.png
#EXTINF:10.425000,
248759501924117-index10193.png
#EXTINF:10.425000,
248759501924117-index10194.png
#EXTINF:7.923000,
248759501924117-index10195.png
#EXTINF:10.425000,
248759501924117-index10196.png
#EXTINF:9.674400,
248759501924117-index10197.png
#EXTINF:10.425000,
248759501924117-index10198.png
#EXTINF:9.716100,
248759501924117-index10199.png
#EXTINF:10.425000,
248759501924117-index10200.png
#EXTINF:10.425000,
248759501924117-index10201.png
#EXTINF:10.425000,
248759501924117-index10202.png
#EXTINF:6.338400,
248759501924117-index10203.png
#EXTINF:8.923800,
248759501924117-index10204.png
#EXTINF:8.882100,
248759501924117-index10205.png
#EXTINF:8.298300,
248759501924117-index10206.png
#EXTINF:10.425000,
248759501924117-index10207.png
#EXTINF:5.087400,
248759501924117-index10208.png
#EXTINF:9.841200,
248759501924117-index10209.png
#EXTINF:7.464300,
248759501924117-index10210.png
#EXTINF:6.421800,
248759501924117-index10211.png
#EXTINF:10.425000,
248759501924117-index10212.png
#EXTINF:10.425000,
248759501924117-index10213.png
#EXTINF:8.131500,
248759501924117-index10214.png
#EXTINF:10.425000,
248759501924117-index10215.png
#EXTINF:10.425000,
248759501924117-index10216.png
#EXTINF:9.090600,
248759501924117-index10217.png
#EXTINF:8.673600,
248759501924117-index10218.png
#EXTINF:10.425000,
248759501924117-index10219.png
#EXTINF:10.425000,
248759501924117-index10220.png
#EXTINF:1.918200,
248759501924117-index10221.png
#EXTINF:9.966300,
248759501924117-index10222.png
#EXTINF:10.425000,
248759501924117-index10223.png
#EXTINF:7.672800,
248759501924117-index10224.png
#EXTINF:4.461900,
248759501924117-index10225.png
#EXTINF:10.258200,
248759501924117-index10226.png
#EXTINF:7.172400,
248759501924117-index10227.png
#EXTINF:10.425000,
248759501924117-index10228.png
#EXTINF:5.504400,
248759501924117-index10229.png
#EXTINF:8.631900,
248759501924117-index10230.png
#EXTINF:5.421000,
248759501924117-index10231.png
#EXTINF:10.425000,
248759501924117-index10232.png
#EXTINF:9.507600,
248759501924117-index10233.png
#EXTINF:10.425000,
248759501924117-index10234.png
#EXTINF:9.340800,
248759501924117-index10235.png
#EXTINF:10.425000,
248759501924117-index10236.png
#EXTINF:6.296700,
248759501924117-index10237.png
#EXTINF:5.796300,
248759501924117-index10238.png
#EXTINF:8.506800,
248759501924117-index10239.png
#EXTINF:7.589400,
248759501924117-index10240.png
#EXTINF:9.716100,
248759501924117-index10241.png
#EXTINF:8.882100,
248759501924117-index10242.png
#EXTINF:10.425000,
248759501924117-index10243.png
#EXTINF:7.380900,
248759501924117-index10244.png
#EXTINF:10.425000,
248759501924117-index10245.png
#EXTINF:10.425000,
248759501924117-index10246.png
#EXTINF:5.087400,
248759501924117-index10247.png
#EXTINF:9.382500,
248759501924117-index10248.png
#EXTINF:10.425000,
248759501924117-index10249.png
#EXTINF:10.425000,
248759501924117-index10250.png
#EXTINF:10.425000,
248759501924117-index10251.png
#EXTINF:9.257400,
248759501924117-index10252.png
#EXTINF:10.425000,
248759501924117-index10253.png
#EXTINF:5.671200,
248759501924117-index10254.png
#EXTINF:10.258200,
248759501924117-index10255.png
#EXTINF:8.006400,
248759501924117-index10256.png
#EXTINF:5.671200,
248759501924117-index10257.png
#EXTINF:10.383300,
248759501924117-index10258.png
#EXTINF:9.299100,
248759501924117-index10259.png
#EXTINF:10.383300,
248759501924117-index10260.png
#EXTINF:9.132300,
248759501924117-index10261.png
#EXTINF:8.757000,
248759501924117-index10262.png
#EXTINF:10.425000,
248759501924117-index10263.png
#EXTINF:3.627900,
248759501924117-index10264.png
#EXTINF:7.130700,
248759501924117-index10265.png
#EXTINF:9.549300,
248759501924117-index10266.png
#EXTINF:8.715300,
248759501924117-index10267.png
#EXTINF:10.425000,
248759501924117-index10268.png
#EXTINF:10.425000,
248759501924117-index10269.png
#EXTINF:10.425000,
248759501924117-index10270.png
#EXTINF:4.587000,
248759501924117-index10271.png
#EXTINF:10.425000,
248759501924117-index10272.png
#EXTINF:10.133100,
248759501924117-index10273.png
#EXTINF:10.425000,
248759501924117-index10274.png
#EXTINF:10.425000,
248759501924117-index10275.png
#EXTINF:10.425000,
248759501924117-index10276.png
#EXTINF:10.425000,
248759501924117-index10277.png
#EXTINF:9.007200,
248759501924117-index10278.png
#EXTINF:9.090600,
248759501924117-index10279.png
#EXTINF:10.425000,
248759501924117-index10280.png
#EXTINF:5.421000,
248759501924117-index10281.png
#EXTINF:8.131500,
248759501924117-index10282.png
#EXTINF:10.425000,
248759501924117-index10283.png
#EXTINF:9.424200,
248759501924117-index10284.png
#EXTINF:7.464300,
248759501924117-index10285.png
#EXTINF:10.425000,
248759501924117-index10286.png
#EXTINF:8.715300,
248759501924117-index10287.png
#EXTINF:10.425000,
248759501924117-index10288.png
#EXTINF:10.425000,
248759501924117-index10289.png
#EXTINF:10.425000,
248759501924117-index10290.png
#EXTINF:10.425000,
248759501924117-index10291.png
#EXTINF:9.090600,
248759501924117-index10292.png
#EXTINF:9.507600,
248759501924117-index10293.png
#EXTINF:6.922200,
248759501924117-index10294.png
#EXTINF:7.881300,
248759501924117-index10295.png
#EXTINF:5.921400,
248759501924117-index10296.png
#EXTINF:9.257400,
248759501924117-index10297.png
#EXTINF:8.381700,
248759501924117-index10298.png
#EXTINF:7.214100,
248759501924117-index10299.png
#EXTINF:5.796300,
248759501924117-index10300.png
#EXTINF:10.425000,
248759501924117-index10301.png
#EXTINF:10.425000,
248759501924117-index10302.png
#EXTINF:10.425000,
248759501924117-index10303.png
#EXTINF:10.425000,
248759501924117-index10304.png
#EXTINF:10.425000,
248759501924117-index10305.png
#EXTINF:6.672000,
248759501924117-index10306.png
#EXTINF:10.425000,
248759501924117-index10307.png
#EXTINF:7.422600,
248759501924117-index10308.png
#EXTINF:8.298300,
248759501924117-index10309.png
#EXTINF:5.629500,
248759501924117-index10310.png
#EXTINF:10.341600,
248759501924117-index10311.png
#EXTINF:5.587800,
248759501924117-index10312.png
#EXTINF:6.922200,
248759501924117-index10313.png
#EXTINF:6.630300,
248759501924117-index10314.png
#EXTINF:9.340800,
248759501924117-index10315.png
#EXTINF:10.425000,
248759501924117-index10316.png
#EXTINF:8.590200,
248759501924117-index10317.png
#EXTINF:8.131500,
248759501924117-index10318.png
#EXTINF:9.757800,
248759501924117-index10319.png
#EXTINF:10.425000,
248759501924117-index10320.png
#EXTINF:10.425000,
248759501924117-index10321.png
#EXTINF:10.425000,
248759501924117-index10322.png
#EXTINF:10.341600,
248759501924117-index10323.png
#EXTINF:8.465100,
248759501924117-index10324.png
#EXTINF:7.130700,
248759501924117-index10325.png
#EXTINF:6.129900,
248759501924117-index10326.png
#EXTINF:10.425000,
248759501924117-index10327.png
#EXTINF:6.296700,
248759501924117-index10328.png
#EXTINF:10.425000,
248759501924117-index10329.png
#EXTINF:8.965500,
248759501924117-index10330.png
#EXTINF:6.963900,
248759501924117-index10331.png
#EXTINF:7.339200,
248759501924117-index10332.png
#EXTINF:10.425000,
248759501924117-index10333.png
#EXTINF:10.425000,
248759501924117-index10334.png
#EXTINF:10.425000,
248759501924117-index10335.png
#EXTINF:10.425000,
248759501924117-index10336.png
#EXTINF:10.425000,
248759501924117-index10337.png
#EXTINF:10.425000,
248759501924117-index10338.png
#EXTINF:6.004800,
248759501924117-index10339.png
#EXTINF:10.425000,
248759501924117-index10340.png
#EXTINF:10.425000,
248759501924117-index10341.png
#EXTINF:7.214100,
248759501924117-index10342.png
#EXTINF:9.549300,
248759501924117-index10343.png
#EXTINF:10.425000,
248759501924117-index10344.png
#EXTINF:10.425000,
248759501924117-index10345.png
#EXTINF:10.425000,
248759501924117-index10346.png
#EXTINF:10.425000,
248759501924117-index10347.png
#EXTINF:10.425000,
248759501924117-index10348.png
#EXTINF:10.425000,
248759501924117-index10349.png
#EXTINF:6.255000,
248759501924117-index10350.png
#EXTINF:10.425000,
248759501924117-index10351.png
#EXTINF:4.962300,
248759501924117-index10352.png
#EXTINF:9.215700,
248759501924117-index10353.png
#EXTINF:8.089800,
248759501924117-index10354.png
#EXTINF:10.425000,
248759501924117-index10355.png
#EXTINF:9.549300,
248759501924117-index10356.png
#EXTINF:10.425000,
248759501924117-index10357.png
#EXTINF:10.425000,
248759501924117-index10358.png
#EXTINF:9.799500,
248759501924117-index10359.png
#EXTINF:10.425000,
248759501924117-index10360.png
#EXTINF:10.425000,
248759501924117-index10361.png
#EXTINF:10.425000,
248759501924117-index10362.png
#EXTINF:10.425000,
248759501924117-index10363.png
#EXTINF:10.425000,
248759501924117-index10364.png
#EXTINF:5.712900,
248759501924117-index10365.png
#EXTINF:5.462700,
248759501924117-index10366.png
#EXTINF:10.425000,
248759501924117-index10367.png
#EXTINF:9.048900,
248759501924117-index10368.png
#EXTINF:6.588600,
248759501924117-index10369.png
#EXTINF:10.425000,
248759501924117-index10370.png
#EXTINF:5.045700,
248759501924117-index10371.png
#EXTINF:3.294300,
248759501924117-index10372.png
#EXTINF:6.338400,
248759501924117-index10373.png
#EXTINF:9.090600,
248759501924117-index10374.png
#EXTINF:3.502800,
248759501924117-index10375.png
#EXTINF:9.716100,
248759501924117-index10376.png
#EXTINF:10.425000,
248759501924117-index10377.png
#EXTINF:10.425000,
248759501924117-index10378.png
#EXTINF:8.840400,
248759501924117-index10379.png
#EXTINF:10.425000,
248759501924117-index10380.png
#EXTINF:3.252600,
248759501924117-index10381.png
#EXTINF:10.091400,
248759501924117-index10382.png
#EXTINF:5.796300,
248759501924117-index10383.png
#EXTINF:9.632700,
248759501924117-index10384.png
#EXTINF:10.425000,
248759501924117-index10385.png
#EXTINF:10.425000,
248759501924117-index10386.png
#EXTINF:10.425000,
248759501924117-index10387.png
#EXTINF:10.425000,
248759501924117-index10388.png
#EXTINF:10.425000,
248759501924117-index10389.png
#EXTINF:10.425000,
248759501924117-index10390.png
#EXTINF:10.425000,
248759501924117-index10391.png
#EXTINF:2.418600,
248759501924117-index10392.png
#EXTINF:3.336000,
248759501924117-index10393.png
#EXTINF:10.425000,
248759501924117-index10394.png
#EXTINF:10.425000,
248759501924117-index10395.png
#EXTINF:10.425000,
248759501924117-index10396.png
#EXTINF:7.923000,
248759501924117-index10397.png
#EXTINF:8.173200,
248759501924117-index10398.png
#EXTINF:10.425000,
248759501924117-index10399.png
#EXTINF:10.425000,
248759501924117-index10400.png
#EXTINF:5.337600,
248759501924117-index10401.png
#EXTINF:10.425000,
248759501924117-index10402.png
#EXTINF:10.425000,
248759501924117-index10403.png
#EXTINF:10.425000,
248759501924117-index10404.png
#EXTINF:10.299900,
248759501924117-index10405.png
#EXTINF:10.425000,
248759501924117-index10406.png
#EXTINF:8.256600,
248759501924117-index10407.png
#EXTINF:10.425000,
248759501924117-index10408.png
#EXTINF:10.425000,
248759501924117-index10409.png
#EXTINF:10.425000,
248759501924117-index10410.png
#EXTINF:9.841200,
248759501924117-index10411.png
#EXTINF:5.838000,
248759501924117-index10412.png
#EXTINF:6.046500,
248759501924117-index10413.png
#EXTINF:4.003200,
248759501924117-index10414.png
#EXTINF:9.048900,
248759501924117-index10415.png
#EXTINF:10.425000,
248759501924117-index10416.png
#EXTINF:8.340000,
248759501924117-index10417.png
#EXTINF:9.465900,
248759501924117-index10418.png
#EXTINF:10.425000,
248759501924117-index10419.png
#EXTINF:9.007200,
248759501924117-index10420.png
#EXTINF:8.465100,
248759501924117-index10421.png
#EXTINF:8.757000,
248759501924117-index10422.png
#EXTINF:4.962300,
248759501924117-index10423.png
#EXTINF:4.336800,
248759501924117-index10424.png
#EXTINF:10.425000,
248759501924117-index10425.png
#EXTINF:7.005600,
248759501924117-index10426.png
#EXTINF:10.425000,
248759501924117-index10427.png
#EXTINF:4.587000,
248759501924117-index10428.png
#EXTINF:4.003200,
248759501924117-index10429.png
#EXTINF:8.006400,
248759501924117-index10430.png
#EXTINF:10.425000,
248759501924117-index10431.png
#EXTINF:4.545300,
248759501924117-index10432.png
#EXT-X-ENDLIST
