#EXTM3U
#EXT-X-VERSION:3
#EXT-X-TARGETDURATION:11
#EXT-X-MEDIA-SEQUENCE:10001
#EXTINF:10.522022,
257351464281479-index10001.png
#EXTINF:1.916667,
257351464281479-index10002.png
#EXTINF:1.916667,
257351464281479-index10003.png
#EXTINF:4.750000,
257351464281479-index10004.png
#EXTINF:5.833333,
257351464281479-index10005.png
#EXTINF:2.708333,
257351464281479-index10006.png
#EXTINF:1.625000,
257351464281479-index10007.png
#EXTINF:2.291667,
257351464281479-index10008.png
#EXTINF:1.125000,
257351464281479-index10009.png
#EXTINF:2.250000,
257351464281479-index10010.png
#EXTINF:1.041667,
257351464281479-index10011.png
#EXTINF:1.041667,
257351464281479-index10012.png
#EXTINF:1.125000,
257351464281479-index10013.png
#EXTINF:5.166667,
257351464281479-index10014.png
#EXTINF:1.375000,
257351464281479-index10015.png
#EXTINF:1.000000,
257351464281479-index10016.png
#EXTINF:1.375000,
257351464281479-index10017.png
#EXTINF:4.833333,
257351464281479-index10018.png
#EXTINF:5.083333,
257351464281479-index10019.png
#EXTINF:5.208333,
257351464281479-index10020.png
#EXTINF:2.875000,
257351464281479-index10021.png
#EXTINF:5.291667,
257351464281479-index10022.png
#EXTINF:2.083333,
257351464281479-index10023.png
#EXTINF:7.041667,
257351464281479-index10024.png
#EXTINF:1.458333,
257351464281479-index10025.png
#EXTINF:1.375000,
257351464281479-index10026.png
#EXTINF:1.625000,
257351464281479-index10027.png
#EXTINF:1.208333,
257351464281479-index10028.png
#EXTINF:3.625000,
257351464281479-index10029.png
#EXTINF:2.250000,
257351464281479-index10030.png
#EXTINF:8.125000,
257351464281479-index10031.png
#EXTINF:4.416667,
257351464281479-index10032.png
#EXTINF:2.583333,
257351464281479-index10033.png
#EXTINF:3.875000,
257351464281479-index10034.png
#EXTINF:1.666667,
257351464281479-index10035.png
#EXTINF:1.541667,
257351464281479-index10036.png
#EXTINF:2.125000,
257351464281479-index10037.png
#EXTINF:1.041667,
257351464281479-index10038.png
#EXTINF:1.625000,
257351464281479-index10039.png
#EXTINF:3.916667,
257351464281479-index10040.png
#EXTINF:1.791667,
257351464281479-index10041.png
#EXTINF:2.583333,
257351464281479-index10042.png
#EXTINF:5.083333,
257351464281479-index10043.png
#EXTINF:1.458333,
257351464281479-index10044.png
#EXTINF:1.750000,
257351464281479-index10045.png
#EXTINF:2.208333,
257351464281479-index10046.png
#EXTINF:4.625000,
257351464281479-index10047.png
#EXTINF:4.125000,
257351464281479-index10048.png
#EXTINF:2.750000,
257351464281479-index10049.png
#EXTINF:1.708333,
257351464281479-index10050.png
#EXTINF:2.791667,
257351464281479-index10051.png
#EXTINF:3.166667,
257351464281479-index10052.png
#EXTINF:3.500000,
257351464281479-index10053.png
#EXTINF:4.416667,
257351464281479-index10054.png
#EXTINF:2.333333,
257351464281479-index10055.png
#EXTINF:4.166667,
257351464281479-index10056.png
#EXTINF:4.750000,
257351464281479-index10057.png
#EXTINF:4.625000,
257351464281479-index10058.png
#EXTINF:2.333333,
257351464281479-index10059.png
#EXTINF:1.750000,
257351464281479-index10060.png
#EXTINF:4.083333,
257351464281479-index10061.png
#EXTINF:3.125000,
257351464281479-index10062.png
#EXTINF:3.083333,
257351464281479-index10063.png
#EXTINF:2.791667,
257351464281479-index10064.png
#EXTINF:2.208333,
257351464281479-index10065.png
#EXTINF:1.708333,
257351464281479-index10066.png
#EXTINF:2.416667,
257351464281479-index10067.png
#EXTINF:4.000000,
257351464281479-index10068.png
#EXTINF:6.833333,
257351464281479-index10069.png
#EXTINF:2.208333,
257351464281479-index10070.png
#EXTINF:2.208333,
257351464281479-index10071.png
#EXTINF:6.416667,
257351464281479-index10072.png
#EXTINF:4.500000,
257351464281479-index10073.png
#EXTINF:5.291667,
257351464281479-index10074.png
#EXTINF:2.041667,
257351464281479-index10075.png
#EXTINF:3.458333,
257351464281479-index10076.png
#EXTINF:4.458333,
257351464281479-index10077.png
#EXTINF:1.291667,
257351464281479-index10078.png
#EXTINF:3.291667,
257351464281479-index10079.png
#EXTINF:2.000000,
257351464281479-index10080.png
#EXTINF:2.666667,
257351464281479-index10081.png
#EXTINF:1.583333,
257351464281479-index10082.png
#EXTINF:1.625000,
257351464281479-index10083.png
#EXTINF:5.333333,
257351464281479-index10084.png
#EXTINF:8.833333,
257351464281479-index10085.png
#EXTINF:2.000000,
257351464281479-index10086.png
#EXTINF:1.166667,
257351464281479-index10087.png
#EXTINF:1.041667,
257351464281479-index10088.png
#EXTINF:1.000000,
257351464281479-index10089.png
#EXTINF:1.583333,
257351464281479-index10090.png
#EXTINF:1.333333,
257351464281479-index10091.png
#EXTINF:4.666667,
257351464281479-index10092.png
#EXTINF:2.416667,
257351464281479-index10093.png
#EXTINF:3.375000,
257351464281479-index10094.png
#EXTINF:4.875000,
257351464281479-index10095.png
#EXTINF:2.833333,
257351464281479-index10096.png
#EXTINF:4.125000,
257351464281479-index10097.png
#EXTINF:2.791667,
257351464281479-index10098.png
#EXTINF:2.791667,
257351464281479-index10099.png
#EXTINF:2.375000,
257351464281479-index10100.png
#EXTINF:4.000000,
257351464281479-index10101.png
#EXTINF:2.083333,
257351464281479-index10102.png
#EXTINF:3.166667,
257351464281479-index10103.png
#EXTINF:2.666667,
257351464281479-index10104.png
#EXTINF:3.958333,
257351464281479-index10105.png
#EXTINF:2.875000,
257351464281479-index10106.png
#EXTINF:1.250000,
257351464281479-index10107.png
#EXTINF:3.583333,
257351464281479-index10108.png
#EXTINF:4.083333,
257351464281479-index10109.png
#EXTINF:6.791667,
257351464281479-index10110.png
#EXTINF:6.041667,
257351464281479-index10111.png
#EXTINF:1.250000,
257351464281479-index10112.png
#EXTINF:1.458333,
257351464281479-index10113.png
#EXTINF:1.458333,
257351464281479-index10114.png
#EXTINF:2.041667,
257351464281479-index10115.png
#EXTINF:1.000000,
257351464281479-index10116.png
#EXTINF:7.375000,
257351464281479-index10117.png
#EXTINF:2.083333,
257351464281479-index10118.png
#EXTINF:2.833333,
257351464281479-index10119.png
#EXTINF:1.416667,
257351464281479-index10120.png
#EXTINF:3.041667,
257351464281479-index10121.png
#EXTINF:2.500000,
257351464281479-index10122.png
#EXTINF:3.750000,
257351464281479-index10123.png
#EXTINF:4.458333,
257351464281479-index10124.png
#EXTINF:1.416667,
257351464281479-index10125.png
#EXTINF:1.875000,
257351464281479-index10126.png
#EXTINF:3.333333,
257351464281479-index10127.png
#EXTINF:3.833333,
257351464281479-index10128.png
#EXTINF:3.875000,
257351464281479-index10129.png
#EXTINF:1.708333,
257351464281479-index10130.png
#EXTINF:3.458333,
257351464281479-index10131.png
#EXTINF:4.541667,
257351464281479-index10132.png
#EXTINF:3.041667,
257351464281479-index10133.png
#EXTINF:5.208333,
257351464281479-index10134.png
#EXTINF:6.208333,
257351464281479-index10135.png
#EXTINF:3.333333,
257351464281479-index10136.png
#EXTINF:2.875000,
257351464281479-index10137.png
#EXTINF:1.500000,
257351464281479-index10138.png
#EXTINF:2.833333,
257351464281479-index10139.png
#EXTINF:1.666667,
257351464281479-index10140.png
#EXTINF:3.166667,
257351464281479-index10141.png
#EXTINF:2.833333,
257351464281479-index10142.png
#EXTINF:3.458333,
257351464281479-index10143.png
#EXTINF:2.166667,
257351464281479-index10144.png
#EXTINF:3.041667,
257351464281479-index10145.png
#EXTINF:3.291667,
257351464281479-index10146.png
#EXTINF:1.833333,
257351464281479-index10147.png
#EXTINF:7.708333,
257351464281479-index10148.png
#EXTINF:2.708333,
257351464281479-index10149.png
#EXTINF:2.208333,
257351464281479-index10150.png
#EXTINF:3.583333,
257351464281479-index10151.png
#EXTINF:3.916667,
257351464281479-index10152.png
#EXTINF:6.750000,
257351464281479-index10153.png
#EXTINF:10.416667,
257351464281479-index10154.png
#EXTINF:4.208333,
257351464281479-index10155.png
#EXTINF:7.541667,
257351464281479-index10156.png
#EXTINF:10.416667,
257351464281479-index10157.png
#EXTINF:6.875000,
257351464281479-index10158.png
#EXTINF:10.416667,
257351464281479-index10159.png
#EXTINF:10.416667,
257351464281479-index10160.png
#EXTINF:6.041667,
257351464281479-index10161.png
#EXTINF:5.458333,
257351464281479-index10162.png
#EXTINF:10.041667,
257351464281479-index10163.png
#EXTINF:7.458333,
257351464281479-index10164.png
#EXTINF:2.958333,
257351464281479-index10165.png
#EXT-X-ENDLIST
