#EXTM3U
#EXT-X-VERSION:3
#EXT-X-TARGETDURATION:11
#EXT-X-MEDIA-SEQUENCE:10001
#EXTINF:2.001000,
259409723182519-index10001.png
#EXTINF:2.002133,
259409723182519-index10002.png
#EXTINF:2.002133,
259409723182519-index10003.png
#EXTINF:2.002133,
259409723182519-index10004.png
#EXTINF:2.002133,
259409723182519-index10005.png
#EXTINF:3.003200,
259409723182519-index10006.png
#EXTINF:2.919778,
259409723182519-index10007.png
#EXTINF:3.044911,
259409723182519-index10008.png
#EXTINF:2.627800,
259409723182519-index10009.png
#EXTINF:3.587156,
259409723182519-index10010.png
#EXTINF:2.836356,
259409723182519-index10011.png
#EXTINF:2.919778,
259409723182519-index10012.png
#EXTINF:2.669511,
259409723182519-index10013.png
#EXTINF:4.045978,
259409723182519-index10014.png
#EXTINF:3.211756,
259409723182519-index10015.png
#EXTINF:1.918711,
259409723182519-index10016.png
#EXTINF:4.254533,
259409723182519-index10017.png
#EXTINF:4.504800,
259409723182519-index10018.png
#EXTINF:3.420311,
259409723182519-index10019.png
#EXTINF:3.253467,
259409723182519-index10020.png
#EXTINF:3.628867,
259409723182519-index10021.png
#EXTINF:3.879133,
259409723182519-index10022.png
#EXTINF:2.127267,
259409723182519-index10023.png
#EXTINF:2.168978,
259409723182519-index10024.png
#EXTINF:2.627800,
259409723182519-index10025.png
#EXTINF:2.377533,
259409723182519-index10026.png
#EXTINF:4.087689,
259409723182519-index10027.png
#EXTINF:4.212822,
259409723182519-index10028.png
#EXTINF:2.961489,
259409723182519-index10029.png
#EXTINF:1.418178,
259409723182519-index10030.png
#EXTINF:3.170044,
259409723182519-index10031.png
#EXTINF:1.585022,
259409723182519-index10032.png
#EXTINF:5.464156,
259409723182519-index10033.png
#EXTINF:3.128333,
259409723182519-index10034.png
#EXTINF:2.252400,
259409723182519-index10035.png
#EXTINF:1.543311,
259409723182519-index10036.png
#EXTINF:2.377533,
259409723182519-index10037.png
#EXTINF:4.796778,
259409723182519-index10038.png
#EXTINF:3.920844,
259409723182519-index10039.png
#EXTINF:3.587156,
259409723182519-index10040.png
#EXTINF:3.211756,
259409723182519-index10041.png
#EXTINF:2.669511,
259409723182519-index10042.png
#EXTINF:2.377533,
259409723182519-index10043.png
#EXTINF:3.336889,
259409723182519-index10044.png
#EXTINF:4.254533,
259409723182519-index10045.png
#EXTINF:4.755067,
259409723182519-index10046.png
#EXTINF:3.253467,
259409723182519-index10047.png
#EXTINF:5.213889,
259409723182519-index10048.png
#EXTINF:3.128333,
259409723182519-index10049.png
#EXTINF:2.919778,
259409723182519-index10050.png
#EXTINF:6.924044,
259409723182519-index10051.png
#EXTINF:5.631000,
259409723182519-index10052.png
#EXTINF:4.421378,
259409723182519-index10053.png
#EXTINF:6.089822,
259409723182519-index10054.png
#EXTINF:5.547578,
259409723182519-index10055.png
#EXTINF:3.086622,
259409723182519-index10056.png
#EXTINF:6.298378,
259409723182519-index10057.png
#EXTINF:6.965756,
259409723182519-index10058.png
#EXTINF:3.962556,
259409723182519-index10059.png
#EXTINF:4.212822,
259409723182519-index10060.png
#EXTINF:2.377533,
259409723182519-index10061.png
#EXTINF:2.460956,
259409723182519-index10062.png
#EXTINF:1.960422,
259409723182519-index10063.png
#EXTINF:6.298378,
259409723182519-index10064.png
#EXTINF:3.587156,
259409723182519-index10065.png
#EXTINF:3.336889,
259409723182519-index10066.png
#EXTINF:1.835289,
259409723182519-index10067.png
#EXTINF:4.212822,
259409723182519-index10068.png
#EXTINF:3.336889,
259409723182519-index10069.png
#EXTINF:2.419244,
259409723182519-index10070.png
#EXTINF:2.627800,
259409723182519-index10071.png
#EXTINF:1.126200,
259409723182519-index10072.png
#EXTINF:5.797844,
259409723182519-index10073.png
#EXTINF:4.713356,
259409723182519-index10074.png
#EXTINF:3.170044,
259409723182519-index10075.png
#EXTINF:2.419244,
259409723182519-index10076.png
#EXTINF:2.502667,
259409723182519-index10077.png
#EXTINF:2.168978,
259409723182519-index10078.png
#EXTINF:2.043844,
259409723182519-index10079.png
#EXTINF:6.590356,
259409723182519-index10080.png
#EXTINF:6.173244,
259409723182519-index10081.png
#EXTINF:5.088756,
259409723182519-index10082.png
#EXTINF:5.047044,
259409723182519-index10083.png
#EXTINF:3.044911,
259409723182519-index10084.png
#EXTINF:1.585022,
259409723182519-index10085.png
#EXTINF:5.297311,
259409723182519-index10086.png
#EXTINF:1.751867,
259409723182519-index10087.png
#EXTINF:3.295178,
259409723182519-index10088.png
#EXTINF:5.631000,
259409723182519-index10089.png
#EXTINF:8.425644,
259409723182519-index10090.png
#EXTINF:7.925111,
259409723182519-index10091.png
#EXTINF:4.087689,
259409723182519-index10092.png
#EXTINF:7.883400,
259409723182519-index10093.png
#EXTINF:2.168978,
259409723182519-index10094.png
#EXTINF:5.714422,
259409723182519-index10095.png
#EXTINF:3.920844,
259409723182519-index10096.png
#EXTINF:6.006400,
259409723182519-index10097.png
#EXTINF:3.086622,
259409723182519-index10098.png
#EXTINF:7.758267,
259409723182519-index10099.png
#EXTINF:4.087689,
259409723182519-index10100.png
#EXTINF:2.127267,
259409723182519-index10101.png
#EXTINF:2.502667,
259409723182519-index10102.png
#EXTINF:6.590356,
259409723182519-index10103.png
#EXTINF:4.087689,
259409723182519-index10104.png
#EXTINF:5.130467,
259409723182519-index10105.png
#EXTINF:6.006400,
259409723182519-index10106.png
#EXTINF:6.673778,
259409723182519-index10107.png
#EXTINF:3.170044,
259409723182519-index10108.png
#EXTINF:1.751867,
259409723182519-index10109.png
#EXTINF:8.133667,
259409723182519-index10110.png
#EXTINF:7.424578,
259409723182519-index10111.png
#EXTINF:2.043844,
259409723182519-index10112.png
#EXTINF:1.376467,
259409723182519-index10113.png
#EXTINF:2.210689,
259409723182519-index10114.png
#EXTINF:3.295178,
259409723182519-index10115.png
#EXTINF:2.210689,
259409723182519-index10116.png
#EXTINF:1.376467,
259409723182519-index10117.png
#EXTINF:1.960422,
259409723182519-index10118.png
#EXTINF:1.209622,
259409723182519-index10119.png
#EXTINF:1.585022,
259409723182519-index10120.png
#EXTINF:1.459889,
259409723182519-index10121.png
#EXTINF:3.295178,
259409723182519-index10122.png
#EXTINF:2.043844,
259409723182519-index10123.png
#EXTINF:1.668444,
259409723182519-index10124.png
#EXTINF:3.670578,
259409723182519-index10125.png
#EXTINF:2.919778,
259409723182519-index10126.png
#EXTINF:2.878067,
259409723182519-index10127.png
#EXTINF:1.960422,
259409723182519-index10128.png
#EXTINF:2.127267,
259409723182519-index10129.png
#EXTINF:2.419244,
259409723182519-index10130.png
#EXTINF:1.126200,
259409723182519-index10131.png
#EXTINF:2.502667,
259409723182519-index10132.png
#EXTINF:3.170044,
259409723182519-index10133.png
#EXTINF:2.127267,
259409723182519-index10134.png
#EXTINF:4.337956,
259409723182519-index10135.png
#EXTINF:1.710156,
259409723182519-index10136.png
#EXTINF:1.835289,
259409723182519-index10137.png
#EXTINF:1.877000,
259409723182519-index10138.png
#EXTINF:2.919778,
259409723182519-index10139.png
#EXTINF:1.835289,
259409723182519-index10140.png
#EXTINF:4.129400,
259409723182519-index10141.png
#EXTINF:5.589289,
259409723182519-index10142.png
#EXTINF:5.505867,
259409723182519-index10143.png
#EXTINF:2.627800,
259409723182519-index10144.png
#EXTINF:2.669511,
259409723182519-index10145.png
#EXTINF:2.168978,
259409723182519-index10146.png
#EXTINF:2.669511,
259409723182519-index10147.png
#EXTINF:5.505867,
259409723182519-index10148.png
#EXTINF:7.132600,
259409723182519-index10149.png
#EXTINF:1.668444,
259409723182519-index10150.png
#EXTINF:7.508000,
259409723182519-index10151.png
#EXTINF:2.836356,
259409723182519-index10152.png
#EXTINF:5.964689,
259409723182519-index10153.png
#EXTINF:0.959356,
259409723182519-index10154.png
#EXTINF:2.878067,
259409723182519-index10155.png
#EXTINF:1.251333,
259409723182519-index10156.png
#EXTINF:1.585022,
259409723182519-index10157.png
#EXTINF:2.961489,
259409723182519-index10158.png
#EXTINF:3.545444,
259409723182519-index10159.png
#EXTINF:1.877000,
259409723182519-index10160.png
#EXTINF:2.377533,
259409723182519-index10161.png
#EXTINF:2.669511,
259409723182519-index10162.png
#EXTINF:1.501600,
259409723182519-index10163.png
#EXTINF:2.127267,
259409723182519-index10164.png
#EXTINF:1.918711,
259409723182519-index10165.png
#EXTINF:4.296244,
259409723182519-index10166.png
#EXTINF:1.459889,
259409723182519-index10167.png
#EXTINF:1.167911,
259409723182519-index10168.png
#EXTINF:1.001067,
259409723182519-index10169.png
#EXTINF:5.255600,
259409723182519-index10170.png
#EXTINF:4.004267,
259409723182519-index10171.png
#EXTINF:1.501600,
259409723182519-index10172.png
#EXTINF:4.212822,
259409723182519-index10173.png
#EXTINF:3.044911,
259409723182519-index10174.png
#EXTINF:1.334756,
259409723182519-index10175.png
#EXTINF:1.960422,
259409723182519-index10176.png
#EXTINF:4.004267,
259409723182519-index10177.png
#EXTINF:3.170044,
259409723182519-index10178.png
#EXTINF:6.089822,
259409723182519-index10179.png
#EXTINF:3.420311,
259409723182519-index10180.png
#EXTINF:8.383933,
259409723182519-index10181.png
#EXTINF:3.628867,
259409723182519-index10182.png
#EXTINF:5.756133,
259409723182519-index10183.png
#EXTINF:3.128333,
259409723182519-index10184.png
#EXTINF:3.628867,
259409723182519-index10185.png
#EXTINF:1.751867,
259409723182519-index10186.png
#EXTINF:4.504800,
259409723182519-index10187.png
#EXTINF:5.714422,
259409723182519-index10188.png
#EXTINF:3.170044,
259409723182519-index10189.png
#EXTINF:2.168978,
259409723182519-index10190.png
#EXTINF:3.545444,
259409723182519-index10191.png
#EXTINF:6.423511,
259409723182519-index10192.png
#EXTINF:10.427778,
259409723182519-index10193.png
#EXTINF:10.427778,
259409723182519-index10194.png
#EXTINF:10.427778,
259409723182519-index10195.png
#EXTINF:5.255600,
259409723182519-index10196.png
#EXTINF:10.427778,
259409723182519-index10197.png
#EXTINF:8.217089,
259409723182519-index10198.png
#EXTINF:6.715489,
259409723182519-index10199.png
#EXTINF:10.427778,
259409723182519-index10200.png
#EXTINF:2.043844,
259409723182519-index10201.png
#EXTINF:10.427778,
259409723182519-index10202.png
#EXTINF:10.427778,
259409723182519-index10203.png
#EXTINF:10.427778,
259409723182519-index10204.png
#EXTINF:6.006400,
259409723182519-index10205.png
#EXTINF:7.591422,
259409723182519-index10206.png
#EXTINF:6.381800,
259409723182519-index10207.png
#EXTINF:4.838489,
259409723182519-index10208.png
#EXTINF:9.301578,
259409723182519-index10209.png
#EXTINF:5.047044,
259409723182519-index10210.png
#EXTINF:2.210689,
259409723182519-index10211.png
#EXTINF:2.544378,
259409723182519-index10212.png
#EXTINF:5.464156,
259409723182519-index10213.png
#EXTINF:10.427778,
259409723182519-index10214.png
#EXTINF:8.801044,
259409723182519-index10215.png
#EXTINF:10.427778,
259409723182519-index10216.png
#EXTINF:10.427778,
259409723182519-index10217.png
#EXTINF:4.254533,
259409723182519-index10218.png
#EXTINF:10.427778,
259409723182519-index10219.png
#EXTINF:3.670578,
259409723182519-index10220.png
#EXTINF:4.755067,
259409723182519-index10221.png
#EXTINF:3.378600,
259409723182519-index10222.png
#EXTINF:1.501600,
259409723182519-index10223.png
#EXTINF:6.798911,
259409723182519-index10224.png
#EXTINF:2.168978,
259409723182519-index10225.png
#EXTINF:5.881267,
259409723182519-index10226.png
#EXTINF:3.044911,
259409723182519-index10227.png
#EXTINF:2.085556,
259409723182519-index10228.png
#EXTINF:1.251333,
259409723182519-index10229.png
#EXTINF:9.968956,
259409723182519-index10230.png
#EXTINF:3.628867,
259409723182519-index10231.png
#EXTINF:3.795711,
259409723182519-index10232.png
#EXTINF:5.088756,
259409723182519-index10233.png
#EXTINF:4.296244,
259409723182519-index10234.png
#EXTINF:4.004267,
259409723182519-index10235.png
#EXTINF:3.795711,
259409723182519-index10236.png
#EXTINF:2.711222,
259409723182519-index10237.png
#EXTINF:10.427778,
259409723182519-index10238.png
#EXTINF:4.546511,
259409723182519-index10239.png
#EXTINF:2.127267,
259409723182519-index10240.png
#EXTINF:7.883400,
259409723182519-index10241.png
#EXTINF:4.588222,
259409723182519-index10242.png
#EXTINF:5.964689,
259409723182519-index10243.png
#EXTINF:2.335822,
259409723182519-index10244.png
#EXTINF:4.963622,
259409723182519-index10245.png
#EXTINF:2.419244,
259409723182519-index10246.png
#EXTINF:8.967889,
259409723182519-index10247.png
#EXTINF:7.382867,
259409723182519-index10248.png
#EXTINF:2.127267,
259409723182519-index10249.png
#EXTINF:2.919778,
259409723182519-index10250.png
#EXTINF:2.377533,
259409723182519-index10251.png
#EXTINF:1.960422,
259409723182519-index10252.png
#EXTINF:8.050244,
259409723182519-index10253.png
#EXTINF:10.427778,
259409723182519-index10254.png
#EXTINF:1.626733,
259409723182519-index10255.png
#EXTINF:2.711222,
259409723182519-index10256.png
#EXTINF:5.130467,
259409723182519-index10257.png
#EXTINF:2.460956,
259409723182519-index10258.png
#EXTINF:5.714422,
259409723182519-index10259.png
#EXTINF:10.427778,
259409723182519-index10260.png
#EXTINF:10.427778,
259409723182519-index10261.png
#EXTINF:10.260933,
259409723182519-index10262.png
#EXTINF:10.427778,
259409723182519-index10263.png
#EXTINF:2.127267,
259409723182519-index10264.png
#EXTINF:7.674844,
259409723182519-index10265.png
#EXTINF:4.546511,
259409723182519-index10266.png
#EXTINF:4.421378,
259409723182519-index10267.png
#EXTINF:4.546511,
259409723182519-index10268.png
#EXTINF:3.920844,
259409723182519-index10269.png
#EXTINF:10.427778,
259409723182519-index10270.png
#EXTINF:2.252400,
259409723182519-index10271.png
#EXTINF:2.878067,
259409723182519-index10272.png
#EXTINF:6.006400,
259409723182519-index10273.png
#EXTINF:6.298378,
259409723182519-index10274.png
#EXTINF:5.589289,
259409723182519-index10275.png
#EXTINF:2.836356,
259409723182519-index10276.png
#EXTINF:5.213889,
259409723182519-index10277.png
#EXTINF:1.501600,
259409723182519-index10278.png
#EXTINF:10.427778,
259409723182519-index10279.png
#EXTINF:9.176444,
259409723182519-index10280.png
#EXTINF:3.962556,
259409723182519-index10281.png
#EXTINF:5.881267,
259409723182519-index10282.png
#EXTINF:2.544378,
259409723182519-index10283.png
#EXTINF:4.087689,
259409723182519-index10284.png
#EXTINF:10.427778,
259409723182519-index10285.png
#EXTINF:3.086622,
259409723182519-index10286.png
#EXTINF:6.048111,
259409723182519-index10287.png
#EXTINF:5.422444,
259409723182519-index10288.png
#EXTINF:1.960422,
259409723182519-index10289.png
#EXTINF:1.459889,
259409723182519-index10290.png
#EXTINF:1.877000,
259409723182519-index10291.png
#EXTINF:1.001067,
259409723182519-index10292.png
#EXTINF:0.959356,
259409723182519-index10293.png
#EXTINF:3.545444,
259409723182519-index10294.png
#EXTINF:1.877000,
259409723182519-index10295.png
#EXTINF:3.378600,
259409723182519-index10296.png
#EXTINF:1.960422,
259409723182519-index10297.png
#EXTINF:2.627800,
259409723182519-index10298.png
#EXTINF:1.418178,
259409723182519-index10299.png
#EXTINF:1.126200,
259409723182519-index10300.png
#EXTINF:1.459889,
259409723182519-index10301.png
#EXTINF:1.835289,
259409723182519-index10302.png
#EXTINF:2.377533,
259409723182519-index10303.png
#EXTINF:3.170044,
259409723182519-index10304.png
#EXTINF:4.129400,
259409723182519-index10305.png
#EXTINF:2.335822,
259409723182519-index10306.png
#EXTINF:1.960422,
259409723182519-index10307.png
#EXTINF:3.378600,
259409723182519-index10308.png
#EXTINF:1.001067,
259409723182519-index10309.png
#EXTINF:3.086622,
259409723182519-index10310.png
#EXTINF:7.049178,
259409723182519-index10311.png
#EXTINF:5.088756,
259409723182519-index10312.png
#EXTINF:9.009600,
259409723182519-index10313.png
#EXTINF:2.502667,
259409723182519-index10314.png
#EXTINF:4.171111,
259409723182519-index10315.png
#EXT-X-ENDLIST
