#EXTM3U
#EXT-X-VERSION:3
#EXT-X-TARGETDURATION:11
#EXT-X-MEDIA-SEQUENCE:10001
#EXTINF:10.451000,
265266806301143-index10001.png
#EXTINF:10.427778,
265266806301143-index10002.png
#EXTINF:10.427778,
265266806301143-index10003.png
#EXTINF:10.427778,
265266806301143-index10004.png
#EXTINF:10.427778,
265266806301143-index10005.png
#EXTINF:10.427778,
265266806301143-index10006.png
#EXTINF:10.427778,
265266806301143-index10007.png
#EXTINF:10.427778,
265266806301143-index10008.png
#EXTINF:10.427778,
265266806301143-index10009.png
#EXTINF:10.427778,
265266806301143-index10010.png
#EXTINF:10.427778,
265266806301143-index10011.png
#EXTINF:10.427778,
265266806301143-index10012.png
#EXTINF:10.427778,
265266806301143-index10013.png
#EXTINF:10.427778,
265266806301143-index10014.png
#EXTINF:10.427778,
265266806301143-index10015.png
#EXTINF:10.427778,
265266806301143-index10016.png
#EXTINF:10.427778,
265266806301143-index10017.png
#EXTINF:10.427778,
265266806301143-index10018.png
#EXTINF:10.427778,
265266806301143-index10019.png
#EXTINF:10.427778,
265266806301143-index10020.png
#EXTINF:10.427778,
265266806301143-index10021.png
#EXTINF:10.427778,
265266806301143-index10022.png
#EXTINF:10.427778,
265266806301143-index10023.png
#EXTINF:10.427778,
265266806301143-index10024.png
#EXTINF:10.427778,
265266806301143-index10025.png
#EXTINF:10.427778,
265266806301143-index10026.png
#EXTINF:10.427778,
265266806301143-index10027.png
#EXTINF:10.427778,
265266806301143-index10028.png
#EXTINF:10.427778,
265266806301143-index10029.png
#EXTINF:10.427778,
265266806301143-index10030.png
#EXTINF:10.427778,
265266806301143-index10031.png
#EXTINF:10.427778,
265266806301143-index10032.png
#EXTINF:10.427778,
265266806301143-index10033.png
#EXTINF:10.427778,
265266806301143-index10034.png
#EXTINF:10.427778,
265266806301143-index10035.png
#EXTINF:10.427778,
265266806301143-index10036.png
#EXTINF:10.427778,
265266806301143-index10037.png
#EXTINF:10.427778,
265266806301143-index10038.png
#EXTINF:10.427778,
265266806301143-index10039.png
#EXTINF:10.427778,
265266806301143-index10040.png
#EXTINF:10.427778,
265266806301143-index10041.png
#EXTINF:10.427778,
265266806301143-index10042.png
#EXTINF:10.427778,
265266806301143-index10043.png
#EXTINF:10.427778,
265266806301143-index10044.png
#EXTINF:10.427778,
265266806301143-index10045.png
#EXTINF:10.427778,
265266806301143-index10046.png
#EXTINF:10.427778,
265266806301143-index10047.png
#EXTINF:10.427778,
265266806301143-index10048.png
#EXTINF:10.427778,
265266806301143-index10049.png
#EXTINF:10.427778,
265266806301143-index10050.png
#EXTINF:10.427778,
265266806301143-index10051.png
#EXTINF:10.427778,
265266806301143-index10052.png
#EXTINF:10.427778,
265266806301143-index10053.png
#EXTINF:10.427778,
265266806301143-index10054.png
#EXTINF:10.427778,
265266806301143-index10055.png
#EXTINF:10.427778,
265266806301143-index10056.png
#EXTINF:10.427778,
265266806301143-index10057.png
#EXTINF:10.427778,
265266806301143-index10058.png
#EXTINF:10.427778,
265266806301143-index10059.png
#EXTINF:10.427778,
265266806301143-index10060.png
#EXTINF:10.427778,
265266806301143-index10061.png
#EXTINF:10.427778,
265266806301143-index10062.png
#EXTINF:10.427778,
265266806301143-index10063.png
#EXTINF:10.427778,
265266806301143-index10064.png
#EXTINF:10.427778,
265266806301143-index10065.png
#EXTINF:10.427778,
265266806301143-index10066.png
#EXTINF:10.427778,
265266806301143-index10067.png
#EXTINF:10.427778,
265266806301143-index10068.png
#EXTINF:10.427778,
265266806301143-index10069.png
#EXTINF:10.427778,
265266806301143-index10070.png
#EXTINF:10.427778,
265266806301143-index10071.png
#EXTINF:10.427778,
265266806301143-index10072.png
#EXTINF:10.427778,
265266806301143-index10073.png
#EXTINF:10.427778,
265266806301143-index10074.png
#EXTINF:10.427778,
265266806301143-index10075.png
#EXTINF:10.427778,
265266806301143-index10076.png
#EXTINF:10.427778,
265266806301143-index10077.png
#EXTINF:10.427778,
265266806301143-index10078.png
#EXTINF:10.427778,
265266806301143-index10079.png
#EXTINF:10.427778,
265266806301143-index10080.png
#EXTINF:10.427778,
265266806301143-index10081.png
#EXTINF:10.427778,
265266806301143-index10082.png
#EXTINF:10.427778,
265266806301143-index10083.png
#EXTINF:10.427778,
265266806301143-index10084.png
#EXTINF:10.427778,
265266806301143-index10085.png
#EXTINF:10.427778,
265266806301143-index10086.png
#EXTINF:10.427778,
265266806301143-index10087.png
#EXTINF:10.427778,
265266806301143-index10088.png
#EXTINF:10.427778,
265266806301143-index10089.png
#EXTINF:10.427778,
265266806301143-index10090.png
#EXTINF:10.427778,
265266806301143-index10091.png
#EXTINF:10.427778,
265266806301143-index10092.png
#EXTINF:10.427778,
265266806301143-index10093.png
#EXTINF:10.427778,
265266806301143-index10094.png
#EXTINF:10.427778,
265266806301143-index10095.png
#EXTINF:10.427778,
265266806301143-index10096.png
#EXTINF:10.427778,
265266806301143-index10097.png
#EXTINF:10.427778,
265266806301143-index10098.png
#EXTINF:10.427778,
265266806301143-index10099.png
#EXTINF:10.427778,
265266806301143-index10100.png
#EXTINF:10.427778,
265266806301143-index10101.png
#EXTINF:10.427778,
265266806301143-index10102.png
#EXTINF:10.427778,
265266806301143-index10103.png
#EXTINF:10.427778,
265266806301143-index10104.png
#EXTINF:10.427778,
265266806301143-index10105.png
#EXTINF:10.427778,
265266806301143-index10106.png
#EXTINF:10.427778,
265266806301143-index10107.png
#EXTINF:10.427778,
265266806301143-index10108.png
#EXTINF:10.427778,
265266806301143-index10109.png
#EXTINF:10.427778,
265266806301143-index10110.png
#EXTINF:10.427778,
265266806301143-index10111.png
#EXTINF:10.427778,
265266806301143-index10112.png
#EXTINF:10.427778,
265266806301143-index10113.png
#EXTINF:10.427778,
265266806301143-index10114.png
#EXTINF:10.427778,
265266806301143-index10115.png
#EXTINF:10.427778,
265266806301143-index10116.png
#EXTINF:10.427778,
265266806301143-index10117.png
#EXTINF:10.427778,
265266806301143-index10118.png
#EXTINF:10.427778,
265266806301143-index10119.png
#EXTINF:10.427778,
265266806301143-index10120.png
#EXTINF:10.427778,
265266806301143-index10121.png
#EXTINF:10.427778,
265266806301143-index10122.png
#EXTINF:10.427778,
265266806301143-index10123.png
#EXTINF:10.427778,
265266806301143-index10124.png
#EXTINF:10.427778,
265266806301143-index10125.png
#EXTINF:10.427778,
265266806301143-index10126.png
#EXTINF:10.427778,
265266806301143-index10127.png
#EXTINF:10.427778,
265266806301143-index10128.png
#EXTINF:10.427778,
265266806301143-index10129.png
#EXTINF:10.427778,
265266806301143-index10130.png
#EXTINF:10.427778,
265266806301143-index10131.png
#EXTINF:10.427778,
265266806301143-index10132.png
#EXTINF:10.427778,
265266806301143-index10133.png
#EXTINF:10.427778,
265266806301143-index10134.png
#EXTINF:10.427778,
265266806301143-index10135.png
#EXTINF:10.427778,
265266806301143-index10136.png
#EXTINF:10.427778,
265266806301143-index10137.png
#EXTINF:10.427778,
265266806301143-index10138.png
#EXTINF:10.427778,
265266806301143-index10139.png
#EXTINF:10.427778,
265266806301143-index10140.png
#EXTINF:10.427778,
265266806301143-index10141.png
#EXTINF:10.427778,
265266806301143-index10142.png
#EXTINF:10.427778,
265266806301143-index10143.png
#EXTINF:10.427778,
265266806301143-index10144.png
#EXTINF:10.427778,
265266806301143-index10145.png
#EXTINF:10.427778,
265266806301143-index10146.png
#EXTINF:10.427778,
265266806301143-index10147.png
#EXTINF:10.427778,
265266806301143-index10148.png
#EXTINF:10.427778,
265266806301143-index10149.png
#EXTINF:10.427778,
265266806301143-index10150.png
#EXTINF:10.427778,
265266806301143-index10151.png
#EXTINF:10.427778,
265266806301143-index10152.png
#EXTINF:10.427778,
265266806301143-index10153.png
#EXTINF:10.427778,
265266806301143-index10154.png
#EXTINF:10.427778,
265266806301143-index10155.png
#EXTINF:10.427778,
265266806301143-index10156.png
#EXTINF:10.427778,
265266806301143-index10157.png
#EXTINF:10.427778,
265266806301143-index10158.png
#EXTINF:10.427778,
265266806301143-index10159.png
#EXTINF:10.427778,
265266806301143-index10160.png
#EXTINF:10.427778,
265266806301143-index10161.png
#EXTINF:10.427778,
265266806301143-index10162.png
#EXTINF:10.427778,
265266806301143-index10163.png
#EXTINF:10.427778,
265266806301143-index10164.png
#EXTINF:10.427778,
265266806301143-index10165.png
#EXTINF:10.427778,
265266806301143-index10166.png
#EXTINF:10.427778,
265266806301143-index10167.png
#EXTINF:10.427778,
265266806301143-index10168.png
#EXTINF:10.427778,
265266806301143-index10169.png
#EXTINF:10.427778,
265266806301143-index10170.png
#EXTINF:10.427778,
265266806301143-index10171.png
#EXTINF:10.427778,
265266806301143-index10172.png
#EXTINF:10.427778,
265266806301143-index10173.png
#EXTINF:10.427778,
265266806301143-index10174.png
#EXTINF:10.427778,
265266806301143-index10175.png
#EXTINF:10.427778,
265266806301143-index10176.png
#EXTINF:10.427778,
265266806301143-index10177.png
#EXTINF:10.427778,
265266806301143-index10178.png
#EXTINF:10.427778,
265266806301143-index10179.png
#EXTINF:10.427778,
265266806301143-index10180.png
#EXTINF:10.427778,
265266806301143-index10181.png
#EXTINF:10.427778,
265266806301143-index10182.png
#EXTINF:10.427778,
265266806301143-index10183.png
#EXTINF:10.427778,
265266806301143-index10184.png
#EXTINF:10.427778,
265266806301143-index10185.png
#EXTINF:10.427778,
265266806301143-index10186.png
#EXTINF:10.427778,
265266806301143-index10187.png
#EXTINF:10.427778,
265266806301143-index10188.png
#EXTINF:10.427778,
265266806301143-index10189.png
#EXTINF:10.427778,
265266806301143-index10190.png
#EXTINF:10.427778,
265266806301143-index10191.png
#EXTINF:10.427778,
265266806301143-index10192.png
#EXTINF:10.427778,
265266806301143-index10193.png
#EXTINF:10.427778,
265266806301143-index10194.png
#EXTINF:10.427778,
265266806301143-index10195.png
#EXTINF:10.427778,
265266806301143-index10196.png
#EXTINF:10.427778,
265266806301143-index10197.png
#EXTINF:10.427778,
265266806301143-index10198.png
#EXTINF:10.427778,
265266806301143-index10199.png
#EXTINF:10.427778,
265266806301143-index10200.png
#EXTINF:10.427778,
265266806301143-index10201.png
#EXTINF:10.427778,
265266806301143-index10202.png
#EXTINF:10.427778,
265266806301143-index10203.png
#EXTINF:10.427778,
265266806301143-index10204.png
#EXTINF:10.427778,
265266806301143-index10205.png
#EXTINF:10.427778,
265266806301143-index10206.png
#EXTINF:10.427778,
265266806301143-index10207.png
#EXTINF:10.427778,
265266806301143-index10208.png
#EXTINF:10.427778,
265266806301143-index10209.png
#EXTINF:10.427778,
265266806301143-index10210.png
#EXTINF:10.427778,
265266806301143-index10211.png
#EXTINF:10.427778,
265266806301143-index10212.png
#EXTINF:10.427778,
265266806301143-index10213.png
#EXTINF:10.427778,
265266806301143-index10214.png
#EXTINF:10.427778,
265266806301143-index10215.png
#EXTINF:10.427778,
265266806301143-index10216.png
#EXTINF:10.427778,
265266806301143-index10217.png
#EXTINF:10.427778,
265266806301143-index10218.png
#EXTINF:10.427778,
265266806301143-index10219.png
#EXTINF:10.427778,
265266806301143-index10220.png
#EXTINF:10.427778,
265266806301143-index10221.png
#EXTINF:10.427778,
265266806301143-index10222.png
#EXTINF:10.427778,
265266806301143-index10223.png
#EXTINF:10.427778,
265266806301143-index10224.png
#EXTINF:10.427778,
265266806301143-index10225.png
#EXTINF:10.427778,
265266806301143-index10226.png
#EXTINF:10.427778,
265266806301143-index10227.png
#EXTINF:10.427778,
265266806301143-index10228.png
#EXTINF:10.427778,
265266806301143-index10229.png
#EXTINF:10.427778,
265266806301143-index10230.png
#EXTINF:10.427778,
265266806301143-index10231.png
#EXTINF:10.427778,
265266806301143-index10232.png
#EXTINF:10.427778,
265266806301143-index10233.png
#EXTINF:10.427778,
265266806301143-index10234.png
#EXTINF:10.427778,
265266806301143-index10235.png
#EXTINF:10.427778,
265266806301143-index10236.png
#EXTINF:10.427778,
265266806301143-index10237.png
#EXTINF:10.427778,
265266806301143-index10238.png
#EXTINF:10.427778,
265266806301143-index10239.png
#EXTINF:10.427778,
265266806301143-index10240.png
#EXTINF:10.427778,
265266806301143-index10241.png
#EXTINF:10.427778,
265266806301143-index10242.png
#EXTINF:10.427778,
265266806301143-index10243.png
#EXTINF:10.427778,
265266806301143-index10244.png
#EXTINF:10.427778,
265266806301143-index10245.png
#EXTINF:10.427778,
265266806301143-index10246.png
#EXTINF:10.427778,
265266806301143-index10247.png
#EXTINF:10.427778,
265266806301143-index10248.png
#EXTINF:10.427778,
265266806301143-index10249.png
#EXTINF:10.427778,
265266806301143-index10250.png
#EXTINF:10.427778,
265266806301143-index10251.png
#EXTINF:10.427778,
265266806301143-index10252.png
#EXTINF:10.427778,
265266806301143-index10253.png
#EXTINF:10.427778,
265266806301143-index10254.png
#EXTINF:10.427778,
265266806301143-index10255.png
#EXTINF:10.427778,
265266806301143-index10256.png
#EXTINF:10.427778,
265266806301143-index10257.png
#EXTINF:10.427778,
265266806301143-index10258.png
#EXTINF:10.427778,
265266806301143-index10259.png
#EXTINF:10.427778,
265266806301143-index10260.png
#EXTINF:10.427778,
265266806301143-index10261.png
#EXTINF:10.427778,
265266806301143-index10262.png
#EXTINF:10.427778,
265266806301143-index10263.png
#EXTINF:10.427778,
265266806301143-index10264.png
#EXTINF:10.427778,
265266806301143-index10265.png
#EXTINF:10.427778,
265266806301143-index10266.png
#EXTINF:10.427778,
265266806301143-index10267.png
#EXTINF:10.427778,
265266806301143-index10268.png
#EXTINF:10.427778,
265266806301143-index10269.png
#EXTINF:10.427778,
265266806301143-index10270.png
#EXTINF:10.427778,
265266806301143-index10271.png
#EXTINF:10.427778,
265266806301143-index10272.png
#EXTINF:10.427778,
265266806301143-index10273.png
#EXTINF:10.427778,
265266806301143-index10274.png
#EXTINF:10.427778,
265266806301143-index10275.png
#EXTINF:10.427778,
265266806301143-index10276.png
#EXTINF:7.216478,
265266806301143-index10277.png
#EXT-X-ENDLIST
