#EXTM3U
#EXT-X-VERSION:3
#EXT-X-TARGETDURATION:2
#EXT-X-MEDIA-SEQUENCE:10001
#EXTINF:2.000000,
272792211423317-index10001.png
#EXTINF:2.000000,
272792211423317-index10002.png
#EXTINF:2.000000,
272792211423317-index10003.png
#EXTINF:2.000000,
272792211423317-index10004.png
#EXTINF:2.000000,
272792211423317-index10005.png
#EXTINF:2.000000,
272792211423317-index10006.png
#EXTINF:2.000000,
272792211423317-index10007.png
#EXTINF:2.000000,
272792211423317-index10008.png
#EXTINF:2.000000,
272792211423317-index10009.png
#EXTINF:2.000000,
272792211423317-index10010.png
#EXTINF:2.000000,
272792211423317-index10011.png
#EXTINF:2.000000,
272792211423317-index10012.png
#EXTINF:2.000000,
272792211423317-index10013.png
#EXTINF:2.000000,
272792211423317-index10014.png
#EXTINF:2.000000,
272792211423317-index10015.png
#EXTINF:2.000000,
272792211423317-index10016.png
#EXTINF:2.000000,
272792211423317-index10017.png
#EXTINF:2.000000,
272792211423317-index10018.png
#EXTINF:2.000000,
272792211423317-index10019.png
#EXTINF:2.000000,
272792211423317-index10020.png
#EXTINF:2.000000,
272792211423317-index10021.png
#EXTINF:2.000000,
272792211423317-index10022.png
#EXTINF:2.000000,
272792211423317-index10023.png
#EXTINF:2.000000,
272792211423317-index10024.png
#EXTINF:2.000000,
272792211423317-index10025.png
#EXTINF:2.000000,
272792211423317-index10026.png
#EXTINF:2.000000,
272792211423317-index10027.png
#EXTINF:2.000000,
272792211423317-index10028.png
#EXTINF:2.000000,
272792211423317-index10029.png
#EXTINF:2.000000,
272792211423317-index10030.png
#EXTINF:2.000000,
272792211423317-index10031.png
#EXTINF:2.000000,
272792211423317-index10032.png
#EXTINF:2.000000,
272792211423317-index10033.png
#EXTINF:2.000000,
272792211423317-index10034.png
#EXTINF:2.000000,
272792211423317-index10035.png
#EXTINF:2.000000,
272792211423317-index10036.png
#EXTINF:2.000000,
272792211423317-index10037.png
#EXTINF:2.000000,
272792211423317-index10038.png
#EXTINF:2.000000,
272792211423317-index10039.png
#EXTINF:2.000000,
272792211423317-index10040.png
#EXTINF:2.000000,
272792211423317-index10041.png
#EXTINF:2.000000,
272792211423317-index10042.png
#EXTINF:2.000000,
272792211423317-index10043.png
#EXTINF:2.000000,
272792211423317-index10044.png
#EXTINF:2.000000,
272792211423317-index10045.png
#EXTINF:2.000000,
272792211423317-index10046.png
#EXTINF:2.000000,
272792211423317-index10047.png
#EXTINF:2.000000,
272792211423317-index10048.png
#EXTINF:2.000000,
272792211423317-index10049.png
#EXTINF:2.000000,
272792211423317-index10050.png
#EXTINF:2.000000,
272792211423317-index10051.png
#EXTINF:2.000000,
272792211423317-index10052.png
#EXTINF:2.000000,
272792211423317-index10053.png
#EXTINF:2.000000,
272792211423317-index10054.png
#EXTINF:2.000000,
272792211423317-index10055.png
#EXTINF:2.000000,
272792211423317-index10056.png
#EXTINF:2.000000,
272792211423317-index10057.png
#EXTINF:2.000000,
272792211423317-index10058.png
#EXTINF:2.000000,
272792211423317-index10059.png
#EXTINF:2.000000,
272792211423317-index10060.png
#EXTINF:2.000000,
272792211423317-index10061.png
#EXTINF:2.000000,
272792211423317-index10062.png
#EXTINF:2.000000,
272792211423317-index10063.png
#EXTINF:2.000000,
272792211423317-index10064.png
#EXTINF:2.000000,
272792211423317-index10065.png
#EXTINF:2.000000,
272792211423317-index10066.png
#EXTINF:2.000000,
272792211423317-index10067.png
#EXTINF:2.000000,
272792211423317-index10068.png
#EXTINF:2.000000,
272792211423317-index10069.png
#EXTINF:2.000000,
272792211423317-index10070.png
#EXTINF:2.000000,
272792211423317-index10071.png
#EXTINF:2.000000,
272792211423317-index10072.png
#EXTINF:2.000000,
272792211423317-index10073.png
#EXTINF:2.000000,
272792211423317-index10074.png
#EXTINF:2.000000,
272792211423317-index10075.png
#EXTINF:2.005444,
272792211423317-index10076.png
#EXTINF:1.994556,
272792211423317-index10077.png
#EXTINF:2.000000,
272792211423317-index10078.png
#EXTINF:2.000000,
272792211423317-index10079.png
#EXTINF:2.000000,
272792211423317-index10080.png
#EXTINF:2.000000,
272792211423317-index10081.png
#EXTINF:2.000000,
272792211423317-index10082.png
#EXTINF:2.000000,
272792211423317-index10083.png
#EXTINF:2.000000,
272792211423317-index10084.png
#EXTINF:2.000000,
272792211423317-index10085.png
#EXTINF:2.000000,
272792211423317-index10086.png
#EXTINF:2.000000,
272792211423317-index10087.png
#EXTINF:2.000000,
272792211423317-index10088.png
#EXTINF:2.000000,
272792211423317-index10089.png
#EXTINF:2.000000,
272792211423317-index10090.png
#EXTINF:2.000000,
272792211423317-index10091.png
#EXTINF:2.000000,
272792211423317-index10092.png
#EXTINF:2.000000,
272792211423317-index10093.png
#EXTINF:2.000000,
272792211423317-index10094.png
#EXTINF:2.000000,
272792211423317-index10095.png
#EXTINF:2.000000,
272792211423317-index10096.png
#EXTINF:2.000000,
272792211423317-index10097.png
#EXTINF:2.000000,
272792211423317-index10098.png
#EXTINF:2.000000,
272792211423317-index10099.png
#EXTINF:2.000000,
272792211423317-index10100.png
#EXTINF:2.000000,
272792211423317-index10101.png
#EXTINF:2.000000,
272792211423317-index10102.png
#EXTINF:2.000000,
272792211423317-index10103.png
#EXTINF:2.000000,
272792211423317-index10104.png
#EXTINF:2.000000,
272792211423317-index10105.png
#EXTINF:2.000000,
272792211423317-index10106.png
#EXTINF:2.000000,
272792211423317-index10107.png
#EXTINF:2.000000,
272792211423317-index10108.png
#EXTINF:2.000000,
272792211423317-index10109.png
#EXTINF:2.000000,
272792211423317-index10110.png
#EXTINF:2.000000,
272792211423317-index10111.png
#EXTINF:2.000000,
272792211423317-index10112.png
#EXTINF:2.000000,
272792211423317-index10113.png
#EXTINF:2.000000,
272792211423317-index10114.png
#EXTINF:2.000000,
272792211423317-index10115.png
#EXTINF:2.000000,
272792211423317-index10116.png
#EXTINF:2.000000,
272792211423317-index10117.png
#EXTINF:2.000000,
272792211423317-index10118.png
#EXTINF:2.000000,
272792211423317-index10119.png
#EXTINF:2.000000,
272792211423317-index10120.png
#EXTINF:2.000000,
272792211423317-index10121.png
#EXTINF:2.000000,
272792211423317-index10122.png
#EXTINF:2.000000,
272792211423317-index10123.png
#EXTINF:2.000000,
272792211423317-index10124.png
#EXTINF:2.000000,
272792211423317-index10125.png
#EXTINF:2.000000,
272792211423317-index10126.png
#EXTINF:2.000000,
272792211423317-index10127.png
#EXTINF:2.000000,
272792211423317-index10128.png
#EXTINF:2.000000,
272792211423317-index10129.png
#EXTINF:2.000000,
272792211423317-index10130.png
#EXTINF:2.000000,
272792211423317-index10131.png
#EXTINF:2.000000,
272792211423317-index10132.png
#EXTINF:2.000000,
272792211423317-index10133.png
#EXTINF:2.000000,
272792211423317-index10134.png
#EXTINF:2.000000,
272792211423317-index10135.png
#EXTINF:2.000000,
272792211423317-index10136.png
#EXTINF:2.000000,
272792211423317-index10137.png
#EXTINF:2.000000,
272792211423317-index10138.png
#EXTINF:2.000000,
272792211423317-index10139.png
#EXTINF:2.000000,
272792211423317-index10140.png
#EXTINF:2.000000,
272792211423317-index10141.png
#EXTINF:2.000000,
272792211423317-index10142.png
#EXTINF:2.000000,
272792211423317-index10143.png
#EXTINF:2.000000,
272792211423317-index10144.png
#EXTINF:2.000000,
272792211423317-index10145.png
#EXTINF:2.000000,
272792211423317-index10146.png
#EXTINF:2.000000,
272792211423317-index10147.png
#EXTINF:2.000000,
272792211423317-index10148.png
#EXTINF:2.000000,
272792211423317-index10149.png
#EXTINF:2.000000,
272792211423317-index10150.png
#EXTINF:2.000000,
272792211423317-index10151.png
#EXTINF:2.000000,
272792211423317-index10152.png
#EXTINF:2.000000,
272792211423317-index10153.png
#EXTINF:2.000000,
272792211423317-index10154.png
#EXTINF:2.000000,
272792211423317-index10155.png
#EXTINF:2.000000,
272792211423317-index10156.png
#EXTINF:2.000000,
272792211423317-index10157.png
#EXTINF:2.000000,
272792211423317-index10158.png
#EXTINF:2.000000,
272792211423317-index10159.png
#EXTINF:2.000000,
272792211423317-index10160.png
#EXTINF:2.000000,
272792211423317-index10161.png
#EXTINF:2.000000,
272792211423317-index10162.png
#EXTINF:2.000000,
272792211423317-index10163.png
#EXTINF:2.000000,
272792211423317-index10164.png
#EXTINF:2.045444,
272792211423317-index10165.png
#EXTINF:0.107778,
272792211423317-index10166.png
#EXT-X-ENDLIST
