#EXTM3U
#EXT-X-VERSION:3
#EXT-X-TARGETDURATION:11
#EXT-X-MEDIA-SEQUENCE:10001
#EXTINF:10.258200,
277151818490690-index10001.png
#EXTINF:4.837200,
277151818490690-index10002.png
#EXTINF:3.419400,
277151818490690-index10003.png
#EXTINF:4.503600,
277151818490690-index10004.png
#EXTINF:4.753800,
277151818490690-index10005.png
#EXTINF:3.961500,
277151818490690-index10006.png
#EXTINF:10.425000,
277151818490690-index10007.png
#EXTINF:6.255000,
277151818490690-index10008.png
#EXTINF:2.919000,
277151818490690-index10009.png
#EXTINF:3.753000,
277151818490690-index10010.png
#EXTINF:7.005600,
277151818490690-index10011.png
#EXTINF:9.841200,
277151818490690-index10012.png
#EXTINF:1.751400,
277151818490690-index10013.png
#EXTINF:5.421000,
277151818490690-index10014.png
#EXTINF:10.425000,
277151818490690-index10015.png
#EXTINF:10.425000,
277151818490690-index10016.png
#EXTINF:4.503600,
277151818490690-index10017.png
#EXTINF:2.710500,
277151818490690-index10018.png
#EXTINF:10.425000,
277151818490690-index10019.png
#EXTINF:5.796300,
277151818490690-index10020.png
#EXTINF:7.255800,
277151818490690-index10021.png
#EXTINF:6.755400,
277151818490690-index10022.png
#EXTINF:9.090600,
277151818490690-index10023.png
#EXTINF:4.878900,
277151818490690-index10024.png
#EXTINF:4.628700,
277151818490690-index10025.png
#EXTINF:4.878900,
277151818490690-index10026.png
#EXTINF:10.216500,
277151818490690-index10027.png
#EXTINF:10.216500,
277151818490690-index10028.png
#EXTINF:7.589400,
277151818490690-index10029.png
#EXTINF:6.755400,
277151818490690-index10030.png
#EXTINF:8.006400,
277151818490690-index10031.png
#EXTINF:8.631900,
277151818490690-index10032.png
#EXTINF:7.005600,
277151818490690-index10033.png
#EXTINF:3.502800,
277151818490690-index10034.png
#EXTINF:10.425000,
277151818490690-index10035.png
#EXTINF:4.378500,
277151818490690-index10036.png
#EXTINF:7.589400,
277151818490690-index10037.png
#EXTINF:10.425000,
277151818490690-index10038.png
#EXTINF:8.715300,
277151818490690-index10039.png
#EXTINF:7.214100,
277151818490690-index10040.png
#EXTINF:7.255800,
277151818490690-index10041.png
#EXTINF:9.591000,
277151818490690-index10042.png
#EXTINF:9.507600,
277151818490690-index10043.png
#EXTINF:2.376900,
277151818490690-index10044.png
#EXTINF:8.006400,
277151818490690-index10045.png
#EXTINF:4.545300,
277151818490690-index10046.png
#EXTINF:4.003200,
277151818490690-index10047.png
#EXTINF:10.425000,
277151818490690-index10048.png
#EXTINF:8.590200,
277151818490690-index10049.png
#EXTINF:7.255800,
277151818490690-index10050.png
#EXTINF:10.425000,
277151818490690-index10051.png
#EXTINF:10.425000,
277151818490690-index10052.png
#EXTINF:8.465100,
277151818490690-index10053.png
#EXTINF:10.425000,
277151818490690-index10054.png
#EXTINF:3.461100,
277151818490690-index10055.png
#EXTINF:7.756200,
277151818490690-index10056.png
#EXTINF:7.005600,
277151818490690-index10057.png
#EXTINF:4.962300,
277151818490690-index10058.png
#EXTINF:8.923800,
277151818490690-index10059.png
#EXTINF:6.338400,
277151818490690-index10060.png
#EXTINF:8.381700,
277151818490690-index10061.png
#EXTINF:7.506000,
277151818490690-index10062.png
#EXTINF:2.835600,
277151818490690-index10063.png
#EXTINF:8.715300,
277151818490690-index10064.png
#EXTINF:10.425000,
277151818490690-index10065.png
#EXTINF:10.341600,
277151818490690-index10066.png
#EXTINF:10.425000,
277151818490690-index10067.png
#EXTINF:8.089800,
277151818490690-index10068.png
#EXTINF:10.425000,
277151818490690-index10069.png
#EXTINF:6.546900,
277151818490690-index10070.png
#EXTINF:8.465100,
277151818490690-index10071.png
#EXTINF:8.173200,
277151818490690-index10072.png
#EXTINF:3.669600,
277151818490690-index10073.png
#EXTINF:3.753000,
277151818490690-index10074.png
#EXTINF:6.380100,
277151818490690-index10075.png
#EXTINF:5.629500,
277151818490690-index10076.png
#EXTINF:4.253400,
277151818490690-index10077.png
#EXTINF:5.004000,
277151818490690-index10078.png
#EXTINF:3.878100,
277151818490690-index10079.png
#EXTINF:2.710500,
277151818490690-index10080.png
#EXTINF:3.252600,
277151818490690-index10081.png
#EXTINF:9.632700,
277151818490690-index10082.png
#EXTINF:5.546100,
277151818490690-index10083.png
#EXTINF:7.005600,
277151818490690-index10084.png
#EXTINF:5.337600,
277151818490690-index10085.png
#EXTINF:9.632700,
277151818490690-index10086.png
#EXTINF:8.840400,
277151818490690-index10087.png
#EXTINF:8.506800,
277151818490690-index10088.png
#EXTINF:4.837200,
277151818490690-index10089.png
#EXTINF:7.130700,
277151818490690-index10090.png
#EXTINF:4.795500,
277151818490690-index10091.png
#EXTINF:4.878900,
277151818490690-index10092.png
#EXTINF:3.419400,
277151818490690-index10093.png
#EXTINF:10.425000,
277151818490690-index10094.png
#EXTINF:9.007200,
277151818490690-index10095.png
#EXTINF:5.254200,
277151818490690-index10096.png
#EXTINF:8.423400,
277151818490690-index10097.png
#EXTINF:9.799500,
277151818490690-index10098.png
#EXTINF:4.253400,
277151818490690-index10099.png
#EXTINF:7.005600,
277151818490690-index10100.png
#EXTINF:6.505200,
277151818490690-index10101.png
#EXTINF:8.506800,
277151818490690-index10102.png
#EXTINF:10.133100,
277151818490690-index10103.png
#EXTINF:10.425000,
277151818490690-index10104.png
#EXTINF:4.962300,
277151818490690-index10105.png
#EXTINF:5.504400,
277151818490690-index10106.png
#EXTINF:7.339200,
277151818490690-index10107.png
#EXTINF:9.841200,
277151818490690-index10108.png
#EXTINF:8.089800,
277151818490690-index10109.png
#EXTINF:10.425000,
277151818490690-index10110.png
#EXTINF:8.506800,
277151818490690-index10111.png
#EXTINF:5.421000,
277151818490690-index10112.png
#EXTINF:6.004800,
277151818490690-index10113.png
#EXTINF:9.007200,
277151818490690-index10114.png
#EXTINF:9.674400,
277151818490690-index10115.png
#EXTINF:8.256600,
277151818490690-index10116.png
#EXTINF:9.257400,
277151818490690-index10117.png
#EXTINF:9.507600,
277151818490690-index10118.png
#EXTINF:6.129900,
277151818490690-index10119.png
#EXTINF:5.129100,
277151818490690-index10120.png
#EXTINF:7.881300,
277151818490690-index10121.png
#EXTINF:10.425000,
277151818490690-index10122.png
#EXTINF:10.425000,
277151818490690-index10123.png
#EXTINF:7.422600,
277151818490690-index10124.png
#EXTINF:10.425000,
277151818490690-index10125.png
#EXTINF:3.294300,
277151818490690-index10126.png
#EXTINF:8.923800,
277151818490690-index10127.png
#EXTINF:8.548500,
277151818490690-index10128.png
#EXTINF:4.878900,
277151818490690-index10129.png
#EXTINF:8.757000,
277151818490690-index10130.png
#EXTINF:9.882900,
277151818490690-index10131.png
#EXTINF:5.504400,
277151818490690-index10132.png
#EXTINF:6.004800,
277151818490690-index10133.png
#EXTINF:5.004000,
277151818490690-index10134.png
#EXTINF:5.754600,
277151818490690-index10135.png
#EXTINF:4.503600,
277151818490690-index10136.png
#EXTINF:8.590200,
277151818490690-index10137.png
#EXTINF:7.089000,
277151818490690-index10138.png
#EXTINF:4.253400,
277151818490690-index10139.png
#EXTINF:3.878100,
277151818490690-index10140.png
#EXTINF:10.425000,
277151818490690-index10141.png
#EXTINF:8.965500,
277151818490690-index10142.png
#EXTINF:1.209300,
277151818490690-index10143.png
#EXTINF:4.003200,
277151818490690-index10144.png
#EXTINF:2.877300,
277151818490690-index10145.png
#EXTINF:7.506000,
277151818490690-index10146.png
#EXTINF:10.425000,
277151818490690-index10147.png
#EXTINF:6.463500,
277151818490690-index10148.png
#EXTINF:10.425000,
277151818490690-index10149.png
#EXTINF:2.043300,
277151818490690-index10150.png
#EXTINF:5.754600,
277151818490690-index10151.png
#EXTINF:4.003200,
277151818490690-index10152.png
#EXTINF:3.502800,
277151818490690-index10153.png
#EXTINF:5.004000,
277151818490690-index10154.png
#EXTINF:3.002400,
277151818490690-index10155.png
#EXTINF:4.128300,
277151818490690-index10156.png
#EXTINF:5.879700,
277151818490690-index10157.png
#EXTINF:4.378500,
277151818490690-index10158.png
#EXTINF:10.425000,
277151818490690-index10159.png
#EXTINF:4.128300,
277151818490690-index10160.png
#EXTINF:4.503600,
277151818490690-index10161.png
#EXTINF:5.004000,
277151818490690-index10162.png
#EXTINF:5.421000,
277151818490690-index10163.png
#EXTINF:6.546900,
277151818490690-index10164.png
#EXTINF:5.129100,
277151818490690-index10165.png
#EXTINF:5.921400,
277151818490690-index10166.png
#EXTINF:4.295100,
277151818490690-index10167.png
#EXTINF:7.756200,
277151818490690-index10168.png
#EXTINF:2.752200,
277151818490690-index10169.png
#EXTINF:4.378500,
277151818490690-index10170.png
#EXTINF:6.546900,
277151818490690-index10171.png
#EXTINF:7.923000,
277151818490690-index10172.png
#EXTINF:8.340000,
277151818490690-index10173.png
#EXTINF:2.877300,
277151818490690-index10174.png
#EXTINF:9.632700,
277151818490690-index10175.png
#EXTINF:3.502800,
277151818490690-index10176.png
#EXTINF:7.130700,
277151818490690-index10177.png
#EXTINF:4.503600,
277151818490690-index10178.png
#EXTINF:10.425000,
277151818490690-index10179.png
#EXTINF:10.216500,
277151818490690-index10180.png
#EXTINF:6.588600,
277151818490690-index10181.png
#EXTINF:7.672800,
277151818490690-index10182.png
#EXTINF:7.881300,
277151818490690-index10183.png
#EXTINF:3.377700,
277151818490690-index10184.png
#EXTINF:10.383300,
277151818490690-index10185.png
#EXTINF:7.255800,
277151818490690-index10186.png
#EXTINF:5.254200,
277151818490690-index10187.png
#EXTINF:7.506000,
277151818490690-index10188.png
#EXTINF:3.502800,
277151818490690-index10189.png
#EXTINF:5.629500,
277151818490690-index10190.png
#EXTINF:10.425000,
277151818490690-index10191.png
#EXTINF:3.002400,
277151818490690-index10192.png
#EXTINF:5.004000,
277151818490690-index10193.png
#EXTINF:10.425000,
277151818490690-index10194.png
#EXTINF:4.795500,
277151818490690-index10195.png
#EXTINF:10.425000,
277151818490690-index10196.png
#EXTINF:9.257400,
277151818490690-index10197.png
#EXTINF:10.425000,
277151818490690-index10198.png
#EXTINF:10.425000,
277151818490690-index10199.png
#EXTINF:2.668800,
277151818490690-index10200.png
#EXTINF:10.425000,
277151818490690-index10201.png
#EXTINF:1.834800,
277151818490690-index10202.png
#EXTINF:10.425000,
277151818490690-index10203.png
#EXTINF:6.505200,
277151818490690-index10204.png
#EXTINF:2.376900,
277151818490690-index10205.png
#EXTINF:3.669600,
277151818490690-index10206.png
#EXTINF:3.461100,
277151818490690-index10207.png
#EXTINF:5.504400,
277151818490690-index10208.png
#EXTINF:2.376900,
277151818490690-index10209.png
#EXT-X-ENDLIST
