#EXTM3U
#EXT-X-VERSION:3
#EXT-X-TARGETDURATION:4
#EXT-X-MEDIA-SEQUENCE:10001
#EXTINF:3.966244,
277409344083732-index10001.png
#EXTINF:3.000000,
277409344083732-index10002.png
#EXTINF:3.000000,
277409344083732-index10003.png
#EXTINF:3.000000,
277409344083732-index10004.png
#EXTINF:3.000000,
277409344083732-index10005.png
#EXTINF:3.000000,
277409344083732-index10006.png
#EXTINF:3.000000,
277409344083732-index10007.png
#EXTINF:3.000000,
277409344083732-index10008.png
#EXTINF:3.000000,
277409344083732-index10009.png
#EXTINF:3.000000,
277409344083732-index10010.png
#EXTINF:3.000000,
277409344083732-index10011.png
#EXTINF:3.000000,
277409344083732-index10012.png
#EXTINF:3.000000,
277409344083732-index10013.png
#EXTINF:3.000000,
277409344083732-index10014.png
#EXTINF:3.000000,
277409344083732-index10015.png
#EXTINF:3.000000,
277409344083732-index10016.png
#EXTINF:3.000000,
277409344083732-index10017.png
#EXTINF:3.000000,
277409344083732-index10018.png
#EXTINF:3.000000,
277409344083732-index10019.png
#EXTINF:3.000000,
277409344083732-index10020.png
#EXTINF:3.000000,
277409344083732-index10021.png
#EXTINF:3.000000,
277409344083732-index10022.png
#EXTINF:3.000000,
277409344083732-index10023.png
#EXTINF:3.000000,
277409344083732-index10024.png
#EXTINF:3.000000,
277409344083732-index10025.png
#EXTINF:3.000000,
277409344083732-index10026.png
#EXTINF:3.000000,
277409344083732-index10027.png
#EXTINF:3.000000,
277409344083732-index10028.png
#EXTINF:3.000000,
277409344083732-index10029.png
#EXTINF:3.000000,
277409344083732-index10030.png
#EXTINF:3.000000,
277409344083732-index10031.png
#EXTINF:3.000000,
277409344083732-index10032.png
#EXTINF:3.000000,
277409344083732-index10033.png
#EXTINF:3.000000,
277409344083732-index10034.png
#EXTINF:3.000000,
277409344083732-index10035.png
#EXTINF:3.000000,
277409344083732-index10036.png
#EXTINF:3.000000,
277409344083732-index10037.png
#EXTINF:3.000000,
277409344083732-index10038.png
#EXTINF:3.000000,
277409344083732-index10039.png
#EXTINF:3.000000,
277409344083732-index10040.png
#EXTINF:3.000000,
277409344083732-index10041.png
#EXTINF:3.000000,
277409344083732-index10042.png
#EXTINF:3.000000,
277409344083732-index10043.png
#EXTINF:3.000000,
277409344083732-index10044.png
#EXTINF:3.000000,
277409344083732-index10045.png
#EXTINF:3.000000,
277409344083732-index10046.png
#EXTINF:3.000000,
277409344083732-index10047.png
#EXTINF:3.000000,
277409344083732-index10048.png
#EXTINF:3.000000,
277409344083732-index10049.png
#EXTINF:3.000000,
277409344083732-index10050.png
#EXTINF:3.000000,
277409344083732-index10051.png
#EXTINF:3.000000,
277409344083732-index10052.png
#EXTINF:3.000000,
277409344083732-index10053.png
#EXTINF:3.000000,
277409344083732-index10054.png
#EXTINF:3.000000,
277409344083732-index10055.png
#EXTINF:3.000000,
277409344083732-index10056.png
#EXTINF:3.000000,
277409344083732-index10057.png
#EXTINF:3.000000,
277409344083732-index10058.png
#EXTINF:3.000000,
277409344083732-index10059.png
#EXTINF:3.000000,
277409344083732-index10060.png
#EXTINF:3.000000,
277409344083732-index10061.png
#EXTINF:3.000000,
277409344083732-index10062.png
#EXTINF:3.000000,
277409344083732-index10063.png
#EXTINF:3.000000,
277409344083732-index10064.png
#EXTINF:3.000000,
277409344083732-index10065.png
#EXTINF:3.000000,
277409344083732-index10066.png
#EXTINF:3.000000,
277409344083732-index10067.png
#EXTINF:3.000000,
277409344083732-index10068.png
#EXTINF:3.000000,
277409344083732-index10069.png
#EXTINF:3.000000,
277409344083732-index10070.png
#EXTINF:3.000000,
277409344083732-index10071.png
#EXTINF:3.000000,
277409344083732-index10072.png
#EXTINF:3.000000,
277409344083732-index10073.png
#EXTINF:3.000000,
277409344083732-index10074.png
#EXTINF:3.000000,
277409344083732-index10075.png
#EXTINF:3.000000,
277409344083732-index10076.png
#EXTINF:3.000000,
277409344083732-index10077.png
#EXTINF:3.000000,
277409344083732-index10078.png
#EXTINF:3.000000,
277409344083732-index10079.png
#EXTINF:3.000000,
277409344083732-index10080.png
#EXTINF:3.000000,
277409344083732-index10081.png
#EXTINF:3.000000,
277409344083732-index10082.png
#EXTINF:3.000000,
277409344083732-index10083.png
#EXTINF:3.000000,
277409344083732-index10084.png
#EXTINF:3.000000,
277409344083732-index10085.png
#EXTINF:3.000000,
277409344083732-index10086.png
#EXTINF:3.000000,
277409344083732-index10087.png
#EXTINF:3.000000,
277409344083732-index10088.png
#EXTINF:3.000000,
277409344083732-index10089.png
#EXTINF:3.000000,
277409344083732-index10090.png
#EXTINF:3.000000,
277409344083732-index10091.png
#EXTINF:3.000000,
277409344083732-index10092.png
#EXTINF:3.000000,
277409344083732-index10093.png
#EXTINF:3.000000,
277409344083732-index10094.png
#EXTINF:3.000000,
277409344083732-index10095.png
#EXTINF:3.000000,
277409344083732-index10096.png
#EXTINF:3.000000,
277409344083732-index10097.png
#EXTINF:3.000000,
277409344083732-index10098.png
#EXTINF:3.000000,
277409344083732-index10099.png
#EXTINF:3.000000,
277409344083732-index10100.png
#EXTINF:3.000000,
277409344083732-index10101.png
#EXTINF:3.000000,
277409344083732-index10102.png
#EXTINF:3.000000,
277409344083732-index10103.png
#EXTINF:3.000000,
277409344083732-index10104.png
#EXTINF:3.000000,
277409344083732-index10105.png
#EXTINF:3.000000,
277409344083732-index10106.png
#EXTINF:3.000000,
277409344083732-index10107.png
#EXTINF:3.000000,
277409344083732-index10108.png
#EXTINF:3.000000,
277409344083732-index10109.png
#EXTINF:3.000000,
277409344083732-index10110.png
#EXTINF:3.000000,
277409344083732-index10111.png
#EXTINF:3.000000,
277409344083732-index10112.png
#EXTINF:3.000000,
277409344083732-index10113.png
#EXTINF:3.000000,
277409344083732-index10114.png
#EXTINF:3.000000,
277409344083732-index10115.png
#EXTINF:3.000000,
277409344083732-index10116.png
#EXTINF:3.000000,
277409344083732-index10117.png
#EXTINF:3.000000,
277409344083732-index10118.png
#EXTINF:3.000000,
277409344083732-index10119.png
#EXTINF:3.000000,
277409344083732-index10120.png
#EXTINF:3.000000,
277409344083732-index10121.png
#EXTINF:3.000000,
277409344083732-index10122.png
#EXTINF:3.000000,
277409344083732-index10123.png
#EXTINF:3.000000,
277409344083732-index10124.png
#EXTINF:3.000000,
277409344083732-index10125.png
#EXTINF:3.000000,
277409344083732-index10126.png
#EXTINF:3.000000,
277409344083732-index10127.png
#EXTINF:3.000000,
277409344083732-index10128.png
#EXTINF:3.000000,
277409344083732-index10129.png
#EXTINF:3.000000,
277409344083732-index10130.png
#EXTINF:3.000000,
277409344083732-index10131.png
#EXTINF:3.000000,
277409344083732-index10132.png
#EXTINF:3.000000,
277409344083732-index10133.png
#EXTINF:3.000000,
277409344083732-index10134.png
#EXTINF:3.000000,
277409344083732-index10135.png
#EXTINF:3.000000,
277409344083732-index10136.png
#EXTINF:3.000000,
277409344083732-index10137.png
#EXTINF:3.000000,
277409344083732-index10138.png
#EXTINF:3.000000,
277409344083732-index10139.png
#EXTINF:3.000000,
277409344083732-index10140.png
#EXTINF:3.000000,
277409344083732-index10141.png
#EXTINF:3.000000,
277409344083732-index10142.png
#EXTINF:3.000000,
277409344083732-index10143.png
#EXTINF:3.000000,
277409344083732-index10144.png
#EXTINF:3.000000,
277409344083732-index10145.png
#EXTINF:3.000000,
277409344083732-index10146.png
#EXTINF:3.000000,
277409344083732-index10147.png
#EXTINF:3.000000,
277409344083732-index10148.png
#EXTINF:3.000000,
277409344083732-index10149.png
#EXTINF:3.000000,
277409344083732-index10150.png
#EXTINF:3.000000,
277409344083732-index10151.png
#EXTINF:3.000000,
277409344083732-index10152.png
#EXTINF:3.000000,
277409344083732-index10153.png
#EXTINF:3.000000,
277409344083732-index10154.png
#EXTINF:3.000000,
277409344083732-index10155.png
#EXTINF:3.000000,
277409344083732-index10156.png
#EXTINF:3.000000,
277409344083732-index10157.png
#EXTINF:3.000000,
277409344083732-index10158.png
#EXTINF:3.000000,
277409344083732-index10159.png
#EXTINF:3.000000,
277409344083732-index10160.png
#EXTINF:3.000000,
277409344083732-index10161.png
#EXTINF:3.000000,
277409344083732-index10162.png
#EXTINF:3.000000,
277409344083732-index10163.png
#EXTINF:3.000000,
277409344083732-index10164.png
#EXTINF:3.000000,
277409344083732-index10165.png
#EXTINF:3.000000,
277409344083732-index10166.png
#EXTINF:3.000000,
277409344083732-index10167.png
#EXTINF:3.000000,
277409344083732-index10168.png
#EXTINF:3.000000,
277409344083732-index10169.png
#EXTINF:3.000000,
277409344083732-index10170.png
#EXTINF:3.000000,
277409344083732-index10171.png
#EXTINF:3.000000,
277409344083732-index10172.png
#EXTINF:3.000000,
277409344083732-index10173.png
#EXTINF:3.000000,
277409344083732-index10174.png
#EXTINF:3.000000,
277409344083732-index10175.png
#EXTINF:3.000000,
277409344083732-index10176.png
#EXTINF:3.000000,
277409344083732-index10177.png
#EXTINF:3.000000,
277409344083732-index10178.png
#EXTINF:3.000000,
277409344083732-index10179.png
#EXTINF:3.000000,
277409344083732-index10180.png
#EXTINF:3.000000,
277409344083732-index10181.png
#EXTINF:3.000000,
277409344083732-index10182.png
#EXTINF:3.000000,
277409344083732-index10183.png
#EXTINF:3.000000,
277409344083732-index10184.png
#EXTINF:3.000000,
277409344083732-index10185.png
#EXTINF:3.000000,
277409344083732-index10186.png
#EXTINF:3.000000,
277409344083732-index10187.png
#EXTINF:3.000000,
277409344083732-index10188.png
#EXTINF:3.000000,
277409344083732-index10189.png
#EXTINF:3.000000,
277409344083732-index10190.png
#EXTINF:3.000000,
277409344083732-index10191.png
#EXTINF:3.000000,
277409344083732-index10192.png
#EXTINF:3.000000,
277409344083732-index10193.png
#EXTINF:3.000000,
277409344083732-index10194.png
#EXTINF:3.000000,
277409344083732-index10195.png
#EXTINF:3.000000,
277409344083732-index10196.png
#EXTINF:3.000000,
277409344083732-index10197.png
#EXTINF:3.000000,
277409344083732-index10198.png
#EXTINF:3.000000,
277409344083732-index10199.png
#EXTINF:3.000000,
277409344083732-index10200.png
#EXTINF:3.000000,
277409344083732-index10201.png
#EXTINF:3.000000,
277409344083732-index10202.png
#EXTINF:3.000000,
277409344083732-index10203.png
#EXTINF:3.000000,
277409344083732-index10204.png
#EXTINF:3.000000,
277409344083732-index10205.png
#EXTINF:3.000000,
277409344083732-index10206.png
#EXTINF:3.000000,
277409344083732-index10207.png
#EXTINF:3.000000,
277409344083732-index10208.png
#EXTINF:3.000000,
277409344083732-index10209.png
#EXTINF:3.000000,
277409344083732-index10210.png
#EXTINF:3.000000,
277409344083732-index10211.png
#EXTINF:3.000000,
277409344083732-index10212.png
#EXTINF:3.000000,
277409344083732-index10213.png
#EXTINF:3.000000,
277409344083732-index10214.png
#EXTINF:3.000000,
277409344083732-index10215.png
#EXTINF:3.000000,
277409344083732-index10216.png
#EXTINF:3.000000,
277409344083732-index10217.png
#EXTINF:3.000000,
277409344083732-index10218.png
#EXTINF:3.000000,
277409344083732-index10219.png
#EXTINF:3.000000,
277409344083732-index10220.png
#EXTINF:3.000000,
277409344083732-index10221.png
#EXTINF:3.000000,
277409344083732-index10222.png
#EXTINF:3.000000,
277409344083732-index10223.png
#EXTINF:3.000000,
277409344083732-index10224.png
#EXTINF:3.000000,
277409344083732-index10225.png
#EXTINF:3.000000,
277409344083732-index10226.png
#EXTINF:3.000000,
277409344083732-index10227.png
#EXTINF:3.000000,
277409344083732-index10228.png
#EXTINF:3.000000,
277409344083732-index10229.png
#EXTINF:3.000000,
277409344083732-index10230.png
#EXTINF:3.000000,
277409344083732-index10231.png
#EXTINF:3.000000,
277409344083732-index10232.png
#EXTINF:3.000000,
277409344083732-index10233.png
#EXTINF:3.000000,
277409344083732-index10234.png
#EXTINF:3.000000,
277409344083732-index10235.png
#EXTINF:3.000000,
277409344083732-index10236.png
#EXTINF:3.000000,
277409344083732-index10237.png
#EXTINF:3.000000,
277409344083732-index10238.png
#EXTINF:3.000000,
277409344083732-index10239.png
#EXTINF:3.000000,
277409344083732-index10240.png
#EXTINF:3.000000,
277409344083732-index10241.png
#EXTINF:3.000000,
277409344083732-index10242.png
#EXTINF:3.000000,
277409344083732-index10243.png
#EXTINF:3.000000,
277409344083732-index10244.png
#EXTINF:3.000000,
277409344083732-index10245.png
#EXTINF:3.000000,
277409344083732-index10246.png
#EXTINF:3.000000,
277409344083732-index10247.png
#EXTINF:3.000000,
277409344083732-index10248.png
#EXTINF:3.000000,
277409344083732-index10249.png
#EXTINF:3.000000,
277409344083732-index10250.png
#EXTINF:3.000000,
277409344083732-index10251.png
#EXTINF:3.000000,
277409344083732-index10252.png
#EXTINF:3.000000,
277409344083732-index10253.png
#EXTINF:3.000000,
277409344083732-index10254.png
#EXTINF:3.000000,
277409344083732-index10255.png
#EXTINF:3.000000,
277409344083732-index10256.png
#EXTINF:3.000000,
277409344083732-index10257.png
#EXTINF:3.000000,
277409344083732-index10258.png
#EXTINF:3.000000,
277409344083732-index10259.png
#EXTINF:3.000000,
277409344083732-index10260.png
#EXTINF:3.000000,
277409344083732-index10261.png
#EXTINF:3.000000,
277409344083732-index10262.png
#EXTINF:3.000000,
277409344083732-index10263.png
#EXTINF:3.000000,
277409344083732-index10264.png
#EXTINF:3.000000,
277409344083732-index10265.png
#EXTINF:3.000000,
277409344083732-index10266.png
#EXTINF:3.000000,
277409344083732-index10267.png
#EXTINF:3.000000,
277409344083732-index10268.png
#EXTINF:3.000000,
277409344083732-index10269.png
#EXTINF:3.000000,
277409344083732-index10270.png
#EXTINF:3.000000,
277409344083732-index10271.png
#EXTINF:3.000000,
277409344083732-index10272.png
#EXTINF:3.000000,
277409344083732-index10273.png
#EXTINF:3.000000,
277409344083732-index10274.png
#EXTINF:3.000000,
277409344083732-index10275.png
#EXTINF:3.000000,
277409344083732-index10276.png
#EXTINF:3.000000,
277409344083732-index10277.png
#EXTINF:3.000000,
277409344083732-index10278.png
#EXTINF:3.000000,
277409344083732-index10279.png
#EXTINF:3.000000,
277409344083732-index10280.png
#EXTINF:3.000000,
277409344083732-index10281.png
#EXTINF:3.000000,
277409344083732-index10282.png
#EXTINF:3.000000,
277409344083732-index10283.png
#EXTINF:3.000000,
277409344083732-index10284.png
#EXTINF:3.000000,
277409344083732-index10285.png
#EXTINF:3.000000,
277409344083732-index10286.png
#EXTINF:3.000000,
277409344083732-index10287.png
#EXTINF:3.000000,
277409344083732-index10288.png
#EXTINF:3.000000,
277409344083732-index10289.png
#EXTINF:3.000000,
277409344083732-index10290.png
#EXTINF:3.000000,
277409344083732-index10291.png
#EXTINF:3.000000,
277409344083732-index10292.png
#EXTINF:3.000000,
277409344083732-index10293.png
#EXTINF:3.000000,
277409344083732-index10294.png
#EXTINF:3.000000,
277409344083732-index10295.png
#EXTINF:3.000000,
277409344083732-index10296.png
#EXTINF:3.000000,
277409344083732-index10297.png
#EXTINF:3.000000,
277409344083732-index10298.png
#EXTINF:3.000000,
277409344083732-index10299.png
#EXTINF:3.000000,
277409344083732-index10300.png
#EXTINF:3.000000,
277409344083732-index10301.png
#EXTINF:3.000000,
277409344083732-index10302.png
#EXTINF:3.000000,
277409344083732-index10303.png
#EXTINF:3.000000,
277409344083732-index10304.png
#EXTINF:3.000000,
277409344083732-index10305.png
#EXTINF:3.000000,
277409344083732-index10306.png
#EXTINF:3.000000,
277409344083732-index10307.png
#EXTINF:3.000000,
277409344083732-index10308.png
#EXTINF:3.000000,
277409344083732-index10309.png
#EXTINF:3.000000,
277409344083732-index10310.png
#EXTINF:3.000000,
277409344083732-index10311.png
#EXTINF:3.000000,
277409344083732-index10312.png
#EXTINF:3.000000,
277409344083732-index10313.png
#EXTINF:3.000000,
277409344083732-index10314.png
#EXTINF:3.000000,
277409344083732-index10315.png
#EXTINF:3.000000,
277409344083732-index10316.png
#EXTINF:3.000000,
277409344083732-index10317.png
#EXTINF:3.000000,
277409344083732-index10318.png
#EXTINF:3.000000,
277409344083732-index10319.png
#EXTINF:3.000000,
277409344083732-index10320.png
#EXTINF:3.000000,
277409344083732-index10321.png
#EXTINF:3.000000,
277409344083732-index10322.png
#EXTINF:3.000000,
277409344083732-index10323.png
#EXTINF:3.000000,
277409344083732-index10324.png
#EXTINF:3.000000,
277409344083732-index10325.png
#EXTINF:3.000000,
277409344083732-index10326.png
#EXTINF:3.000000,
277409344083732-index10327.png
#EXTINF:3.000000,
277409344083732-index10328.png
#EXTINF:3.000000,
277409344083732-index10329.png
#EXTINF:3.000000,
277409344083732-index10330.png
#EXTINF:3.000000,
277409344083732-index10331.png
#EXTINF:3.000000,
277409344083732-index10332.png
#EXTINF:3.000000,
277409344083732-index10333.png
#EXTINF:3.000000,
277409344083732-index10334.png
#EXTINF:3.000000,
277409344083732-index10335.png
#EXTINF:3.000000,
277409344083732-index10336.png
#EXTINF:3.000000,
277409344083732-index10337.png
#EXTINF:3.000000,
277409344083732-index10338.png
#EXTINF:3.000000,
277409344083732-index10339.png
#EXTINF:3.000000,
277409344083732-index10340.png
#EXTINF:3.000000,
277409344083732-index10341.png
#EXTINF:3.000000,
277409344083732-index10342.png
#EXTINF:3.000000,
277409344083732-index10343.png
#EXTINF:3.000000,
277409344083732-index10344.png
#EXTINF:3.000000,
277409344083732-index10345.png
#EXTINF:0.966011,
277409344083732-index10346.png
#EXT-X-ENDLIST
