#EXTM3U
#EXT-X-VERSION:3
#EXT-X-TARGETDURATION:10
#EXT-X-MEDIA-SEQUENCE:10001
#EXTINF:2.720000,
277953246815337-index10001.png
#EXTINF:2.520000,
277953246815337-index10002.png
#EXTINF:1.040000,
277953246815337-index10003.png
#EXTINF:2.400000,
277953246815337-index10004.png
#EXTINF:3.440000,
277953246815337-index10005.png
#EXTINF:1.720000,
277953246815337-index10006.png
#EXTINF:6.440000,
277953246815337-index10007.png
#EXTINF:3.680000,
277953246815337-index10008.png
#EXTINF:7.440000,
277953246815337-index10009.png
#EXTINF:3.840000,
277953246815337-index10010.png
#EXTINF:3.400000,
277953246815337-index10011.png
#EXTINF:5.840000,
277953246815337-index10012.png
#EXTINF:6.000000,
277953246815337-index10013.png
#EXTINF:1.760000,
277953246815337-index10014.png
#EXTINF:7.840000,
277953246815337-index10015.png
#EXTINF:3.920000,
277953246815337-index10016.png
#EXTINF:3.160000,
277953246815337-index10017.png
#EXTINF:4.440000,
277953246815337-index10018.png
#EXTINF:10.000000,
277953246815337-index10019.png
#EXTINF:3.240000,
277953246815337-index10020.png
#EXTINF:1.960000,
277953246815337-index10021.png
#EXTINF:4.840000,
277953246815337-index10022.png
#EXTINF:1.960000,
277953246815337-index10023.png
#EXTINF:4.840000,
277953246815337-index10024.png
#EXTINF:6.760000,
277953246815337-index10025.png
#EXTINF:5.880000,
277953246815337-index10026.png
#EXTINF:2.320000,
277953246815337-index10027.png
#EXTINF:2.680000,
277953246815337-index10028.png
#EXTINF:5.400000,
277953246815337-index10029.png
#EXTINF:6.440000,
277953246815337-index10030.png
#EXTINF:1.560000,
277953246815337-index10031.png
#EXTINF:1.720000,
277953246815337-index10032.png
#EXTINF:5.120000,
277953246815337-index10033.png
#EXTINF:6.640000,
277953246815337-index10034.png
#EXTINF:4.880000,
277953246815337-index10035.png
#EXTINF:8.280000,
277953246815337-index10036.png
#EXTINF:9.560000,
277953246815337-index10037.png
#EXTINF:4.960000,
277953246815337-index10038.png
#EXTINF:2.760000,
277953246815337-index10039.png
#EXTINF:3.720000,
277953246815337-index10040.png
#EXTINF:10.000000,
277953246815337-index10041.png
#EXTINF:3.840000,
277953246815337-index10042.png
#EXTINF:4.280000,
277953246815337-index10043.png
#EXTINF:9.080000,
277953246815337-index10044.png
#EXTINF:2.400000,
277953246815337-index10045.png
#EXTINF:4.080000,
277953246815337-index10046.png
#EXTINF:5.120000,
277953246815337-index10047.png
#EXTINF:2.000000,
277953246815337-index10048.png
#EXTINF:7.680000,
277953246815337-index10049.png
#EXTINF:4.680000,
277953246815337-index10050.png
#EXTINF:8.440000,
277953246815337-index10051.png
#EXTINF:2.040000,
277953246815337-index10052.png
#EXTINF:2.880000,
277953246815337-index10053.png
#EXTINF:4.480000,
277953246815337-index10054.png
#EXTINF:1.800000,
277953246815337-index10055.png
#EXTINF:3.680000,
277953246815337-index10056.png
#EXTINF:3.120000,
277953246815337-index10057.png
#EXTINF:10.000000,
277953246815337-index10058.png
#EXTINF:3.880000,
277953246815337-index10059.png
#EXTINF:7.920000,
277953246815337-index10060.png
#EXTINF:8.400000,
277953246815337-index10061.png
#EXTINF:4.600000,
277953246815337-index10062.png
#EXTINF:10.000000,
277953246815337-index10063.png
#EXTINF:8.040000,
277953246815337-index10064.png
#EXTINF:3.880000,
277953246815337-index10065.png
#EXTINF:5.760000,
277953246815337-index10066.png
#EXTINF:3.120000,
277953246815337-index10067.png
#EXTINF:5.000000,
277953246815337-index10068.png
#EXT-X-ENDLIST
