#EXTM3U
#EXT-X-VERSION:3
#EXT-X-TARGETDURATION:11
#EXT-X-MEDIA-SEQUENCE:10001
#EXTINF:10.115356,
282657760298914-index10001.ts
#EXTINF:5.005000,
282657760298914-index10002.ts
#EXTINF:5.005000,
282657760298914-index10003.ts
#EXTINF:5.005000,
282657760298914-index10004.ts
#EXTINF:5.005000,
282657760298914-index10005.ts
#EXTINF:10.010000,
282657760298914-index10006.ts
#EXTINF:5.005000,
282657760298914-index10007.ts
#EXTINF:5.005000,
282657760298914-index10008.ts
#EXTINF:5.005000,
282657760298914-index10009.ts
#EXTINF:5.005000,
282657760298914-index10010.ts
#EXTINF:10.010000,
282657760298914-index10011.ts
#EXTINF:5.005000,
282657760298914-index10012.ts
#EXTINF:5.005000,
282657760298914-index10013.ts
#EXTINF:5.005000,
282657760298914-index10014.ts
#EXTINF:5.005000,
282657760298914-index10015.ts
#EXTINF:10.010000,
282657760298914-index10016.ts
#EXTINF:5.005000,
282657760298914-index10017.ts
#EXTINF:5.005000,
282657760298914-index10018.ts
#EXTINF:5.005000,
282657760298914-index10019.ts
#EXTINF:5.005000,
282657760298914-index10020.ts
#EXTINF:10.010000,
282657760298914-index10021.ts
#EXTINF:5.005000,
282657760298914-index10022.ts
#EXTINF:5.005000,
282657760298914-index10023.ts
#EXTINF:5.005000,
282657760298914-index10024.ts
#EXTINF:5.005000,
282657760298914-index10025.ts
#EXTINF:10.010000,
282657760298914-index10026.ts
#EXTINF:5.005000,
282657760298914-index10027.ts
#EXTINF:5.005000,
282657760298914-index10028.ts
#EXTINF:5.005000,
282657760298914-index10029.ts
#EXTINF:5.005000,
282657760298914-index10030.ts
#EXTINF:10.010000,
282657760298914-index10031.ts
#EXTINF:5.005000,
282657760298914-index10032.ts
#EXTINF:5.005000,
282657760298914-index10033.ts
#EXTINF:5.005000,
282657760298914-index10034.ts
#EXTINF:5.005000,
282657760298914-index10035.ts
#EXTINF:10.010000,
282657760298914-index10036.ts
#EXTINF:5.005000,
282657760298914-index10037.ts
#EXTINF:5.005000,
282657760298914-index10038.ts
#EXTINF:5.005000,
282657760298914-index10039.ts
#EXTINF:5.005000,
282657760298914-index10040.ts
#EXTINF:10.010000,
282657760298914-index10041.ts
#EXTINF:5.005000,
282657760298914-index10042.ts
#EXTINF:5.005000,
282657760298914-index10043.ts
#EXTINF:5.005000,
282657760298914-index10044.ts
#EXTINF:5.005000,
282657760298914-index10045.ts
#EXTINF:10.010000,
282657760298914-index10046.ts
#EXTINF:5.005000,
282657760298914-index10047.ts
#EXTINF:5.005000,
282657760298914-index10048.ts
#EXTINF:5.005000,
282657760298914-index10049.ts
#EXTINF:5.005000,
282657760298914-index10050.ts
#EXTINF:10.010000,
282657760298914-index10051.ts
#EXTINF:5.005000,
282657760298914-index10052.ts
#EXTINF:5.005000,
282657760298914-index10053.ts
#EXTINF:5.005000,
282657760298914-index10054.ts
#EXTINF:5.005000,
282657760298914-index10055.ts
#EXTINF:10.010000,
282657760298914-index10056.ts
#EXTINF:5.005000,
282657760298914-index10057.ts
#EXTINF:5.005000,
282657760298914-index10058.ts
#EXTINF:5.005000,
282657760298914-index10059.ts
#EXTINF:5.005000,
282657760298914-index10060.ts
#EXTINF:10.010000,
282657760298914-index10061.ts
#EXTINF:5.005000,
282657760298914-index10062.ts
#EXTINF:5.005000,
282657760298914-index10063.ts
#EXTINF:5.005000,
282657760298914-index10064.ts
#EXTINF:5.005000,
282657760298914-index10065.ts
#EXTINF:10.010000,
282657760298914-index10066.ts
#EXTINF:5.005000,
282657760298914-index10067.ts
#EXTINF:5.005000,
282657760298914-index10068.ts
#EXTINF:5.005000,
282657760298914-index10069.ts
#EXTINF:5.005000,
282657760298914-index10070.ts
#EXTINF:10.010000,
282657760298914-index10071.ts
#EXTINF:5.005000,
282657760298914-index10072.ts
#EXTINF:5.005000,
282657760298914-index10073.ts
#EXTINF:5.005000,
282657760298914-index10074.ts
#EXTINF:5.005000,
282657760298914-index10075.ts
#EXTINF:10.010000,
282657760298914-index10076.ts
#EXTINF:5.005000,
282657760298914-index10077.ts
#EXTINF:5.005000,
282657760298914-index10078.ts
#EXTINF:5.005000,
282657760298914-index10079.ts
#EXTINF:5.005000,
282657760298914-index10080.ts
#EXTINF:10.010000,
282657760298914-index10081.ts
#EXTINF:5.005000,
282657760298914-index10082.ts
#EXTINF:5.005000,
282657760298914-index10083.ts
#EXTINF:5.005000,
282657760298914-index10084.ts
#EXTINF:5.005000,
282657760298914-index10085.ts
#EXTINF:10.010000,
282657760298914-index10086.ts
#EXTINF:5.005000,
282657760298914-index10087.ts
#EXTINF:5.005000,
282657760298914-index10088.ts
#EXTINF:5.005000,
282657760298914-index10089.ts
#EXTINF:5.005000,
282657760298914-index10090.ts
#EXTINF:10.010000,
282657760298914-index10091.ts
#EXTINF:5.005000,
282657760298914-index10092.ts
#EXTINF:5.005000,
282657760298914-index10093.ts
#EXTINF:5.005000,
282657760298914-index10094.ts
#EXTINF:5.005000,
282657760298914-index10095.ts
#EXTINF:10.010000,
282657760298914-index10096.ts
#EXTINF:5.005000,
282657760298914-index10097.ts
#EXTINF:5.005000,
282657760298914-index10098.ts
#EXTINF:5.005000,
282657760298914-index10099.ts
#EXTINF:5.005000,
282657760298914-index10100.ts
#EXTINF:10.010000,
282657760298914-index10101.ts
#EXTINF:5.005000,
282657760298914-index10102.ts
#EXTINF:5.005000,
282657760298914-index10103.ts
#EXTINF:5.005000,
282657760298914-index10104.ts
#EXTINF:5.005000,
282657760298914-index10105.ts
#EXTINF:10.010000,
282657760298914-index10106.ts
#EXTINF:5.005000,
282657760298914-index10107.ts
#EXTINF:5.005000,
282657760298914-index10108.ts
#EXTINF:5.005000,
282657760298914-index10109.ts
#EXTINF:5.005000,
282657760298914-index10110.ts
#EXTINF:10.010000,
282657760298914-index10111.ts
#EXTINF:5.005000,
282657760298914-index10112.ts
#EXTINF:5.005000,
282657760298914-index10113.ts
#EXTINF:5.005000,
282657760298914-index10114.ts
#EXTINF:5.005000,
282657760298914-index10115.ts
#EXTINF:10.010000,
282657760298914-index10116.ts
#EXTINF:5.005000,
282657760298914-index10117.ts
#EXTINF:5.005000,
282657760298914-index10118.ts
#EXTINF:5.005000,
282657760298914-index10119.ts
#EXTINF:5.005000,
282657760298914-index10120.ts
#EXTINF:10.010000,
282657760298914-index10121.ts
#EXTINF:5.005000,
282657760298914-index10122.ts
#EXTINF:5.005000,
282657760298914-index10123.ts
#EXTINF:5.005000,
282657760298914-index10124.ts
#EXTINF:5.005000,
282657760298914-index10125.ts
#EXTINF:10.010000,
282657760298914-index10126.ts
#EXTINF:5.005000,
282657760298914-index10127.ts
#EXTINF:5.005000,
282657760298914-index10128.ts
#EXTINF:5.005000,
282657760298914-index10129.ts
#EXTINF:5.005000,
282657760298914-index10130.ts
#EXTINF:10.010000,
282657760298914-index10131.ts
#EXTINF:5.005000,
282657760298914-index10132.ts
#EXTINF:5.005000,
282657760298914-index10133.ts
#EXTINF:5.005000,
282657760298914-index10134.ts
#EXTINF:5.005000,
282657760298914-index10135.ts
#EXTINF:10.010000,
282657760298914-index10136.ts
#EXTINF:5.005000,
282657760298914-index10137.ts
#EXTINF:5.005000,
282657760298914-index10138.ts
#EXTINF:5.005000,
282657760298914-index10139.ts
#EXTINF:5.005000,
282657760298914-index10140.ts
#EXTINF:10.010000,
282657760298914-index10141.ts
#EXTINF:5.005000,
282657760298914-index10142.ts
#EXTINF:5.005000,
282657760298914-index10143.ts
#EXTINF:5.005000,
282657760298914-index10144.ts
#EXTINF:5.005000,
282657760298914-index10145.ts
#EXTINF:10.010000,
282657760298914-index10146.ts
#EXTINF:5.005000,
282657760298914-index10147.ts
#EXTINF:5.005000,
282657760298914-index10148.ts
#EXTINF:5.005000,
282657760298914-index10149.ts
#EXTINF:5.005000,
282657760298914-index10150.ts
#EXTINF:5.005000,
282657760298914-index10151.ts
#EXTINF:10.010000,
282657760298914-index10152.ts
#EXTINF:5.005000,
282657760298914-index10153.ts
#EXTINF:5.005000,
282657760298914-index10154.ts
#EXTINF:5.005000,
282657760298914-index10155.ts
#EXTINF:5.005000,
282657760298914-index10156.ts
#EXTINF:10.010000,
282657760298914-index10157.ts
#EXTINF:5.005000,
282657760298914-index10158.ts
#EXTINF:5.005000,
282657760298914-index10159.ts
#EXTINF:5.005000,
282657760298914-index10160.ts
#EXTINF:5.005000,
282657760298914-index10161.ts
#EXTINF:10.010000,
282657760298914-index10162.ts
#EXTINF:5.005000,
282657760298914-index10163.ts
#EXTINF:5.005000,
282657760298914-index10164.ts
#EXTINF:5.005000,
282657760298914-index10165.ts
#EXTINF:5.005000,
282657760298914-index10166.ts
#EXTINF:10.010000,
282657760298914-index10167.ts
#EXTINF:5.005000,
282657760298914-index10168.ts
#EXTINF:5.005000,
282657760298914-index10169.ts
#EXTINF:5.005000,
282657760298914-index10170.ts
#EXTINF:5.005000,
282657760298914-index10171.ts
#EXTINF:10.010000,
282657760298914-index10172.ts
#EXTINF:5.005000,
282657760298914-index10173.ts
#EXTINF:5.005000,
282657760298914-index10174.ts
#EXTINF:5.005000,
282657760298914-index10175.ts
#EXTINF:5.005000,
282657760298914-index10176.ts
#EXTINF:10.010000,
282657760298914-index10177.ts
#EXTINF:5.005000,
282657760298914-index10178.ts
#EXTINF:5.005000,
282657760298914-index10179.ts
#EXTINF:5.005000,
282657760298914-index10180.ts
#EXTINF:5.005000,
282657760298914-index10181.ts
#EXTINF:10.010000,
282657760298914-index10182.ts
#EXTINF:5.005000,
282657760298914-index10183.ts
#EXTINF:5.005000,
282657760298914-index10184.ts
#EXTINF:5.005000,
282657760298914-index10185.ts
#EXTINF:5.005000,
282657760298914-index10186.ts
#EXTINF:10.010000,
282657760298914-index10187.ts
#EXTINF:5.005000,
282657760298914-index10188.ts
#EXTINF:5.005000,
282657760298914-index10189.ts
#EXTINF:5.005000,
282657760298914-index10190.ts
#EXTINF:5.005000,
282657760298914-index10191.ts
#EXTINF:10.010000,
282657760298914-index10192.ts
#EXTINF:5.005000,
282657760298914-index10193.ts
#EXTINF:5.005000,
282657760298914-index10194.ts
#EXTINF:5.005000,
282657760298914-index10195.ts
#EXTINF:5.005000,
282657760298914-index10196.ts
#EXTINF:10.010000,
282657760298914-index10197.ts
#EXTINF:5.005000,
282657760298914-index10198.ts
#EXTINF:5.005000,
282657760298914-index10199.ts
#EXTINF:5.005000,
282657760298914-index10200.ts
#EXTINF:5.005000,
282657760298914-index10201.ts
#EXTINF:10.010000,
282657760298914-index10202.ts
#EXTINF:5.005000,
282657760298914-index10203.ts
#EXTINF:5.005000,
282657760298914-index10204.ts
#EXTINF:5.005000,
282657760298914-index10205.ts
#EXTINF:5.005000,
282657760298914-index10206.ts
#EXTINF:10.010000,
282657760298914-index10207.ts
#EXTINF:5.005000,
282657760298914-index10208.ts
#EXTINF:5.005000,
282657760298914-index10209.ts
#EXTINF:5.005000,
282657760298914-index10210.ts
#EXTINF:5.005000,
282657760298914-index10211.ts
#EXTINF:10.010000,
282657760298914-index10212.ts
#EXTINF:5.005000,
282657760298914-index10213.ts
#EXTINF:5.005000,
282657760298914-index10214.ts
#EXTINF:5.005000,
282657760298914-index10215.ts
#EXTINF:5.005000,
282657760298914-index10216.ts
#EXTINF:10.010000,
282657760298914-index10217.ts
#EXTINF:5.005000,
282657760298914-index10218.ts
#EXTINF:5.005000,
282657760298914-index10219.ts
#EXTINF:5.005000,
282657760298914-index10220.ts
#EXTINF:5.005000,
282657760298914-index10221.ts
#EXTINF:10.010000,
282657760298914-index10222.ts
#EXTINF:5.005000,
282657760298914-index10223.ts
#EXTINF:5.005000,
282657760298914-index10224.ts
#EXTINF:5.005000,
282657760298914-index10225.ts
#EXTINF:5.005000,
282657760298914-index10226.ts
#EXTINF:10.010000,
282657760298914-index10227.ts
#EXTINF:5.005000,
282657760298914-index10228.ts
#EXTINF:5.005000,
282657760298914-index10229.ts
#EXTINF:5.005000,
282657760298914-index10230.ts
#EXTINF:5.005000,
282657760298914-index10231.ts
#EXTINF:10.010000,
282657760298914-index10232.ts
#EXTINF:5.005000,
282657760298914-index10233.ts
#EXTINF:5.005000,
282657760298914-index10234.ts
#EXTINF:5.005000,
282657760298914-index10235.ts
#EXTINF:5.005000,
282657760298914-index10236.ts
#EXTINF:10.010000,
282657760298914-index10237.ts
#EXTINF:5.005000,
282657760298914-index10238.ts
#EXTINF:5.005000,
282657760298914-index10239.ts
#EXTINF:5.005000,
282657760298914-index10240.ts
#EXTINF:5.005000,
282657760298914-index10241.ts
#EXTINF:10.010000,
282657760298914-index10242.ts
#EXTINF:5.005000,
282657760298914-index10243.ts
#EXTINF:5.005000,
282657760298914-index10244.ts
#EXTINF:5.005000,
282657760298914-index10245.ts
#EXTINF:5.005000,
282657760298914-index10246.ts
#EXTINF:10.010000,
282657760298914-index10247.ts
#EXTINF:5.005000,
282657760298914-index10248.ts
#EXTINF:5.005000,
282657760298914-index10249.ts
#EXTINF:5.005000,
282657760298914-index10250.ts
#EXTINF:5.005000,
282657760298914-index10251.ts
#EXTINF:10.010000,
282657760298914-index10252.ts
#EXTINF:5.005000,
282657760298914-index10253.ts
#EXTINF:5.005000,
282657760298914-index10254.ts
#EXTINF:5.005000,
282657760298914-index10255.ts
#EXTINF:5.005000,
282657760298914-index10256.ts
#EXTINF:10.010000,
282657760298914-index10257.ts
#EXTINF:5.005000,
282657760298914-index10258.ts
#EXTINF:5.005000,
282657760298914-index10259.ts
#EXTINF:5.005000,
282657760298914-index10260.ts
#EXTINF:5.005000,
282657760298914-index10261.ts
#EXTINF:10.010000,
282657760298914-index10262.ts
#EXTINF:5.005000,
282657760298914-index10263.ts
#EXTINF:5.005000,
282657760298914-index10264.ts
#EXTINF:5.005000,
282657760298914-index10265.ts
#EXTINF:5.005000,
282657760298914-index10266.ts
#EXTINF:10.010000,
282657760298914-index10267.ts
#EXTINF:5.005000,
282657760298914-index10268.ts
#EXTINF:5.005000,
282657760298914-index10269.ts
#EXTINF:5.005000,
282657760298914-index10270.ts
#EXTINF:5.005000,
282657760298914-index10271.ts
#EXTINF:10.010000,
282657760298914-index10272.ts
#EXTINF:5.005000,
282657760298914-index10273.ts
#EXTINF:5.005000,
282657760298914-index10274.ts
#EXTINF:5.005000,
282657760298914-index10275.ts
#EXTINF:5.005000,
282657760298914-index10276.ts
#EXTINF:10.010000,
282657760298914-index10277.ts
#EXTINF:5.005000,
282657760298914-index10278.ts
#EXTINF:5.005000,
282657760298914-index10279.ts
#EXTINF:5.005000,
282657760298914-index10280.ts
#EXTINF:5.005000,
282657760298914-index10281.ts
#EXTINF:10.010000,
282657760298914-index10282.ts
#EXTINF:5.005000,
282657760298914-index10283.ts
#EXTINF:5.005000,
282657760298914-index10284.ts
#EXTINF:5.005000,
282657760298914-index10285.ts
#EXTINF:5.005000,
282657760298914-index10286.ts
#EXTINF:10.010000,
282657760298914-index10287.ts
#EXTINF:5.005000,
282657760298914-index10288.ts
#EXTINF:5.005000,
282657760298914-index10289.ts
#EXTINF:5.005000,
282657760298914-index10290.ts
#EXTINF:5.005000,
282657760298914-index10291.ts
#EXTINF:10.010000,
282657760298914-index10292.ts
#EXTINF:5.005000,
282657760298914-index10293.ts
#EXTINF:0.467133,
282657760298914-index10294.ts
#EXT-X-ENDLIST
