#EXTM3U
#EXT-X-VERSION:3
#EXT-X-TARGETDURATION:11
#EXT-X-MEDIA-SEQUENCE:10001
#EXTINF:8.083333,
287965279486444-index10001.png
#EXTINF:10.416667,
287965279486444-index10002.png
#EXTINF:10.416667,
287965279486444-index10003.png
#EXTINF:3.666667,
287965279486444-index10004.png
#EXTINF:6.000000,
287965279486444-index10005.png
#EXTINF:4.166667,
287965279486444-index10006.png
#EXTINF:4.041667,
287965279486444-index10007.png
#EXTINF:5.166667,
287965279486444-index10008.png
#EXTINF:3.583333,
287965279486444-index10009.png
#EXTINF:1.541667,
287965279486444-index10010.png
#EXTINF:1.500000,
287965279486444-index10011.png
#EXTINF:3.791667,
287965279486444-index10012.png
#EXTINF:3.791667,
287965279486444-index10013.png
#EXTINF:3.416667,
287965279486444-index10014.png
#EXTINF:4.125000,
287965279486444-index10015.png
#EXTINF:2.791667,
287965279486444-index10016.png
#EXTINF:2.791667,
287965279486444-index10017.png
#EXTINF:3.375000,
287965279486444-index10018.png
#EXTINF:3.750000,
287965279486444-index10019.png
#EXTINF:5.250000,
287965279486444-index10020.png
#EXTINF:2.041667,
287965279486444-index10021.png
#EXTINF:1.958333,
287965279486444-index10022.png
#EXTINF:5.500000,
287965279486444-index10023.png
#EXTINF:9.166667,
287965279486444-index10024.png
#EXTINF:9.750000,
287965279486444-index10025.png
#EXTINF:10.416667,
287965279486444-index10026.png
#EXTINF:10.416667,
287965279486444-index10027.png
#EXTINF:10.416667,
287965279486444-index10028.png
#EXTINF:7.791667,
287965279486444-index10029.png
#EXTINF:5.916667,
287965279486444-index10030.png
#EXTINF:9.125000,
287965279486444-index10031.png
#EXTINF:7.458333,
287965279486444-index10032.png
#EXTINF:6.041667,
287965279486444-index10033.png
#EXTINF:4.791667,
287965279486444-index10034.png
#EXTINF:10.416667,
287965279486444-index10035.png
#EXTINF:6.375000,
287965279486444-index10036.png
#EXTINF:10.416667,
287965279486444-index10037.png
#EXTINF:10.416667,
287965279486444-index10038.png
#EXTINF:8.625000,
287965279486444-index10039.png
#EXTINF:7.166667,
287965279486444-index10040.png
#EXTINF:10.416667,
287965279486444-index10041.png
#EXTINF:9.208333,
287965279486444-index10042.png
#EXTINF:8.666667,
287965279486444-index10043.png
#EXTINF:3.791667,
287965279486444-index10044.png
#EXTINF:5.041667,
287965279486444-index10045.png
#EXTINF:7.458333,
287965279486444-index10046.png
#EXTINF:6.416667,
287965279486444-index10047.png
#EXTINF:8.458333,
287965279486444-index10048.png
#EXTINF:4.958333,
287965279486444-index10049.png
#EXTINF:10.416667,
287965279486444-index10050.png
#EXTINF:7.791667,
287965279486444-index10051.png
#EXTINF:8.000000,
287965279486444-index10052.png
#EXTINF:5.791667,
287965279486444-index10053.png
#EXTINF:6.208333,
287965279486444-index10054.png
#EXTINF:5.208333,
287965279486444-index10055.png
#EXTINF:9.375000,
287965279486444-index10056.png
#EXTINF:9.000000,
287965279486444-index10057.png
#EXTINF:10.416667,
287965279486444-index10058.png
#EXTINF:2.416667,
287965279486444-index10059.png
#EXTINF:10.416667,
287965279486444-index10060.png
#EXTINF:6.500000,
287965279486444-index10061.png
#EXTINF:10.416667,
287965279486444-index10062.png
#EXTINF:10.416667,
287965279486444-index10063.png
#EXTINF:6.500000,
287965279486444-index10064.png
#EXTINF:8.125000,
287965279486444-index10065.png
#EXTINF:4.250000,
287965279486444-index10066.png
#EXTINF:7.541667,
287965279486444-index10067.png
#EXTINF:5.375000,
287965279486444-index10068.png
#EXTINF:7.250000,
287965279486444-index10069.png
#EXTINF:10.416667,
287965279486444-index10070.png
#EXTINF:5.791667,
287965279486444-index10071.png
#EXTINF:4.416667,
287965279486444-index10072.png
#EXTINF:6.416667,
287965279486444-index10073.png
#EXTINF:3.375000,
287965279486444-index10074.png
#EXTINF:7.166667,
287965279486444-index10075.png
#EXTINF:8.708333,
287965279486444-index10076.png
#EXTINF:6.375000,
287965279486444-index10077.png
#EXTINF:6.791667,
287965279486444-index10078.png
#EXTINF:4.000000,
287965279486444-index10079.png
#EXTINF:8.333333,
287965279486444-index10080.png
#EXTINF:6.708333,
287965279486444-index10081.png
#EXTINF:5.458333,
287965279486444-index10082.png
#EXTINF:4.166667,
287965279486444-index10083.png
#EXTINF:3.541667,
287965279486444-index10084.png
#EXTINF:10.416667,
287965279486444-index10085.png
#EXTINF:6.083333,
287965279486444-index10086.png
#EXTINF:10.166667,
287965279486444-index10087.png
#EXTINF:8.000000,
287965279486444-index10088.png
#EXTINF:9.000000,
287965279486444-index10089.png
#EXTINF:10.416667,
287965279486444-index10090.png
#EXTINF:8.416667,
287965279486444-index10091.png
#EXTINF:5.500000,
287965279486444-index10092.png
#EXTINF:7.208333,
287965279486444-index10093.png
#EXTINF:8.666667,
287965279486444-index10094.png
#EXTINF:10.166667,
287965279486444-index10095.png
#EXTINF:5.541667,
287965279486444-index10096.png
#EXTINF:10.416667,
287965279486444-index10097.png
#EXTINF:6.791667,
287965279486444-index10098.png
#EXTINF:4.833333,
287965279486444-index10099.png
#EXTINF:7.458333,
287965279486444-index10100.png
#EXTINF:10.416667,
287965279486444-index10101.png
#EXTINF:6.958333,
287965279486444-index10102.png
#EXTINF:6.708333,
287965279486444-index10103.png
#EXTINF:9.416667,
287965279486444-index10104.png
#EXTINF:5.750000,
287965279486444-index10105.png
#EXTINF:10.416667,
287965279486444-index10106.png
#EXTINF:8.500000,
287965279486444-index10107.png
#EXTINF:7.875000,
287965279486444-index10108.png
#EXTINF:7.416667,
287965279486444-index10109.png
#EXTINF:10.416667,
287965279486444-index10110.png
#EXTINF:6.583333,
287965279486444-index10111.png
#EXTINF:6.000000,
287965279486444-index10112.png
#EXTINF:4.000000,
287965279486444-index10113.png
#EXTINF:4.000000,
287965279486444-index10114.png
#EXTINF:6.791667,
287965279486444-index10115.png
#EXTINF:3.000000,
287965279486444-index10116.png
#EXTINF:3.500000,
287965279486444-index10117.png
#EXTINF:10.416667,
287965279486444-index10118.png
#EXTINF:10.416667,
287965279486444-index10119.png
#EXTINF:10.416667,
287965279486444-index10120.png
#EXTINF:10.416667,
287965279486444-index10121.png
#EXTINF:7.791667,
287965279486444-index10122.png
#EXTINF:8.583333,
287965279486444-index10123.png
#EXTINF:6.166667,
287965279486444-index10124.png
#EXTINF:7.333333,
287965279486444-index10125.png
#EXTINF:5.291667,
287965279486444-index10126.png
#EXTINF:3.791667,
287965279486444-index10127.png
#EXTINF:4.416667,
287965279486444-index10128.png
#EXTINF:10.416667,
287965279486444-index10129.png
#EXTINF:10.416667,
287965279486444-index10130.png
#EXTINF:10.416667,
287965279486444-index10131.png
#EXTINF:10.416667,
287965279486444-index10132.png
#EXTINF:10.416667,
287965279486444-index10133.png
#EXTINF:10.416667,
287965279486444-index10134.png
#EXTINF:10.416667,
287965279486444-index10135.png
#EXTINF:10.416667,
287965279486444-index10136.png
#EXTINF:2.375000,
287965279486444-index10137.png
#EXT-X-ENDLIST
