#EXTM3U
#EXT-X-VERSION:3
#EXT-X-TARGETDURATION:10
#EXT-X-MEDIA-SEQUENCE:10001
#EXTINF:10.000000,
293644880668984-index10001.png
#EXTINF:10.000000,
293644880668984-index10002.png
#EXTINF:10.000000,
293644880668984-index10003.png
#EXTINF:10.000000,
293644880668984-index10004.png
#EXTINF:10.000000,
293644880668984-index10005.png
#EXTINF:10.000000,
293644880668984-index10006.png
#EXTINF:10.000000,
293644880668984-index10007.png
#EXTINF:10.000000,
293644880668984-index10008.png
#EXTINF:10.000000,
293644880668984-index10009.png
#EXTINF:10.000000,
293644880668984-index10010.png
#EXTINF:8.680000,
293644880668984-index10011.png
#EXTINF:10.000000,
293644880668984-index10012.png
#EXTINF:5.600000,
293644880668984-index10013.png
#EXTINF:10.000000,
293644880668984-index10014.png
#EXTINF:10.000000,
293644880668984-index10015.png
#EXTINF:9.680000,
293644880668984-index10016.png
#EXTINF:10.000000,
293644880668984-index10017.png
#EXTINF:10.000000,
293644880668984-index10018.png
#EXTINF:10.000000,
293644880668984-index10019.png
#EXTINF:6.240000,
293644880668984-index10020.png
#EXTINF:10.000000,
293644880668984-index10021.png
#EXTINF:5.280000,
293644880668984-index10022.png
#EXTINF:10.000000,
293644880668984-index10023.png
#EXTINF:9.320000,
293644880668984-index10024.png
#EXTINF:3.240000,
293644880668984-index10025.png
#EXTINF:10.000000,
293644880668984-index10026.png
#EXTINF:3.600000,
293644880668984-index10027.png
#EXTINF:6.560000,
293644880668984-index10028.png
#EXTINF:10.000000,
293644880668984-index10029.png
#EXTINF:2.240000,
293644880668984-index10030.png
#EXTINF:10.000000,
293644880668984-index10031.png
#EXTINF:9.520000,
293644880668984-index10032.png
#EXTINF:8.280000,
293644880668984-index10033.png
#EXTINF:10.000000,
293644880668984-index10034.png
#EXTINF:8.840000,
293644880668984-index10035.png
#EXTINF:8.800000,
293644880668984-index10036.png
#EXTINF:10.000000,
293644880668984-index10037.png
#EXTINF:10.000000,
293644880668984-index10038.png
#EXTINF:10.000000,
293644880668984-index10039.png
#EXTINF:10.000000,
293644880668984-index10040.png
#EXTINF:7.840000,
293644880668984-index10041.png
#EXTINF:10.000000,
293644880668984-index10042.png
#EXTINF:10.000000,
293644880668984-index10043.png
#EXTINF:9.080000,
293644880668984-index10044.png
#EXTINF:6.200000,
293644880668984-index10045.png
#EXTINF:10.000000,
293644880668984-index10046.png
#EXTINF:10.000000,
293644880668984-index10047.png
#EXTINF:10.000000,
293644880668984-index10048.png
#EXTINF:10.000000,
293644880668984-index10049.png
#EXTINF:6.680000,
293644880668984-index10050.png
#EXTINF:3.960000,
293644880668984-index10051.png
#EXTINF:4.000000,
293644880668984-index10052.png
#EXTINF:7.440000,
293644880668984-index10053.png
#EXTINF:4.280000,
293644880668984-index10054.png
#EXTINF:8.480000,
293644880668984-index10055.png
#EXTINF:4.400000,
293644880668984-index10056.png
#EXTINF:10.000000,
293644880668984-index10057.png
#EXTINF:10.000000,
293644880668984-index10058.png
#EXTINF:7.600000,
293644880668984-index10059.png
#EXTINF:6.400000,
293644880668984-index10060.png
#EXTINF:6.800000,
293644880668984-index10061.png
#EXTINF:5.080000,
293644880668984-index10062.png
#EXTINF:10.000000,
293644880668984-index10063.png
#EXTINF:7.560000,
293644880668984-index10064.png
#EXTINF:10.000000,
293644880668984-index10065.png
#EXTINF:7.120000,
293644880668984-index10066.png
#EXTINF:10.000000,
293644880668984-index10067.png
#EXTINF:10.000000,
293644880668984-index10068.png
#EXTINF:10.000000,
293644880668984-index10069.png
#EXTINF:5.920000,
293644880668984-index10070.png
#EXTINF:10.000000,
293644880668984-index10071.png
#EXTINF:9.920000,
293644880668984-index10072.png
#EXTINF:10.000000,
293644880668984-index10073.png
#EXTINF:9.320000,
293644880668984-index10074.png
#EXTINF:9.400000,
293644880668984-index10075.png
#EXTINF:9.800000,
293644880668984-index10076.png
#EXTINF:9.560000,
293644880668984-index10077.png
#EXTINF:10.000000,
293644880668984-index10078.png
#EXTINF:9.000000,
293644880668984-index10079.png
#EXTINF:9.440000,
293644880668984-index10080.png
#EXTINF:10.000000,
293644880668984-index10081.png
#EXTINF:9.240000,
293644880668984-index10082.png
#EXTINF:4.360000,
293644880668984-index10083.png
#EXTINF:10.000000,
293644880668984-index10084.png
#EXTINF:5.120000,
293644880668984-index10085.png
#EXTINF:10.000000,
293644880668984-index10086.png
#EXTINF:10.000000,
293644880668984-index10087.png
#EXTINF:10.000000,
293644880668984-index10088.png
#EXTINF:10.000000,
293644880668984-index10089.png
#EXTINF:10.000000,
293644880668984-index10090.png
#EXTINF:9.800000,
293644880668984-index10091.png
#EXTINF:10.000000,
293644880668984-index10092.png
#EXTINF:10.000000,
293644880668984-index10093.png
#EXTINF:10.000000,
293644880668984-index10094.png
#EXTINF:10.000000,
293644880668984-index10095.png
#EXTINF:7.480000,
293644880668984-index10096.png
#EXTINF:10.000000,
293644880668984-index10097.png
#EXTINF:10.000000,
293644880668984-index10098.png
#EXTINF:10.000000,
293644880668984-index10099.png
#EXTINF:9.280000,
293644880668984-index10100.png
#EXTINF:8.680000,
293644880668984-index10101.png
#EXTINF:10.000000,
293644880668984-index10102.png
#EXTINF:10.000000,
293644880668984-index10103.png
#EXTINF:5.160000,
293644880668984-index10104.png
#EXTINF:10.000000,
293644880668984-index10105.png
#EXTINF:10.000000,
293644880668984-index10106.png
#EXTINF:10.000000,
293644880668984-index10107.png
#EXTINF:9.800000,
293644880668984-index10108.png
#EXTINF:7.520000,
293644880668984-index10109.png
#EXTINF:6.520000,
293644880668984-index10110.png
#EXTINF:9.560000,
293644880668984-index10111.png
#EXTINF:9.200000,
293644880668984-index10112.png
#EXTINF:8.280000,
293644880668984-index10113.png
#EXTINF:5.440000,
293644880668984-index10114.png
#EXTINF:8.160000,
293644880668984-index10115.png
#EXTINF:6.080000,
293644880668984-index10116.png
#EXTINF:10.000000,
293644880668984-index10117.png
#EXTINF:10.000000,
293644880668984-index10118.png
#EXTINF:10.000000,
293644880668984-index10119.png
#EXTINF:10.000000,
293644880668984-index10120.png
#EXTINF:8.880000,
293644880668984-index10121.png
#EXTINF:10.000000,
293644880668984-index10122.png
#EXTINF:9.640000,
293644880668984-index10123.png
#EXTINF:10.000000,
293644880668984-index10124.png
#EXTINF:6.200000,
293644880668984-index10125.png
#EXTINF:8.920000,
293644880668984-index10126.png
#EXTINF:10.000000,
293644880668984-index10127.png
#EXTINF:10.000000,
293644880668984-index10128.png
#EXTINF:10.000000,
293644880668984-index10129.png
#EXTINF:10.000000,
293644880668984-index10130.png
#EXTINF:10.000000,
293644880668984-index10131.png
#EXTINF:10.000000,
293644880668984-index10132.png
#EXTINF:10.000000,
293644880668984-index10133.png
#EXTINF:10.000000,
293644880668984-index10134.png
#EXTINF:10.000000,
293644880668984-index10135.png
#EXTINF:10.000000,
293644880668984-index10136.png
#EXTINF:10.000000,
293644880668984-index10137.png
#EXTINF:9.680000,
293644880668984-index10138.png
#EXTINF:10.000000,
293644880668984-index10139.png
#EXTINF:10.000000,
293644880668984-index10140.png
#EXTINF:7.840000,
293644880668984-index10141.png
#EXTINF:10.000000,
293644880668984-index10142.png
#EXTINF:10.000000,
293644880668984-index10143.png
#EXTINF:10.000000,
293644880668984-index10144.png
#EXTINF:10.000000,
293644880668984-index10145.png
#EXTINF:9.000000,
293644880668984-index10146.png
#EXTINF:8.320000,
293644880668984-index10147.png
#EXTINF:10.000000,
293644880668984-index10148.png
#EXTINF:10.000000,
293644880668984-index10149.png
#EXTINF:10.000000,
293644880668984-index10150.png
#EXTINF:8.880000,
293644880668984-index10151.png
#EXTINF:10.000000,
293644880668984-index10152.png
#EXTINF:8.760000,
293644880668984-index10153.png
#EXTINF:10.000000,
293644880668984-index10154.png
#EXTINF:4.640000,
293644880668984-index10155.png
#EXTINF:9.120000,
293644880668984-index10156.png
#EXTINF:10.000000,
293644880668984-index10157.png
#EXTINF:10.000000,
293644880668984-index10158.png
#EXTINF:10.000000,
293644880668984-index10159.png
#EXTINF:7.480000,
293644880668984-index10160.png
#EXTINF:8.040000,
293644880668984-index10161.png
#EXTINF:8.440000,
293644880668984-index10162.png
#EXTINF:10.000000,
293644880668984-index10163.png
#EXTINF:10.000000,
293644880668984-index10164.png
#EXTINF:9.800000,
293644880668984-index10165.png
#EXTINF:10.000000,
293644880668984-index10166.png
#EXTINF:8.920000,
293644880668984-index10167.png
#EXTINF:10.000000,
293644880668984-index10168.png
#EXTINF:8.880000,
293644880668984-index10169.png
#EXTINF:10.000000,
293644880668984-index10170.png
#EXTINF:10.000000,
293644880668984-index10171.png
#EXTINF:6.560000,
293644880668984-index10172.png
#EXTINF:7.920000,
293644880668984-index10173.png
#EXTINF:10.000000,
293644880668984-index10174.png
#EXTINF:8.160000,
293644880668984-index10175.png
#EXTINF:10.000000,
293644880668984-index10176.png
#EXTINF:5.840000,
293644880668984-index10177.png
#EXTINF:10.000000,
293644880668984-index10178.png
#EXTINF:10.000000,
293644880668984-index10179.png
#EXTINF:10.000000,
293644880668984-index10180.png
#EXTINF:10.000000,
293644880668984-index10181.png
#EXTINF:7.960000,
293644880668984-index10182.png
#EXTINF:10.000000,
293644880668984-index10183.png
#EXTINF:7.200000,
293644880668984-index10184.png
#EXTINF:6.560000,
293644880668984-index10185.png
#EXTINF:5.920000,
293644880668984-index10186.png
#EXTINF:7.160000,
293644880668984-index10187.png
#EXTINF:10.000000,
293644880668984-index10188.png
#EXTINF:10.000000,
293644880668984-index10189.png
#EXTINF:6.560000,
293644880668984-index10190.png
#EXTINF:6.840000,
293644880668984-index10191.png
#EXTINF:7.960000,
293644880668984-index10192.png
#EXTINF:6.800000,
293644880668984-index10193.png
#EXTINF:10.000000,
293644880668984-index10194.png
#EXTINF:8.320000,
293644880668984-index10195.png
#EXTINF:8.560000,
293644880668984-index10196.png
#EXTINF:10.000000,
293644880668984-index10197.png
#EXTINF:7.000000,
293644880668984-index10198.png
#EXTINF:8.920000,
293644880668984-index10199.png
#EXTINF:6.520000,
293644880668984-index10200.png
#EXTINF:8.080000,
293644880668984-index10201.png
#EXTINF:8.200000,
293644880668984-index10202.png
#EXTINF:10.000000,
293644880668984-index10203.png
#EXTINF:8.200000,
293644880668984-index10204.png
#EXTINF:10.000000,
293644880668984-index10205.png
#EXTINF:10.000000,
293644880668984-index10206.png
#EXTINF:10.000000,
293644880668984-index10207.png
#EXTINF:10.000000,
293644880668984-index10208.png
#EXTINF:7.920000,
293644880668984-index10209.png
#EXTINF:7.680000,
293644880668984-index10210.png
#EXTINF:8.840000,
293644880668984-index10211.png
#EXTINF:7.320000,
293644880668984-index10212.png
#EXTINF:8.480000,
293644880668984-index10213.png
#EXTINF:7.080000,
293644880668984-index10214.png
#EXTINF:10.000000,
293644880668984-index10215.png
#EXTINF:10.000000,
293644880668984-index10216.png
#EXTINF:10.000000,
293644880668984-index10217.png
#EXTINF:2.040000,
293644880668984-index10218.png
#EXTINF:3.720000,
293644880668984-index10219.png
#EXTINF:8.600000,
293644880668984-index10220.png
#EXTINF:6.640000,
293644880668984-index10221.png
#EXTINF:7.800000,
293644880668984-index10222.png
#EXTINF:9.040000,
293644880668984-index10223.png
#EXTINF:7.560000,
293644880668984-index10224.png
#EXTINF:7.480000,
293644880668984-index10225.png
#EXTINF:4.840000,
293644880668984-index10226.png
#EXTINF:3.600000,
293644880668984-index10227.png
#EXTINF:4.520000,
293644880668984-index10228.png
#EXTINF:5.440000,
293644880668984-index10229.png
#EXTINF:10.000000,
293644880668984-index10230.png
#EXTINF:6.800000,
293644880668984-index10231.png
#EXTINF:4.960000,
293644880668984-index10232.png
#EXTINF:8.400000,
293644880668984-index10233.png
#EXTINF:8.640000,
293644880668984-index10234.png
#EXTINF:6.280000,
293644880668984-index10235.png
#EXT-X-ENDLIST
