#EXTM3U
#EXT-X-VERSION:3
#EXT-X-TARGETDURATION:10
#EXT-X-MEDIA-SEQUENCE:10001
#EXTINF:10.000000,
295392087764210-index10001.png
#EXTINF:7.440000,
295392087764210-index10002.png
#EXTINF:6.000000,
295392087764210-index10003.png
#EXTINF:2.920000,
295392087764210-index10004.png
#EXTINF:9.920000,
295392087764210-index10005.png
#EXTINF:2.280000,
295392087764210-index10006.png
#EXTINF:1.120000,
295392087764210-index10007.png
#EXTINF:6.640000,
295392087764210-index10008.png
#EXTINF:1.360000,
295392087764210-index10009.png
#EXTINF:2.240000,
295392087764210-index10010.png
#EXTINF:1.040000,
295392087764210-index10011.png
#EXTINF:3.000000,
295392087764210-index10012.png
#EXTINF:1.040000,
295392087764210-index10013.png
#EXTINF:1.440000,
295392087764210-index10014.png
#EXTINF:2.480000,
295392087764210-index10015.png
#EXTINF:8.000000,
295392087764210-index10016.png
#EXTINF:2.080000,
295392087764210-index10017.png
#EXTINF:4.360000,
295392087764210-index10018.png
#EXTINF:2.440000,
295392087764210-index10019.png
#EXTINF:1.560000,
295392087764210-index10020.png
#EXTINF:6.160000,
295392087764210-index10021.png
#EXTINF:1.080000,
295392087764210-index10022.png
#EXTINF:1.920000,
295392087764210-index10023.png
#EXTINF:4.680000,
295392087764210-index10024.png
#EXTINF:3.160000,
295392087764210-index10025.png
#EXTINF:2.520000,
295392087764210-index10026.png
#EXTINF:5.240000,
295392087764210-index10027.png
#EXTINF:5.120000,
295392087764210-index10028.png
#EXTINF:3.680000,
295392087764210-index10029.png
#EXTINF:3.960000,
295392087764210-index10030.png
#EXTINF:2.800000,
295392087764210-index10031.png
#EXTINF:1.040000,
295392087764210-index10032.png
#EXTINF:2.640000,
295392087764210-index10033.png
#EXTINF:8.320000,
295392087764210-index10034.png
#EXTINF:1.240000,
295392087764210-index10035.png
#EXTINF:1.400000,
295392087764210-index10036.png
#EXTINF:1.160000,
295392087764210-index10037.png
#EXTINF:3.440000,
295392087764210-index10038.png
#EXTINF:3.200000,
295392087764210-index10039.png
#EXTINF:2.160000,
295392087764210-index10040.png
#EXTINF:8.880000,
295392087764210-index10041.png
#EXTINF:5.680000,
295392087764210-index10042.png
#EXTINF:8.480000,
295392087764210-index10043.png
#EXTINF:10.000000,
295392087764210-index10044.png
#EXTINF:7.040000,
295392087764210-index10045.png
#EXTINF:10.000000,
295392087764210-index10046.png
#EXTINF:10.000000,
295392087764210-index10047.png
#EXTINF:3.000000,
295392087764210-index10048.png
#EXTINF:5.480000,
295392087764210-index10049.png
#EXTINF:5.880000,
295392087764210-index10050.png
#EXTINF:10.000000,
295392087764210-index10051.png
#EXTINF:9.440000,
295392087764210-index10052.png
#EXTINF:8.000000,
295392087764210-index10053.png
#EXTINF:8.040000,
295392087764210-index10054.png
#EXTINF:10.000000,
295392087764210-index10055.png
#EXTINF:8.640000,
295392087764210-index10056.png
#EXTINF:10.000000,
295392087764210-index10057.png
#EXTINF:5.600000,
295392087764210-index10058.png
#EXTINF:8.040000,
295392087764210-index10059.png
#EXTINF:4.480000,
295392087764210-index10060.png
#EXTINF:1.720000,
295392087764210-index10061.png
#EXTINF:2.680000,
295392087764210-index10062.png
#EXTINF:5.640000,
295392087764210-index10063.png
#EXTINF:2.240000,
295392087764210-index10064.png
#EXTINF:1.840000,
295392087764210-index10065.png
#EXTINF:1.680000,
295392087764210-index10066.png
#EXTINF:1.080000,
295392087764210-index10067.png
#EXTINF:3.160000,
295392087764210-index10068.png
#EXTINF:3.520000,
295392087764210-index10069.png
#EXTINF:10.000000,
295392087764210-index10070.png
#EXTINF:5.120000,
295392087764210-index10071.png
#EXTINF:1.400000,
295392087764210-index10072.png
#EXTINF:1.000000,
295392087764210-index10073.png
#EXTINF:1.160000,
295392087764210-index10074.png
#EXTINF:1.040000,
295392087764210-index10075.png
#EXTINF:4.760000,
295392087764210-index10076.png
#EXTINF:8.520000,
295392087764210-index10077.png
#EXTINF:4.360000,
295392087764210-index10078.png
#EXTINF:10.000000,
295392087764210-index10079.png
#EXTINF:1.440000,
295392087764210-index10080.png
#EXTINF:1.720000,
295392087764210-index10081.png
#EXTINF:3.320000,
295392087764210-index10082.png
#EXTINF:1.560000,
295392087764210-index10083.png
#EXTINF:2.400000,
295392087764210-index10084.png
#EXTINF:1.560000,
295392087764210-index10085.png
#EXTINF:1.360000,
295392087764210-index10086.png
#EXTINF:1.640000,
295392087764210-index10087.png
#EXTINF:1.240000,
295392087764210-index10088.png
#EXTINF:2.520000,
295392087764210-index10089.png
#EXTINF:1.080000,
295392087764210-index10090.png
#EXTINF:1.120000,
295392087764210-index10091.png
#EXTINF:4.880000,
295392087764210-index10092.png
#EXTINF:6.200000,
295392087764210-index10093.png
#EXTINF:2.440000,
295392087764210-index10094.png
#EXTINF:3.560000,
295392087764210-index10095.png
#EXTINF:7.680000,
295392087764210-index10096.png
#EXTINF:1.680000,
295392087764210-index10097.png
#EXTINF:1.280000,
295392087764210-index10098.png
#EXTINF:3.920000,
295392087764210-index10099.png
#EXTINF:3.320000,
295392087764210-index10100.png
#EXTINF:3.640000,
295392087764210-index10101.png
#EXTINF:1.920000,
295392087764210-index10102.png
#EXTINF:1.280000,
295392087764210-index10103.png
#EXTINF:2.040000,
295392087764210-index10104.png
#EXTINF:1.920000,
295392087764210-index10105.png
#EXTINF:1.760000,
295392087764210-index10106.png
#EXTINF:2.280000,
295392087764210-index10107.png
#EXTINF:5.560000,
295392087764210-index10108.png
#EXTINF:3.040000,
295392087764210-index10109.png
#EXTINF:9.560000,
295392087764210-index10110.png
#EXTINF:8.920000,
295392087764210-index10111.png
#EXTINF:2.800000,
295392087764210-index10112.png
#EXTINF:1.440000,
295392087764210-index10113.png
#EXTINF:8.800000,
295392087764210-index10114.png
#EXTINF:5.720000,
295392087764210-index10115.png
#EXTINF:4.800000,
295392087764210-index10116.png
#EXTINF:10.000000,
295392087764210-index10117.png
#EXTINF:3.360000,
295392087764210-index10118.png
#EXTINF:2.680000,
295392087764210-index10119.png
#EXTINF:1.800000,
295392087764210-index10120.png
#EXTINF:5.480000,
295392087764210-index10121.png
#EXTINF:3.000000,
295392087764210-index10122.png
#EXTINF:6.200000,
295392087764210-index10123.png
#EXTINF:10.000000,
295392087764210-index10124.png
#EXTINF:6.800000,
295392087764210-index10125.png
#EXTINF:2.120000,
295392087764210-index10126.png
#EXTINF:4.080000,
295392087764210-index10127.png
#EXTINF:2.360000,
295392087764210-index10128.png
#EXTINF:2.000000,
295392087764210-index10129.png
#EXTINF:1.360000,
295392087764210-index10130.png
#EXTINF:5.840000,
295392087764210-index10131.png
#EXTINF:3.440000,
295392087764210-index10132.png
#EXTINF:10.000000,
295392087764210-index10133.png
#EXTINF:1.400000,
295392087764210-index10134.png
#EXTINF:5.400000,
295392087764210-index10135.png
#EXTINF:3.240000,
295392087764210-index10136.png
#EXTINF:1.400000,
295392087764210-index10137.png
#EXTINF:1.720000,
295392087764210-index10138.png
#EXTINF:2.120000,
295392087764210-index10139.png
#EXTINF:3.080000,
295392087764210-index10140.png
#EXTINF:1.720000,
295392087764210-index10141.png
#EXTINF:2.120000,
295392087764210-index10142.png
#EXTINF:2.360000,
295392087764210-index10143.png
#EXTINF:7.040000,
295392087764210-index10144.png
#EXTINF:1.360000,
295392087764210-index10145.png
#EXTINF:3.360000,
295392087764210-index10146.png
#EXTINF:10.000000,
295392087764210-index10147.png
#EXTINF:1.560000,
295392087764210-index10148.png
#EXTINF:4.160000,
295392087764210-index10149.png
#EXTINF:3.640000,
295392087764210-index10150.png
#EXTINF:4.960000,
295392087764210-index10151.png
#EXTINF:2.280000,
295392087764210-index10152.png
#EXTINF:6.760000,
295392087764210-index10153.png
#EXTINF:4.240000,
295392087764210-index10154.png
#EXTINF:3.040000,
295392087764210-index10155.png
#EXTINF:4.440000,
295392087764210-index10156.png
#EXTINF:1.760000,
295392087764210-index10157.png
#EXTINF:1.760000,
295392087764210-index10158.png
#EXTINF:7.240000,
295392087764210-index10159.png
#EXTINF:3.440000,
295392087764210-index10160.png
#EXTINF:5.200000,
295392087764210-index10161.png
#EXTINF:7.040000,
295392087764210-index10162.png
#EXT-X-ENDLIST
