#EXTM3U
#EXT-X-VERSION:3
#EXT-X-TARGETDURATION:10
#EXT-X-MEDIA-SEQUENCE:10001
#EXTINF:6.000000,
297323616014586-index10001.png
#EXTINF:7.760000,
297323616014586-index10002.png
#EXTINF:7.960000,
297323616014586-index10003.png
#EXTINF:5.760000,
297323616014586-index10004.png
#EXTINF:6.320000,
297323616014586-index10005.png
#EXTINF:8.440000,
297323616014586-index10006.png
#EXTINF:9.560000,
297323616014586-index10007.png
#EXTINF:3.360000,
297323616014586-index10008.png
#EXTINF:2.320000,
297323616014586-index10009.png
#EXTINF:5.960000,
297323616014586-index10010.png
#EXTINF:2.000000,
297323616014586-index10011.png
#EXTINF:3.560000,
297323616014586-index10012.png
#EXTINF:1.360000,
297323616014586-index10013.png
#EXTINF:2.040000,
297323616014586-index10014.png
#EXTINF:3.320000,
297323616014586-index10015.png
#EXTINF:6.560000,
297323616014586-index10016.png
#EXTINF:3.640000,
297323616014586-index10017.png
#EXTINF:3.360000,
297323616014586-index10018.png
#EXTINF:5.000000,
297323616014586-index10019.png
#EXTINF:5.520000,
297323616014586-index10020.png
#EXTINF:4.160000,
297323616014586-index10021.png
#EXTINF:9.640000,
297323616014586-index10022.png
#EXTINF:7.920000,
297323616014586-index10023.png
#EXTINF:6.760000,
297323616014586-index10024.png
#EXTINF:8.440000,
297323616014586-index10025.png
#EXTINF:2.400000,
297323616014586-index10026.png
#EXTINF:10.000000,
297323616014586-index10027.png
#EXTINF:10.000000,
297323616014586-index10028.png
#EXTINF:4.240000,
297323616014586-index10029.png
#EXTINF:5.600000,
297323616014586-index10030.png
#EXTINF:5.200000,
297323616014586-index10031.png
#EXTINF:8.720000,
297323616014586-index10032.png
#EXTINF:9.600000,
297323616014586-index10033.png
#EXTINF:2.400000,
297323616014586-index10034.png
#EXTINF:4.000000,
297323616014586-index10035.png
#EXTINF:5.400000,
297323616014586-index10036.png
#EXTINF:1.720000,
297323616014586-index10037.png
#EXTINF:4.240000,
297323616014586-index10038.png
#EXTINF:2.880000,
297323616014586-index10039.png
#EXT-X-ENDLIST
