#EXTM3U
#EXT-X-VERSION:3
#EXT-X-TARGETDURATION:11
#EXT-X-MEDIA-SEQUENCE:10001
#EXTINF:2.002133,
311197261429495-index10001.png
#EXTINF:2.002133,
311197261429495-index10002.png
#EXTINF:2.002133,
311197261429495-index10003.png
#EXTINF:2.002133,
311197261429495-index10004.png
#EXTINF:2.002133,
311197261429495-index10005.png
#EXTINF:2.377533,
311197261429495-index10006.png
#EXTINF:2.502667,
311197261429495-index10007.png
#EXTINF:2.502667,
311197261429495-index10008.png
#EXTINF:7.049178,
311197261429495-index10009.png
#EXTINF:6.256667,
311197261429495-index10010.png
#EXTINF:4.838489,
311197261429495-index10011.png
#EXTINF:3.879133,
311197261429495-index10012.png
#EXTINF:2.586089,
311197261429495-index10013.png
#EXTINF:4.629933,
311197261429495-index10014.png
#EXTINF:6.214956,
311197261429495-index10015.png
#EXTINF:1.877000,
311197261429495-index10016.png
#EXTINF:4.504800,
311197261429495-index10017.png
#EXTINF:2.836356,
311197261429495-index10018.png
#EXTINF:3.754000,
311197261429495-index10019.png
#EXTINF:2.794644,
311197261429495-index10020.png
#EXTINF:3.086622,
311197261429495-index10021.png
#EXTINF:1.543311,
311197261429495-index10022.png
#EXTINF:3.962556,
311197261429495-index10023.png
#EXTINF:2.961489,
311197261429495-index10024.png
#EXTINF:4.296244,
311197261429495-index10025.png
#EXTINF:2.210689,
311197261429495-index10026.png
#EXTINF:2.460956,
311197261429495-index10027.png
#EXTINF:5.172178,
311197261429495-index10028.png
#EXTINF:2.711222,
311197261429495-index10029.png
#EXTINF:2.460956,
311197261429495-index10030.png
#EXTINF:4.963622,
311197261429495-index10031.png
#EXTINF:6.089822,
311197261429495-index10032.png
#EXTINF:5.339022,
311197261429495-index10033.png
#EXTINF:3.879133,
311197261429495-index10034.png
#EXTINF:5.464156,
311197261429495-index10035.png
#EXTINF:1.793578,
311197261429495-index10036.png
#EXTINF:3.503733,
311197261429495-index10037.png
#EXTINF:5.422444,
311197261429495-index10038.png
#EXTINF:3.086622,
311197261429495-index10039.png
#EXTINF:5.255600,
311197261429495-index10040.png
#EXTINF:2.544378,
311197261429495-index10041.png
#EXTINF:3.086622,
311197261429495-index10042.png
#EXTINF:3.712289,
311197261429495-index10043.png
#EXTINF:4.379667,
311197261429495-index10044.png
#EXTINF:8.050244,
311197261429495-index10045.png
#EXTINF:3.670578,
311197261429495-index10046.png
#EXTINF:2.794644,
311197261429495-index10047.png
#EXTINF:10.427778,
311197261429495-index10048.png
#EXTINF:5.380733,
311197261429495-index10049.png
#EXTINF:4.796778,
311197261429495-index10050.png
#EXTINF:2.878067,
311197261429495-index10051.png
#EXTINF:2.794644,
311197261429495-index10052.png
#EXTINF:3.462022,
311197261429495-index10053.png
#EXTINF:4.546511,
311197261429495-index10054.png
#EXTINF:6.173244,
311197261429495-index10055.png
#EXTINF:2.752933,
311197261429495-index10056.png
#EXTINF:2.794644,
311197261429495-index10057.png
#EXTINF:2.127267,
311197261429495-index10058.png
#EXTINF:4.963622,
311197261429495-index10059.png
#EXTINF:3.044911,
311197261429495-index10060.png
#EXTINF:2.419244,
311197261429495-index10061.png
#EXTINF:1.751867,
311197261429495-index10062.png
#EXTINF:1.126200,
311197261429495-index10063.png
#EXTINF:3.462022,
311197261429495-index10064.png
#EXTINF:3.295178,
311197261429495-index10065.png
#EXTINF:6.757200,
311197261429495-index10066.png
#EXTINF:2.502667,
311197261429495-index10067.png
#EXTINF:9.927244,
311197261429495-index10068.png
#EXTINF:5.839556,
311197261429495-index10069.png
#EXTINF:2.377533,
311197261429495-index10070.png
#EXTINF:1.126200,
311197261429495-index10071.png
#EXTINF:2.002133,
311197261429495-index10072.png
#EXTINF:3.336889,
311197261429495-index10073.png
#EXTINF:2.127267,
311197261429495-index10074.png
#EXTINF:3.545444,
311197261429495-index10075.png
#EXTINF:2.919778,
311197261429495-index10076.png
#EXTINF:2.127267,
311197261429495-index10077.png
#EXTINF:3.044911,
311197261429495-index10078.png
#EXTINF:2.377533,
311197261429495-index10079.png
#EXTINF:4.004267,
311197261429495-index10080.png
#EXTINF:2.335822,
311197261429495-index10081.png
#EXTINF:2.377533,
311197261429495-index10082.png
#EXTINF:2.252400,
311197261429495-index10083.png
#EXTINF:1.459889,
311197261429495-index10084.png
#EXTINF:3.462022,
311197261429495-index10085.png
#EXTINF:1.877000,
311197261429495-index10086.png
#EXTINF:2.043844,
311197261429495-index10087.png
#EXTINF:4.588222,
311197261429495-index10088.png
#EXTINF:1.084489,
311197261429495-index10089.png
#EXTINF:2.627800,
311197261429495-index10090.png
#EXTINF:10.427778,
311197261429495-index10091.png
#EXTINF:4.337956,
311197261429495-index10092.png
#EXTINF:1.543311,
311197261429495-index10093.png
#EXTINF:2.961489,
311197261429495-index10094.png
#EXTINF:4.129400,
311197261429495-index10095.png
#EXTINF:1.543311,
311197261429495-index10096.png
#EXTINF:1.751867,
311197261429495-index10097.png
#EXTINF:2.669511,
311197261429495-index10098.png
#EXTINF:3.587156,
311197261429495-index10099.png
#EXTINF:2.961489,
311197261429495-index10100.png
#EXTINF:2.252400,
311197261429495-index10101.png
#EXTINF:1.585022,
311197261429495-index10102.png
#EXTINF:2.878067,
311197261429495-index10103.png
#EXTINF:1.960422,
311197261429495-index10104.png
#EXTINF:3.545444,
311197261429495-index10105.png
#EXTINF:1.835289,
311197261429495-index10106.png
#EXTINF:2.878067,
311197261429495-index10107.png
#EXTINF:1.084489,
311197261429495-index10108.png
#EXTINF:2.085556,
311197261429495-index10109.png
#EXTINF:2.544378,
311197261429495-index10110.png
#EXTINF:2.669511,
311197261429495-index10111.png
#EXTINF:6.340089,
311197261429495-index10112.png
#EXTINF:1.418178,
311197261429495-index10113.png
#EXTINF:5.297311,
311197261429495-index10114.png
#EXTINF:1.877000,
311197261429495-index10115.png
#EXTINF:1.501600,
311197261429495-index10116.png
#EXTINF:3.211756,
311197261429495-index10117.png
#EXTINF:8.634200,
311197261429495-index10118.png
#EXTINF:3.795711,
311197261429495-index10119.png
#EXTINF:3.503733,
311197261429495-index10120.png
#EXTINF:2.377533,
311197261429495-index10121.png
#EXTINF:2.377533,
311197261429495-index10122.png
#EXTINF:2.544378,
311197261429495-index10123.png
#EXTINF:2.836356,
311197261429495-index10124.png
#EXTINF:2.794644,
311197261429495-index10125.png
#EXTINF:2.919778,
311197261429495-index10126.png
#EXTINF:2.794644,
311197261429495-index10127.png
#EXTINF:1.626733,
311197261429495-index10128.png
#EXTINF:1.877000,
311197261429495-index10129.png
#EXTINF:2.836356,
311197261429495-index10130.png
#EXTINF:3.086622,
311197261429495-index10131.png
#EXTINF:2.085556,
311197261429495-index10132.png
#EXTINF:3.962556,
311197261429495-index10133.png
#EXTINF:6.590356,
311197261429495-index10134.png
#EXTINF:3.545444,
311197261429495-index10135.png
#EXTINF:2.627800,
311197261429495-index10136.png
#EXTINF:2.127267,
311197261429495-index10137.png
#EXTINF:1.459889,
311197261429495-index10138.png
#EXTINF:2.419244,
311197261429495-index10139.png
#EXTINF:2.127267,
311197261429495-index10140.png
#EXTINF:7.090889,
311197261429495-index10141.png
#EXTINF:4.171111,
311197261429495-index10142.png
#EXTINF:5.756133,
311197261429495-index10143.png
#EXTINF:2.669511,
311197261429495-index10144.png
#EXTINF:2.085556,
311197261429495-index10145.png
#EXTINF:2.085556,
311197261429495-index10146.png
#EXTINF:4.504800,
311197261429495-index10147.png
#EXTINF:3.712289,
311197261429495-index10148.png
#EXTINF:1.793578,
311197261429495-index10149.png
#EXTINF:2.294111,
311197261429495-index10150.png
#EXTINF:2.836356,
311197261429495-index10151.png
#EXTINF:2.294111,
311197261429495-index10152.png
#EXTINF:3.587156,
311197261429495-index10153.png
#EXTINF:3.920844,
311197261429495-index10154.png
#EXTINF:4.504800,
311197261429495-index10155.png
#EXTINF:3.044911,
311197261429495-index10156.png
#EXTINF:3.170044,
311197261429495-index10157.png
#EXTINF:1.751867,
311197261429495-index10158.png
#EXTINF:1.209622,
311197261429495-index10159.png
#EXTINF:2.127267,
311197261429495-index10160.png
#EXTINF:2.002133,
311197261429495-index10161.png
#EXTINF:2.210689,
311197261429495-index10162.png
#EXTINF:8.842756,
311197261429495-index10163.png
#EXTINF:4.588222,
311197261429495-index10164.png
#EXTINF:2.794644,
311197261429495-index10165.png
#EXTINF:2.836356,
311197261429495-index10166.png
#EXTINF:2.627800,
311197261429495-index10167.png
#EXTINF:5.088756,
311197261429495-index10168.png
#EXTINF:2.627800,
311197261429495-index10169.png
#EXTINF:2.419244,
311197261429495-index10170.png
#EXTINF:4.337956,
311197261429495-index10171.png
#EXTINF:4.004267,
311197261429495-index10172.png
#EXTINF:1.835289,
311197261429495-index10173.png
#EXTINF:1.334756,
311197261429495-index10174.png
#EXTINF:5.339022,
311197261429495-index10175.png
#EXTINF:1.877000,
311197261429495-index10176.png
#EXTINF:10.427778,
311197261429495-index10177.png
#EXTINF:2.586089,
311197261429495-index10178.png
#EXTINF:2.502667,
311197261429495-index10179.png
#EXTINF:5.672711,
311197261429495-index10180.png
#EXTINF:5.714422,
311197261429495-index10181.png
#EXTINF:3.336889,
311197261429495-index10182.png
#EXTINF:2.711222,
311197261429495-index10183.png
#EXTINF:3.170044,
311197261429495-index10184.png
#EXTINF:2.752933,
311197261429495-index10185.png
#EXTINF:5.005333,
311197261429495-index10186.png
#EXTINF:2.168978,
311197261429495-index10187.png
#EXTINF:3.378600,
311197261429495-index10188.png
#EXTINF:2.544378,
311197261429495-index10189.png
#EXTINF:6.173244,
311197261429495-index10190.png
#EXTINF:5.547578,
311197261429495-index10191.png
#EXTINF:1.960422,
311197261429495-index10192.png
#EXTINF:1.793578,
311197261429495-index10193.png
#EXTINF:2.002133,
311197261429495-index10194.png
#EXTINF:2.669511,
311197261429495-index10195.png
#EXTINF:3.837422,
311197261429495-index10196.png
#EXTINF:3.336889,
311197261429495-index10197.png
#EXTINF:2.544378,
311197261429495-index10198.png
#EXTINF:3.962556,
311197261429495-index10199.png
#EXTINF:2.335822,
311197261429495-index10200.png
#EXTINF:2.836356,
311197261429495-index10201.png
#EXTINF:1.626733,
311197261429495-index10202.png
#EXTINF:2.627800,
311197261429495-index10203.png
#EXTINF:2.961489,
311197261429495-index10204.png
#EXTINF:3.670578,
311197261429495-index10205.png
#EXTINF:3.295178,
311197261429495-index10206.png
#EXTINF:3.295178,
311197261429495-index10207.png
#EXTINF:2.127267,
311197261429495-index10208.png
#EXTINF:1.293044,
311197261429495-index10209.png
#EXTINF:2.544378,
311197261429495-index10210.png
#EXTINF:3.420311,
311197261429495-index10211.png
#EXTINF:2.294111,
311197261429495-index10212.png
#EXTINF:2.752933,
311197261429495-index10213.png
#EXTINF:6.006400,
311197261429495-index10214.png
#EXTINF:2.502667,
311197261429495-index10215.png
#EXTINF:1.668444,
311197261429495-index10216.png
#EXTINF:1.376467,
311197261429495-index10217.png
#EXTINF:2.669511,
311197261429495-index10218.png
#EXTINF:7.633133,
311197261429495-index10219.png
#EXTINF:7.674844,
311197261429495-index10220.png
#EXTINF:2.252400,
311197261429495-index10221.png
#EXTINF:1.459889,
311197261429495-index10222.png
#EXTINF:1.668444,
311197261429495-index10223.png
#EXTINF:1.501600,
311197261429495-index10224.png
#EXTINF:3.837422,
311197261429495-index10225.png
#EXTINF:4.004267,
311197261429495-index10226.png
#EXTINF:2.919778,
311197261429495-index10227.png
#EXTINF:2.294111,
311197261429495-index10228.png
#EXTINF:1.668444,
311197261429495-index10229.png
#EXTINF:2.043844,
311197261429495-index10230.png
#EXTINF:3.545444,
311197261429495-index10231.png
#EXTINF:2.669511,
311197261429495-index10232.png
#EXTINF:1.376467,
311197261429495-index10233.png
#EXTINF:1.626733,
311197261429495-index10234.png
#EXTINF:1.877000,
311197261429495-index10235.png
#EXTINF:2.419244,
311197261429495-index10236.png
#EXTINF:3.044911,
311197261429495-index10237.png
#EXTINF:3.128333,
311197261429495-index10238.png
#EXTINF:2.168978,
311197261429495-index10239.png
#EXTINF:2.043844,
311197261429495-index10240.png
#EXTINF:3.044911,
311197261429495-index10241.png
#EXTINF:6.882333,
311197261429495-index10242.png
#EXTINF:2.586089,
311197261429495-index10243.png
#EXTINF:2.085556,
311197261429495-index10244.png
#EXTINF:4.963622,
311197261429495-index10245.png
#EXTINF:2.210689,
311197261429495-index10246.png
#EXTINF:1.376467,
311197261429495-index10247.png
#EXTINF:2.127267,
311197261429495-index10248.png
#EXTINF:3.754000,
311197261429495-index10249.png
#EXTINF:1.918711,
311197261429495-index10250.png
#EXTINF:1.084489,
311197261429495-index10251.png
#EXTINF:4.296244,
311197261429495-index10252.png
#EXTINF:4.546511,
311197261429495-index10253.png
#EXTINF:3.253467,
311197261429495-index10254.png
#EXTINF:2.502667,
311197261429495-index10255.png
#EXTINF:1.334756,
311197261429495-index10256.png
#EXTINF:2.711222,
311197261429495-index10257.png
#EXTINF:1.334756,
311197261429495-index10258.png
#EXTINF:3.170044,
311197261429495-index10259.png
#EXTINF:2.794644,
311197261429495-index10260.png
#EXTINF:1.877000,
311197261429495-index10261.png
#EXTINF:2.252400,
311197261429495-index10262.png
#EXTINF:1.710156,
311197261429495-index10263.png
#EXTINF:1.877000,
311197261429495-index10264.png
#EXTINF:1.459889,
311197261429495-index10265.png
#EXTINF:3.003200,
311197261429495-index10266.png
#EXTINF:4.963622,
311197261429495-index10267.png
#EXTINF:2.919778,
311197261429495-index10268.png
#EXTINF:5.547578,
311197261429495-index10269.png
#EXTINF:4.880200,
311197261429495-index10270.png
#EXTINF:3.670578,
311197261429495-index10271.png
#EXTINF:1.585022,
311197261429495-index10272.png
#EXTINF:10.427778,
311197261429495-index10273.png
#EXTINF:4.171111,
311197261429495-index10274.png
#EXTINF:1.877000,
311197261429495-index10275.png
#EXTINF:1.459889,
311197261429495-index10276.png
#EXTINF:1.793578,
311197261429495-index10277.png
#EXTINF:5.505867,
311197261429495-index10278.png
#EXTINF:2.168978,
311197261429495-index10279.png
#EXTINF:2.252400,
311197261429495-index10280.png
#EXTINF:4.671644,
311197261429495-index10281.png
#EXTINF:1.293044,
311197261429495-index10282.png
#EXTINF:3.128333,
311197261429495-index10283.png
#EXTINF:7.007467,
311197261429495-index10284.png
#EXTINF:1.126200,
311197261429495-index10285.png
#EXTINF:3.378600,
311197261429495-index10286.png
#EXTINF:3.086622,
311197261429495-index10287.png
#EXTINF:2.836356,
311197261429495-index10288.png
#EXTINF:3.962556,
311197261429495-index10289.png
#EXTINF:3.128333,
311197261429495-index10290.png
#EXTINF:6.381800,
311197261429495-index10291.png
#EXTINF:1.710156,
311197261429495-index10292.png
#EXTINF:3.462022,
311197261429495-index10293.png
#EXTINF:4.421378,
311197261429495-index10294.png
#EXTINF:2.669511,
311197261429495-index10295.png
#EXTINF:10.427778,
311197261429495-index10296.png
#EXTINF:1.960422,
311197261429495-index10297.png
#EXTINF:1.501600,
311197261429495-index10298.png
#EXTINF:1.293044,
311197261429495-index10299.png
#EXTINF:2.919778,
311197261429495-index10300.png
#EXTINF:1.126200,
311197261429495-index10301.png
#EXTINF:4.921911,
311197261429495-index10302.png
#EXTINF:2.752933,
311197261429495-index10303.png
#EXTINF:4.379667,
311197261429495-index10304.png
#EXTINF:1.918711,
311197261429495-index10305.png
#EXTINF:2.252400,
311197261429495-index10306.png
#EXTINF:5.547578,
311197261429495-index10307.png
#EXTINF:1.376467,
311197261429495-index10308.png
#EXTINF:1.543311,
311197261429495-index10309.png
#EXTINF:1.501600,
311197261429495-index10310.png
#EXTINF:2.210689,
311197261429495-index10311.png
#EXTINF:3.170044,
311197261429495-index10312.png
#EXTINF:1.877000,
311197261429495-index10313.png
#EXTINF:2.586089,
311197261429495-index10314.png
#EXTINF:2.627800,
311197261429495-index10315.png
#EXTINF:1.793578,
311197261429495-index10316.png
#EXTINF:3.336889,
311197261429495-index10317.png
#EXTINF:3.170044,
311197261429495-index10318.png
#EXTINF:3.170044,
311197261429495-index10319.png
#EXTINF:2.210689,
311197261429495-index10320.png
#EXTINF:1.960422,
311197261429495-index10321.png
#EXTINF:1.126200,
311197261429495-index10322.png
#EXTINF:3.754000,
311197261429495-index10323.png
#EXTINF:2.085556,
311197261429495-index10324.png
#EXTINF:1.751867,
311197261429495-index10325.png
#EXTINF:1.167911,
311197261429495-index10326.png
#EXTINF:1.835289,
311197261429495-index10327.png
#EXTINF:1.501600,
311197261429495-index10328.png
#EXTINF:2.085556,
311197261429495-index10329.png
#EXTINF:1.459889,
311197261429495-index10330.png
#EXTINF:1.001067,
311197261429495-index10331.png
#EXTINF:3.587156,
311197261429495-index10332.png
#EXTINF:1.293044,
311197261429495-index10333.png
#EXTINF:2.752933,
311197261429495-index10334.png
#EXTINF:1.793578,
311197261429495-index10335.png
#EXTINF:1.877000,
311197261429495-index10336.png
#EXTINF:6.131533,
311197261429495-index10337.png
#EXTINF:2.836356,
311197261429495-index10338.png
#EXTINF:3.879133,
311197261429495-index10339.png
#EXTINF:1.918711,
311197261429495-index10340.png
#EXTINF:2.127267,
311197261429495-index10341.png
#EXTINF:1.334756,
311197261429495-index10342.png
#EXTINF:1.877000,
311197261429495-index10343.png
#EXTINF:2.002133,
311197261429495-index10344.png
#EXTINF:2.669511,
311197261429495-index10345.png
#EXTINF:4.212822,
311197261429495-index10346.png
#EXTINF:2.294111,
311197261429495-index10347.png
#EXTINF:2.294111,
311197261429495-index10348.png
#EXTINF:4.504800,
311197261429495-index10349.png
#EXTINF:7.007467,
311197261429495-index10350.png
#EXTINF:2.085556,
311197261429495-index10351.png
#EXTINF:1.710156,
311197261429495-index10352.png
#EXTINF:2.335822,
311197261429495-index10353.png
#EXTINF:1.835289,
311197261429495-index10354.png
#EXTINF:1.459889,
311197261429495-index10355.png
#EXTINF:3.086622,
311197261429495-index10356.png
#EXTINF:6.089822,
311197261429495-index10357.png
#EXTINF:3.211756,
311197261429495-index10358.png
#EXTINF:7.299444,
311197261429495-index10359.png
#EXTINF:4.171111,
311197261429495-index10360.png
#EXTINF:7.090889,
311197261429495-index10361.png
#EXTINF:1.334756,
311197261429495-index10362.png
#EXTINF:1.668444,
311197261429495-index10363.png
#EXTINF:3.170044,
311197261429495-index10364.png
#EXTINF:0.959356,
311197261429495-index10365.png
#EXTINF:3.628867,
311197261429495-index10366.png
#EXTINF:7.549711,
311197261429495-index10367.png
#EXTINF:6.840622,
311197261429495-index10368.png
#EXTINF:1.668444,
311197261429495-index10369.png
#EXTINF:2.127267,
311197261429495-index10370.png
#EXTINF:2.377533,
311197261429495-index10371.png
#EXTINF:3.503733,
311197261429495-index10372.png
#EXTINF:2.168978,
311197261429495-index10373.png
#EXTINF:2.335822,
311197261429495-index10374.png
#EXTINF:1.877000,
311197261429495-index10375.png
#EXTINF:4.421378,
311197261429495-index10376.png
#EXTINF:3.837422,
311197261429495-index10377.png
#EXTINF:4.337956,
311197261429495-index10378.png
#EXTINF:4.171111,
311197261429495-index10379.png
#EXTINF:3.879133,
311197261429495-index10380.png
#EXTINF:2.002133,
311197261429495-index10381.png
#EXTINF:2.252400,
311197261429495-index10382.png
#EXTINF:1.543311,
311197261429495-index10383.png
#EXTINF:2.544378,
311197261429495-index10384.png
#EXTINF:1.084489,
311197261429495-index10385.png
#EXTINF:2.502667,
311197261429495-index10386.png
#EXTINF:2.878067,
311197261429495-index10387.png
#EXTINF:5.047044,
311197261429495-index10388.png
#EXTINF:6.715489,
311197261429495-index10389.png
#EXTINF:3.545444,
311197261429495-index10390.png
#EXTINF:1.543311,
311197261429495-index10391.png
#EXTINF:1.793578,
311197261429495-index10392.png
#EXTINF:7.216022,
311197261429495-index10393.png
#EXTINF:5.172178,
311197261429495-index10394.png
#EXTINF:6.423511,
311197261429495-index10395.png
#EXTINF:1.543311,
311197261429495-index10396.png
#EXTINF:5.339022,
311197261429495-index10397.png
#EXTINF:2.002133,
311197261429495-index10398.png
#EXTINF:7.674844,
311197261429495-index10399.png
#EXTINF:4.171111,
311197261429495-index10400.png
#EXTINF:1.334756,
311197261429495-index10401.png
#EXTINF:1.334756,
311197261429495-index10402.png
#EXTINF:1.626733,
311197261429495-index10403.png
#EXTINF:1.877000,
311197261429495-index10404.png
#EXTINF:1.501600,
311197261429495-index10405.png
#EXTINF:1.126200,
311197261429495-index10406.png
#EXTINF:2.127267,
311197261429495-index10407.png
#EXTINF:1.626733,
311197261429495-index10408.png
#EXTINF:3.336889,
311197261429495-index10409.png
#EXTINF:8.717622,
311197261429495-index10410.png
#EXTINF:1.668444,
311197261429495-index10411.png
#EXTINF:2.878067,
311197261429495-index10412.png
#EXTINF:1.293044,
311197261429495-index10413.png
#EXTINF:2.586089,
311197261429495-index10414.png
#EXTINF:1.626733,
311197261429495-index10415.png
#EXTINF:9.093022,
311197261429495-index10416.png
#EXTINF:4.171111,
311197261429495-index10417.png
#EXTINF:1.960422,
311197261429495-index10418.png
#EXTINF:2.502667,
311197261429495-index10419.png
#EXTINF:3.253467,
311197261429495-index10420.png
#EXTINF:2.878067,
311197261429495-index10421.png
#EXTINF:5.631000,
311197261429495-index10422.png
#EXTINF:3.462022,
311197261429495-index10423.png
#EXTINF:4.212822,
311197261429495-index10424.png
#EXTINF:5.213889,
311197261429495-index10425.png
#EXTINF:4.963622,
311197261429495-index10426.png
#EXTINF:4.546511,
311197261429495-index10427.png
#EXTINF:6.173244,
311197261429495-index10428.png
#EXTINF:4.171111,
311197261429495-index10429.png
#EXTINF:3.170044,
311197261429495-index10430.png
#EXTINF:2.335822,
311197261429495-index10431.png
#EXTINF:2.878067,
311197261429495-index10432.png
#EXTINF:3.837422,
311197261429495-index10433.png
#EXTINF:10.427778,
311197261429495-index10434.png
#EXTINF:3.420311,
311197261429495-index10435.png
#EXTINF:5.088756,
311197261429495-index10436.png
#EXTINF:2.419244,
311197261429495-index10437.png
#EXTINF:1.793578,
311197261429495-index10438.png
#EXTINF:2.878067,
311197261429495-index10439.png
#EXTINF:5.088756,
311197261429495-index10440.png
#EXTINF:1.376467,
311197261429495-index10441.png
#EXTINF:2.919778,
311197261429495-index10442.png
#EXTINF:2.335822,
311197261429495-index10443.png
#EXTINF:2.002133,
311197261429495-index10444.png
#EXTINF:7.090889,
311197261429495-index10445.png
#EXTINF:1.751867,
311197261429495-index10446.png
#EXTINF:1.585022,
311197261429495-index10447.png
#EXTINF:2.002133,
311197261429495-index10448.png
#EXTINF:1.418178,
311197261429495-index10449.png
#EXTINF:2.836356,
311197261429495-index10450.png
#EXTINF:2.127267,
311197261429495-index10451.png
#EXTINF:1.001067,
311197261429495-index10452.png
#EXTINF:2.043844,
311197261429495-index10453.png
#EXTINF:1.376467,
311197261429495-index10454.png
#EXTINF:4.296244,
311197261429495-index10455.png
#EXTINF:1.084489,
311197261429495-index10456.png
#EXTINF:1.376467,
311197261429495-index10457.png
#EXTINF:3.003200,
311197261429495-index10458.png
#EXTINF:3.920844,
311197261429495-index10459.png
#EXTINF:3.670578,
311197261429495-index10460.png
#EXTINF:2.419244,
311197261429495-index10461.png
#EXTINF:2.085556,
311197261429495-index10462.png
#EXTINF:2.544378,
311197261429495-index10463.png
#EXTINF:2.419244,
311197261429495-index10464.png
#EXTINF:3.170044,
311197261429495-index10465.png
#EXTINF:1.293044,
311197261429495-index10466.png
#EXTINF:3.920844,
311197261429495-index10467.png
#EXTINF:2.586089,
311197261429495-index10468.png
#EXTINF:2.502667,
311197261429495-index10469.png
#EXTINF:3.420311,
311197261429495-index10470.png
#EXTINF:2.794644,
311197261429495-index10471.png
#EXTINF:1.835289,
311197261429495-index10472.png
#EXTINF:3.879133,
311197261429495-index10473.png
#EXTINF:1.877000,
311197261429495-index10474.png
#EXTINF:3.044911,
311197261429495-index10475.png
#EXTINF:5.130467,
311197261429495-index10476.png
#EXTINF:5.714422,
311197261429495-index10477.png
#EXTINF:3.378600,
311197261429495-index10478.png
#EXTINF:5.213889,
311197261429495-index10479.png
#EXTINF:1.877000,
311197261429495-index10480.png
#EXTINF:3.670578,
311197261429495-index10481.png
#EXTINF:2.085556,
311197261429495-index10482.png
#EXTINF:6.840622,
311197261429495-index10483.png
#EXTINF:3.628867,
311197261429495-index10484.png
#EXTINF:4.004267,
311197261429495-index10485.png
#EXTINF:4.421378,
311197261429495-index10486.png
#EXTINF:7.925111,
311197261429495-index10487.png
#EXTINF:1.418178,
311197261429495-index10488.png
#EXTINF:1.501600,
311197261429495-index10489.png
#EXTINF:4.171111,
311197261429495-index10490.png
#EXTINF:1.960422,
311197261429495-index10491.png
#EXTINF:10.427778,
311197261429495-index10492.png
#EXTINF:10.427778,
311197261429495-index10493.png
#EXTINF:10.427778,
311197261429495-index10494.png
#EXTINF:7.466289,
311197261429495-index10495.png
#EXTINF:3.795711,
311197261429495-index10496.png
#EXT-X-ENDLIST
