#EXTM3U
#EXT-X-VERSION:3
#EXT-X-TARGETDURATION:11
#EXT-X-MEDIA-SEQUENCE:10001
#EXTINF:10.375000,
318737212982442-index10001.png
#EXTINF:6.500000,
318737212982442-index10002.png
#EXTINF:4.291667,
318737212982442-index10003.png
#EXTINF:3.250000,
318737212982442-index10004.png
#EXTINF:2.208333,
318737212982442-index10005.png
#EXTINF:1.250000,
318737212982442-index10006.png
#EXTINF:1.375000,
318737212982442-index10007.png
#EXTINF:1.791667,
318737212982442-index10008.png
#EXTINF:1.750000,
318737212982442-index10009.png
#EXTINF:1.625000,
318737212982442-index10010.png
#EXTINF:4.208333,
318737212982442-index10011.png
#EXTINF:2.291667,
318737212982442-index10012.png
#EXTINF:2.500000,
318737212982442-index10013.png
#EXTINF:1.166667,
318737212982442-index10014.png
#EXTINF:2.166667,
318737212982442-index10015.png
#EXTINF:6.166667,
318737212982442-index10016.png
#EXTINF:2.916667,
318737212982442-index10017.png
#EXTINF:3.708333,
318737212982442-index10018.png
#EXTINF:1.541667,
318737212982442-index10019.png
#EXTINF:2.750000,
318737212982442-index10020.png
#EXTINF:2.333333,
318737212982442-index10021.png
#EXTINF:1.375000,
318737212982442-index10022.png
#EXTINF:2.208333,
318737212982442-index10023.png
#EXTINF:2.958333,
318737212982442-index10024.png
#EXTINF:3.791667,
318737212982442-index10025.png
#EXTINF:2.958333,
318737212982442-index10026.png
#EXTINF:1.666667,
318737212982442-index10027.png
#EXTINF:1.833333,
318737212982442-index10028.png
#EXTINF:3.375000,
318737212982442-index10029.png
#EXTINF:1.750000,
318737212982442-index10030.png
#EXTINF:3.291667,
318737212982442-index10031.png
#EXTINF:1.958333,
318737212982442-index10032.png
#EXTINF:1.833333,
318737212982442-index10033.png
#EXTINF:3.833333,
318737212982442-index10034.png
#EXTINF:2.500000,
318737212982442-index10035.png
#EXTINF:1.666667,
318737212982442-index10036.png
#EXTINF:4.250000,
318737212982442-index10037.png
#EXTINF:3.416667,
318737212982442-index10038.png
#EXTINF:9.000000,
318737212982442-index10039.png
#EXTINF:2.875000,
318737212982442-index10040.png
#EXTINF:1.583333,
318737212982442-index10041.png
#EXTINF:5.291667,
318737212982442-index10042.png
#EXTINF:4.208333,
318737212982442-index10043.png
#EXTINF:10.416667,
318737212982442-index10044.png
#EXTINF:4.958333,
318737212982442-index10045.png
#EXTINF:2.375000,
318737212982442-index10046.png
#EXTINF:2.833333,
318737212982442-index10047.png
#EXTINF:2.208333,
318737212982442-index10048.png
#EXTINF:2.125000,
318737212982442-index10049.png
#EXTINF:4.458333,
318737212982442-index10050.png
#EXTINF:2.041667,
318737212982442-index10051.png
#EXTINF:2.041667,
318737212982442-index10052.png
#EXTINF:4.500000,
318737212982442-index10053.png
#EXTINF:8.500000,
318737212982442-index10054.png
#EXTINF:1.666667,
318737212982442-index10055.png
#EXTINF:4.416667,
318737212982442-index10056.png
#EXTINF:4.750000,
318737212982442-index10057.png
#EXTINF:6.583333,
318737212982442-index10058.png
#EXTINF:2.500000,
318737212982442-index10059.png
#EXTINF:2.375000,
318737212982442-index10060.png
#EXTINF:3.625000,
318737212982442-index10061.png
#EXTINF:2.708333,
318737212982442-index10062.png
#EXTINF:7.291667,
318737212982442-index10063.png
#EXTINF:5.041667,
318737212982442-index10064.png
#EXTINF:4.458333,
318737212982442-index10065.png
#EXTINF:5.583333,
318737212982442-index10066.png
#EXTINF:4.875000,
318737212982442-index10067.png
#EXTINF:6.291667,
318737212982442-index10068.png
#EXTINF:6.125000,
318737212982442-index10069.png
#EXTINF:5.875000,
318737212982442-index10070.png
#EXTINF:4.416667,
318737212982442-index10071.png
#EXTINF:4.958333,
318737212982442-index10072.png
#EXTINF:6.250000,
318737212982442-index10073.png
#EXTINF:8.083333,
318737212982442-index10074.png
#EXTINF:3.500000,
318737212982442-index10075.png
#EXTINF:1.333333,
318737212982442-index10076.png
#EXTINF:2.208333,
318737212982442-index10077.png
#EXTINF:3.791667,
318737212982442-index10078.png
#EXTINF:4.833333,
318737212982442-index10079.png
#EXTINF:2.375000,
318737212982442-index10080.png
#EXTINF:2.375000,
318737212982442-index10081.png
#EXTINF:3.708333,
318737212982442-index10082.png
#EXTINF:1.541667,
318737212982442-index10083.png
#EXTINF:1.958333,
318737212982442-index10084.png
#EXTINF:9.208333,
318737212982442-index10085.png
#EXTINF:3.416667,
318737212982442-index10086.png
#EXTINF:7.000000,
318737212982442-index10087.png
#EXTINF:8.208333,
318737212982442-index10088.png
#EXTINF:5.416667,
318737212982442-index10089.png
#EXTINF:4.041667,
318737212982442-index10090.png
#EXTINF:5.708333,
318737212982442-index10091.png
#EXTINF:2.583333,
318737212982442-index10092.png
#EXTINF:5.916667,
318737212982442-index10093.png
#EXTINF:7.833333,
318737212982442-index10094.png
#EXTINF:3.666667,
318737212982442-index10095.png
#EXTINF:2.000000,
318737212982442-index10096.png
#EXTINF:7.416667,
318737212982442-index10097.png
#EXTINF:6.000000,
318737212982442-index10098.png
#EXTINF:4.125000,
318737212982442-index10099.png
#EXTINF:1.875000,
318737212982442-index10100.png
#EXTINF:8.291667,
318737212982442-index10101.png
#EXTINF:1.333333,
318737212982442-index10102.png
#EXTINF:4.250000,
318737212982442-index10103.png
#EXTINF:2.750000,
318737212982442-index10104.png
#EXTINF:3.541667,
318737212982442-index10105.png
#EXTINF:6.458333,
318737212982442-index10106.png
#EXTINF:1.500000,
318737212982442-index10107.png
#EXTINF:4.541667,
318737212982442-index10108.png
#EXTINF:3.708333,
318737212982442-index10109.png
#EXTINF:3.291667,
318737212982442-index10110.png
#EXTINF:1.583333,
318737212982442-index10111.png
#EXTINF:1.333333,
318737212982442-index10112.png
#EXTINF:1.416667,
318737212982442-index10113.png
#EXTINF:1.041667,
318737212982442-index10114.png
#EXTINF:2.833333,
318737212982442-index10115.png
#EXTINF:4.625000,
318737212982442-index10116.png
#EXTINF:2.458333,
318737212982442-index10117.png
#EXTINF:5.041667,
318737212982442-index10118.png
#EXTINF:1.875000,
318737212982442-index10119.png
#EXTINF:5.625000,
318737212982442-index10120.png
#EXTINF:2.083333,
318737212982442-index10121.png
#EXTINF:3.208333,
318737212982442-index10122.png
#EXTINF:3.208333,
318737212982442-index10123.png
#EXTINF:1.083333,
318737212982442-index10124.png
#EXTINF:2.625000,
318737212982442-index10125.png
#EXTINF:2.833333,
318737212982442-index10126.png
#EXTINF:4.458333,
318737212982442-index10127.png
#EXTINF:2.958333,
318737212982442-index10128.png
#EXTINF:5.625000,
318737212982442-index10129.png
#EXTINF:5.875000,
318737212982442-index10130.png
#EXTINF:1.875000,
318737212982442-index10131.png
#EXTINF:4.375000,
318737212982442-index10132.png
#EXTINF:1.750000,
318737212982442-index10133.png
#EXTINF:1.750000,
318737212982442-index10134.png
#EXTINF:2.333333,
318737212982442-index10135.png
#EXTINF:4.166667,
318737212982442-index10136.png
#EXTINF:2.250000,
318737212982442-index10137.png
#EXTINF:2.250000,
318737212982442-index10138.png
#EXTINF:1.833333,
318737212982442-index10139.png
#EXTINF:3.500000,
318737212982442-index10140.png
#EXTINF:1.416667,
318737212982442-index10141.png
#EXTINF:2.875000,
318737212982442-index10142.png
#EXTINF:1.083333,
318737212982442-index10143.png
#EXTINF:4.416667,
318737212982442-index10144.png
#EXTINF:3.958333,
318737212982442-index10145.png
#EXTINF:1.666667,
318737212982442-index10146.png
#EXTINF:3.333333,
318737212982442-index10147.png
#EXTINF:3.541667,
318737212982442-index10148.png
#EXTINF:4.666667,
318737212982442-index10149.png
#EXTINF:10.208333,
318737212982442-index10150.png
#EXTINF:3.250000,
318737212982442-index10151.png
#EXTINF:2.750000,
318737212982442-index10152.png
#EXTINF:10.416667,
318737212982442-index10153.png
#EXTINF:8.125000,
318737212982442-index10154.png
#EXTINF:1.583333,
318737212982442-index10155.png
#EXTINF:10.416667,
318737212982442-index10156.png
#EXTINF:4.416667,
318737212982442-index10157.png
#EXTINF:10.416667,
318737212982442-index10158.png
#EXTINF:2.833333,
318737212982442-index10159.png
#EXTINF:2.791667,
318737212982442-index10160.png
#EXTINF:1.208333,
318737212982442-index10161.png
#EXTINF:6.708333,
318737212982442-index10162.png
#EXTINF:6.541667,
318737212982442-index10163.png
#EXTINF:2.708333,
318737212982442-index10164.png
#EXTINF:3.833333,
318737212982442-index10165.png
#EXTINF:1.708333,
318737212982442-index10166.png
#EXTINF:3.125000,
318737212982442-index10167.png
#EXTINF:1.666667,
318737212982442-index10168.png
#EXTINF:2.791667,
318737212982442-index10169.png
#EXTINF:2.666667,
318737212982442-index10170.png
#EXTINF:1.791667,
318737212982442-index10171.png
#EXTINF:3.625000,
318737212982442-index10172.png
#EXTINF:5.291667,
318737212982442-index10173.png
#EXTINF:6.333333,
318737212982442-index10174.png
#EXTINF:5.916667,
318737212982442-index10175.png
#EXTINF:4.041667,
318737212982442-index10176.png
#EXTINF:10.416667,
318737212982442-index10177.png
#EXTINF:1.541667,
318737212982442-index10178.png
#EXTINF:3.750000,
318737212982442-index10179.png
#EXTINF:3.083333,
318737212982442-index10180.png
#EXTINF:2.666667,
318737212982442-index10181.png
#EXTINF:3.541667,
318737212982442-index10182.png
#EXTINF:3.041667,
318737212982442-index10183.png
#EXTINF:3.291667,
318737212982442-index10184.png
#EXTINF:4.291667,
318737212982442-index10185.png
#EXTINF:8.000000,
318737212982442-index10186.png
#EXTINF:7.833333,
318737212982442-index10187.png
#EXTINF:6.291667,
318737212982442-index10188.png
#EXTINF:2.625000,
318737212982442-index10189.png
#EXTINF:5.250000,
318737212982442-index10190.png
#EXTINF:6.333333,
318737212982442-index10191.png
#EXTINF:5.916667,
318737212982442-index10192.png
#EXTINF:4.500000,
318737212982442-index10193.png
#EXTINF:2.125000,
318737212982442-index10194.png
#EXTINF:6.416667,
318737212982442-index10195.png
#EXTINF:5.208333,
318737212982442-index10196.png
#EXTINF:9.000000,
318737212982442-index10197.png
#EXTINF:5.458333,
318737212982442-index10198.png
#EXTINF:1.958333,
318737212982442-index10199.png
#EXTINF:1.500000,
318737212982442-index10200.png
#EXTINF:4.750000,
318737212982442-index10201.png
#EXTINF:2.541667,
318737212982442-index10202.png
#EXTINF:1.458333,
318737212982442-index10203.png
#EXTINF:2.333333,
318737212982442-index10204.png
#EXTINF:2.041667,
318737212982442-index10205.png
#EXTINF:3.041667,
318737212982442-index10206.png
#EXTINF:1.833333,
318737212982442-index10207.png
#EXTINF:5.208333,
318737212982442-index10208.png
#EXTINF:2.416667,
318737212982442-index10209.png
#EXTINF:4.541667,
318737212982442-index10210.png
#EXTINF:1.000000,
318737212982442-index10211.png
#EXTINF:3.958333,
318737212982442-index10212.png
#EXTINF:2.625000,
318737212982442-index10213.png
#EXTINF:2.375000,
318737212982442-index10214.png
#EXTINF:2.916667,
318737212982442-index10215.png
#EXTINF:2.583333,
318737212982442-index10216.png
#EXTINF:5.375000,
318737212982442-index10217.png
#EXTINF:1.041667,
318737212982442-index10218.png
#EXTINF:3.041667,
318737212982442-index10219.png
#EXTINF:2.791667,
318737212982442-index10220.png
#EXTINF:3.791667,
318737212982442-index10221.png
#EXTINF:5.958333,
318737212982442-index10222.png
#EXTINF:2.125000,
318737212982442-index10223.png
#EXTINF:1.541667,
318737212982442-index10224.png
#EXTINF:2.916667,
318737212982442-index10225.png
#EXTINF:8.083333,
318737212982442-index10226.png
#EXTINF:3.000000,
318737212982442-index10227.png
#EXTINF:2.875000,
318737212982442-index10228.png
#EXTINF:3.666667,
318737212982442-index10229.png
#EXTINF:1.666667,
318737212982442-index10230.png
#EXTINF:5.083333,
318737212982442-index10231.png
#EXTINF:10.416667,
318737212982442-index10232.png
#EXTINF:2.875000,
318737212982442-index10233.png
#EXTINF:5.333333,
318737212982442-index10234.png
#EXTINF:5.666667,
318737212982442-index10235.png
#EXTINF:1.916667,
318737212982442-index10236.png
#EXTINF:2.791667,
318737212982442-index10237.png
#EXTINF:4.875000,
318737212982442-index10238.png
#EXTINF:2.708333,
318737212982442-index10239.png
#EXTINF:2.875000,
318737212982442-index10240.png
#EXTINF:2.083333,
318737212982442-index10241.png
#EXTINF:2.375000,
318737212982442-index10242.png
#EXTINF:4.458333,
318737212982442-index10243.png
#EXTINF:2.000000,
318737212982442-index10244.png
#EXTINF:1.833333,
318737212982442-index10245.png
#EXTINF:3.375000,
318737212982442-index10246.png
#EXTINF:4.083333,
318737212982442-index10247.png
#EXTINF:2.583333,
318737212982442-index10248.png
#EXTINF:5.458333,
318737212982442-index10249.png
#EXTINF:5.000000,
318737212982442-index10250.png
#EXTINF:10.416667,
318737212982442-index10251.png
#EXTINF:4.041667,
318737212982442-index10252.png
#EXTINF:6.291667,
318737212982442-index10253.png
#EXTINF:10.416667,
318737212982442-index10254.png
#EXTINF:10.416667,
318737212982442-index10255.png
#EXTINF:10.416667,
318737212982442-index10256.png
#EXTINF:10.416667,
318737212982442-index10257.png
#EXTINF:10.416667,
318737212982442-index10258.png
#EXTINF:10.416667,
318737212982442-index10259.png
#EXTINF:10.416667,
318737212982442-index10260.png
#EXTINF:10.416667,
318737212982442-index10261.png
#EXTINF:10.416667,
318737212982442-index10262.png
#EXTINF:10.416667,
318737212982442-index10263.png
#EXTINF:10.416667,
318737212982442-index10264.png
#EXTINF:7.250000,
318737212982442-index10265.png
#EXTINF:2.625000,
318737212982442-index10266.png
#EXTINF:1.250000,
318737212982442-index10267.png
#EXTINF:1.833333,
318737212982442-index10268.png
#EXTINF:5.208333,
318737212982442-index10269.png
#EXTINF:2.875000,
318737212982442-index10270.png
#EXTINF:3.500000,
318737212982442-index10271.png
#EXTINF:1.958333,
318737212982442-index10272.png
#EXTINF:2.791667,
318737212982442-index10273.png
#EXTINF:4.625000,
318737212982442-index10274.png
#EXTINF:3.416667,
318737212982442-index10275.png
#EXT-X-ENDLIST
