#EXTM3U
#EXT-X-VERSION:3
#EXT-X-TARGETDURATION:10
#EXT-X-MEDIA-SEQUENCE:10001
#EXTINF:3.520000,
327644356422954-index10001.png
#EXTINF:4.640000,
327644356422954-index10002.png
#EXTINF:1.000000,
327644356422954-index10003.png
#EXTINF:4.840000,
327644356422954-index10004.png
#EXTINF:3.800000,
327644356422954-index10005.png
#EXTINF:2.840000,
327644356422954-index10006.png
#EXTINF:6.640000,
327644356422954-index10007.png
#EXTINF:10.000000,
327644356422954-index10008.png
#EXTINF:1.840000,
327644356422954-index10009.png
#EXTINF:1.880000,
327644356422954-index10010.png
#EXTINF:3.200000,
327644356422954-index10011.png
#EXTINF:2.720000,
327644356422954-index10012.png
#EXTINF:1.240000,
327644356422954-index10013.png
#EXTINF:2.280000,
327644356422954-index10014.png
#EXTINF:2.440000,
327644356422954-index10015.png
#EXTINF:1.520000,
327644356422954-index10016.png
#EXTINF:4.200000,
327644356422954-index10017.png
#EXTINF:1.280000,
327644356422954-index10018.png
#EXTINF:1.360000,
327644356422954-index10019.png
#EXTINF:1.920000,
327644356422954-index10020.png
#EXTINF:1.800000,
327644356422954-index10021.png
#EXTINF:1.880000,
327644356422954-index10022.png
#EXTINF:3.240000,
327644356422954-index10023.png
#EXTINF:1.480000,
327644356422954-index10024.png
#EXTINF:1.640000,
327644356422954-index10025.png
#EXTINF:4.960000,
327644356422954-index10026.png
#EXTINF:1.440000,
327644356422954-index10027.png
#EXTINF:1.720000,
327644356422954-index10028.png
#EXTINF:2.120000,
327644356422954-index10029.png
#EXTINF:4.880000,
327644356422954-index10030.png
#EXTINF:1.400000,
327644356422954-index10031.png
#EXTINF:2.800000,
327644356422954-index10032.png
#EXTINF:2.200000,
327644356422954-index10033.png
#EXTINF:2.480000,
327644356422954-index10034.png
#EXTINF:1.120000,
327644356422954-index10035.png
#EXTINF:1.240000,
327644356422954-index10036.png
#EXTINF:1.400000,
327644356422954-index10037.png
#EXTINF:1.120000,
327644356422954-index10038.png
#EXTINF:1.040000,
327644356422954-index10039.png
#EXTINF:1.280000,
327644356422954-index10040.png
#EXTINF:1.800000,
327644356422954-index10041.png
#EXTINF:1.920000,
327644356422954-index10042.png
#EXTINF:1.160000,
327644356422954-index10043.png
#EXTINF:10.000000,
327644356422954-index10044.png
#EXTINF:1.080000,
327644356422954-index10045.png
#EXTINF:3.040000,
327644356422954-index10046.png
#EXTINF:6.000000,
327644356422954-index10047.png
#EXTINF:10.000000,
327644356422954-index10048.png
#EXTINF:7.000000,
327644356422954-index10049.png
#EXTINF:7.440000,
327644356422954-index10050.png
#EXTINF:7.360000,
327644356422954-index10051.png
#EXTINF:1.520000,
327644356422954-index10052.png
#EXTINF:4.720000,
327644356422954-index10053.png
#EXTINF:2.000000,
327644356422954-index10054.png
#EXTINF:4.880000,
327644356422954-index10055.png
#EXTINF:2.760000,
327644356422954-index10056.png
#EXTINF:2.720000,
327644356422954-index10057.png
#EXTINF:2.760000,
327644356422954-index10058.png
#EXTINF:3.080000,
327644356422954-index10059.png
#EXTINF:4.000000,
327644356422954-index10060.png
#EXTINF:5.840000,
327644356422954-index10061.png
#EXTINF:5.320000,
327644356422954-index10062.png
#EXTINF:5.520000,
327644356422954-index10063.png
#EXTINF:4.800000,
327644356422954-index10064.png
#EXTINF:6.720000,
327644356422954-index10065.png
#EXTINF:3.600000,
327644356422954-index10066.png
#EXTINF:5.600000,
327644356422954-index10067.png
#EXTINF:2.880000,
327644356422954-index10068.png
#EXTINF:4.360000,
327644356422954-index10069.png
#EXTINF:1.720000,
327644356422954-index10070.png
#EXTINF:3.360000,
327644356422954-index10071.png
#EXTINF:7.400000,
327644356422954-index10072.png
#EXTINF:7.800000,
327644356422954-index10073.png
#EXTINF:4.200000,
327644356422954-index10074.png
#EXTINF:2.800000,
327644356422954-index10075.png
#EXTINF:3.000000,
327644356422954-index10076.png
#EXTINF:3.200000,
327644356422954-index10077.png
#EXTINF:4.400000,
327644356422954-index10078.png
#EXTINF:9.200000,
327644356422954-index10079.png
#EXTINF:6.520000,
327644356422954-index10080.png
#EXTINF:6.200000,
327644356422954-index10081.png
#EXTINF:4.880000,
327644356422954-index10082.png
#EXTINF:4.400000,
327644356422954-index10083.png
#EXTINF:8.520000,
327644356422954-index10084.png
#EXTINF:6.240000,
327644356422954-index10085.png
#EXTINF:9.000000,
327644356422954-index10086.png
#EXTINF:10.000000,
327644356422954-index10087.png
#EXTINF:7.000000,
327644356422954-index10088.png
#EXTINF:5.800000,
327644356422954-index10089.png
#EXTINF:1.600000,
327644356422954-index10090.png
#EXTINF:2.000000,
327644356422954-index10091.png
#EXTINF:5.400000,
327644356422954-index10092.png
#EXTINF:2.400000,
327644356422954-index10093.png
#EXTINF:4.600000,
327644356422954-index10094.png
#EXTINF:7.000000,
327644356422954-index10095.png
#EXTINF:4.000000,
327644356422954-index10096.png
#EXTINF:10.000000,
327644356422954-index10097.png
#EXTINF:5.000000,
327644356422954-index10098.png
#EXTINF:3.000000,
327644356422954-index10099.png
#EXTINF:2.840000,
327644356422954-index10100.png
#EXTINF:9.200000,
327644356422954-index10101.png
#EXTINF:8.680000,
327644356422954-index10102.png
#EXTINF:6.240000,
327644356422954-index10103.png
#EXTINF:2.600000,
327644356422954-index10104.png
#EXTINF:1.920000,
327644356422954-index10105.png
#EXTINF:1.200000,
327644356422954-index10106.png
#EXTINF:1.600000,
327644356422954-index10107.png
#EXTINF:2.240000,
327644356422954-index10108.png
#EXTINF:1.760000,
327644356422954-index10109.png
#EXTINF:2.080000,
327644356422954-index10110.png
#EXTINF:7.720000,
327644356422954-index10111.png
#EXTINF:1.400000,
327644356422954-index10112.png
#EXTINF:1.160000,
327644356422954-index10113.png
#EXTINF:2.640000,
327644356422954-index10114.png
#EXTINF:10.000000,
327644356422954-index10115.png
#EXTINF:2.160000,
327644356422954-index10116.png
#EXT-X-ENDLIST
