#EXTM3U
#EXT-X-VERSION:3
#EXT-X-TARGETDURATION:11
#EXT-X-MEDIA-SEQUENCE:10001
#EXTINF:2.001600,
327626380655500-index10001.png
#EXTINF:2.001600,
327626380655500-index10002.png
#EXTINF:5.421000,
327626380655500-index10003.png
#EXTINF:5.504400,
327626380655500-index10004.png
#EXTINF:10.008000,
327626380655500-index10005.png
#EXTINF:10.425000,
327626380655500-index10006.png
#EXTINF:7.214100,
327626380655500-index10007.png
#EXTINF:5.921400,
327626380655500-index10008.png
#EXTINF:10.425000,
327626380655500-index10009.png
#EXTINF:10.425000,
327626380655500-index10010.png
#EXTINF:8.340000,
327626380655500-index10011.png
#EXTINF:5.629500,
327626380655500-index10012.png
#EXTINF:3.461100,
327626380655500-index10013.png
#EXTINF:5.629500,
327626380655500-index10014.png
#EXTINF:3.836400,
327626380655500-index10015.png
#EXTINF:7.464300,
327626380655500-index10016.png
#EXTINF:8.423400,
327626380655500-index10017.png
#EXTINF:4.044900,
327626380655500-index10018.png
#EXTINF:7.005600,
327626380655500-index10019.png
#EXTINF:8.048100,
327626380655500-index10020.png
#EXTINF:2.585400,
327626380655500-index10021.png
#EXTINF:4.378500,
327626380655500-index10022.png
#EXTINF:4.712100,
327626380655500-index10023.png
#EXTINF:7.089000,
327626380655500-index10024.png
#EXTINF:7.839600,
327626380655500-index10025.png
#EXTINF:6.421800,
327626380655500-index10026.png
#EXTINF:8.465100,
327626380655500-index10027.png
#EXTINF:4.753800,
327626380655500-index10028.png
#EXTINF:9.674400,
327626380655500-index10029.png
#EXTINF:5.546100,
327626380655500-index10030.png
#EXTINF:8.715300,
327626380655500-index10031.png
#EXTINF:10.425000,
327626380655500-index10032.png
#EXTINF:6.463500,
327626380655500-index10033.png
#EXTINF:7.214100,
327626380655500-index10034.png
#EXTINF:10.425000,
327626380655500-index10035.png
#EXTINF:10.425000,
327626380655500-index10036.png
#EXTINF:7.672800,
327626380655500-index10037.png
#EXTINF:8.631900,
327626380655500-index10038.png
#EXTINF:7.839600,
327626380655500-index10039.png
#EXTINF:8.089800,
327626380655500-index10040.png
#EXTINF:4.795500,
327626380655500-index10041.png
#EXTINF:6.755400,
327626380655500-index10042.png
#EXTINF:6.255000,
327626380655500-index10043.png
#EXTINF:4.878900,
327626380655500-index10044.png
#EXTINF:3.878100,
327626380655500-index10045.png
#EXTINF:5.879700,
327626380655500-index10046.png
#EXTINF:4.295100,
327626380655500-index10047.png
#EXTINF:8.298300,
327626380655500-index10048.png
#EXTINF:4.461900,
327626380655500-index10049.png
#EXTINF:6.296700,
327626380655500-index10050.png
#EXTINF:5.587800,
327626380655500-index10051.png
#EXTINF:2.251800,
327626380655500-index10052.png
#EXTINF:7.255800,
327626380655500-index10053.png
#EXTINF:6.588600,
327626380655500-index10054.png
#EXTINF:10.425000,
327626380655500-index10055.png
#EXTINF:10.425000,
327626380655500-index10056.png
#EXTINF:6.463500,
327626380655500-index10057.png
#EXTINF:10.425000,
327626380655500-index10058.png
#EXTINF:8.465100,
327626380655500-index10059.png
#EXTINF:5.170800,
327626380655500-index10060.png
#EXTINF:6.129900,
327626380655500-index10061.png
#EXTINF:10.425000,
327626380655500-index10062.png
#EXTINF:10.425000,
327626380655500-index10063.png
#EXTINF:4.461900,
327626380655500-index10064.png
#EXTINF:10.425000,
327626380655500-index10065.png
#EXTINF:6.046500,
327626380655500-index10066.png
#EXTINF:6.838800,
327626380655500-index10067.png
#EXTINF:5.629500,
327626380655500-index10068.png
#EXTINF:10.425000,
327626380655500-index10069.png
#EXTINF:5.129100,
327626380655500-index10070.png
#EXTINF:6.129900,
327626380655500-index10071.png
#EXTINF:5.170800,
327626380655500-index10072.png
#EXTINF:5.421000,
327626380655500-index10073.png
#EXTINF:9.424200,
327626380655500-index10074.png
#EXTINF:8.465100,
327626380655500-index10075.png
#EXTINF:7.005600,
327626380655500-index10076.png
#EXTINF:10.425000,
327626380655500-index10077.png
#EXTINF:7.214100,
327626380655500-index10078.png
#EXTINF:10.425000,
327626380655500-index10079.png
#EXTINF:8.840400,
327626380655500-index10080.png
#EXTINF:10.425000,
327626380655500-index10081.png
#EXTINF:10.425000,
327626380655500-index10082.png
#EXTINF:9.090600,
327626380655500-index10083.png
#EXTINF:4.795500,
327626380655500-index10084.png
#EXTINF:5.546100,
327626380655500-index10085.png
#EXTINF:10.425000,
327626380655500-index10086.png
#EXTINF:7.172400,
327626380655500-index10087.png
#EXTINF:5.879700,
327626380655500-index10088.png
#EXTINF:10.425000,
327626380655500-index10089.png
#EXTINF:7.839600,
327626380655500-index10090.png
#EXTINF:10.425000,
327626380655500-index10091.png
#EXTINF:8.590200,
327626380655500-index10092.png
#EXTINF:4.003200,
327626380655500-index10093.png
#EXTINF:10.425000,
327626380655500-index10094.png
#EXTINF:6.213300,
327626380655500-index10095.png
#EXTINF:8.923800,
327626380655500-index10096.png
#EXTINF:10.425000,
327626380655500-index10097.png
#EXTINF:10.425000,
327626380655500-index10098.png
#EXTINF:6.505200,
327626380655500-index10099.png
#EXTINF:8.506800,
327626380655500-index10100.png
#EXTINF:10.425000,
327626380655500-index10101.png
#EXTINF:5.754600,
327626380655500-index10102.png
#EXTINF:8.840400,
327626380655500-index10103.png
#EXTINF:6.296700,
327626380655500-index10104.png
#EXTINF:9.382500,
327626380655500-index10105.png
#EXTINF:10.299900,
327626380655500-index10106.png
#EXTINF:10.425000,
327626380655500-index10107.png
#EXTINF:10.425000,
327626380655500-index10108.png
#EXTINF:9.090600,
327626380655500-index10109.png
#EXTINF:5.838000,
327626380655500-index10110.png
#EXTINF:10.425000,
327626380655500-index10111.png
#EXTINF:8.715300,
327626380655500-index10112.png
#EXTINF:10.425000,
327626380655500-index10113.png
#EXTINF:10.425000,
327626380655500-index10114.png
#EXTINF:10.425000,
327626380655500-index10115.png
#EXTINF:10.425000,
327626380655500-index10116.png
#EXTINF:10.425000,
327626380655500-index10117.png
#EXTINF:10.425000,
327626380655500-index10118.png
#EXTINF:10.425000,
327626380655500-index10119.png
#EXTINF:4.253400,
327626380655500-index10120.png
#EXTINF:10.425000,
327626380655500-index10121.png
#EXTINF:10.425000,
327626380655500-index10122.png
#EXTINF:10.425000,
327626380655500-index10123.png
#EXTINF:10.425000,
327626380655500-index10124.png
#EXTINF:10.299900,
327626380655500-index10125.png
#EXTINF:5.963100,
327626380655500-index10126.png
#EXTINF:9.007200,
327626380655500-index10127.png
#EXTINF:10.425000,
327626380655500-index10128.png
#EXTINF:10.425000,
327626380655500-index10129.png
#EXTINF:8.340000,
327626380655500-index10130.png
#EXTINF:10.425000,
327626380655500-index10131.png
#EXTINF:7.797900,
327626380655500-index10132.png
#EXTINF:4.837200,
327626380655500-index10133.png
#EXTINF:10.425000,
327626380655500-index10134.png
#EXTINF:6.213300,
327626380655500-index10135.png
#EXTINF:9.424200,
327626380655500-index10136.png
#EXTINF:6.630300,
327626380655500-index10137.png
#EXTINF:4.628700,
327626380655500-index10138.png
#EXTINF:10.425000,
327626380655500-index10139.png
#EXTINF:8.131500,
327626380655500-index10140.png
#EXTINF:6.171600,
327626380655500-index10141.png
#EXTINF:5.212500,
327626380655500-index10142.png
#EXTINF:3.294300,
327626380655500-index10143.png
#EXTINF:10.425000,
327626380655500-index10144.png
#EXTINF:7.297500,
327626380655500-index10145.png
#EXTINF:6.338400,
327626380655500-index10146.png
#EXTINF:6.380100,
327626380655500-index10147.png
#EXTINF:9.007200,
327626380655500-index10148.png
#EXTINF:10.425000,
327626380655500-index10149.png
#EXTINF:10.425000,
327626380655500-index10150.png
#EXTINF:8.631900,
327626380655500-index10151.png
#EXTINF:10.425000,
327626380655500-index10152.png
#EXTINF:10.425000,
327626380655500-index10153.png
#EXTINF:10.008000,
327626380655500-index10154.png
#EXTINF:10.425000,
327626380655500-index10155.png
#EXTINF:5.546100,
327626380655500-index10156.png
#EXTINF:10.425000,
327626380655500-index10157.png
#EXTINF:10.425000,
327626380655500-index10158.png
#EXTINF:3.210900,
327626380655500-index10159.png
#EXTINF:5.254200,
327626380655500-index10160.png
#EXTINF:5.796300,
327626380655500-index10161.png
#EXTINF:7.964700,
327626380655500-index10162.png
#EXTINF:7.297500,
327626380655500-index10163.png
#EXTINF:4.211700,
327626380655500-index10164.png
#EXTINF:3.002400,
327626380655500-index10165.png
#EXTINF:10.425000,
327626380655500-index10166.png
#EXTINF:10.425000,
327626380655500-index10167.png
#EXTINF:10.425000,
327626380655500-index10168.png
#EXTINF:10.425000,
327626380655500-index10169.png
#EXTINF:2.001600,
327626380655500-index10170.png
#EXTINF:10.425000,
327626380655500-index10171.png
#EXTINF:10.425000,
327626380655500-index10172.png
#EXTINF:10.425000,
327626380655500-index10173.png
#EXTINF:10.425000,
327626380655500-index10174.png
#EXTINF:10.425000,
327626380655500-index10175.png
#EXTINF:10.425000,
327626380655500-index10176.png
#EXTINF:10.216500,
327626380655500-index10177.png
#EXTINF:8.631900,
327626380655500-index10178.png
#EXTINF:8.381700,
327626380655500-index10179.png
#EXTINF:10.425000,
327626380655500-index10180.png
#EXTINF:6.838800,
327626380655500-index10181.png
#EXTINF:4.295100,
327626380655500-index10182.png
#EXT-X-ENDLIST
