#EXTM3U
#EXT-X-VERSION:3
#EXT-X-TARGETDURATION:6
#EXT-X-MEDIA-SEQUENCE:10001
#EXTINF:5.754600,
331040540917052-index10001.png
#EXTINF:4.795500,
331040540917052-index10002.png
#EXTINF:5.045700,
331040540917052-index10003.png
#EXTINF:4.795500,
331040540917052-index10004.png
#EXTINF:4.712100,
331040540917052-index10005.png
#EXTINF:5.754600,
331040540917052-index10006.png
#EXTINF:5.004000,
331040540917052-index10007.png
#EXTINF:4.712100,
331040540917052-index10008.png
#EXTINF:4.795500,
331040540917052-index10009.png
#EXTINF:4.795500,
331040540917052-index10010.png
#EXTINF:5.671200,
331040540917052-index10011.png
#EXTINF:4.795500,
331040540917052-index10012.png
#EXTINF:4.712100,
331040540917052-index10013.png
#EXTINF:4.795500,
331040540917052-index10014.png
#EXTINF:5.671200,
331040540917052-index10015.png
#EXTINF:4.253400,
331040540917052-index10016.png
#EXTINF:5.212500,
331040540917052-index10017.png
#EXTINF:4.795500,
331040540917052-index10018.png
#EXTINF:5.754600,
331040540917052-index10019.png
#EXTINF:4.628700,
331040540917052-index10020.png
#EXTINF:4.670400,
331040540917052-index10021.png
#EXTINF:5.754600,
331040540917052-index10022.png
#EXTINF:5.004000,
331040540917052-index10023.png
#EXTINF:4.461900,
331040540917052-index10024.png
#EXTINF:4.753800,
331040540917052-index10025.png
#EXTINF:5.712900,
331040540917052-index10026.png
#EXTINF:4.795500,
331040540917052-index10027.png
#EXTINF:4.795500,
331040540917052-index10028.png
#EXTINF:4.795500,
331040540917052-index10029.png
#EXTINF:4.795500,
331040540917052-index10030.png
#EXTINF:5.754600,
331040540917052-index10031.png
#EXTINF:5.129100,
331040540917052-index10032.png
#EXTINF:4.795500,
331040540917052-index10033.png
#EXTINF:4.795500,
331040540917052-index10034.png
#EXTINF:5.379300,
331040540917052-index10035.png
#EXTINF:4.753800,
331040540917052-index10036.png
#EXTINF:4.878900,
331040540917052-index10037.png
#EXTINF:4.587000,
331040540917052-index10038.png
#EXTINF:5.129100,
331040540917052-index10039.png
#EXTINF:5.212500,
331040540917052-index10040.png
#EXTINF:4.837200,
331040540917052-index10041.png
#EXTINF:4.795500,
331040540917052-index10042.png
#EXTINF:5.754600,
331040540917052-index10043.png
#EXTINF:5.004000,
331040540917052-index10044.png
#EXTINF:4.295100,
331040540917052-index10045.png
#EXTINF:4.878900,
331040540917052-index10046.png
#EXTINF:5.379300,
331040540917052-index10047.png
#EXTINF:4.712100,
331040540917052-index10048.png
#EXTINF:4.962300,
331040540917052-index10049.png
#EXTINF:5.754600,
331040540917052-index10050.png
#EXTINF:4.628700,
331040540917052-index10051.png
#EXTINF:5.337600,
331040540917052-index10052.png
#EXTINF:4.211700,
331040540917052-index10053.png
#EXTINF:5.004000,
331040540917052-index10054.png
#EXTINF:5.421000,
331040540917052-index10055.png
#EXTINF:5.045700,
331040540917052-index10056.png
#EXTINF:4.795500,
331040540917052-index10057.png
#EXTINF:4.795500,
331040540917052-index10058.png
#EXTINF:5.462700,
331040540917052-index10059.png
#EXTINF:4.587000,
331040540917052-index10060.png
#EXTINF:5.379300,
331040540917052-index10061.png
#EXTINF:5.045700,
331040540917052-index10062.png
#EXTINF:5.129100,
331040540917052-index10063.png
#EXTINF:5.045700,
331040540917052-index10064.png
#EXTINF:5.087400,
331040540917052-index10065.png
#EXTINF:4.587000,
331040540917052-index10066.png
#EXTINF:5.504400,
331040540917052-index10067.png
#EXTINF:4.503600,
331040540917052-index10068.png
#EXTINF:5.379300,
331040540917052-index10069.png
#EXTINF:4.712100,
331040540917052-index10070.png
#EXTINF:4.503600,
331040540917052-index10071.png
#EXTINF:5.379300,
331040540917052-index10072.png
#EXTINF:5.045700,
331040540917052-index10073.png
#EXTINF:5.295900,
331040540917052-index10074.png
#EXTINF:4.920600,
331040540917052-index10075.png
#EXTINF:4.795500,
331040540917052-index10076.png
#EXTINF:5.087400,
331040540917052-index10077.png
#EXTINF:4.795500,
331040540917052-index10078.png
#EXTINF:4.837200,
331040540917052-index10079.png
#EXTINF:5.546100,
331040540917052-index10080.png
#EXTINF:4.503600,
331040540917052-index10081.png
#EXTINF:4.962300,
331040540917052-index10082.png
#EXTINF:5.754600,
331040540917052-index10083.png
#EXTINF:4.962300,
331040540917052-index10084.png
#EXTINF:4.795500,
331040540917052-index10085.png
#EXTINF:4.795500,
331040540917052-index10086.png
#EXTINF:4.795500,
331040540917052-index10087.png
#EXTINF:5.546100,
331040540917052-index10088.png
#EXTINF:4.503600,
331040540917052-index10089.png
#EXTINF:4.795500,
331040540917052-index10090.png
#EXTINF:5.754600,
331040540917052-index10091.png
#EXTINF:4.795500,
331040540917052-index10092.png
#EXTINF:4.545300,
331040540917052-index10093.png
#EXTINF:5.004000,
331040540917052-index10094.png
#EXTINF:4.795500,
331040540917052-index10095.png
#EXTINF:5.170800,
331040540917052-index10096.png
#EXTINF:4.920600,
331040540917052-index10097.png
#EXTINF:5.754600,
331040540917052-index10098.png
#EXTINF:5.004000,
331040540917052-index10099.png
#EXTINF:4.587000,
331040540917052-index10100.png
#EXTINF:5.129100,
331040540917052-index10101.png
#EXTINF:4.795500,
331040540917052-index10102.png
#EXTINF:5.004000,
331040540917052-index10103.png
#EXTINF:5.504400,
331040540917052-index10104.png
#EXTINF:4.837200,
331040540917052-index10105.png
#EXTINF:4.378500,
331040540917052-index10106.png
#EXTINF:5.712900,
331040540917052-index10107.png
#EXTINF:4.795500,
331040540917052-index10108.png
#EXTINF:4.795500,
331040540917052-index10109.png
#EXTINF:4.795500,
331040540917052-index10110.png
#EXTINF:5.546100,
331040540917052-index10111.png
#EXTINF:4.712100,
331040540917052-index10112.png
#EXTINF:4.712100,
331040540917052-index10113.png
#EXTINF:5.045700,
331040540917052-index10114.png
#EXTINF:4.753800,
331040540917052-index10115.png
#EXTINF:5.838000,
331040540917052-index10116.png
#EXTINF:4.295100,
331040540917052-index10117.png
#EXTINF:5.129100,
331040540917052-index10118.png
#EXTINF:4.920600,
331040540917052-index10119.png
#EXTINF:5.712900,
331040540917052-index10120.png
#EXTINF:4.503600,
331040540917052-index10121.png
#EXTINF:4.878900,
331040540917052-index10122.png
#EXTINF:4.795500,
331040540917052-index10123.png
#EXTINF:5.295900,
331040540917052-index10124.png
#EXTINF:4.795500,
331040540917052-index10125.png
#EXTINF:4.795500,
331040540917052-index10126.png
#EXTINF:5.421000,
331040540917052-index10127.png
#EXTINF:4.795500,
331040540917052-index10128.png
#EXTINF:5.421000,
331040540917052-index10129.png
#EXTINF:4.920600,
331040540917052-index10130.png
#EXTINF:5.254200,
331040540917052-index10131.png
#EXTINF:4.795500,
331040540917052-index10132.png
#EXTINF:4.795500,
331040540917052-index10133.png
#EXTINF:5.004000,
331040540917052-index10134.png
#EXTINF:5.337600,
331040540917052-index10135.png
#EXTINF:4.753800,
331040540917052-index10136.png
#EXTINF:5.421000,
331040540917052-index10137.png
#EXTINF:4.628700,
331040540917052-index10138.png
#EXTINF:4.753800,
331040540917052-index10139.png
#EXTINF:5.421000,
331040540917052-index10140.png
#EXTINF:4.336800,
331040540917052-index10141.png
#EXTINF:5.379300,
331040540917052-index10142.png
#EXTINF:4.795500,
331040540917052-index10143.png
#EXTINF:5.421000,
331040540917052-index10144.png
#EXTINF:4.920600,
331040540917052-index10145.png
#EXTINF:4.920600,
331040540917052-index10146.png
#EXTINF:4.545300,
331040540917052-index10147.png
#EXTINF:5.796300,
331040540917052-index10148.png
#EXTINF:4.211700,
331040540917052-index10149.png
#EXTINF:5.796300,
331040540917052-index10150.png
#EXTINF:4.545300,
331040540917052-index10151.png
#EXTINF:4.795500,
331040540917052-index10152.png
#EXTINF:4.878900,
331040540917052-index10153.png
#EXTINF:4.920600,
331040540917052-index10154.png
#EXTINF:5.212500,
331040540917052-index10155.png
#EXTINF:4.962300,
331040540917052-index10156.png
#EXTINF:5.129100,
331040540917052-index10157.png
#EXTINF:4.795500,
331040540917052-index10158.png
#EXTINF:5.379300,
331040540917052-index10159.png
#EXTINF:4.545300,
331040540917052-index10160.png
#EXTINF:5.129100,
331040540917052-index10161.png
#EXTINF:4.962300,
331040540917052-index10162.png
#EXTINF:5.712900,
331040540917052-index10163.png
#EXTINF:4.962300,
331040540917052-index10164.png
#EXTINF:4.253400,
331040540917052-index10165.png
#EXTINF:4.962300,
331040540917052-index10166.png
#EXTINF:5.629500,
331040540917052-index10167.png
#EXTINF:4.795500,
331040540917052-index10168.png
#EXTINF:4.545300,
331040540917052-index10169.png
#EXTINF:5.712900,
331040540917052-index10170.png
#EXTINF:5.129100,
331040540917052-index10171.png
#EXTINF:4.795500,
331040540917052-index10172.png
#EXTINF:4.753800,
331040540917052-index10173.png
#EXTINF:4.795500,
331040540917052-index10174.png
#EXTINF:5.045700,
331040540917052-index10175.png
#EXTINF:4.795500,
331040540917052-index10176.png
#EXTINF:5.754600,
331040540917052-index10177.png
#EXTINF:5.129100,
331040540917052-index10178.png
#EXTINF:4.795500,
331040540917052-index10179.png
#EXTINF:4.920600,
331040540917052-index10180.png
#EXTINF:4.753800,
331040540917052-index10181.png
#EXTINF:5.504400,
331040540917052-index10182.png
#EXTINF:4.253400,
331040540917052-index10183.png
#EXTINF:5.754600,
331040540917052-index10184.png
#EXTINF:4.170000,
331040540917052-index10185.png
#EXTINF:5.129100,
331040540917052-index10186.png
#EXTINF:4.795500,
331040540917052-index10187.png
#EXTINF:5.921400,
331040540917052-index10188.png
#EXTINF:4.670400,
331040540917052-index10189.png
#EXTINF:4.795500,
331040540917052-index10190.png
#EXTINF:5.212500,
331040540917052-index10191.png
#EXTINF:4.503600,
331040540917052-index10192.png
#EXTINF:5.796300,
331040540917052-index10193.png
#EXTINF:4.795500,
331040540917052-index10194.png
#EXTINF:4.878900,
331040540917052-index10195.png
#EXTINF:4.587000,
331040540917052-index10196.png
#EXTINF:5.462700,
331040540917052-index10197.png
#EXTINF:4.795500,
331040540917052-index10198.png
#EXTINF:4.587000,
331040540917052-index10199.png
#EXTINF:5.129100,
331040540917052-index10200.png
#EXTINF:4.878900,
331040540917052-index10201.png
#EXTINF:5.754600,
331040540917052-index10202.png
#EXTINF:5.045700,
331040540917052-index10203.png
#EXTINF:4.712100,
331040540917052-index10204.png
#EXTINF:4.837200,
331040540917052-index10205.png
#EXTINF:4.962300,
331040540917052-index10206.png
#EXTINF:4.753800,
331040540917052-index10207.png
#EXTINF:5.754600,
331040540917052-index10208.png
#EXTINF:4.211700,
331040540917052-index10209.png
#EXTINF:5.754600,
331040540917052-index10210.png
#EXTINF:4.461900,
331040540917052-index10211.png
#EXTINF:4.795500,
331040540917052-index10212.png
#EXTINF:5.754600,
331040540917052-index10213.png
#EXTINF:4.795500,
331040540917052-index10214.png
#EXTINF:4.795500,
331040540917052-index10215.png
#EXTINF:4.712100,
331040540917052-index10216.png
#EXTINF:5.754600,
331040540917052-index10217.png
#EXTINF:4.086600,
331040540917052-index10218.png
#EXTINF:5.129100,
331040540917052-index10219.png
#EXTINF:5.045700,
331040540917052-index10220.png
#EXTINF:5.754600,
331040540917052-index10221.png
#EXTINF:4.962300,
331040540917052-index10222.png
#EXTINF:4.795500,
331040540917052-index10223.png
#EXTINF:4.795500,
331040540917052-index10224.png
#EXTINF:4.795500,
331040540917052-index10225.png
#EXTINF:5.295900,
331040540917052-index10226.png
#EXTINF:5.254200,
331040540917052-index10227.png
#EXTINF:4.211700,
331040540917052-index10228.png
#EXTINF:5.004000,
331040540917052-index10229.png
#EXTINF:5.754600,
331040540917052-index10230.png
#EXTINF:4.795500,
331040540917052-index10231.png
#EXTINF:5.170800,
331040540917052-index10232.png
#EXTINF:4.461900,
331040540917052-index10233.png
#EXTINF:5.045700,
331040540917052-index10234.png
#EXTINF:5.629500,
331040540917052-index10235.png
#EXTINF:4.336800,
331040540917052-index10236.png
#EXTINF:4.878900,
331040540917052-index10237.png
#EXTINF:5.045700,
331040540917052-index10238.png
#EXTINF:4.837200,
331040540917052-index10239.png
#EXTINF:5.712900,
331040540917052-index10240.png
#EXTINF:4.587000,
331040540917052-index10241.png
#EXTINF:4.837200,
331040540917052-index10242.png
#EXTINF:5.004000,
331040540917052-index10243.png
#EXTINF:5.337600,
331040540917052-index10244.png
#EXTINF:5.004000,
331040540917052-index10245.png
#EXTINF:5.045700,
331040540917052-index10246.png
#EXTINF:5.004000,
331040540917052-index10247.png
#EXTINF:4.795500,
331040540917052-index10248.png
#EXTINF:5.379300,
331040540917052-index10249.png
#EXTINF:4.795500,
331040540917052-index10250.png
#EXTINF:4.920600,
331040540917052-index10251.png
#EXTINF:4.712100,
331040540917052-index10252.png
#EXTINF:5.754600,
331040540917052-index10253.png
#EXTINF:4.545300,
331040540917052-index10254.png
#EXTINF:4.795500,
331040540917052-index10255.png
#EXTINF:5.629500,
331040540917052-index10256.png
#EXTINF:4.503600,
331040540917052-index10257.png
#EXTINF:4.795500,
331040540917052-index10258.png
#EXTINF:5.087400,
331040540917052-index10259.png
#EXTINF:4.795500,
331040540917052-index10260.png
#EXTINF:5.754600,
331040540917052-index10261.png
#EXTINF:4.795500,
331040540917052-index10262.png
#EXTINF:4.962300,
331040540917052-index10263.png
#EXTINF:4.420200,
331040540917052-index10264.png
#EXTINF:5.045700,
331040540917052-index10265.png
#EXTINF:5.754600,
331040540917052-index10266.png
#EXTINF:4.503600,
331040540917052-index10267.png
#EXTINF:4.795500,
331040540917052-index10268.png
#EXTINF:5.087400,
331040540917052-index10269.png
#EXTINF:4.795500,
331040540917052-index10270.png
#EXTINF:5.295900,
331040540917052-index10271.png
#EXTINF:4.795500,
331040540917052-index10272.png
#EXTINF:5.754600,
331040540917052-index10273.png
#EXTINF:4.795500,
331040540917052-index10274.png
#EXTINF:4.795500,
331040540917052-index10275.png
#EXTINF:5.379300,
331040540917052-index10276.png
#EXTINF:4.878900,
331040540917052-index10277.png
#EXTINF:4.670400,
331040540917052-index10278.png
#EXTINF:5.462700,
331040540917052-index10279.png
#EXTINF:4.670400,
331040540917052-index10280.png
#EXTINF:4.795500,
331040540917052-index10281.png
#EXTINF:5.379300,
331040540917052-index10282.png
#EXTINF:4.420200,
331040540917052-index10283.png
#EXTINF:5.546100,
331040540917052-index10284.png
#EXTINF:4.795500,
331040540917052-index10285.png
#EXTINF:5.212500,
331040540917052-index10286.png
#EXTINF:4.962300,
331040540917052-index10287.png
#EXTINF:5.004000,
331040540917052-index10288.png
#EXTINF:4.461900,
331040540917052-index10289.png
#EXTINF:5.004000,
331040540917052-index10290.png
#EXTINF:5.546100,
331040540917052-index10291.png
#EXTINF:4.962300,
331040540917052-index10292.png
#EXTINF:4.628700,
331040540917052-index10293.png
#EXTINF:5.337600,
331040540917052-index10294.png
#EXTINF:4.962300,
331040540917052-index10295.png
#EXTINF:4.545300,
331040540917052-index10296.png
#EXTINF:5.421000,
331040540917052-index10297.png
#EXTINF:4.795500,
331040540917052-index10298.png
#EXTINF:4.795500,
331040540917052-index10299.png
#EXTINF:5.629500,
331040540917052-index10300.png
#EXTINF:4.795500,
331040540917052-index10301.png
#EXTINF:4.920600,
331040540917052-index10302.png
#EXTINF:5.087400,
331040540917052-index10303.png
#EXTINF:5.004000,
331040540917052-index10304.png
#EXTINF:4.795500,
331040540917052-index10305.png
#EXTINF:5.546100,
331040540917052-index10306.png
#EXTINF:4.545300,
331040540917052-index10307.png
#EXTINF:5.004000,
331040540917052-index10308.png
#EXTINF:5.170800,
331040540917052-index10309.png
#EXTINF:5.212500,
331040540917052-index10310.png
#EXTINF:4.795500,
331040540917052-index10311.png
#EXTINF:5.170800,
331040540917052-index10312.png
#EXTINF:4.795500,
331040540917052-index10313.png
#EXTINF:5.212500,
331040540917052-index10314.png
#EXTINF:4.587000,
331040540917052-index10315.png
#EXTINF:5.004000,
331040540917052-index10316.png
#EXTINF:5.087400,
331040540917052-index10317.png
#EXTINF:5.129100,
331040540917052-index10318.png
#EXTINF:4.461900,
331040540917052-index10319.png
#EXTINF:5.546100,
331040540917052-index10320.png
#EXTINF:5.045700,
331040540917052-index10321.png
#EXTINF:4.712100,
331040540917052-index10322.png
#EXTINF:4.962300,
331040540917052-index10323.png
#EXTINF:5.254200,
331040540917052-index10324.png
#EXTINF:4.962300,
331040540917052-index10325.png
#EXTINF:4.795500,
331040540917052-index10326.png
#EXTINF:5.129100,
331040540917052-index10327.png
#EXTINF:4.795500,
331040540917052-index10328.png
#EXTINF:4.795500,
331040540917052-index10329.png
#EXTINF:5.129100,
331040540917052-index10330.png
#EXTINF:5.671200,
331040540917052-index10331.png
#EXTINF:4.795500,
331040540917052-index10332.png
#EXTINF:5.212500,
331040540917052-index10333.png
#EXTINF:4.795500,
331040540917052-index10334.png
#EXTINF:4.795500,
331040540917052-index10335.png
#EXTINF:4.795500,
331040540917052-index10336.png
#EXTINF:4.795500,
331040540917052-index10337.png
#EXTINF:5.295900,
331040540917052-index10338.png
#EXTINF:5.421000,
331040540917052-index10339.png
#EXTINF:4.545300,
331040540917052-index10340.png
#EXTINF:4.878900,
331040540917052-index10341.png
#EXTINF:5.087400,
331040540917052-index10342.png
#EXTINF:4.837200,
331040540917052-index10343.png
#EXTINF:5.337600,
331040540917052-index10344.png
#EXTINF:4.753800,
331040540917052-index10345.png
#EXTINF:5.504400,
331040540917052-index10346.png
#EXTINF:4.878900,
331040540917052-index10347.png
#EXTINF:4.378500,
331040540917052-index10348.png
#EXTINF:5.337600,
331040540917052-index10349.png
#EXTINF:5.129100,
331040540917052-index10350.png
#EXTINF:4.795500,
331040540917052-index10351.png
#EXTINF:4.837200,
331040540917052-index10352.png
#EXTINF:5.754600,
331040540917052-index10353.png
#EXTINF:4.378500,
331040540917052-index10354.png
#EXTINF:5.421000,
331040540917052-index10355.png
#EXTINF:4.795500,
331040540917052-index10356.png
#EXTINF:4.670400,
331040540917052-index10357.png
#EXTINF:5.629500,
331040540917052-index10358.png
#EXTINF:4.295100,
331040540917052-index10359.png
#EXTINF:5.087400,
331040540917052-index10360.png
#EXTINF:4.837200,
331040540917052-index10361.png
#EXTINF:5.087400,
331040540917052-index10362.png
#EXTINF:5.754600,
331040540917052-index10363.png
#EXTINF:5.045700,
331040540917052-index10364.png
#EXTINF:4.795500,
331040540917052-index10365.png
#EXTINF:5.212500,
331040540917052-index10366.png
#EXTINF:4.461900,
331040540917052-index10367.png
#EXTINF:4.795500,
331040540917052-index10368.png
#EXTINF:4.920600,
331040540917052-index10369.png
#EXTINF:4.962300,
331040540917052-index10370.png
#EXTINF:5.421000,
331040540917052-index10371.png
#EXTINF:5.170800,
331040540917052-index10372.png
#EXTINF:5.004000,
331040540917052-index10373.png
#EXTINF:4.503600,
331040540917052-index10374.png
#EXTINF:4.962300,
331040540917052-index10375.png
#EXTINF:5.379300,
331040540917052-index10376.png
#EXTINF:5.129100,
331040540917052-index10377.png
#EXTINF:4.712100,
331040540917052-index10378.png
#EXTINF:4.878900,
331040540917052-index10379.png
#EXTINF:5.170800,
331040540917052-index10380.png
#EXTINF:4.670400,
331040540917052-index10381.png
#EXTINF:5.879700,
331040540917052-index10382.png
#EXTINF:4.211700,
331040540917052-index10383.png
#EXTINF:4.962300,
331040540917052-index10384.png
#EXTINF:5.045700,
331040540917052-index10385.png
#EXTINF:4.962300,
331040540917052-index10386.png
#EXTINF:5.337600,
331040540917052-index10387.png
#EXTINF:5.087400,
331040540917052-index10388.png
#EXTINF:4.795500,
331040540917052-index10389.png
#EXTINF:4.670400,
331040540917052-index10390.png
#EXTINF:5.212500,
331040540917052-index10391.png
#EXTINF:4.795500,
331040540917052-index10392.png
#EXTINF:4.962300,
331040540917052-index10393.png
#EXTINF:5.629500,
331040540917052-index10394.png
#EXTINF:4.545300,
331040540917052-index10395.png
#EXTINF:5.754600,
331040540917052-index10396.png
#EXTINF:4.795500,
331040540917052-index10397.png
#EXTINF:4.795500,
331040540917052-index10398.png
#EXTINF:4.795500,
331040540917052-index10399.png
#EXTINF:5.462700,
331040540917052-index10400.png
#EXTINF:4.795500,
331040540917052-index10401.png
#EXTINF:4.712100,
331040540917052-index10402.png
#EXTINF:5.546100,
331040540917052-index10403.png
#EXTINF:4.795500,
331040540917052-index10404.png
#EXTINF:4.795500,
331040540917052-index10405.png
#EXTINF:4.795500,
331040540917052-index10406.png
#EXTINF:5.254200,
331040540917052-index10407.png
#EXTINF:4.795500,
331040540917052-index10408.png
#EXTINF:5.212500,
331040540917052-index10409.png
#EXTINF:4.670400,
331040540917052-index10410.png
#EXTINF:5.045700,
331040540917052-index10411.png
#EXTINF:4.837200,
331040540917052-index10412.png
#EXTINF:5.587800,
331040540917052-index10413.png
#EXTINF:4.420200,
331040540917052-index10414.png
#EXTINF:5.212500,
331040540917052-index10415.png
#EXTINF:5.546100,
331040540917052-index10416.png
#EXTINF:5.045700,
331040540917052-index10417.png
#EXTINF:4.795500,
331040540917052-index10418.png
#EXTINF:5.170800,
331040540917052-index10419.png
#EXTINF:4.795500,
331040540917052-index10420.png
#EXTINF:4.795500,
331040540917052-index10421.png
#EXTINF:4.795500,
331040540917052-index10422.png
#EXTINF:5.629500,
331040540917052-index10423.png
#EXTINF:4.795500,
331040540917052-index10424.png
#EXTINF:4.795500,
331040540917052-index10425.png
#EXTINF:4.795500,
331040540917052-index10426.png
#EXTINF:4.795500,
331040540917052-index10427.png
#EXTINF:5.838000,
331040540917052-index10428.png
#EXTINF:4.628700,
331040540917052-index10429.png
#EXTINF:4.920600,
331040540917052-index10430.png
#EXTINF:5.045700,
331040540917052-index10431.png
#EXTINF:5.337600,
331040540917052-index10432.png
#EXTINF:4.795500,
331040540917052-index10433.png
#EXTINF:5.295900,
331040540917052-index10434.png
#EXTINF:4.086600,
331040540917052-index10435.png
#EXTINF:5.337600,
331040540917052-index10436.png
#EXTINF:5.546100,
331040540917052-index10437.png
#EXTINF:5.045700,
331040540917052-index10438.png
#EXTINF:4.795500,
331040540917052-index10439.png
#EXTINF:4.795500,
331040540917052-index10440.png
#EXTINF:4.795500,
331040540917052-index10441.png
#EXTINF:4.795500,
331040540917052-index10442.png
#EXTINF:5.754600,
331040540917052-index10443.png
#EXTINF:4.962300,
331040540917052-index10444.png
#EXTINF:4.503600,
331040540917052-index10445.png
#EXTINF:4.670400,
331040540917052-index10446.png
#EXTINF:5.170800,
331040540917052-index10447.png
#EXTINF:4.837200,
331040540917052-index10448.png
#EXTINF:5.462700,
331040540917052-index10449.png
#EXTINF:4.587000,
331040540917052-index10450.png
#EXTINF:5.295900,
331040540917052-index10451.png
#EXTINF:5.212500,
331040540917052-index10452.png
#EXTINF:4.795500,
331040540917052-index10453.png
#EXTINF:5.462700,
331040540917052-index10454.png
#EXTINF:4.795500,
331040540917052-index10455.png
#EXTINF:4.420200,
331040540917052-index10456.png
#EXTINF:5.754600,
331040540917052-index10457.png
#EXTINF:4.795500,
331040540917052-index10458.png
#EXTINF:5.045700,
331040540917052-index10459.png
#EXTINF:5.004000,
331040540917052-index10460.png
#EXTINF:4.753800,
331040540917052-index10461.png
#EXTINF:5.504400,
331040540917052-index10462.png
#EXTINF:4.253400,
331040540917052-index10463.png
#EXTINF:5.629500,
331040540917052-index10464.png
#EXTINF:4.545300,
331040540917052-index10465.png
#EXTINF:4.795500,
331040540917052-index10466.png
#EXTINF:5.504400,
331040540917052-index10467.png
#EXTINF:4.753800,
331040540917052-index10468.png
#EXTINF:4.712100,
331040540917052-index10469.png
#EXTINF:5.337600,
331040540917052-index10470.png
#EXTINF:4.837200,
331040540917052-index10471.png
#EXTINF:5.587800,
331040540917052-index10472.png
#EXTINF:4.461900,
331040540917052-index10473.png
#EXTINF:4.795500,
331040540917052-index10474.png
#EXTINF:5.587800,
331040540917052-index10475.png
#EXTINF:5.045700,
331040540917052-index10476.png
#EXTINF:4.795500,
331040540917052-index10477.png
#EXTINF:4.461900,
331040540917052-index10478.png
#EXTINF:5.838000,
331040540917052-index10479.png
#EXTINF:4.795500,
331040540917052-index10480.png
#EXTINF:5.170800,
331040540917052-index10481.png
#EXTINF:4.795500,
331040540917052-index10482.png
#EXTINF:4.712100,
331040540917052-index10483.png
#EXTINF:4.753800,
331040540917052-index10484.png
#EXTINF:4.878900,
331040540917052-index10485.png
#EXTINF:5.754600,
331040540917052-index10486.png
#EXTINF:4.670400,
331040540917052-index10487.png
#EXTINF:4.795500,
331040540917052-index10488.png
#EXTINF:4.920600,
331040540917052-index10489.png
#EXTINF:5.004000,
331040540917052-index10490.png
#EXTINF:5.754600,
331040540917052-index10491.png
#EXTINF:4.795500,
331040540917052-index10492.png
#EXTINF:4.795500,
331040540917052-index10493.png
#EXTINF:5.004000,
331040540917052-index10494.png
#EXTINF:4.795500,
331040540917052-index10495.png
#EXTINF:5.129100,
331040540917052-index10496.png
#EXTINF:4.795500,
331040540917052-index10497.png
#EXTINF:5.045700,
331040540917052-index10498.png
#EXTINF:4.795500,
331040540917052-index10499.png
#EXTINF:5.754600,
331040540917052-index10500.png
#EXTINF:4.336800,
331040540917052-index10501.png
#EXTINF:5.295900,
331040540917052-index10502.png
#EXTINF:4.920600,
331040540917052-index10503.png
#EXTINF:4.795500,
331040540917052-index10504.png
#EXTINF:5.004000,
331040540917052-index10505.png
#EXTINF:5.462700,
331040540917052-index10506.png
#EXTINF:5.004000,
331040540917052-index10507.png
#EXTINF:4.420200,
331040540917052-index10508.png
#EXTINF:5.712900,
331040540917052-index10509.png
#EXTINF:4.920600,
331040540917052-index10510.png
#EXTINF:4.795500,
331040540917052-index10511.png
#EXTINF:5.170800,
331040540917052-index10512.png
#EXTINF:4.795500,
331040540917052-index10513.png
#EXTINF:5.087400,
331040540917052-index10514.png
#EXTINF:4.461900,
331040540917052-index10515.png
#EXTINF:5.504400,
331040540917052-index10516.png
#EXTINF:4.503600,
331040540917052-index10517.png
#EXTINF:5.754600,
331040540917052-index10518.png
#EXTINF:4.795500,
331040540917052-index10519.png
#EXTINF:5.129100,
331040540917052-index10520.png
#EXTINF:4.962300,
331040540917052-index10521.png
#EXTINF:5.212500,
331040540917052-index10522.png
#EXTINF:4.712100,
331040540917052-index10523.png
#EXTINF:5.045700,
331040540917052-index10524.png
#EXTINF:5.212500,
331040540917052-index10525.png
#EXTINF:4.545300,
331040540917052-index10526.png
#EXTINF:4.795500,
331040540917052-index10527.png
#EXTINF:4.962300,
331040540917052-index10528.png
#EXTINF:5.087400,
331040540917052-index10529.png
#EXTINF:5.629500,
331040540917052-index10530.png
#EXTINF:4.795500,
331040540917052-index10531.png
#EXTINF:4.795500,
331040540917052-index10532.png
#EXTINF:4.628700,
331040540917052-index10533.png
#EXTINF:5.754600,
331040540917052-index10534.png
#EXTINF:4.753800,
331040540917052-index10535.png
#EXTINF:4.795500,
331040540917052-index10536.png
#EXTINF:4.878900,
331040540917052-index10537.png
#EXTINF:5.087400,
331040540917052-index10538.png
#EXTINF:4.795500,
331040540917052-index10539.png
#EXTINF:5.004000,
331040540917052-index10540.png
#EXTINF:4.920600,
331040540917052-index10541.png
#EXTINF:5.254200,
331040540917052-index10542.png
#EXTINF:4.712100,
331040540917052-index10543.png
#EXTINF:5.754600,
331040540917052-index10544.png
#EXTINF:5.087400,
331040540917052-index10545.png
#EXTINF:4.336800,
331040540917052-index10546.png
#EXTINF:4.795500,
331040540917052-index10547.png
#EXTINF:5.754600,
331040540917052-index10548.png
#EXTINF:4.795500,
331040540917052-index10549.png
#EXTINF:4.795500,
331040540917052-index10550.png
#EXTINF:4.795500,
331040540917052-index10551.png
#EXTINF:5.170800,
331040540917052-index10552.png
#EXTINF:4.795500,
331040540917052-index10553.png
#EXTINF:5.170800,
331040540917052-index10554.png
#EXTINF:4.753800,
331040540917052-index10555.png
#EXTINF:5.754600,
331040540917052-index10556.png
#EXTINF:4.420200,
331040540917052-index10557.png
#EXTINF:4.753800,
331040540917052-index10558.png
#EXTINF:5.754600,
331040540917052-index10559.png
#EXTINF:4.795500,
331040540917052-index10560.png
#EXTINF:5.045700,
331040540917052-index10561.png
#EXTINF:4.503600,
331040540917052-index10562.png
#EXTINF:4.878900,
331040540917052-index10563.png
#EXTINF:5.337600,
331040540917052-index10564.png
#EXTINF:4.670400,
331040540917052-index10565.png
#EXTINF:5.921400,
331040540917052-index10566.png
#EXTINF:4.295100,
331040540917052-index10567.png
#EXTINF:4.753800,
331040540917052-index10568.png
#EXTINF:5.754600,
331040540917052-index10569.png
#EXTINF:4.962300,
331040540917052-index10570.png
#EXTINF:4.795500,
331040540917052-index10571.png
#EXTINF:5.337600,
331040540917052-index10572.png
#EXTINF:4.170000,
331040540917052-index10573.png
#EXTINF:5.337600,
331040540917052-index10574.png
#EXTINF:4.795500,
331040540917052-index10575.png
#EXTINF:5.254200,
331040540917052-index10576.png
#EXTINF:5.254200,
331040540917052-index10577.png
#EXTINF:4.795500,
331040540917052-index10578.png
#EXTINF:5.087400,
331040540917052-index10579.png
#EXTINF:4.795500,
331040540917052-index10580.png
#EXTINF:4.795500,
331040540917052-index10581.png
#EXTINF:5.754600,
331040540917052-index10582.png
#EXTINF:4.211700,
331040540917052-index10583.png
#EXTINF:5.337600,
331040540917052-index10584.png
#EXTINF:5.254200,
331040540917052-index10585.png
#EXTINF:4.545300,
331040540917052-index10586.png
#EXTINF:5.462700,
331040540917052-index10587.png
#EXTINF:5.004000,
331040540917052-index10588.png
#EXTINF:4.503600,
331040540917052-index10589.png
#EXTINF:5.587800,
331040540917052-index10590.png
#EXTINF:4.628700,
331040540917052-index10591.png
#EXTINF:4.795500,
331040540917052-index10592.png
#EXTINF:4.962300,
331040540917052-index10593.png
#EXTINF:5.254200,
331040540917052-index10594.png
#EXTINF:5.379300,
331040540917052-index10595.png
#EXTINF:4.920600,
331040540917052-index10596.png
#EXTINF:4.461900,
331040540917052-index10597.png
#EXTINF:5.129100,
331040540917052-index10598.png
#EXTINF:4.920600,
331040540917052-index10599.png
#EXTINF:5.379300,
331040540917052-index10600.png
#EXTINF:4.628700,
331040540917052-index10601.png
#EXTINF:4.795500,
331040540917052-index10602.png
#EXTINF:5.170800,
331040540917052-index10603.png
#EXTINF:5.045700,
331040540917052-index10604.png
#EXTINF:5.546100,
331040540917052-index10605.png
#EXTINF:4.670400,
331040540917052-index10606.png
#EXTINF:4.795500,
331040540917052-index10607.png
#EXTINF:5.087400,
331040540917052-index10608.png
#EXTINF:4.795500,
331040540917052-index10609.png
#EXTINF:4.795500,
331040540917052-index10610.png
#EXTINF:5.546100,
331040540917052-index10611.png
#EXTINF:4.587000,
331040540917052-index10612.png
#EXTINF:4.962300,
331040540917052-index10613.png
#EXTINF:5.796300,
331040540917052-index10614.png
#EXTINF:4.962300,
331040540917052-index10615.png
#EXTINF:4.587000,
331040540917052-index10616.png
#EXTINF:5.004000,
331040540917052-index10617.png
#EXTINF:4.795500,
331040540917052-index10618.png
#EXTINF:4.878900,
331040540917052-index10619.png
#EXTINF:5.671200,
331040540917052-index10620.png
#EXTINF:4.795500,
331040540917052-index10621.png
#EXTINF:5.337600,
331040540917052-index10622.png
#EXTINF:4.336800,
331040540917052-index10623.png
#EXTINF:5.546100,
331040540917052-index10624.png
#EXTINF:5.129100,
331040540917052-index10625.png
#EXTINF:4.044900,
331040540917052-index10626.png
#EXTINF:5.754600,
331040540917052-index10627.png
#EXTINF:5.129100,
331040540917052-index10628.png
#EXTINF:4.795500,
331040540917052-index10629.png
#EXTINF:5.170800,
331040540917052-index10630.png
#EXTINF:4.670400,
331040540917052-index10631.png
#EXTINF:4.878900,
331040540917052-index10632.png
#EXTINF:4.795500,
331040540917052-index10633.png
#EXTINF:5.712900,
331040540917052-index10634.png
#EXTINF:4.211700,
331040540917052-index10635.png
#EXTINF:5.587800,
331040540917052-index10636.png
#EXTINF:4.753800,
331040540917052-index10637.png
#EXTINF:5.004000,
331040540917052-index10638.png
#EXTINF:5.004000,
331040540917052-index10639.png
#EXTINF:5.004000,
331040540917052-index10640.png
#EXTINF:5.004000,
331040540917052-index10641.png
#EXTINF:4.795500,
331040540917052-index10642.png
#EXTINF:5.587800,
331040540917052-index10643.png
#EXTINF:4.670400,
331040540917052-index10644.png
#EXTINF:5.254200,
331040540917052-index10645.png
#EXTINF:4.628700,
331040540917052-index10646.png
#EXTINF:4.795500,
331040540917052-index10647.png
#EXTINF:4.795500,
331040540917052-index10648.png
#EXTINF:5.629500,
331040540917052-index10649.png
#EXTINF:4.712100,
331040540917052-index10650.png
#EXTINF:5.546100,
331040540917052-index10651.png
#EXTINF:4.170000,
331040540917052-index10652.png
#EXTINF:4.962300,
331040540917052-index10653.png
#EXTINF:5.754600,
331040540917052-index10654.png
#EXTINF:4.503600,
331040540917052-index10655.png
#EXTINF:4.795500,
331040540917052-index10656.png
#EXTINF:5.421000,
331040540917052-index10657.png
#EXTINF:4.587000,
331040540917052-index10658.png
#EXTINF:5.129100,
331040540917052-index10659.png
#EXTINF:4.795500,
331040540917052-index10660.png
#EXTINF:5.462700,
331040540917052-index10661.png
#EXTINF:4.878900,
331040540917052-index10662.png
#EXTINF:5.295900,
331040540917052-index10663.png
#EXTINF:4.795500,
331040540917052-index10664.png
#EXTINF:5.295900,
331040540917052-index10665.png
#EXTINF:5.045700,
331040540917052-index10666.png
#EXTINF:5.004000,
331040540917052-index10667.png
#EXTINF:4.170000,
331040540917052-index10668.png
#EXTINF:5.879700,
331040540917052-index10669.png
#EXTINF:4.795500,
331040540917052-index10670.png
#EXTINF:4.920600,
331040540917052-index10671.png
#EXTINF:4.753800,
331040540917052-index10672.png
#EXTINF:5.504400,
331040540917052-index10673.png
#EXTINF:4.795500,
331040540917052-index10674.png
#EXTINF:4.503600,
331040540917052-index10675.png
#EXTINF:5.212500,
331040540917052-index10676.png
#EXTINF:5.170800,
331040540917052-index10677.png
#EXTINF:4.503600,
331040540917052-index10678.png
#EXTINF:5.337600,
331040540917052-index10679.png
#EXTINF:4.670400,
331040540917052-index10680.png
#EXTINF:5.170800,
331040540917052-index10681.png
#EXTINF:5.379300,
331040540917052-index10682.png
#EXTINF:4.587000,
331040540917052-index10683.png
#EXTINF:5.671200,
331040540917052-index10684.png
#EXTINF:4.211700,
331040540917052-index10685.png
#EXTINF:5.754600,
331040540917052-index10686.png
#EXTINF:4.420200,
331040540917052-index10687.png
#EXTINF:5.379300,
331040540917052-index10688.png
#EXTINF:4.795500,
331040540917052-index10689.png
#EXTINF:4.795500,
331040540917052-index10690.png
#EXTINF:5.379300,
331040540917052-index10691.png
#EXTINF:4.545300,
331040540917052-index10692.png
#EXTINF:5.254200,
331040540917052-index10693.png
#EXTINF:5.212500,
331040540917052-index10694.png
#EXTINF:4.795500,
331040540917052-index10695.png
#EXTINF:5.170800,
331040540917052-index10696.png
#EXTINF:4.503600,
331040540917052-index10697.png
#EXTINF:5.754600,
331040540917052-index10698.png
#EXTINF:4.920600,
331040540917052-index10699.png
#EXTINF:4.628700,
331040540917052-index10700.png
#EXTINF:5.462700,
331040540917052-index10701.png
#EXTINF:4.545300,
331040540917052-index10702.png
#EXTINF:4.795500,
331040540917052-index10703.png
#EXTINF:4.795500,
331040540917052-index10704.png
#EXTINF:5.546100,
331040540917052-index10705.png
#EXTINF:4.628700,
331040540917052-index10706.png
#EXTINF:5.212500,
331040540917052-index10707.png
#EXTINF:4.712100,
331040540917052-index10708.png
#EXTINF:5.004000,
331040540917052-index10709.png
#EXTINF:5.754600,
331040540917052-index10710.png
#EXTINF:5.045700,
331040540917052-index10711.png
#EXTINF:4.503600,
331040540917052-index10712.png
#EXTINF:5.004000,
331040540917052-index10713.png
#EXTINF:5.295900,
331040540917052-index10714.png
#EXTINF:4.336800,
331040540917052-index10715.png
#EXTINF:5.462700,
331040540917052-index10716.png
#EXTINF:4.795500,
331040540917052-index10717.png
#EXTINF:4.670400,
331040540917052-index10718.png
#EXTINF:5.712900,
331040540917052-index10719.png
#EXTINF:4.378500,
331040540917052-index10720.png
#EXTINF:5.045700,
331040540917052-index10721.png
#EXTINF:5.546100,
331040540917052-index10722.png
#EXTINF:4.461900,
331040540917052-index10723.png
#EXTINF:5.337600,
331040540917052-index10724.png
#EXTINF:5.379300,
331040540917052-index10725.png
#EXTINF:4.795500,
331040540917052-index10726.png
#EXTINF:4.712100,
331040540917052-index10727.png
#EXTINF:4.670400,
331040540917052-index10728.png
#EXTINF:5.754600,
331040540917052-index10729.png
#EXTINF:5.004000,
331040540917052-index10730.png
#EXTINF:4.795500,
331040540917052-index10731.png
#EXTINF:5.129100,
331040540917052-index10732.png
#EXTINF:4.670400,
331040540917052-index10733.png
#EXTINF:5.004000,
331040540917052-index10734.png
#EXTINF:4.795500,
331040540917052-index10735.png
#EXTINF:5.170800,
331040540917052-index10736.png
#EXTINF:5.546100,
331040540917052-index10737.png
#EXTINF:4.295100,
331040540917052-index10738.png
#EXTINF:4.795500,
331040540917052-index10739.png
#EXTINF:5.129100,
331040540917052-index10740.png
#EXTINF:5.754600,
331040540917052-index10741.png
#EXTINF:4.837200,
331040540917052-index10742.png
#EXTINF:4.461900,
331040540917052-index10743.png
#EXTINF:5.254200,
331040540917052-index10744.png
#EXTINF:4.545300,
331040540917052-index10745.png
#EXTINF:5.546100,
331040540917052-index10746.png
#EXTINF:5.045700,
331040540917052-index10747.png
#EXTINF:4.545300,
331040540917052-index10748.png
#EXTINF:5.629500,
331040540917052-index10749.png
#EXTINF:4.545300,
331040540917052-index10750.png
#EXTINF:5.379300,
331040540917052-index10751.png
#EXTINF:4.712100,
331040540917052-index10752.png
#EXTINF:4.795500,
331040540917052-index10753.png
#EXTINF:4.795500,
331040540917052-index10754.png
#EXTINF:5.504400,
331040540917052-index10755.png
#EXTINF:4.962300,
331040540917052-index10756.png
#EXTINF:4.670400,
331040540917052-index10757.png
#EXTINF:5.004000,
331040540917052-index10758.png
#EXTINF:5.754600,
331040540917052-index10759.png
#EXTINF:4.795500,
331040540917052-index10760.png
#EXTINF:4.712100,
331040540917052-index10761.png
#EXTINF:5.045700,
331040540917052-index10762.png
#EXTINF:4.795500,
331040540917052-index10763.png
#EXTINF:4.795500,
331040540917052-index10764.png
#EXTINF:5.754600,
331040540917052-index10765.png
#EXTINF:4.795500,
331040540917052-index10766.png
#EXTINF:4.503600,
331040540917052-index10767.png
#EXTINF:5.754600,
331040540917052-index10768.png
#EXTINF:4.795500,
331040540917052-index10769.png
#EXTINF:4.795500,
331040540917052-index10770.png
#EXTINF:4.670400,
331040540917052-index10771.png
#EXTINF:5.754600,
331040540917052-index10772.png
#EXTINF:4.628700,
331040540917052-index10773.png
#EXTINF:4.795500,
331040540917052-index10774.png
#EXTINF:4.795500,
331040540917052-index10775.png
#EXTINF:5.462700,
331040540917052-index10776.png
#EXTINF:5.212500,
331040540917052-index10777.png
#EXTINF:4.253400,
331040540917052-index10778.png
#EXTINF:5.754600,
331040540917052-index10779.png
#EXTINF:4.795500,
331040540917052-index10780.png
#EXTINF:4.628700,
331040540917052-index10781.png
#EXTINF:5.004000,
331040540917052-index10782.png
#EXTINF:5.212500,
331040540917052-index10783.png
#EXTINF:5.004000,
331040540917052-index10784.png
#EXTINF:5.212500,
331040540917052-index10785.png
#EXTINF:4.795500,
331040540917052-index10786.png
#EXTINF:5.045700,
331040540917052-index10787.png
#EXTINF:5.129100,
331040540917052-index10788.png
#EXTINF:4.878900,
331040540917052-index10789.png
#EXTINF:4.545300,
331040540917052-index10790.png
#EXTINF:5.379300,
331040540917052-index10791.png
#EXTINF:4.628700,
331040540917052-index10792.png
#EXTINF:5.754600,
331040540917052-index10793.png
#EXTINF:5.087400,
331040540917052-index10794.png
#EXTINF:4.795500,
331040540917052-index10795.png
#EXTINF:4.837200,
331040540917052-index10796.png
#EXTINF:4.461900,
331040540917052-index10797.png
#EXTINF:5.379300,
331040540917052-index10798.png
#EXTINF:5.421000,
331040540917052-index10799.png
#EXTINF:5.129100,
331040540917052-index10800.png
#EXTINF:4.587000,
331040540917052-index10801.png
#EXTINF:4.795500,
331040540917052-index10802.png
#EXTINF:4.795500,
331040540917052-index10803.png
#EXTINF:5.295900,
331040540917052-index10804.png
#EXTINF:4.712100,
331040540917052-index10805.png
#EXTINF:5.421000,
331040540917052-index10806.png
#EXTINF:4.795500,
331040540917052-index10807.png
#EXTINF:4.712100,
331040540917052-index10808.png
#EXTINF:5.838000,
331040540917052-index10809.png
#EXTINF:4.128300,
331040540917052-index10810.png
#EXTINF:5.754600,
331040540917052-index10811.png
#EXTINF:4.461900,
331040540917052-index10812.png
#EXTINF:4.795500,
331040540917052-index10813.png
#EXTINF:4.962300,
331040540917052-index10814.png
#EXTINF:5.045700,
331040540917052-index10815.png
#EXTINF:5.712900,
331040540917052-index10816.png
#EXTINF:5.129100,
331040540917052-index10817.png
#EXTINF:4.962300,
331040540917052-index10818.png
#EXTINF:4.795500,
331040540917052-index10819.png
#EXTINF:4.920600,
331040540917052-index10820.png
#EXTINF:5.295900,
331040540917052-index10821.png
#EXTINF:4.420200,
331040540917052-index10822.png
#EXTINF:5.421000,
331040540917052-index10823.png
#EXTINF:4.795500,
331040540917052-index10824.png
#EXTINF:4.795500,
331040540917052-index10825.png
#EXTINF:5.337600,
331040540917052-index10826.png
#EXTINF:4.795500,
331040540917052-index10827.png
#EXTINF:5.295900,
331040540917052-index10828.png
#EXTINF:4.628700,
331040540917052-index10829.png
#EXTINF:5.421000,
331040540917052-index10830.png
#EXTINF:4.420200,
331040540917052-index10831.png
#EXTINF:5.504400,
331040540917052-index10832.png
#EXTINF:4.461900,
331040540917052-index10833.png
#EXTINF:5.754600,
331040540917052-index10834.png
#EXTINF:4.211700,
331040540917052-index10835.png
#EXTINF:4.962300,
331040540917052-index10836.png
#EXTINF:4.920600,
331040540917052-index10837.png
#EXTINF:4.962300,
331040540917052-index10838.png
#EXTINF:5.754600,
331040540917052-index10839.png
#EXTINF:4.920600,
331040540917052-index10840.png
#EXTINF:4.795500,
331040540917052-index10841.png
#EXTINF:5.379300,
331040540917052-index10842.png
#EXTINF:4.795500,
331040540917052-index10843.png
#EXTINF:4.420200,
331040540917052-index10844.png
#EXTINF:5.004000,
331040540917052-index10845.png
#EXTINF:5.421000,
331040540917052-index10846.png
#EXTINF:5.421000,
331040540917052-index10847.png
#EXTINF:4.795500,
331040540917052-index10848.png
#EXTINF:5.170800,
331040540917052-index10849.png
#EXTINF:5.004000,
331040540917052-index10850.png
#EXTINF:4.795500,
331040540917052-index10851.png
#EXTINF:4.587000,
331040540917052-index10852.png
#EXTINF:4.795500,
331040540917052-index10853.png
#EXTINF:5.337600,
331040540917052-index10854.png
#EXTINF:4.795500,
331040540917052-index10855.png
#EXTINF:4.962300,
331040540917052-index10856.png
#EXTINF:5.379300,
331040540917052-index10857.png
#EXTINF:4.670400,
331040540917052-index10858.png
#EXTINF:5.546100,
331040540917052-index10859.png
#EXTINF:5.004000,
331040540917052-index10860.png
#EXTINF:4.461900,
331040540917052-index10861.png
#EXTINF:5.004000,
331040540917052-index10862.png
#EXTINF:5.087400,
331040540917052-index10863.png
#EXTINF:4.837200,
331040540917052-index10864.png
#EXTINF:5.337600,
331040540917052-index10865.png
#EXTINF:5.295900,
331040540917052-index10866.png
#EXTINF:4.795500,
331040540917052-index10867.png
#EXTINF:4.795500,
331040540917052-index10868.png
#EXTINF:4.795500,
331040540917052-index10869.png
#EXTINF:5.212500,
331040540917052-index10870.png
#EXTINF:4.587000,
331040540917052-index10871.png
#EXTINF:5.629500,
331040540917052-index10872.png
#EXTINF:4.420200,
331040540917052-index10873.png
#EXTINF:5.838000,
331040540917052-index10874.png
#EXTINF:4.545300,
331040540917052-index10875.png
#EXTINF:5.254200,
331040540917052-index10876.png
#EXTINF:4.795500,
331040540917052-index10877.png
#EXTINF:4.712100,
331040540917052-index10878.png
#EXTINF:5.087400,
331040540917052-index10879.png
#EXTINF:4.795500,
331040540917052-index10880.png
#EXTINF:5.421000,
331040540917052-index10881.png
#EXTINF:5.212500,
331040540917052-index10882.png
#EXTINF:4.587000,
331040540917052-index10883.png
#EXTINF:4.920600,
331040540917052-index10884.png
#EXTINF:5.045700,
331040540917052-index10885.png
#EXTINF:4.795500,
331040540917052-index10886.png
#EXTINF:5.754600,
331040540917052-index10887.png
#EXTINF:4.837200,
331040540917052-index10888.png
#EXTINF:4.420200,
331040540917052-index10889.png
#EXTINF:5.087400,
331040540917052-index10890.png
#EXTINF:4.962300,
331040540917052-index10891.png
#EXTINF:5.796300,
331040540917052-index10892.png
#EXTINF:4.920600,
331040540917052-index10893.png
#EXTINF:4.670400,
331040540917052-index10894.png
#EXTINF:4.795500,
331040540917052-index10895.png
#EXTINF:4.795500,
331040540917052-index10896.png
#EXTINF:5.004000,
331040540917052-index10897.png
#EXTINF:4.920600,
331040540917052-index10898.png
#EXTINF:5.712900,
331040540917052-index10899.png
#EXTINF:4.878900,
331040540917052-index10900.png
#EXTINF:4.795500,
331040540917052-index10901.png
#EXTINF:4.920600,
331040540917052-index10902.png
#EXTINF:5.087400,
331040540917052-index10903.png
#EXTINF:4.795500,
331040540917052-index10904.png
#EXTINF:5.504400,
331040540917052-index10905.png
#EXTINF:4.712100,
331040540917052-index10906.png
#EXTINF:5.421000,
331040540917052-index10907.png
#EXTINF:4.795500,
331040540917052-index10908.png
#EXTINF:5.254200,
331040540917052-index10909.png
#EXTINF:4.878900,
331040540917052-index10910.png
#EXTINF:4.878900,
331040540917052-index10911.png
#EXTINF:4.545300,
331040540917052-index10912.png
#EXTINF:5.004000,
331040540917052-index10913.png
#EXTINF:4.795500,
331040540917052-index10914.png
#EXTINF:5.587800,
331040540917052-index10915.png
#EXTINF:5.254200,
331040540917052-index10916.png
#EXTINF:4.503600,
331040540917052-index10917.png
#EXTINF:5.295900,
331040540917052-index10918.png
#EXTINF:4.670400,
331040540917052-index10919.png
#EXTINF:4.628700,
331040540917052-index10920.png
#EXTINF:5.087400,
331040540917052-index10921.png
#EXTINF:5.379300,
331040540917052-index10922.png
#EXTINF:5.045700,
331040540917052-index10923.png
#EXTINF:4.795500,
331040540917052-index10924.png
#EXTINF:5.295900,
331040540917052-index10925.png
#EXTINF:4.420200,
331040540917052-index10926.png
#EXTINF:5.754600,
331040540917052-index10927.png
#EXTINF:5.045700,
331040540917052-index10928.png
#EXTINF:4.795500,
331040540917052-index10929.png
#EXTINF:4.545300,
331040540917052-index10930.png
#EXTINF:5.754600,
331040540917052-index10931.png
#EXTINF:4.295100,
331040540917052-index10932.png
#EXTINF:4.795500,
331040540917052-index10933.png
#EXTINF:5.170800,
331040540917052-index10934.png
#EXTINF:5.504400,
331040540917052-index10935.png
#EXTINF:5.129100,
331040540917052-index10936.png
#EXTINF:4.795500,
331040540917052-index10937.png
#EXTINF:5.129100,
331040540917052-index10938.png
#EXTINF:4.837200,
331040540917052-index10939.png
#EXTINF:4.795500,
331040540917052-index10940.png
#EXTINF:4.628700,
331040540917052-index10941.png
#EXTINF:5.754600,
331040540917052-index10942.png
#EXTINF:4.461900,
331040540917052-index10943.png
#EXTINF:5.004000,
331040540917052-index10944.png
#EXTINF:5.379300,
331040540917052-index10945.png
#EXTINF:4.795500,
331040540917052-index10946.png
#EXTINF:4.795500,
331040540917052-index10947.png
#EXTINF:5.087400,
331040540917052-index10948.png
#EXTINF:4.753800,
331040540917052-index10949.png
#EXTINF:5.754600,
331040540917052-index10950.png
#EXTINF:4.628700,
331040540917052-index10951.png
#EXTINF:4.587000,
331040540917052-index10952.png
#EXTINF:5.295900,
331040540917052-index10953.png
#EXTINF:4.795500,
331040540917052-index10954.png
#EXTINF:5.295900,
331040540917052-index10955.png
#EXTINF:4.795500,
331040540917052-index10956.png
#EXTINF:4.962300,
331040540917052-index10957.png
#EXTINF:4.920600,
331040540917052-index10958.png
#EXTINF:5.504400,
331040540917052-index10959.png
#EXTINF:5.129100,
331040540917052-index10960.png
#EXTINF:4.253400,
331040540917052-index10961.png
#EXTINF:5.754600,
331040540917052-index10962.png
#EXTINF:4.670400,
331040540917052-index10963.png
#EXTINF:5.504400,
331040540917052-index10964.png
#EXTINF:4.795500,
331040540917052-index10965.png
#EXTINF:4.378500,
331040540917052-index10966.png
#EXTINF:4.920600,
331040540917052-index10967.png
#EXTINF:4.962300,
331040540917052-index10968.png
#EXTINF:5.045700,
331040540917052-index10969.png
#EXTINF:5.546100,
331040540917052-index10970.png
#EXTINF:4.795500,
331040540917052-index10971.png
#EXTINF:4.878900,
331040540917052-index10972.png
#EXTINF:5.295900,
331040540917052-index10973.png
#EXTINF:5.087400,
331040540917052-index10974.png
#EXTINF:4.795500,
331040540917052-index10975.png
#EXTINF:4.795500,
331040540917052-index10976.png
#EXTINF:5.295900,
331040540917052-index10977.png
#EXTINF:4.461900,
331040540917052-index10978.png
#EXTINF:5.295900,
331040540917052-index10979.png
#EXTINF:5.629500,
331040540917052-index10980.png
#EXTINF:4.837200,
331040540917052-index10981.png
#EXTINF:4.962300,
331040540917052-index10982.png
#EXTINF:4.795500,
331040540917052-index10983.png
#EXTINF:5.337600,
331040540917052-index10984.png
#EXTINF:4.295100,
331040540917052-index10985.png
#EXTINF:5.671200,
331040540917052-index10986.png
#EXTINF:4.461900,
331040540917052-index10987.png
#EXTINF:5.254200,
331040540917052-index10988.png
#EXTINF:5.379300,
331040540917052-index10989.png
#EXTINF:4.420200,
331040540917052-index10990.png
#EXTINF:5.587800,
331040540917052-index10991.png
#EXTINF:4.378500,
331040540917052-index10992.png
#EXTINF:4.712100,
331040540917052-index10993.png
#EXTINF:5.087400,
331040540917052-index10994.png
#EXTINF:5.712900,
331040540917052-index10995.png
#EXTINF:4.795500,
331040540917052-index10996.png
#EXTINF:4.795500,
331040540917052-index10997.png
#EXTINF:5.004000,
331040540917052-index10998.png
#EXTINF:4.795500,
331040540917052-index10999.png
#EXTINF:5.379300,
331040540917052-index11000.png
#EXTINF:5.004000,
331040540917052-index11001.png
#EXTINF:4.837200,
331040540917052-index11002.png
#EXTINF:5.004000,
331040540917052-index11003.png
#EXTINF:5.129100,
331040540917052-index11004.png
#EXTINF:5.045700,
331040540917052-index11005.png
#EXTINF:4.795500,
331040540917052-index11006.png
#EXTINF:4.795500,
331040540917052-index11007.png
#EXTINF:5.629500,
331040540917052-index11008.png
#EXTINF:4.878900,
331040540917052-index11009.png
#EXTINF:4.545300,
331040540917052-index11010.png
#EXTINF:5.295900,
331040540917052-index11011.png
#EXTINF:4.753800,
331040540917052-index11012.png
#EXTINF:4.753800,
331040540917052-index11013.png
#EXTINF:4.920600,
331040540917052-index11014.png
#EXTINF:5.754600,
331040540917052-index11015.png
#EXTINF:4.628700,
331040540917052-index11016.png
#EXTINF:5.004000,
331040540917052-index11017.png
#EXTINF:5.254200,
331040540917052-index11018.png
#EXTINF:4.336800,
331040540917052-index11019.png
#EXTINF:5.629500,
331040540917052-index11020.png
#EXTINF:4.712100,
331040540917052-index11021.png
#EXTINF:4.837200,
331040540917052-index11022.png
#EXTINF:5.379300,
331040540917052-index11023.png
#EXTINF:5.129100,
331040540917052-index11024.png
#EXTINF:4.878900,
331040540917052-index11025.png
#EXTINF:4.461900,
331040540917052-index11026.png
#EXTINF:5.045700,
331040540917052-index11027.png
#EXTINF:5.504400,
331040540917052-index11028.png
#EXTINF:4.920600,
331040540917052-index11029.png
#EXTINF:4.878900,
331040540917052-index11030.png
#EXTINF:4.962300,
331040540917052-index11031.png
#EXTINF:4.753800,
331040540917052-index11032.png
#EXTINF:5.754600,
331040540917052-index11033.png
#EXTINF:4.253400,
331040540917052-index11034.png
#EXTINF:5.212500,
331040540917052-index11035.png
#EXTINF:5.546100,
331040540917052-index11036.png
#EXTINF:4.795500,
331040540917052-index11037.png
#EXTINF:4.962300,
331040540917052-index11038.png
#EXTINF:4.878900,
331040540917052-index11039.png
#EXTINF:5.087400,
331040540917052-index11040.png
#EXTINF:5.045700,
331040540917052-index11041.png
#EXTINF:4.920600,
331040540917052-index11042.png
#EXTINF:5.254200,
331040540917052-index11043.png
#EXTINF:4.795500,
331040540917052-index11044.png
#EXTINF:4.878900,
331040540917052-index11045.png
#EXTINF:5.421000,
331040540917052-index11046.png
#EXTINF:4.587000,
331040540917052-index11047.png
#EXTINF:4.670400,
331040540917052-index11048.png
#EXTINF:5.004000,
331040540917052-index11049.png
#EXTINF:4.878900,
331040540917052-index11050.png
#EXTINF:5.212500,
331040540917052-index11051.png
#EXTINF:4.795500,
331040540917052-index11052.png
#EXTINF:5.170800,
331040540917052-index11053.png
#EXTINF:5.295900,
331040540917052-index11054.png
#EXTINF:5.379300,
331040540917052-index11055.png
#EXTINF:4.795500,
331040540917052-index11056.png
#EXTINF:4.753800,
331040540917052-index11057.png
#EXTINF:4.878900,
331040540917052-index11058.png
#EXTINF:4.795500,
331040540917052-index11059.png
#EXTINF:5.754600,
331040540917052-index11060.png
#EXTINF:4.795500,
331040540917052-index11061.png
#EXTINF:4.795500,
331040540917052-index11062.png
#EXTINF:4.795500,
331040540917052-index11063.png
#EXTINF:5.546100,
331040540917052-index11064.png
#EXTINF:4.795500,
331040540917052-index11065.png
#EXTINF:4.795500,
331040540917052-index11066.png
#EXTINF:4.795500,
331040540917052-index11067.png
#EXTINF:4.795500,
331040540917052-index11068.png
#EXTINF:5.796300,
331040540917052-index11069.png
#EXTINF:4.795500,
331040540917052-index11070.png
#EXTINF:5.087400,
331040540917052-index11071.png
#EXTINF:4.795500,
331040540917052-index11072.png
#EXTINF:4.878900,
331040540917052-index11073.png
#EXTINF:5.421000,
331040540917052-index11074.png
#EXTINF:4.378500,
331040540917052-index11075.png
#EXTINF:5.087400,
331040540917052-index11076.png
#EXTINF:4.712100,
331040540917052-index11077.png
#EXTINF:5.754600,
331040540917052-index11078.png
#EXTINF:4.795500,
331040540917052-index11079.png
#EXTINF:4.962300,
331040540917052-index11080.png
#EXTINF:5.254200,
331040540917052-index11081.png
#EXTINF:4.712100,
331040540917052-index11082.png
#EXTINF:4.628700,
331040540917052-index11083.png
#EXTINF:5.712900,
331040540917052-index11084.png
#EXTINF:4.795500,
331040540917052-index11085.png
#EXTINF:4.753800,
331040540917052-index11086.png
#EXTINF:4.795500,
331040540917052-index11087.png
#EXTINF:5.129100,
331040540917052-index11088.png
#EXTINF:4.753800,
331040540917052-index11089.png
#EXTINF:5.671200,
331040540917052-index11090.png
#EXTINF:4.712100,
331040540917052-index11091.png
#EXTINF:5.129100,
331040540917052-index11092.png
#EXTINF:4.420200,
331040540917052-index11093.png
#EXTINF:5.629500,
331040540917052-index11094.png
#EXTINF:4.461900,
331040540917052-index11095.png
#EXTINF:5.379300,
331040540917052-index11096.png
#EXTINF:4.920600,
331040540917052-index11097.png
#EXTINF:4.670400,
331040540917052-index11098.png
#EXTINF:5.212500,
331040540917052-index11099.png
#EXTINF:4.920600,
331040540917052-index11100.png
#EXTINF:4.878900,
331040540917052-index11101.png
#EXTINF:5.796300,
331040540917052-index11102.png
#EXTINF:4.920600,
331040540917052-index11103.png
#EXTINF:4.503600,
331040540917052-index11104.png
#EXTINF:4.837200,
331040540917052-index11105.png
#EXTINF:4.920600,
331040540917052-index11106.png
#EXTINF:5.004000,
331040540917052-index11107.png
#EXTINF:5.546100,
331040540917052-index11108.png
#EXTINF:4.587000,
331040540917052-index11109.png
#EXTINF:5.045700,
331040540917052-index11110.png
#EXTINF:4.795500,
331040540917052-index11111.png
#EXTINF:5.754600,
331040540917052-index11112.png
#EXTINF:4.295100,
331040540917052-index11113.png
#EXTINF:5.045700,
331040540917052-index11114.png
#EXTINF:4.962300,
331040540917052-index11115.png
#EXTINF:5.045700,
331040540917052-index11116.png
#EXTINF:5.546100,
331040540917052-index11117.png
#EXTINF:5.045700,
331040540917052-index11118.png
#EXTINF:4.795500,
331040540917052-index11119.png
#EXTINF:4.503600,
331040540917052-index11120.png
#EXTINF:5.462700,
331040540917052-index11121.png
#EXTINF:4.795500,
331040540917052-index11122.png
#EXTINF:5.504400,
331040540917052-index11123.png
#EXTINF:4.795500,
331040540917052-index11124.png
#EXTINF:5.129100,
331040540917052-index11125.png
#EXTINF:4.420200,
331040540917052-index11126.png
#EXTINF:5.295900,
331040540917052-index11127.png
#EXTINF:4.795500,
331040540917052-index11128.png
#EXTINF:4.795500,
331040540917052-index11129.png
#EXTINF:5.754600,
331040540917052-index11130.png
#EXTINF:4.587000,
331040540917052-index11131.png
#EXTINF:5.421000,
331040540917052-index11132.png
#EXTINF:4.878900,
331040540917052-index11133.png
#EXTINF:5.004000,
331040540917052-index11134.png
#EXTINF:4.795500,
331040540917052-index11135.png
#EXTINF:4.670400,
331040540917052-index11136.png
#EXTINF:5.587800,
331040540917052-index11137.png
#EXTINF:4.878900,
331040540917052-index11138.png
#EXTINF:4.420200,
331040540917052-index11139.png
#EXTINF:5.754600,
331040540917052-index11140.png
#EXTINF:4.878900,
331040540917052-index11141.png
#EXTINF:4.753800,
331040540917052-index11142.png
#EXTINF:4.712100,
331040540917052-index11143.png
#EXTINF:5.754600,
331040540917052-index11144.png
#EXTINF:4.086600,
331040540917052-index11145.png
#EXTINF:5.671200,
331040540917052-index11146.png
#EXTINF:4.587000,
331040540917052-index11147.png
#EXTINF:5.587800,
331040540917052-index11148.png
#EXTINF:5.004000,
331040540917052-index11149.png
#EXTINF:5.087400,
331040540917052-index11150.png
#EXTINF:4.211700,
331040540917052-index11151.png
#EXTINF:4.878900,
331040540917052-index11152.png
#EXTINF:5.712900,
331040540917052-index11153.png
#EXTINF:5.004000,
331040540917052-index11154.png
#EXTINF:4.253400,
331040540917052-index11155.png
#EXTINF:5.712900,
331040540917052-index11156.png
#EXTINF:4.795500,
331040540917052-index11157.png
#EXTINF:4.920600,
331040540917052-index11158.png
#EXTINF:4.795500,
331040540917052-index11159.png
#EXTINF:5.045700,
331040540917052-index11160.png
#EXTINF:5.546100,
331040540917052-index11161.png
#EXTINF:4.628700,
331040540917052-index11162.png
#EXTINF:5.087400,
331040540917052-index11163.png
#EXTINF:5.379300,
331040540917052-index11164.png
#EXTINF:4.878900,
331040540917052-index11165.png
#EXTINF:4.545300,
331040540917052-index11166.png
#EXTINF:5.337600,
331040540917052-index11167.png
#EXTINF:4.795500,
331040540917052-index11168.png
#EXTINF:5.254200,
331040540917052-index11169.png
#EXTINF:4.795500,
331040540917052-index11170.png
#EXTINF:5.045700,
331040540917052-index11171.png
#EXTINF:5.087400,
331040540917052-index11172.png
#EXTINF:4.420200,
331040540917052-index11173.png
#EXTINF:5.754600,
331040540917052-index11174.png
#EXTINF:4.628700,
331040540917052-index11175.png
#EXTINF:4.837200,
331040540917052-index11176.png
#EXTINF:5.212500,
331040540917052-index11177.png
#EXTINF:5.004000,
331040540917052-index11178.png
#EXTINF:5.295900,
331040540917052-index11179.png
#EXTINF:4.378500,
331040540917052-index11180.png
#EXTINF:5.421000,
331040540917052-index11181.png
#EXTINF:4.420200,
331040540917052-index11182.png
#EXTINF:5.504400,
331040540917052-index11183.png
#EXTINF:4.670400,
331040540917052-index11184.png
#EXTINF:4.795500,
331040540917052-index11185.png
#EXTINF:5.212500,
331040540917052-index11186.png
#EXTINF:5.170800,
331040540917052-index11187.png
#EXTINF:4.712100,
331040540917052-index11188.png
#EXTINF:5.754600,
331040540917052-index11189.png
#EXTINF:4.670400,
331040540917052-index11190.png
#EXTINF:4.795500,
331040540917052-index11191.png
#EXTINF:5.170800,
331040540917052-index11192.png
#EXTINF:4.712100,
331040540917052-index11193.png
#EXTINF:5.587800,
331040540917052-index11194.png
#EXTINF:5.004000,
331040540917052-index11195.png
#EXTINF:4.837200,
331040540917052-index11196.png
#EXTINF:5.254200,
331040540917052-index11197.png
#EXTINF:4.795500,
331040540917052-index11198.png
#EXTINF:5.045700,
331040540917052-index11199.png
#EXTINF:4.420200,
331040540917052-index11200.png
#EXTINF:5.587800,
331040540917052-index11201.png
#EXTINF:4.295100,
331040540917052-index11202.png
#EXTINF:5.295900,
331040540917052-index11203.png
#EXTINF:5.546100,
331040540917052-index11204.png
#EXTINF:4.086600,
331040540917052-index11205.png
#EXTINF:5.337600,
331040540917052-index11206.png
#EXTINF:5.295900,
331040540917052-index11207.png
#EXTINF:4.837200,
331040540917052-index11208.png
#EXTINF:4.753800,
331040540917052-index11209.png
#EXTINF:5.004000,
331040540917052-index11210.png
#EXTINF:5.671200,
331040540917052-index11211.png
#EXTINF:4.170000,
331040540917052-index11212.png
#EXTINF:5.504400,
331040540917052-index11213.png
#EXTINF:4.420200,
331040540917052-index11214.png
#EXTINF:5.379300,
331040540917052-index11215.png
#EXTINF:5.546100,
331040540917052-index11216.png
#EXTINF:4.128300,
331040540917052-index11217.png
#EXTINF:5.254200,
331040540917052-index11218.png
#EXTINF:5.004000,
331040540917052-index11219.png
#EXTINF:4.795500,
331040540917052-index11220.png
#EXTINF:4.920600,
331040540917052-index11221.png
#EXTINF:5.587800,
331040540917052-index11222.png
#EXTINF:4.670400,
331040540917052-index11223.png
#EXTINF:5.379300,
331040540917052-index11224.png
#EXTINF:4.336800,
331040540917052-index11225.png
#EXTINF:5.087400,
331040540917052-index11226.png
#EXTINF:5.045700,
331040540917052-index11227.png
#EXTINF:5.295900,
331040540917052-index11228.png
#EXTINF:4.878900,
331040540917052-index11229.png
#EXTINF:5.337600,
331040540917052-index11230.png
#EXTINF:5.212500,
331040540917052-index11231.png
#EXTINF:4.670400,
331040540917052-index11232.png
#EXTINF:5.170800,
331040540917052-index11233.png
#EXTINF:4.878900,
331040540917052-index11234.png
#EXTINF:4.378500,
331040540917052-index11235.png
#EXTINF:5.754600,
331040540917052-index11236.png
#EXTINF:4.420200,
331040540917052-index11237.png
#EXTINF:5.462700,
331040540917052-index11238.png
#EXTINF:5.045700,
331040540917052-index11239.png
#EXTINF:4.336800,
331040540917052-index11240.png
#EXTINF:5.170800,
331040540917052-index11241.png
#EXTINF:4.878900,
331040540917052-index11242.png
#EXTINF:5.004000,
331040540917052-index11243.png
#EXTINF:5.504400,
331040540917052-index11244.png
#EXTINF:5.295900,
331040540917052-index11245.png
#EXTINF:4.128300,
331040540917052-index11246.png
#EXTINF:5.921400,
331040540917052-index11247.png
#EXTINF:4.837200,
331040540917052-index11248.png
#EXTINF:4.795500,
331040540917052-index11249.png
#EXTINF:4.795500,
331040540917052-index11250.png
#EXTINF:4.795500,
331040540917052-index11251.png
#EXTINF:5.712900,
331040540917052-index11252.png
#EXTINF:4.962300,
331040540917052-index11253.png
#EXTINF:4.795500,
331040540917052-index11254.png
#EXTINF:4.670400,
331040540917052-index11255.png
#EXTINF:4.795500,
331040540917052-index11256.png
#EXTINF:5.462700,
331040540917052-index11257.png
#EXTINF:5.045700,
331040540917052-index11258.png
#EXTINF:4.670400,
331040540917052-index11259.png
#EXTINF:4.795500,
331040540917052-index11260.png
#EXTINF:5.045700,
331040540917052-index11261.png
#EXTINF:5.004000,
331040540917052-index11262.png
#EXTINF:4.920600,
331040540917052-index11263.png
#EXTINF:5.712900,
331040540917052-index11264.png
#EXTINF:4.420200,
331040540917052-index11265.png
#EXTINF:4.878900,
331040540917052-index11266.png
#EXTINF:5.379300,
331040540917052-index11267.png
#EXTINF:5.004000,
331040540917052-index11268.png
#EXTINF:5.295900,
331040540917052-index11269.png
#EXTINF:4.878900,
331040540917052-index11270.png
#EXTINF:4.795500,
331040540917052-index11271.png
#EXTINF:4.878900,
331040540917052-index11272.png
#EXTINF:4.795500,
331040540917052-index11273.png
#EXTINF:5.170800,
331040540917052-index11274.png
#EXTINF:4.920600,
331040540917052-index11275.png
#EXTINF:5.129100,
331040540917052-index11276.png
#EXTINF:5.421000,
331040540917052-index11277.png
#EXTINF:4.587000,
331040540917052-index11278.png
#EXTINF:5.337600,
331040540917052-index11279.png
#EXTINF:4.878900,
331040540917052-index11280.png
#EXTINF:5.337600,
331040540917052-index11281.png
#EXTINF:4.253400,
331040540917052-index11282.png
#EXTINF:5.004000,
331040540917052-index11283.png
#EXTINF:5.546100,
331040540917052-index11284.png
#EXTINF:4.753800,
331040540917052-index11285.png
#EXTINF:5.212500,
331040540917052-index11286.png
#EXTINF:4.712100,
331040540917052-index11287.png
#EXTINF:5.129100,
331040540917052-index11288.png
#EXTINF:5.295900,
331040540917052-index11289.png
#EXTINF:4.795500,
331040540917052-index11290.png
#EXTINF:4.503600,
331040540917052-index11291.png
#EXTINF:5.212500,
331040540917052-index11292.png
#EXTINF:5.087400,
331040540917052-index11293.png
#EXTINF:4.795500,
331040540917052-index11294.png
#EXTINF:5.671200,
331040540917052-index11295.png
#EXTINF:4.962300,
331040540917052-index11296.png
#EXTINF:4.753800,
331040540917052-index11297.png
#EXTINF:4.920600,
331040540917052-index11298.png
#EXTINF:4.795500,
331040540917052-index11299.png
#EXTINF:5.462700,
331040540917052-index11300.png
#EXTINF:4.795500,
331040540917052-index11301.png
#EXTINF:4.795500,
331040540917052-index11302.png
#EXTINF:4.795500,
331040540917052-index11303.png
#EXTINF:5.754600,
331040540917052-index11304.png
#EXTINF:4.503600,
331040540917052-index11305.png
#EXTINF:4.795500,
331040540917052-index11306.png
#EXTINF:5.379300,
331040540917052-index11307.png
#EXTINF:5.087400,
331040540917052-index11308.png
#EXTINF:4.920600,
331040540917052-index11309.png
#EXTINF:4.795500,
331040540917052-index11310.png
#EXTINF:4.795500,
331040540917052-index11311.png
#EXTINF:5.504400,
331040540917052-index11312.png
#EXTINF:4.461900,
331040540917052-index11313.png
#EXTINF:5.129100,
331040540917052-index11314.png
#EXTINF:4.712100,
331040540917052-index11315.png
#EXTINF:5.796300,
331040540917052-index11316.png
#EXTINF:5.004000,
331040540917052-index11317.png
#EXTINF:4.170000,
331040540917052-index11318.png
#EXTINF:5.754600,
331040540917052-index11319.png
#EXTINF:4.920600,
331040540917052-index11320.png
#EXTINF:4.461900,
331040540917052-index11321.png
#EXTINF:5.546100,
331040540917052-index11322.png
#EXTINF:5.212500,
331040540917052-index11323.png
#EXTINF:4.837200,
331040540917052-index11324.png
#EXTINF:4.503600,
331040540917052-index11325.png
#EXTINF:5.045700,
331040540917052-index11326.png
#EXTINF:5.504400,
331040540917052-index11327.png
#EXTINF:4.461900,
331040540917052-index11328.png
#EXTINF:4.753800,
331040540917052-index11329.png
#EXTINF:5.379300,
331040540917052-index11330.png
#EXTINF:4.670400,
331040540917052-index11331.png
#EXTINF:4.962300,
331040540917052-index11332.png
#EXTINF:5.462700,
331040540917052-index11333.png
#EXTINF:5.170800,
331040540917052-index11334.png
#EXTINF:4.753800,
331040540917052-index11335.png
#EXTINF:4.795500,
331040540917052-index11336.png
#EXTINF:5.504400,
331040540917052-index11337.png
#EXTINF:4.837200,
331040540917052-index11338.png
#EXTINF:4.795500,
331040540917052-index11339.png
#EXTINF:4.962300,
331040540917052-index11340.png
#EXTINF:4.795500,
331040540917052-index11341.png
#EXTINF:5.838000,
331040540917052-index11342.png
#EXTINF:4.587000,
331040540917052-index11343.png
#EXTINF:5.212500,
331040540917052-index11344.png
#EXTINF:5.129100,
331040540917052-index11345.png
#EXTINF:4.336800,
331040540917052-index11346.png
#EXTINF:4.795500,
331040540917052-index11347.png
#EXTINF:5.671200,
331040540917052-index11348.png
#EXTINF:4.837200,
331040540917052-index11349.png
#EXTINF:5.295900,
331040540917052-index11350.png
#EXTINF:4.753800,
331040540917052-index11351.png
#EXTINF:4.795500,
331040540917052-index11352.png
#EXTINF:4.670400,
331040540917052-index11353.png
#EXTINF:5.879700,
331040540917052-index11354.png
#EXTINF:4.170000,
331040540917052-index11355.png
#EXTINF:4.920600,
331040540917052-index11356.png
#EXTINF:5.004000,
331040540917052-index11357.png
#EXTINF:5.129100,
331040540917052-index11358.png
#EXTINF:4.920600,
331040540917052-index11359.png
#EXTINF:5.546100,
331040540917052-index11360.png
#EXTINF:4.795500,
331040540917052-index11361.png
#EXTINF:5.421000,
331040540917052-index11362.png
#EXTINF:4.920600,
331040540917052-index11363.png
#EXTINF:4.378500,
331040540917052-index11364.png
#EXTINF:5.629500,
331040540917052-index11365.png
#EXTINF:5.045700,
331040540917052-index11366.png
#EXTINF:4.587000,
331040540917052-index11367.png
#EXTINF:4.878900,
331040540917052-index11368.png
#EXTINF:5.212500,
331040540917052-index11369.png
#EXTINF:5.295900,
331040540917052-index11370.png
#EXTINF:4.795500,
331040540917052-index11371.png
#EXTINF:5.004000,
331040540917052-index11372.png
#EXTINF:5.045700,
331040540917052-index11373.png
#EXTINF:4.378500,
331040540917052-index11374.png
#EXTINF:5.754600,
331040540917052-index11375.png
#EXTINF:5.004000,
331040540917052-index11376.png
#EXTINF:4.420200,
331040540917052-index11377.png
#EXTINF:4.962300,
331040540917052-index11378.png
#EXTINF:5.546100,
331040540917052-index11379.png
#EXTINF:4.920600,
331040540917052-index11380.png
#EXTINF:5.129100,
331040540917052-index11381.png
#EXTINF:4.712100,
331040540917052-index11382.png
#EXTINF:5.087400,
331040540917052-index11383.png
#EXTINF:5.254200,
331040540917052-index11384.png
#EXTINF:4.795500,
331040540917052-index11385.png
#EXTINF:4.753800,
331040540917052-index11386.png
#EXTINF:5.379300,
331040540917052-index11387.png
#EXTINF:4.795500,
331040540917052-index11388.png
#EXTINF:4.503600,
331040540917052-index11389.png
#EXTINF:5.629500,
331040540917052-index11390.png
#EXTINF:4.378500,
331040540917052-index11391.png
#EXTINF:5.004000,
331040540917052-index11392.png
#EXTINF:4.962300,
331040540917052-index11393.png
#EXTINF:5.087400,
331040540917052-index11394.png
#EXTINF:5.671200,
331040540917052-index11395.png
#EXTINF:4.336800,
331040540917052-index11396.png
#EXTINF:5.629500,
331040540917052-index11397.png
#EXTINF:4.587000,
331040540917052-index11398.png
#EXTINF:4.795500,
331040540917052-index11399.png
#EXTINF:5.212500,
331040540917052-index11400.png
#EXTINF:5.421000,
331040540917052-index11401.png
#EXTINF:4.795500,
331040540917052-index11402.png
#EXTINF:5.004000,
331040540917052-index11403.png
#EXTINF:4.962300,
331040540917052-index11404.png
#EXTINF:5.045700,
331040540917052-index11405.png
#EXTINF:5.170800,
331040540917052-index11406.png
#EXTINF:4.670400,
331040540917052-index11407.png
#EXTINF:4.962300,
331040540917052-index11408.png
#EXTINF:5.254200,
331040540917052-index11409.png
#EXTINF:4.920600,
331040540917052-index11410.png
#EXTINF:4.795500,
331040540917052-index11411.png
#EXTINF:5.045700,
331040540917052-index11412.png
#EXTINF:4.795500,
331040540917052-index11413.png
#EXTINF:5.712900,
331040540917052-index11414.png
#EXTINF:4.795500,
331040540917052-index11415.png
#EXTINF:4.795500,
331040540917052-index11416.png
#EXTINF:5.170800,
331040540917052-index11417.png
#EXTINF:4.795500,
331040540917052-index11418.png
#EXTINF:5.129100,
331040540917052-index11419.png
#EXTINF:4.795500,
331040540917052-index11420.png
#EXTINF:4.795500,
331040540917052-index11421.png
#EXTINF:5.504400,
331040540917052-index11422.png
#EXTINF:4.420200,
331040540917052-index11423.png
#EXTINF:5.129100,
331040540917052-index11424.png
#EXTINF:4.795500,
331040540917052-index11425.png
#EXTINF:5.337600,
331040540917052-index11426.png
#EXTINF:5.045700,
331040540917052-index11427.png
#EXTINF:4.878900,
331040540917052-index11428.png
#EXTINF:5.295900,
331040540917052-index11429.png
#EXTINF:4.962300,
331040540917052-index11430.png
#EXTINF:4.795500,
331040540917052-index11431.png
#EXTINF:4.795500,
331040540917052-index11432.png
#EXTINF:5.212500,
331040540917052-index11433.png
#EXTINF:4.795500,
331040540917052-index11434.png
#EXTINF:4.795500,
331040540917052-index11435.png
#EXTINF:5.879700,
331040540917052-index11436.png
#EXTINF:5.004000,
331040540917052-index11437.png
#EXTINF:4.795500,
331040540917052-index11438.png
#EXTINF:4.670400,
331040540917052-index11439.png
#EXTINF:4.962300,
331040540917052-index11440.png
#EXTINF:5.462700,
331040540917052-index11441.png
#EXTINF:5.004000,
331040540917052-index11442.png
#EXTINF:4.753800,
331040540917052-index11443.png
#EXTINF:5.004000,
331040540917052-index11444.png
#EXTINF:4.628700,
331040540917052-index11445.png
#EXTINF:5.295900,
331040540917052-index11446.png
#EXTINF:5.045700,
331040540917052-index11447.png
#EXTINF:4.712100,
331040540917052-index11448.png
#EXTINF:5.421000,
331040540917052-index11449.png
#EXTINF:4.670400,
331040540917052-index11450.png
#EXTINF:5.546100,
331040540917052-index11451.png
#EXTINF:4.920600,
331040540917052-index11452.png
#EXTINF:5.004000,
331040540917052-index11453.png
#EXTINF:4.795500,
331040540917052-index11454.png
#EXTINF:5.004000,
331040540917052-index11455.png
#EXTINF:4.795500,
331040540917052-index11456.png
#EXTINF:5.295900,
331040540917052-index11457.png
#EXTINF:4.837200,
331040540917052-index11458.png
#EXTINF:5.087400,
331040540917052-index11459.png
#EXTINF:4.837200,
331040540917052-index11460.png
#EXTINF:4.962300,
331040540917052-index11461.png
#EXTINF:4.587000,
331040540917052-index11462.png
#EXTINF:5.838000,
331040540917052-index11463.png
#EXTINF:4.461900,
331040540917052-index11464.png
#EXTINF:5.421000,
331040540917052-index11465.png
#EXTINF:4.878900,
331040540917052-index11466.png
#EXTINF:4.795500,
331040540917052-index11467.png
#EXTINF:4.795500,
331040540917052-index11468.png
#EXTINF:5.421000,
331040540917052-index11469.png
#EXTINF:4.795500,
331040540917052-index11470.png
#EXTINF:4.920600,
331040540917052-index11471.png
#EXTINF:4.712100,
331040540917052-index11472.png
#EXTINF:5.045700,
331040540917052-index11473.png
#EXTINF:5.796300,
331040540917052-index11474.png
#EXTINF:4.712100,
331040540917052-index11475.png
#EXTINF:4.962300,
331040540917052-index11476.png
#EXTINF:5.170800,
331040540917052-index11477.png
#EXTINF:5.004000,
331040540917052-index11478.png
#EXTINF:5.004000,
331040540917052-index11479.png
#EXTINF:4.253400,
331040540917052-index11480.png
#EXTINF:5.796300,
331040540917052-index11481.png
#EXTINF:4.461900,
331040540917052-index11482.png
#EXTINF:5.045700,
331040540917052-index11483.png
#EXTINF:5.629500,
331040540917052-index11484.png
#EXTINF:4.878900,
331040540917052-index11485.png
#EXTINF:4.753800,
331040540917052-index11486.png
#EXTINF:5.254200,
331040540917052-index11487.png
#EXTINF:4.795500,
331040540917052-index11488.png
#EXTINF:5.129100,
331040540917052-index11489.png
#EXTINF:4.378500,
331040540917052-index11490.png
#EXTINF:5.712900,
331040540917052-index11491.png
#EXTINF:1.376100,
331040540917052-index11492.png
#EXT-X-ENDLIST
