#EXTM3U
#EXT-X-VERSION:3
#EXT-X-TARGETDURATION:11
#EXT-X-MEDIA-SEQUENCE:10001
#EXTINF:7.434700,
334568210773997-index10001.png
#EXTINF:5.086900,
334568210773997-index10002.png
#EXTINF:6.608622,
334568210773997-index10003.png
#EXTINF:4.434733,
334568210773997-index10004.png
#EXTINF:8.043389,
334568210773997-index10005.png
#EXTINF:6.565144,
334568210773997-index10006.png
#EXTINF:6.260800,
334568210773997-index10007.png
#EXTINF:10.869444,
334568210773997-index10008.png
#EXTINF:7.869478,
334568210773997-index10009.png
#EXTINF:9.304244,
334568210773997-index10010.png
#EXTINF:10.347711,
334568210773997-index10011.png
#EXTINF:10.869444,
334568210773997-index10012.png
#EXTINF:10.869444,
334568210773997-index10013.png
#EXTINF:10.869444,
334568210773997-index10014.png
#EXTINF:3.043444,
334568210773997-index10015.png
#EXTINF:7.086878,
334568210773997-index10016.png
#EXTINF:8.608600,
334568210773997-index10017.png
#EXTINF:10.869444,
334568210773997-index10018.png
#EXTINF:5.956456,
334568210773997-index10019.png
#EXTINF:5.869500,
334568210773997-index10020.png
#EXTINF:9.652067,
334568210773997-index10021.png
#EXTINF:10.478144,
334568210773997-index10022.png
#EXTINF:6.391233,
334568210773997-index10023.png
#EXTINF:10.869444,
334568210773997-index10024.png
#EXTINF:5.304289,
334568210773997-index10025.png
#EXTINF:8.956422,
334568210773997-index10026.png
#EXTINF:7.739044,
334568210773997-index10027.png
#EXTINF:9.043378,
334568210773997-index10028.png
#EXTINF:7.086878,
334568210773997-index10029.png
#EXTINF:5.608633,
334568210773997-index10030.png
#EXTINF:8.608600,
334568210773997-index10031.png
#EXTINF:6.260800,
334568210773997-index10032.png
#EXTINF:10.869444,
334568210773997-index10033.png
#EXTINF:10.869444,
334568210773997-index10034.png
#EXTINF:6.434711,
334568210773997-index10035.png
#EXTINF:4.347778,
334568210773997-index10036.png
#EXTINF:9.260767,
334568210773997-index10037.png
#EXTINF:9.825978,
334568210773997-index10038.png
#EXTINF:10.869444,
334568210773997-index10039.png
#EXTINF:10.869444,
334568210773997-index10040.png
#EXTINF:10.347711,
334568210773997-index10041.png
#EXTINF:9.782500,
334568210773997-index10042.png
#EXTINF:10.869444,
334568210773997-index10043.png
#EXTINF:5.652111,
334568210773997-index10044.png
#EXTINF:3.521700,
334568210773997-index10045.png
#EXTINF:7.739044,
334568210773997-index10046.png
#EXTINF:10.608578,
334568210773997-index10047.png
#EXTINF:4.434733,
334568210773997-index10048.png
#EXTINF:3.739089,
334568210773997-index10049.png
#EXTINF:4.173867,
334568210773997-index10050.png
#EXTINF:3.739089,
334568210773997-index10051.png
#EXTINF:2.304322,
334568210773997-index10052.png
#EXTINF:10.869444,
334568210773997-index10053.png
#EXTINF:7.043400,
334568210773997-index10054.png
#EXTINF:10.869444,
334568210773997-index10055.png
#EXTINF:6.260800,
334568210773997-index10056.png
#EXTINF:9.956411,
334568210773997-index10057.png
#EXTINF:10.869444,
334568210773997-index10058.png
#EXTINF:10.869444,
334568210773997-index10059.png
#EXTINF:10.869444,
334568210773997-index10060.png
#EXTINF:10.869444,
334568210773997-index10061.png
#EXTINF:10.869444,
334568210773997-index10062.png
#EXTINF:10.869444,
334568210773997-index10063.png
#EXTINF:7.217311,
334568210773997-index10064.png
#EXT-X-ENDLIST
