#EXTM3U
#EXT-X-VERSION:3
#EXT-X-TARGETDURATION:6
#EXT-X-MEDIA-SEQUENCE:10001
#EXTINF:5.066667,
337435994711187-index10001.png
#EXTINF:0.300000,
337435994711187-index10002.png
#EXTINF:2.766667,
337435994711187-index10003.png
#EXTINF:2.000000,
337435994711187-index10004.png
#EXTINF:5.066667,
337435994711187-index10005.png
#EXTINF:5.066667,
337435994711187-index10006.png
#EXTINF:2.166667,
337435994711187-index10007.png
#EXTINF:2.500000,
337435994711187-index10008.png
#EXTINF:0.400000,
337435994711187-index10009.png
#EXTINF:0.466667,
337435994711187-index10010.png
#EXTINF:1.233333,
337435994711187-index10011.png
#EXTINF:0.166667,
337435994711187-index10012.png
#EXTINF:0.133333,
337435994711187-index10013.png
#EXTINF:3.066667,
337435994711187-index10014.png
#EXTINF:5.066667,
337435994711187-index10015.png
#EXTINF:5.066667,
337435994711187-index10016.png
#EXTINF:5.066667,
337435994711187-index10017.png
#EXTINF:5.066667,
337435994711187-index10018.png
#EXTINF:5.066667,
337435994711187-index10019.png
#EXTINF:5.066667,
337435994711187-index10020.png
#EXTINF:5.066667,
337435994711187-index10021.png
#EXTINF:5.066667,
337435994711187-index10022.png
#EXTINF:5.066667,
337435994711187-index10023.png
#EXTINF:5.066667,
337435994711187-index10024.png
#EXTINF:5.066667,
337435994711187-index10025.png
#EXTINF:5.066667,
337435994711187-index10026.png
#EXTINF:5.066667,
337435994711187-index10027.png
#EXTINF:5.066667,
337435994711187-index10028.png
#EXTINF:5.066667,
337435994711187-index10029.png
#EXTINF:5.066667,
337435994711187-index10030.png
#EXTINF:5.066667,
337435994711187-index10031.png
#EXTINF:5.066667,
337435994711187-index10032.png
#EXTINF:5.066667,
337435994711187-index10033.png
#EXTINF:5.066667,
337435994711187-index10034.png
#EXTINF:5.066667,
337435994711187-index10035.png
#EXTINF:3.066667,
337435994711187-index10036.png
#EXTINF:2.000000,
337435994711187-index10037.png
#EXTINF:5.066667,
337435994711187-index10038.png
#EXTINF:5.066667,
337435994711187-index10039.png
#EXTINF:5.066667,
337435994711187-index10040.png
#EXTINF:5.066667,
337435994711187-index10041.png
#EXTINF:0.300000,
337435994711187-index10042.png
#EXTINF:4.766667,
337435994711187-index10043.png
#EXTINF:5.066667,
337435994711187-index10044.png
#EXTINF:5.066667,
337435994711187-index10045.png
#EXTINF:5.066667,
337435994711187-index10046.png
#EXTINF:5.066667,
337435994711187-index10047.png
#EXTINF:5.066667,
337435994711187-index10048.png
#EXTINF:0.933333,
337435994711187-index10049.png
#EXTINF:0.666667,
337435994711187-index10050.png
#EXTINF:1.533333,
337435994711187-index10051.png
#EXTINF:1.933333,
337435994711187-index10052.png
#EXTINF:2.866667,
337435994711187-index10053.png
#EXTINF:0.433333,
337435994711187-index10054.png
#EXTINF:0.966667,
337435994711187-index10055.png
#EXTINF:0.800000,
337435994711187-index10056.png
#EXTINF:5.066667,
337435994711187-index10057.png
#EXTINF:5.066667,
337435994711187-index10058.png
#EXTINF:5.066667,
337435994711187-index10059.png
#EXTINF:5.066667,
337435994711187-index10060.png
#EXTINF:5.066667,
337435994711187-index10061.png
#EXTINF:5.066667,
337435994711187-index10062.png
#EXTINF:5.066667,
337435994711187-index10063.png
#EXTINF:5.066667,
337435994711187-index10064.png
#EXTINF:3.800000,
337435994711187-index10065.png
#EXTINF:1.266667,
337435994711187-index10066.png
#EXTINF:1.000000,
337435994711187-index10067.png
#EXTINF:2.933333,
337435994711187-index10068.png
#EXTINF:1.133333,
337435994711187-index10069.png
#EXTINF:2.066667,
337435994711187-index10070.png
#EXTINF:3.000000,
337435994711187-index10071.png
#EXTINF:1.666667,
337435994711187-index10072.png
#EXT-X-ENDLIST
