#EXTM3U
#EXT-X-VERSION:3
#EXT-X-TARGETDURATION:10
#EXT-X-MEDIA-SEQUENCE:10001
#EXTINF:2.600000,
338415161603026-index10001.png
#EXTINF:2.640000,
338415161603026-index10002.png
#EXTINF:5.360000,
338415161603026-index10003.png
#EXTINF:3.360000,
338415161603026-index10004.png
#EXTINF:2.360000,
338415161603026-index10005.png
#EXTINF:3.600000,
338415161603026-index10006.png
#EXTINF:2.840000,
338415161603026-index10007.png
#EXTINF:2.480000,
338415161603026-index10008.png
#EXTINF:1.800000,
338415161603026-index10009.png
#EXTINF:4.200000,
338415161603026-index10010.png
#EXTINF:2.920000,
338415161603026-index10011.png
#EXTINF:2.920000,
338415161603026-index10012.png
#EXTINF:1.640000,
338415161603026-index10013.png
#EXTINF:1.200000,
338415161603026-index10014.png
#EXTINF:3.440000,
338415161603026-index10015.png
#EXTINF:1.680000,
338415161603026-index10016.png
#EXTINF:4.280000,
338415161603026-index10017.png
#EXTINF:3.000000,
338415161603026-index10018.png
#EXTINF:1.800000,
338415161603026-index10019.png
#EXTINF:1.440000,
338415161603026-index10020.png
#EXTINF:1.040000,
338415161603026-index10021.png
#EXTINF:3.280000,
338415161603026-index10022.png
#EXTINF:1.240000,
338415161603026-index10023.png
#EXTINF:1.400000,
338415161603026-index10024.png
#EXTINF:2.680000,
338415161603026-index10025.png
#EXTINF:1.040000,
338415161603026-index10026.png
#EXTINF:2.320000,
338415161603026-index10027.png
#EXTINF:1.960000,
338415161603026-index10028.png
#EXTINF:4.000000,
338415161603026-index10029.png
#EXTINF:2.520000,
338415161603026-index10030.png
#EXTINF:2.640000,
338415161603026-index10031.png
#EXTINF:1.560000,
338415161603026-index10032.png
#EXTINF:1.200000,
338415161603026-index10033.png
#EXTINF:4.720000,
338415161603026-index10034.png
#EXTINF:6.760000,
338415161603026-index10035.png
#EXTINF:1.480000,
338415161603026-index10036.png
#EXTINF:9.640000,
338415161603026-index10037.png
#EXTINF:10.000000,
338415161603026-index10038.png
#EXTINF:4.440000,
338415161603026-index10039.png
#EXTINF:2.000000,
338415161603026-index10040.png
#EXTINF:1.200000,
338415161603026-index10041.png
#EXTINF:2.640000,
338415161603026-index10042.png
#EXTINF:2.040000,
338415161603026-index10043.png
#EXTINF:6.600000,
338415161603026-index10044.png
#EXTINF:1.000000,
338415161603026-index10045.png
#EXTINF:3.240000,
338415161603026-index10046.png
#EXTINF:1.200000,
338415161603026-index10047.png
#EXTINF:1.000000,
338415161603026-index10048.png
#EXTINF:1.040000,
338415161603026-index10049.png
#EXTINF:2.240000,
338415161603026-index10050.png
#EXTINF:3.040000,
338415161603026-index10051.png
#EXTINF:6.680000,
338415161603026-index10052.png
#EXTINF:5.480000,
338415161603026-index10053.png
#EXTINF:3.440000,
338415161603026-index10054.png
#EXTINF:1.960000,
338415161603026-index10055.png
#EXTINF:3.960000,
338415161603026-index10056.png
#EXTINF:4.720000,
338415161603026-index10057.png
#EXTINF:4.280000,
338415161603026-index10058.png
#EXTINF:4.960000,
338415161603026-index10059.png
#EXTINF:1.480000,
338415161603026-index10060.png
#EXTINF:1.480000,
338415161603026-index10061.png
#EXTINF:1.600000,
338415161603026-index10062.png
#EXTINF:1.800000,
338415161603026-index10063.png
#EXTINF:3.400000,
338415161603026-index10064.png
#EXTINF:2.600000,
338415161603026-index10065.png
#EXTINF:1.600000,
338415161603026-index10066.png
#EXTINF:2.440000,
338415161603026-index10067.png
#EXTINF:2.920000,
338415161603026-index10068.png
#EXTINF:2.040000,
338415161603026-index10069.png
#EXTINF:10.000000,
338415161603026-index10070.png
#EXTINF:5.640000,
338415161603026-index10071.png
#EXTINF:6.400000,
338415161603026-index10072.png
#EXTINF:5.560000,
338415161603026-index10073.png
#EXTINF:1.960000,
338415161603026-index10074.png
#EXTINF:8.880000,
338415161603026-index10075.png
#EXTINF:6.760000,
338415161603026-index10076.png
#EXTINF:10.000000,
338415161603026-index10077.png
#EXTINF:5.720000,
338415161603026-index10078.png
#EXTINF:2.640000,
338415161603026-index10079.png
#EXTINF:2.840000,
338415161603026-index10080.png
#EXTINF:2.760000,
338415161603026-index10081.png
#EXTINF:10.000000,
338415161603026-index10082.png
#EXTINF:10.000000,
338415161603026-index10083.png
#EXTINF:8.560000,
338415161603026-index10084.png
#EXTINF:2.440000,
338415161603026-index10085.png
#EXTINF:4.000000,
338415161603026-index10086.png
#EXTINF:2.840000,
338415161603026-index10087.png
#EXTINF:5.880000,
338415161603026-index10088.png
#EXTINF:2.400000,
338415161603026-index10089.png
#EXTINF:2.520000,
338415161603026-index10090.png
#EXTINF:4.600000,
338415161603026-index10091.png
#EXTINF:2.880000,
338415161603026-index10092.png
#EXTINF:1.600000,
338415161603026-index10093.png
#EXTINF:1.000000,
338415161603026-index10094.png
#EXTINF:1.400000,
338415161603026-index10095.png
#EXTINF:1.800000,
338415161603026-index10096.png
#EXTINF:2.240000,
338415161603026-index10097.png
#EXTINF:6.040000,
338415161603026-index10098.png
#EXTINF:2.600000,
338415161603026-index10099.png
#EXTINF:2.320000,
338415161603026-index10100.png
#EXTINF:1.600000,
338415161603026-index10101.png
#EXTINF:2.400000,
338415161603026-index10102.png
#EXTINF:5.360000,
338415161603026-index10103.png
#EXTINF:2.120000,
338415161603026-index10104.png
#EXTINF:3.720000,
338415161603026-index10105.png
#EXTINF:9.440000,
338415161603026-index10106.png
#EXTINF:6.760000,
338415161603026-index10107.png
#EXTINF:1.920000,
338415161603026-index10108.png
#EXTINF:2.440000,
338415161603026-index10109.png
#EXTINF:3.320000,
338415161603026-index10110.png
#EXTINF:3.960000,
338415161603026-index10111.png
#EXTINF:1.880000,
338415161603026-index10112.png
#EXTINF:2.560000,
338415161603026-index10113.png
#EXTINF:2.680000,
338415161603026-index10114.png
#EXTINF:2.840000,
338415161603026-index10115.png
#EXTINF:4.080000,
338415161603026-index10116.png
#EXTINF:2.400000,
338415161603026-index10117.png
#EXTINF:8.840000,
338415161603026-index10118.png
#EXTINF:4.600000,
338415161603026-index10119.png
#EXTINF:3.760000,
338415161603026-index10120.png
#EXTINF:7.600000,
338415161603026-index10121.png
#EXTINF:6.200000,
338415161603026-index10122.png
#EXTINF:2.400000,
338415161603026-index10123.png
#EXTINF:1.440000,
338415161603026-index10124.png
#EXTINF:2.080000,
338415161603026-index10125.png
#EXTINF:2.320000,
338415161603026-index10126.png
#EXTINF:2.480000,
338415161603026-index10127.png
#EXTINF:2.640000,
338415161603026-index10128.png
#EXTINF:1.680000,
338415161603026-index10129.png
#EXTINF:1.240000,
338415161603026-index10130.png
#EXTINF:1.560000,
338415161603026-index10131.png
#EXTINF:1.840000,
338415161603026-index10132.png
#EXTINF:5.960000,
338415161603026-index10133.png
#EXTINF:3.720000,
338415161603026-index10134.png
#EXTINF:4.720000,
338415161603026-index10135.png
#EXTINF:1.400000,
338415161603026-index10136.png
#EXTINF:1.240000,
338415161603026-index10137.png
#EXTINF:2.320000,
338415161603026-index10138.png
#EXTINF:1.920000,
338415161603026-index10139.png
#EXTINF:1.200000,
338415161603026-index10140.png
#EXTINF:1.400000,
338415161603026-index10141.png
#EXTINF:1.680000,
338415161603026-index10142.png
#EXTINF:1.560000,
338415161603026-index10143.png
#EXTINF:1.480000,
338415161603026-index10144.png
#EXTINF:2.880000,
338415161603026-index10145.png
#EXTINF:1.880000,
338415161603026-index10146.png
#EXTINF:1.200000,
338415161603026-index10147.png
#EXTINF:4.600000,
338415161603026-index10148.png
#EXTINF:1.160000,
338415161603026-index10149.png
#EXTINF:2.600000,
338415161603026-index10150.png
#EXTINF:1.160000,
338415161603026-index10151.png
#EXTINF:1.560000,
338415161603026-index10152.png
#EXTINF:1.200000,
338415161603026-index10153.png
#EXTINF:1.800000,
338415161603026-index10154.png
#EXTINF:2.360000,
338415161603026-index10155.png
#EXTINF:2.360000,
338415161603026-index10156.png
#EXTINF:1.560000,
338415161603026-index10157.png
#EXTINF:2.360000,
338415161603026-index10158.png
#EXTINF:2.080000,
338415161603026-index10159.png
#EXTINF:1.600000,
338415161603026-index10160.png
#EXTINF:1.160000,
338415161603026-index10161.png
#EXTINF:1.160000,
338415161603026-index10162.png
#EXTINF:1.800000,
338415161603026-index10163.png
#EXTINF:3.720000,
338415161603026-index10164.png
#EXTINF:2.560000,
338415161603026-index10165.png
#EXTINF:1.240000,
338415161603026-index10166.png
#EXTINF:2.800000,
338415161603026-index10167.png
#EXTINF:1.280000,
338415161603026-index10168.png
#EXTINF:3.520000,
338415161603026-index10169.png
#EXTINF:4.760000,
338415161603026-index10170.png
#EXTINF:1.320000,
338415161603026-index10171.png
#EXTINF:1.440000,
338415161603026-index10172.png
#EXTINF:1.280000,
338415161603026-index10173.png
#EXTINF:1.720000,
338415161603026-index10174.png
#EXTINF:1.800000,
338415161603026-index10175.png
#EXTINF:1.200000,
338415161603026-index10176.png
#EXTINF:1.120000,
338415161603026-index10177.png
#EXTINF:1.240000,
338415161603026-index10178.png
#EXTINF:4.320000,
338415161603026-index10179.png
#EXTINF:2.840000,
338415161603026-index10180.png
#EXTINF:8.440000,
338415161603026-index10181.png
#EXTINF:1.480000,
338415161603026-index10182.png
#EXTINF:3.480000,
338415161603026-index10183.png
#EXTINF:1.360000,
338415161603026-index10184.png
#EXTINF:5.720000,
338415161603026-index10185.png
#EXTINF:2.440000,
338415161603026-index10186.png
#EXTINF:3.280000,
338415161603026-index10187.png
#EXTINF:8.720000,
338415161603026-index10188.png
#EXTINF:8.920000,
338415161603026-index10189.png
#EXTINF:1.320000,
338415161603026-index10190.png
#EXTINF:3.160000,
338415161603026-index10191.png
#EXTINF:2.840000,
338415161603026-index10192.png
#EXTINF:6.480000,
338415161603026-index10193.png
#EXTINF:3.280000,
338415161603026-index10194.png
#EXTINF:2.320000,
338415161603026-index10195.png
#EXTINF:2.720000,
338415161603026-index10196.png
#EXTINF:2.880000,
338415161603026-index10197.png
#EXTINF:1.440000,
338415161603026-index10198.png
#EXTINF:1.840000,
338415161603026-index10199.png
#EXTINF:1.760000,
338415161603026-index10200.png
#EXTINF:5.160000,
338415161603026-index10201.png
#EXTINF:1.400000,
338415161603026-index10202.png
#EXTINF:1.480000,
338415161603026-index10203.png
#EXTINF:5.320000,
338415161603026-index10204.png
#EXTINF:8.680000,
338415161603026-index10205.png
#EXTINF:1.160000,
338415161603026-index10206.png
#EXTINF:4.800000,
338415161603026-index10207.png
#EXTINF:5.200000,
338415161603026-index10208.png
#EXTINF:4.920000,
338415161603026-index10209.png
#EXTINF:1.080000,
338415161603026-index10210.png
#EXTINF:8.280000,
338415161603026-index10211.png
#EXTINF:4.920000,
338415161603026-index10212.png
#EXTINF:3.040000,
338415161603026-index10213.png
#EXTINF:4.000000,
338415161603026-index10214.png
#EXTINF:1.920000,
338415161603026-index10215.png
#EXTINF:3.800000,
338415161603026-index10216.png
#EXTINF:1.480000,
338415161603026-index10217.png
#EXTINF:3.800000,
338415161603026-index10218.png
#EXTINF:1.320000,
338415161603026-index10219.png
#EXTINF:3.280000,
338415161603026-index10220.png
#EXT-X-ENDLIST
