#EXTM3U
#EXT-X-VERSION:3
#EXT-X-TARGETDURATION:7
#EXT-X-MEDIA-SEQUENCE:10001
#EXTINF:3.000000,
344405999200211-index10001.ts
#EXTINF:2.080000,
344405999200211-index10002.ts
#EXTINF:1.880000,
344405999200211-index10003.ts
#EXTINF:3.240000,
344405999200211-index10004.ts
#EXTINF:5.120000,
344405999200211-index10005.ts
#EXTINF:4.480000,
344405999200211-index10006.ts
#EXTINF:0.480000,
344405999200211-index10007.ts
#EXTINF:0.040000,
344405999200211-index10008.ts
#EXTINF:0.120000,
344405999200211-index10009.ts
#EXTINF:1.680000,
344405999200211-index10010.ts
#EXTINF:0.040000,
344405999200211-index10011.ts
#EXTINF:2.920000,
344405999200211-index10012.ts
#EXTINF:2.320000,
344405999200211-index10013.ts
#EXTINF:2.800000,
344405999200211-index10014.ts
#EXTINF:0.040000,
344405999200211-index10015.ts
#EXTINF:5.000000,
344405999200211-index10016.ts
#EXTINF:0.560000,
344405999200211-index10017.ts
#EXTINF:4.440000,
344405999200211-index10018.ts
#EXTINF:0.040000,
344405999200211-index10019.ts
#EXTINF:0.040000,
344405999200211-index10020.ts
#EXTINF:5.720000,
344405999200211-index10021.ts
#EXTINF:0.080000,
344405999200211-index10022.ts
#EXTINF:4.040000,
344405999200211-index10023.ts
#EXTINF:0.080000,
344405999200211-index10024.ts
#EXTINF:0.040000,
344405999200211-index10025.ts
#EXTINF:2.560000,
344405999200211-index10026.ts
#EXTINF:3.440000,
344405999200211-index10027.ts
#EXTINF:3.600000,
344405999200211-index10028.ts
#EXTINF:1.520000,
344405999200211-index10029.ts
#EXTINF:1.200000,
344405999200211-index10030.ts
#EXTINF:0.040000,
344405999200211-index10031.ts
#EXTINF:3.880000,
344405999200211-index10032.ts
#EXTINF:0.400000,
344405999200211-index10033.ts
#EXTINF:1.280000,
344405999200211-index10034.ts
#EXTINF:1.960000,
344405999200211-index10035.ts
#EXTINF:2.080000,
344405999200211-index10036.ts
#EXTINF:1.960000,
344405999200211-index10037.ts
#EXTINF:2.200000,
344405999200211-index10038.ts
#EXTINF:2.840000,
344405999200211-index10039.ts
#EXTINF:1.200000,
344405999200211-index10040.ts
#EXTINF:5.200000,
344405999200211-index10041.ts
#EXTINF:0.040000,
344405999200211-index10042.ts
#EXTINF:0.320000,
344405999200211-index10043.ts
#EXTINF:6.120000,
344405999200211-index10044.ts
#EXTINF:1.720000,
344405999200211-index10045.ts
#EXTINF:0.080000,
344405999200211-index10046.ts
#EXTINF:0.080000,
344405999200211-index10047.ts
#EXTINF:2.000000,
344405999200211-index10048.ts
#EXTINF:2.680000,
344405999200211-index10049.ts
#EXTINF:1.720000,
344405999200211-index10050.ts
#EXTINF:1.720000,
344405999200211-index10051.ts
#EXTINF:2.800000,
344405999200211-index10052.ts
#EXTINF:1.840000,
344405999200211-index10053.ts
#EXTINF:2.160000,
344405999200211-index10054.ts
#EXTINF:3.680000,
344405999200211-index10055.ts
#EXTINF:3.680000,
344405999200211-index10056.ts
#EXTINF:1.440000,
344405999200211-index10057.ts
#EXTINF:5.120000,
344405999200211-index10058.ts
#EXTINF:5.120000,
344405999200211-index10059.ts
#EXTINF:0.440000,
344405999200211-index10060.ts
#EXTINF:1.160000,
344405999200211-index10061.ts
#EXTINF:1.280000,
344405999200211-index10062.ts
#EXTINF:1.640000,
344405999200211-index10063.ts
#EXTINF:0.600000,
344405999200211-index10064.ts
#EXTINF:1.440000,
344405999200211-index10065.ts
#EXTINF:0.960000,
344405999200211-index10066.ts
#EXTINF:2.000000,
344405999200211-index10067.ts
#EXTINF:0.200000,
344405999200211-index10068.ts
#EXTINF:0.320000,
344405999200211-index10069.ts
#EXTINF:2.040000,
344405999200211-index10070.ts
#EXTINF:2.120000,
344405999200211-index10071.ts
#EXTINF:2.440000,
344405999200211-index10072.ts
#EXTINF:2.440000,
344405999200211-index10073.ts
#EXTINF:1.400000,
344405999200211-index10074.ts
#EXTINF:3.400000,
344405999200211-index10075.ts
#EXTINF:1.720000,
344405999200211-index10076.ts
#EXTINF:1.920000,
344405999200211-index10077.ts
#EXTINF:3.200000,
344405999200211-index10078.ts
#EXTINF:0.320000,
344405999200211-index10079.ts
#EXTINF:1.800000,
344405999200211-index10080.ts
#EXTINF:1.480000,
344405999200211-index10081.ts
#EXTINF:4.760000,
344405999200211-index10082.ts
#EXTINF:1.000000,
344405999200211-index10083.ts
#EXTINF:0.880000,
344405999200211-index10084.ts
#EXTINF:4.920000,
344405999200211-index10085.ts
#EXTINF:0.080000,
344405999200211-index10086.ts
#EXTINF:0.120000,
344405999200211-index10087.ts
#EXTINF:3.200000,
344405999200211-index10088.ts
#EXTINF:1.120000,
344405999200211-index10089.ts
#EXTINF:1.840000,
344405999200211-index10090.ts
#EXTINF:2.800000,
344405999200211-index10091.ts
#EXTINF:1.280000,
344405999200211-index10092.ts
#EXTINF:3.480000,
344405999200211-index10093.ts
#EXTINF:1.640000,
344405999200211-index10094.ts
#EXTINF:1.480000,
344405999200211-index10095.ts
#EXTINF:2.320000,
344405999200211-index10096.ts
#EXTINF:1.320000,
344405999200211-index10097.ts
#EXTINF:2.480000,
344405999200211-index10098.ts
#EXTINF:1.680000,
344405999200211-index10099.ts
#EXTINF:2.920000,
344405999200211-index10100.ts
#EXTINF:1.800000,
344405999200211-index10101.ts
#EXTINF:0.800000,
344405999200211-index10102.ts
#EXTINF:2.000000,
344405999200211-index10103.ts
#EXTINF:2.800000,
344405999200211-index10104.ts
#EXTINF:1.400000,
344405999200211-index10105.ts
#EXTINF:1.600000,
344405999200211-index10106.ts
#EXTINF:2.320000,
344405999200211-index10107.ts
#EXTINF:2.600000,
344405999200211-index10108.ts
#EXTINF:3.200000,
344405999200211-index10109.ts
#EXTINF:1.440000,
344405999200211-index10110.ts
#EXTINF:1.720000,
344405999200211-index10111.ts
#EXTINF:1.960000,
344405999200211-index10112.ts
#EXTINF:5.120000,
344405999200211-index10113.ts
#EXTINF:0.520000,
344405999200211-index10114.ts
#EXTINF:3.000000,
344405999200211-index10115.ts
#EXTINF:1.200000,
344405999200211-index10116.ts
#EXTINF:0.400000,
344405999200211-index10117.ts
#EXTINF:1.480000,
344405999200211-index10118.ts
#EXTINF:1.880000,
344405999200211-index10119.ts
#EXTINF:1.760000,
344405999200211-index10120.ts
#EXTINF:1.480000,
344405999200211-index10121.ts
#EXTINF:3.640000,
344405999200211-index10122.ts
#EXTINF:0.960000,
344405999200211-index10123.ts
#EXTINF:1.360000,
344405999200211-index10124.ts
#EXTINF:2.800000,
344405999200211-index10125.ts
#EXTINF:1.880000,
344405999200211-index10126.ts
#EXTINF:3.240000,
344405999200211-index10127.ts
#EXTINF:1.160000,
344405999200211-index10128.ts
#EXTINF:1.600000,
344405999200211-index10129.ts
#EXTINF:2.200000,
344405999200211-index10130.ts
#EXTINF:1.160000,
344405999200211-index10131.ts
#EXTINF:2.600000,
344405999200211-index10132.ts
#EXTINF:1.520000,
344405999200211-index10133.ts
#EXTINF:2.440000,
344405999200211-index10134.ts
#EXTINF:2.280000,
344405999200211-index10135.ts
#EXTINF:1.240000,
344405999200211-index10136.ts
#EXTINF:2.440000,
344405999200211-index10137.ts
#EXTINF:1.840000,
344405999200211-index10138.ts
#EXTINF:3.160000,
344405999200211-index10139.ts
#EXTINF:1.960000,
344405999200211-index10140.ts
#EXTINF:0.640000,
344405999200211-index10141.ts
#EXTINF:3.680000,
344405999200211-index10142.ts
#EXTINF:0.800000,
344405999200211-index10143.ts
#EXTINF:3.800000,
344405999200211-index10144.ts
#EXTINF:1.320000,
344405999200211-index10145.ts
#EXTINF:0.480000,
344405999200211-index10146.ts
#EXTINF:1.720000,
344405999200211-index10147.ts
#EXTINF:2.920000,
344405999200211-index10148.ts
#EXTINF:1.720000,
344405999200211-index10149.ts
#EXTINF:2.560000,
344405999200211-index10150.ts
#EXTINF:0.840000,
344405999200211-index10151.ts
#EXTINF:3.200000,
344405999200211-index10152.ts
#EXTINF:0.760000,
344405999200211-index10153.ts
#EXTINF:3.280000,
344405999200211-index10154.ts
#EXTINF:1.720000,
344405999200211-index10155.ts
#EXTINF:1.000000,
344405999200211-index10156.ts
#EXTINF:5.400000,
344405999200211-index10157.ts
#EXTINF:0.640000,
344405999200211-index10158.ts
#EXTINF:2.000000,
344405999200211-index10159.ts
#EXTINF:2.160000,
344405999200211-index10160.ts
#EXTINF:0.320000,
344405999200211-index10161.ts
#EXTINF:2.000000,
344405999200211-index10162.ts
#EXTINF:2.240000,
344405999200211-index10163.ts
#EXTINF:4.360000,
344405999200211-index10164.ts
#EXTINF:1.640000,
344405999200211-index10165.ts
#EXTINF:0.640000,
344405999200211-index10166.ts
#EXTINF:2.160000,
344405999200211-index10167.ts
#EXTINF:2.320000,
344405999200211-index10168.ts
#EXTINF:0.880000,
344405999200211-index10169.ts
#EXTINF:1.840000,
344405999200211-index10170.ts
#EXTINF:2.400000,
344405999200211-index10171.ts
#EXTINF:4.840000,
344405999200211-index10172.ts
#EXTINF:0.280000,
344405999200211-index10173.ts
#EXTINF:5.120000,
344405999200211-index10174.ts
#EXTINF:3.880000,
344405999200211-index10175.ts
#EXTINF:1.240000,
344405999200211-index10176.ts
#EXTINF:4.760000,
344405999200211-index10177.ts
#EXTINF:0.360000,
344405999200211-index10178.ts
#EXTINF:2.920000,
344405999200211-index10179.ts
#EXTINF:2.200000,
344405999200211-index10180.ts
#EXTINF:3.400000,
344405999200211-index10181.ts
#EXTINF:1.720000,
344405999200211-index10182.ts
#EXTINF:0.160000,
344405999200211-index10183.ts
#EXTINF:4.120000,
344405999200211-index10184.ts
#EXTINF:0.840000,
344405999200211-index10185.ts
#EXTINF:2.960000,
344405999200211-index10186.ts
#EXTINF:2.160000,
344405999200211-index10187.ts
#EXTINF:0.160000,
344405999200211-index10188.ts
#EXTINF:4.960000,
344405999200211-index10189.ts
#EXTINF:0.040000,
344405999200211-index10190.ts
#EXTINF:1.200000,
344405999200211-index10191.ts
#EXTINF:2.800000,
344405999200211-index10192.ts
#EXTINF:1.080000,
344405999200211-index10193.ts
#EXTINF:5.120000,
344405999200211-index10194.ts
#EXTINF:5.120000,
344405999200211-index10195.ts
#EXTINF:3.600000,
344405999200211-index10196.ts
#EXTINF:1.520000,
344405999200211-index10197.ts
#EXTINF:1.760000,
344405999200211-index10198.ts
#EXTINF:1.400000,
344405999200211-index10199.ts
#EXTINF:0.040000,
344405999200211-index10200.ts
#EXTINF:0.120000,
344405999200211-index10201.ts
#EXTINF:0.040000,
344405999200211-index10202.ts
#EXTINF:1.400000,
344405999200211-index10203.ts
#EXTINF:0.360000,
344405999200211-index10204.ts
#EXTINF:3.440000,
344405999200211-index10205.ts
#EXTINF:1.680000,
344405999200211-index10206.ts
#EXTINF:5.120000,
344405999200211-index10207.ts
#EXTINF:2.080000,
344405999200211-index10208.ts
#EXTINF:3.040000,
344405999200211-index10209.ts
#EXTINF:3.280000,
344405999200211-index10210.ts
#EXTINF:1.840000,
344405999200211-index10211.ts
#EXTINF:5.120000,
344405999200211-index10212.ts
#EXTINF:0.560000,
344405999200211-index10213.ts
#EXTINF:4.560000,
344405999200211-index10214.ts
#EXTINF:4.320000,
344405999200211-index10215.ts
#EXTINF:0.800000,
344405999200211-index10216.ts
#EXTINF:5.120000,
344405999200211-index10217.ts
#EXTINF:5.120000,
344405999200211-index10218.ts
#EXTINF:3.560000,
344405999200211-index10219.ts
#EXTINF:1.560000,
344405999200211-index10220.ts
#EXTINF:5.120000,
344405999200211-index10221.ts
#EXTINF:4.840000,
344405999200211-index10222.ts
#EXTINF:0.280000,
344405999200211-index10223.ts
#EXTINF:3.720000,
344405999200211-index10224.ts
#EXTINF:1.400000,
344405999200211-index10225.ts
#EXTINF:2.920000,
344405999200211-index10226.ts
#EXTINF:2.200000,
344405999200211-index10227.ts
#EXTINF:5.120000,
344405999200211-index10228.ts
#EXTINF:5.120000,
344405999200211-index10229.ts
#EXTINF:2.120000,
344405999200211-index10230.ts
#EXTINF:3.000000,
344405999200211-index10231.ts
#EXTINF:3.240000,
344405999200211-index10232.ts
#EXTINF:1.600000,
344405999200211-index10233.ts
#EXTINF:0.280000,
344405999200211-index10234.ts
#EXTINF:5.120000,
344405999200211-index10235.ts
#EXTINF:5.120000,
344405999200211-index10236.ts
#EXTINF:0.040000,
344405999200211-index10237.ts
#EXTINF:0.040000,
344405999200211-index10238.ts
#EXTINF:3.880000,
344405999200211-index10239.ts
#EXTINF:1.160000,
344405999200211-index10240.ts
#EXTINF:3.800000,
344405999200211-index10241.ts
#EXTINF:1.320000,
344405999200211-index10242.ts
#EXTINF:0.080000,
344405999200211-index10243.ts
#EXTINF:1.000000,
344405999200211-index10244.ts
#EXTINF:0.800000,
344405999200211-index10245.ts
#EXTINF:0.600000,
344405999200211-index10246.ts
#EXTINF:0.320000,
344405999200211-index10247.ts
#EXTINF:0.400000,
344405999200211-index10248.ts
#EXTINF:1.920000,
344405999200211-index10249.ts
#EXTINF:0.480000,
344405999200211-index10250.ts
#EXTINF:4.640000,
344405999200211-index10251.ts
#EXTINF:5.120000,
344405999200211-index10252.ts
#EXTINF:3.840000,
344405999200211-index10253.ts
#EXTINF:1.280000,
344405999200211-index10254.ts
#EXTINF:2.680000,
344405999200211-index10255.ts
#EXTINF:1.760000,
344405999200211-index10256.ts
#EXTINF:0.680000,
344405999200211-index10257.ts
#EXTINF:5.120000,
344405999200211-index10258.ts
#EXTINF:1.800000,
344405999200211-index10259.ts
#EXTINF:3.320000,
344405999200211-index10260.ts
#EXTINF:3.200000,
344405999200211-index10261.ts
#EXTINF:1.920000,
344405999200211-index10262.ts
#EXTINF:0.760000,
344405999200211-index10263.ts
#EXTINF:4.360000,
344405999200211-index10264.ts
#EXTINF:1.840000,
344405999200211-index10265.ts
#EXTINF:0.840000,
344405999200211-index10266.ts
#EXTINF:0.040000,
344405999200211-index10267.ts
#EXTINF:0.040000,
344405999200211-index10268.ts
#EXTINF:0.040000,
344405999200211-index10269.ts
#EXTINF:0.040000,
344405999200211-index10270.ts
#EXTINF:0.040000,
344405999200211-index10271.ts
#EXTINF:0.040000,
344405999200211-index10272.ts
#EXTINF:0.040000,
344405999200211-index10273.ts
#EXTINF:1.000000,
344405999200211-index10274.ts
#EXTINF:1.160000,
344405999200211-index10275.ts
#EXTINF:5.120000,
344405999200211-index10276.ts
#EXTINF:5.120000,
344405999200211-index10277.ts
#EXTINF:0.560000,
344405999200211-index10278.ts
#EXTINF:4.560000,
344405999200211-index10279.ts
#EXTINF:2.200000,
344405999200211-index10280.ts
#EXTINF:1.480000,
344405999200211-index10281.ts
#EXTINF:1.440000,
344405999200211-index10282.ts
#EXTINF:4.760000,
344405999200211-index10283.ts
#EXTINF:0.360000,
344405999200211-index10284.ts
#EXTINF:5.120000,
344405999200211-index10285.ts
#EXTINF:2.520000,
344405999200211-index10286.ts
#EXTINF:1.040000,
344405999200211-index10287.ts
#EXTINF:1.560000,
344405999200211-index10288.ts
#EXTINF:2.040000,
344405999200211-index10289.ts
#EXTINF:0.800000,
344405999200211-index10290.ts
#EXTINF:2.280000,
344405999200211-index10291.ts
#EXTINF:5.120000,
344405999200211-index10292.ts
#EXTINF:0.200000,
344405999200211-index10293.ts
#EXTINF:1.520000,
344405999200211-index10294.ts
#EXTINF:0.960000,
344405999200211-index10295.ts
#EXTINF:2.440000,
344405999200211-index10296.ts
#EXTINF:2.360000,
344405999200211-index10297.ts
#EXTINF:2.760000,
344405999200211-index10298.ts
#EXTINF:2.480000,
344405999200211-index10299.ts
#EXTINF:2.640000,
344405999200211-index10300.ts
#EXTINF:4.120000,
344405999200211-index10301.ts
#EXTINF:1.000000,
344405999200211-index10302.ts
#EXTINF:5.120000,
344405999200211-index10303.ts
#EXTINF:4.320000,
344405999200211-index10304.ts
#EXTINF:0.800000,
344405999200211-index10305.ts
#EXTINF:4.200000,
344405999200211-index10306.ts
#EXTINF:0.920000,
344405999200211-index10307.ts
#EXTINF:1.160000,
344405999200211-index10308.ts
#EXTINF:2.600000,
344405999200211-index10309.ts
#EXTINF:1.360000,
344405999200211-index10310.ts
#EXTINF:0.280000,
344405999200211-index10311.ts
#EXTINF:3.200000,
344405999200211-index10312.ts
#EXTINF:1.640000,
344405999200211-index10313.ts
#EXTINF:3.560000,
344405999200211-index10314.ts
#EXTINF:1.560000,
344405999200211-index10315.ts
#EXTINF:1.040000,
344405999200211-index10316.ts
#EXTINF:1.520000,
344405999200211-index10317.ts
#EXTINF:1.120000,
344405999200211-index10318.ts
#EXTINF:0.560000,
344405999200211-index10319.ts
#EXTINF:0.880000,
344405999200211-index10320.ts
#EXTINF:1.160000,
344405999200211-index10321.ts
#EXTINF:3.960000,
344405999200211-index10322.ts
#EXTINF:5.120000,
344405999200211-index10323.ts
#EXTINF:0.560000,
344405999200211-index10324.ts
#EXTINF:4.560000,
344405999200211-index10325.ts
#EXTINF:2.680000,
344405999200211-index10326.ts
#EXTINF:2.440000,
344405999200211-index10327.ts
#EXTINF:0.200000,
344405999200211-index10328.ts
#EXTINF:4.200000,
344405999200211-index10329.ts
#EXTINF:0.720000,
344405999200211-index10330.ts
#EXTINF:5.120000,
344405999200211-index10331.ts
#EXTINF:0.200000,
344405999200211-index10332.ts
#EXTINF:4.560000,
344405999200211-index10333.ts
#EXTINF:0.360000,
344405999200211-index10334.ts
#EXTINF:4.280000,
344405999200211-index10335.ts
#EXTINF:0.840000,
344405999200211-index10336.ts
#EXTINF:0.040000,
344405999200211-index10337.ts
#EXTINF:4.800000,
344405999200211-index10338.ts
#EXTINF:0.280000,
344405999200211-index10339.ts
#EXTINF:2.320000,
344405999200211-index10340.ts
#EXTINF:1.560000,
344405999200211-index10341.ts
#EXTINF:1.240000,
344405999200211-index10342.ts
#EXTINF:3.080000,
344405999200211-index10343.ts
#EXTINF:2.040000,
344405999200211-index10344.ts
#EXTINF:5.120000,
344405999200211-index10345.ts
#EXTINF:5.120000,
344405999200211-index10346.ts
#EXTINF:2.560000,
344405999200211-index10347.ts
#EXTINF:2.560000,
344405999200211-index10348.ts
#EXTINF:2.080000,
344405999200211-index10349.ts
#EXTINF:3.040000,
344405999200211-index10350.ts
#EXTINF:0.400000,
344405999200211-index10351.ts
#EXTINF:4.400000,
344405999200211-index10352.ts
#EXTINF:0.320000,
344405999200211-index10353.ts
#EXTINF:1.080000,
344405999200211-index10354.ts
#EXTINF:2.000000,
344405999200211-index10355.ts
#EXTINF:2.040000,
344405999200211-index10356.ts
#EXTINF:0.200000,
344405999200211-index10357.ts
#EXTINF:1.800000,
344405999200211-index10358.ts
#EXTINF:2.360000,
344405999200211-index10359.ts
#EXTINF:0.760000,
344405999200211-index10360.ts
#EXTINF:5.120000,
344405999200211-index10361.ts
#EXTINF:0.200000,
344405999200211-index10362.ts
#EXTINF:3.880000,
344405999200211-index10363.ts
#EXTINF:0.920000,
344405999200211-index10364.ts
#EXTINF:0.120000,
344405999200211-index10365.ts
#EXTINF:3.160000,
344405999200211-index10366.ts
#EXTINF:1.960000,
344405999200211-index10367.ts
#EXTINF:1.600000,
344405999200211-index10368.ts
#EXTINF:0.560000,
344405999200211-index10369.ts
#EXTINF:0.800000,
344405999200211-index10370.ts
#EXTINF:2.160000,
344405999200211-index10371.ts
#EXTINF:4.440000,
344405999200211-index10372.ts
#EXTINF:0.680000,
344405999200211-index10373.ts
#EXTINF:5.120000,
344405999200211-index10374.ts
#EXTINF:1.000000,
344405999200211-index10375.ts
#EXTINF:3.200000,
344405999200211-index10376.ts
#EXTINF:0.920000,
344405999200211-index10377.ts
#EXTINF:1.000000,
344405999200211-index10378.ts
#EXTINF:3.640000,
344405999200211-index10379.ts
#EXTINF:0.480000,
344405999200211-index10380.ts
#EXTINF:0.720000,
344405999200211-index10381.ts
#EXTINF:1.840000,
344405999200211-index10382.ts
#EXTINF:0.880000,
344405999200211-index10383.ts
#EXTINF:1.680000,
344405999200211-index10384.ts
#EXTINF:0.680000,
344405999200211-index10385.ts
#EXTINF:4.440000,
344405999200211-index10386.ts
#EXTINF:1.560000,
344405999200211-index10387.ts
#EXTINF:3.560000,
344405999200211-index10388.ts
#EXTINF:2.640000,
344405999200211-index10389.ts
#EXTINF:2.480000,
344405999200211-index10390.ts
#EXTINF:5.120000,
344405999200211-index10391.ts
#EXTINF:0.200000,
344405999200211-index10392.ts
#EXTINF:3.680000,
344405999200211-index10393.ts
#EXTINF:1.240000,
344405999200211-index10394.ts
#EXTINF:5.120000,
344405999200211-index10395.ts
#EXTINF:0.080000,
344405999200211-index10396.ts
#EXTINF:4.200000,
344405999200211-index10397.ts
#EXTINF:0.840000,
344405999200211-index10398.ts
#EXTINF:5.120000,
344405999200211-index10399.ts
#EXTINF:0.120000,
344405999200211-index10400.ts
#EXTINF:1.920000,
344405999200211-index10401.ts
#EXTINF:0.880000,
344405999200211-index10402.ts
#EXTINF:0.720000,
344405999200211-index10403.ts
#EXTINF:1.480000,
344405999200211-index10404.ts
#EXTINF:0.520000,
344405999200211-index10405.ts
#EXTINF:4.000000,
344405999200211-index10406.ts
#EXTINF:0.600000,
344405999200211-index10407.ts
#EXTINF:5.120000,
344405999200211-index10408.ts
#EXTINF:5.120000,
344405999200211-index10409.ts
#EXTINF:3.760000,
344405999200211-index10410.ts
#EXTINF:1.360000,
344405999200211-index10411.ts
#EXTINF:1.160000,
344405999200211-index10412.ts
#EXTINF:3.200000,
344405999200211-index10413.ts
#EXTINF:0.760000,
344405999200211-index10414.ts
#EXTINF:2.240000,
344405999200211-index10415.ts
#EXTINF:2.880000,
344405999200211-index10416.ts
#EXTINF:0.320000,
344405999200211-index10417.ts
#EXTINF:4.800000,
344405999200211-index10418.ts
#EXTINF:5.120000,
344405999200211-index10419.ts
#EXTINF:0.240000,
344405999200211-index10420.ts
#EXTINF:4.880000,
344405999200211-index10421.ts
#EXTINF:3.600000,
344405999200211-index10422.ts
#EXTINF:1.520000,
344405999200211-index10423.ts
#EXTINF:1.600000,
344405999200211-index10424.ts
#EXTINF:1.440000,
344405999200211-index10425.ts
#EXTINF:0.680000,
344405999200211-index10426.ts
#EXTINF:0.520000,
344405999200211-index10427.ts
#EXTINF:0.880000,
344405999200211-index10428.ts
#EXTINF:3.040000,
344405999200211-index10429.ts
#EXTINF:2.080000,
344405999200211-index10430.ts
#EXTINF:1.120000,
344405999200211-index10431.ts
#EXTINF:2.360000,
344405999200211-index10432.ts
#EXTINF:1.640000,
344405999200211-index10433.ts
#EXTINF:5.120000,
344405999200211-index10434.ts
#EXTINF:5.120000,
344405999200211-index10435.ts
#EXTINF:1.240000,
344405999200211-index10436.ts
#EXTINF:2.600000,
344405999200211-index10437.ts
#EXTINF:1.280000,
344405999200211-index10438.ts
#EXTINF:5.120000,
344405999200211-index10439.ts
#EXTINF:1.120000,
344405999200211-index10440.ts
#EXTINF:4.000000,
344405999200211-index10441.ts
#EXTINF:4.000000,
344405999200211-index10442.ts
#EXTINF:1.120000,
344405999200211-index10443.ts
#EXTINF:2.560000,
344405999200211-index10444.ts
#EXTINF:2.560000,
344405999200211-index10445.ts
#EXTINF:0.440000,
344405999200211-index10446.ts
#EXTINF:3.000000,
344405999200211-index10447.ts
#EXTINF:1.680000,
344405999200211-index10448.ts
#EXTINF:1.000000,
344405999200211-index10449.ts
#EXTINF:4.120000,
344405999200211-index10450.ts
#EXTINF:3.160000,
344405999200211-index10451.ts
#EXTINF:1.960000,
344405999200211-index10452.ts
#EXTINF:0.120000,
344405999200211-index10453.ts
#EXTINF:4.160000,
344405999200211-index10454.ts
#EXTINF:0.840000,
344405999200211-index10455.ts
#EXTINF:4.840000,
344405999200211-index10456.ts
#EXTINF:0.280000,
344405999200211-index10457.ts
#EXTINF:0.920000,
344405999200211-index10458.ts
#EXTINF:4.200000,
344405999200211-index10459.ts
#EXTINF:5.120000,
344405999200211-index10460.ts
#EXTINF:2.960000,
344405999200211-index10461.ts
#EXTINF:2.160000,
344405999200211-index10462.ts
#EXTINF:3.200000,
344405999200211-index10463.ts
#EXTINF:1.920000,
344405999200211-index10464.ts
#EXTINF:5.120000,
344405999200211-index10465.ts
#EXTINF:2.640000,
344405999200211-index10466.ts
#EXTINF:1.520000,
344405999200211-index10467.ts
#EXTINF:0.960000,
344405999200211-index10468.ts
#EXTINF:4.440000,
344405999200211-index10469.ts
#EXTINF:0.680000,
344405999200211-index10470.ts
#EXTINF:2.880000,
344405999200211-index10471.ts
#EXTINF:2.240000,
344405999200211-index10472.ts
#EXTINF:3.200000,
344405999200211-index10473.ts
#EXTINF:1.920000,
344405999200211-index10474.ts
#EXTINF:5.120000,
344405999200211-index10475.ts
#EXTINF:4.960000,
344405999200211-index10476.ts
#EXTINF:0.160000,
344405999200211-index10477.ts
#EXTINF:2.600000,
344405999200211-index10478.ts
#EXTINF:0.040000,
344405999200211-index10479.ts
#EXTINF:0.040000,
344405999200211-index10480.ts
#EXTINF:0.040000,
344405999200211-index10481.ts
#EXTINF:0.040000,
344405999200211-index10482.ts
#EXTINF:0.040000,
344405999200211-index10483.ts
#EXTINF:2.320000,
344405999200211-index10484.ts
#EXTINF:1.600000,
344405999200211-index10485.ts
#EXTINF:3.400000,
344405999200211-index10486.ts
#EXTINF:0.120000,
344405999200211-index10487.ts
#EXTINF:5.120000,
344405999200211-index10488.ts
#EXTINF:5.120000,
344405999200211-index10489.ts
#EXTINF:0.440000,
344405999200211-index10490.ts
#EXTINF:0.040000,
344405999200211-index10491.ts
#EXTINF:3.800000,
344405999200211-index10492.ts
#EXTINF:0.840000,
344405999200211-index10493.ts
#EXTINF:4.120000,
344405999200211-index10494.ts
#EXTINF:1.000000,
344405999200211-index10495.ts
#EXTINF:5.000000,
344405999200211-index10496.ts
#EXTINF:0.120000,
344405999200211-index10497.ts
#EXTINF:3.000000,
344405999200211-index10498.ts
#EXTINF:2.120000,
344405999200211-index10499.ts
#EXTINF:1.080000,
344405999200211-index10500.ts
#EXTINF:2.600000,
344405999200211-index10501.ts
#EXTINF:1.440000,
344405999200211-index10502.ts
#EXTINF:0.920000,
344405999200211-index10503.ts
#EXTINF:2.560000,
344405999200211-index10504.ts
#EXTINF:1.640000,
344405999200211-index10505.ts
#EXTINF:5.120000,
344405999200211-index10506.ts
#EXTINF:1.600000,
344405999200211-index10507.ts
#EXTINF:3.520000,
344405999200211-index10508.ts
#EXTINF:0.480000,
344405999200211-index10509.ts
#EXTINF:3.200000,
344405999200211-index10510.ts
#EXTINF:1.440000,
344405999200211-index10511.ts
#EXTINF:5.120000,
344405999200211-index10512.ts
#EXTINF:1.440000,
344405999200211-index10513.ts
#EXTINF:3.680000,
344405999200211-index10514.ts
#EXTINF:5.120000,
344405999200211-index10515.ts
#EXTINF:5.120000,
344405999200211-index10516.ts
#EXTINF:4.800000,
344405999200211-index10517.ts
#EXTINF:0.320000,
344405999200211-index10518.ts
#EXTINF:3.560000,
344405999200211-index10519.ts
#EXTINF:1.560000,
344405999200211-index10520.ts
#EXTINF:5.120000,
344405999200211-index10521.ts
#EXTINF:3.280000,
344405999200211-index10522.ts
#EXTINF:1.280000,
344405999200211-index10523.ts
#EXTINF:0.560000,
344405999200211-index10524.ts
#EXTINF:1.080000,
344405999200211-index10525.ts
#EXTINF:2.920000,
344405999200211-index10526.ts
#EXTINF:1.120000,
344405999200211-index10527.ts
#EXTINF:0.280000,
344405999200211-index10528.ts
#EXTINF:4.840000,
344405999200211-index10529.ts
#EXTINF:1.080000,
344405999200211-index10530.ts
#EXTINF:4.040000,
344405999200211-index10531.ts
#EXTINF:0.760000,
344405999200211-index10532.ts
#EXTINF:0.640000,
344405999200211-index10533.ts
#EXTINF:1.400000,
344405999200211-index10534.ts
#EXTINF:2.320000,
344405999200211-index10535.ts
#EXTINF:3.480000,
344405999200211-index10536.ts
#EXTINF:1.640000,
344405999200211-index10537.ts
#EXTINF:1.360000,
344405999200211-index10538.ts
#EXTINF:3.760000,
344405999200211-index10539.ts
#EXTINF:5.120000,
344405999200211-index10540.ts
#EXTINF:5.120000,
344405999200211-index10541.ts
#EXTINF:0.760000,
344405999200211-index10542.ts
#EXTINF:0.080000,
344405999200211-index10543.ts
#EXTINF:4.280000,
344405999200211-index10544.ts
#EXTINF:5.120000,
344405999200211-index10545.ts
#EXTINF:0.080000,
344405999200211-index10546.ts
#EXTINF:4.560000,
344405999200211-index10547.ts
#EXTINF:0.480000,
344405999200211-index10548.ts
#EXTINF:4.040000,
344405999200211-index10549.ts
#EXTINF:1.080000,
344405999200211-index10550.ts
#EXTINF:5.120000,
344405999200211-index10551.ts
#EXTINF:1.040000,
344405999200211-index10552.ts
#EXTINF:4.080000,
344405999200211-index10553.ts
#EXTINF:4.920000,
344405999200211-index10554.ts
#EXTINF:0.200000,
344405999200211-index10555.ts
#EXTINF:2.520000,
344405999200211-index10556.ts
#EXTINF:2.600000,
344405999200211-index10557.ts
#EXTINF:5.120000,
344405999200211-index10558.ts
#EXTINF:1.200000,
344405999200211-index10559.ts
#EXTINF:0.080000,
344405999200211-index10560.ts
#EXTINF:3.840000,
344405999200211-index10561.ts
#EXTINF:5.120000,
344405999200211-index10562.ts
#EXTINF:5.120000,
344405999200211-index10563.ts
#EXTINF:5.120000,
344405999200211-index10564.ts
#EXTINF:5.120000,
344405999200211-index10565.ts
#EXTINF:5.120000,
344405999200211-index10566.ts
#EXTINF:5.120000,
344405999200211-index10567.ts
#EXTINF:5.120000,
344405999200211-index10568.ts
#EXTINF:5.120000,
344405999200211-index10569.ts
#EXTINF:5.120000,
344405999200211-index10570.ts
#EXTINF:5.120000,
344405999200211-index10571.ts
#EXTINF:5.120000,
344405999200211-index10572.ts
#EXTINF:5.120000,
344405999200211-index10573.ts
#EXTINF:5.120000,
344405999200211-index10574.ts
#EXTINF:5.120000,
344405999200211-index10575.ts
#EXTINF:5.120000,
344405999200211-index10576.ts
#EXTINF:5.120000,
344405999200211-index10577.ts
#EXTINF:5.120000,
344405999200211-index10578.ts
#EXTINF:5.120000,
344405999200211-index10579.ts
#EXTINF:5.120000,
344405999200211-index10580.ts
#EXTINF:5.120000,
344405999200211-index10581.ts
#EXTINF:5.200000,
344405999200211-index10582.ts
#EXT-X-ENDLIST
