#EXTM3U
#EXT-X-VERSION:3
#EXT-X-TARGETDURATION:10
#EXT-X-MEDIA-SEQUENCE:10001
#EXTINF:6.880500,
351258984042538-index10001.png
#EXTINF:1.125900,
351258984042538-index10002.png
#EXTINF:10.425000,
351258984042538-index10003.png
#EXTINF:10.425000,
351258984042538-index10004.png
#EXTINF:10.425000,
351258984042538-index10005.png
#EXTINF:10.425000,
351258984042538-index10006.png
#EXTINF:9.299100,
351258984042538-index10007.png
#EXTINF:7.047300,
351258984042538-index10008.png
#EXTINF:10.425000,
351258984042538-index10009.png
#EXTINF:6.171600,
351258984042538-index10010.png
#EXTINF:7.047300,
351258984042538-index10011.png
#EXTINF:10.425000,
351258984042538-index10012.png
#EXTINF:10.341600,
351258984042538-index10013.png
#EXTINF:10.425000,
351258984042538-index10014.png
#EXTINF:7.839600,
351258984042538-index10015.png
#EXTINF:8.840400,
351258984042538-index10016.png
#EXTINF:10.425000,
351258984042538-index10017.png
#EXTINF:9.090600,
351258984042538-index10018.png
#EXTINF:10.425000,
351258984042538-index10019.png
#EXTINF:10.425000,
351258984042538-index10020.png
#EXTINF:10.425000,
351258984042538-index10021.png
#EXTINF:10.425000,
351258984042538-index10022.png
#EXTINF:10.425000,
351258984042538-index10023.png
#EXTINF:10.425000,
351258984042538-index10024.png
#EXTINF:10.425000,
351258984042538-index10025.png
#EXTINF:10.425000,
351258984042538-index10026.png
#EXTINF:10.425000,
351258984042538-index10027.png
#EXTINF:10.425000,
351258984042538-index10028.png
#EXTINF:10.425000,
351258984042538-index10029.png
#EXTINF:10.425000,
351258984042538-index10030.png
#EXTINF:10.425000,
351258984042538-index10031.png
#EXTINF:10.425000,
351258984042538-index10032.png
#EXTINF:10.425000,
351258984042538-index10033.png
#EXTINF:10.425000,
351258984042538-index10034.png
#EXTINF:4.587000,
351258984042538-index10035.png
#EXTINF:10.425000,
351258984042538-index10036.png
#EXTINF:10.425000,
351258984042538-index10037.png
#EXTINF:10.425000,
351258984042538-index10038.png
#EXTINF:10.425000,
351258984042538-index10039.png
#EXTINF:10.425000,
351258984042538-index10040.png
#EXTINF:10.425000,
351258984042538-index10041.png
#EXTINF:10.425000,
351258984042538-index10042.png
#EXTINF:10.425000,
351258984042538-index10043.png
#EXTINF:10.425000,
351258984042538-index10044.png
#EXTINF:10.425000,
351258984042538-index10045.png
#EXTINF:10.425000,
351258984042538-index10046.png
#EXTINF:10.425000,
351258984042538-index10047.png
#EXTINF:10.425000,
351258984042538-index10048.png
#EXTINF:10.425000,
351258984042538-index10049.png
#EXTINF:10.425000,
351258984042538-index10050.png
#EXTINF:4.086600,
351258984042538-index10051.png
#EXTINF:2.710500,
351258984042538-index10052.png
#EXTINF:3.919800,
351258984042538-index10053.png
#EXTINF:1.793100,
351258984042538-index10054.png
#EXTINF:6.630300,
351258984042538-index10055.png
#EXTINF:10.049700,
351258984042538-index10056.png
#EXTINF:5.587800,
351258984042538-index10057.png
#EXTINF:5.254200,
351258984042538-index10058.png
#EXTINF:4.878900,
351258984042538-index10059.png
#EXTINF:8.631900,
351258984042538-index10060.png
#EXTINF:8.465100,
351258984042538-index10061.png
#EXTINF:7.297500,
351258984042538-index10062.png
#EXTINF:3.544500,
351258984042538-index10063.png
#EXTINF:10.425000,
351258984042538-index10064.png
#EXTINF:7.964700,
351258984042538-index10065.png
#EXTINF:7.589400,
351258984042538-index10066.png
#EXTINF:10.425000,
351258984042538-index10067.png
#EXTINF:8.173200,
351258984042538-index10068.png
#EXTINF:10.425000,
351258984042538-index10069.png
#EXTINF:10.425000,
351258984042538-index10070.png
#EXTINF:10.425000,
351258984042538-index10071.png
#EXTINF:5.254200,
351258984042538-index10072.png
#EXTINF:8.840400,
351258984042538-index10073.png
#EXTINF:10.425000,
351258984042538-index10074.png
#EXTINF:10.425000,
351258984042538-index10075.png
#EXTINF:8.882100,
351258984042538-index10076.png
#EXTINF:10.425000,
351258984042538-index10077.png
#EXTINF:10.425000,
351258984042538-index10078.png
#EXTINF:10.425000,
351258984042538-index10079.png
#EXTINF:9.799500,
351258984042538-index10080.png
#EXTINF:9.882900,
351258984042538-index10081.png
#EXTINF:6.922200,
351258984042538-index10082.png
#EXTINF:9.048900,
351258984042538-index10083.png
#EXTINF:7.839600,
351258984042538-index10084.png
#EXTINF:3.336000,
351258984042538-index10085.png
#EXTINF:7.672800,
351258984042538-index10086.png
#EXTINF:9.799500,
351258984042538-index10087.png
#EXTINF:7.464300,
351258984042538-index10088.png
#EXTINF:7.964700,
351258984042538-index10089.png
#EXTINF:6.505200,
351258984042538-index10090.png
#EXTINF:10.216500,
351258984042538-index10091.png
#EXTINF:6.338400,
351258984042538-index10092.png
#EXTINF:10.425000,
351258984042538-index10093.png
#EXTINF:8.882100,
351258984042538-index10094.png
#EXTINF:10.425000,
351258984042538-index10095.png
#EXTINF:6.672000,
351258984042538-index10096.png
#EXTINF:7.297500,
351258984042538-index10097.png
#EXTINF:10.049700,
351258984042538-index10098.png
#EXTINF:10.425000,
351258984042538-index10099.png
#EXTINF:7.506000,
351258984042538-index10100.png
#EXTINF:5.629500,
351258984042538-index10101.png
#EXTINF:8.465100,
351258984042538-index10102.png
#EXTINF:10.383300,
351258984042538-index10103.png
#EXTINF:10.425000,
351258984042538-index10104.png
#EXTINF:10.425000,
351258984042538-index10105.png
#EXTINF:7.089000,
351258984042538-index10106.png
#EXTINF:10.425000,
351258984042538-index10107.png
#EXTINF:7.631100,
351258984042538-index10108.png
#EXTINF:7.130700,
351258984042538-index10109.png
#EXTINF:10.425000,
351258984042538-index10110.png
#EXTINF:8.631900,
351258984042538-index10111.png
#EXTINF:8.923800,
351258984042538-index10112.png
#EXTINF:6.255000,
351258984042538-index10113.png
#EXTINF:10.425000,
351258984042538-index10114.png
#EXTINF:8.256600,
351258984042538-index10115.png
#EXTINF:10.425000,
351258984042538-index10116.png
#EXTINF:8.131500,
351258984042538-index10117.png
#EXTINF:10.425000,
351258984042538-index10118.png
#EXTINF:10.425000,
351258984042538-index10119.png
#EXTINF:10.425000,
351258984042538-index10120.png
#EXTINF:9.382500,
351258984042538-index10121.png
#EXTINF:9.215700,
351258984042538-index10122.png
#EXTINF:10.425000,
351258984042538-index10123.png
#EXTINF:8.048100,
351258984042538-index10124.png
#EXTINF:10.425000,
351258984042538-index10125.png
#EXTINF:10.425000,
351258984042538-index10126.png
#EXTINF:10.174800,
351258984042538-index10127.png
#EXTINF:8.173200,
351258984042538-index10128.png
#EXTINF:10.425000,
351258984042538-index10129.png
#EXTINF:8.923800,
351258984042538-index10130.png
#EXTINF:3.461100,
351258984042538-index10131.png
#EXTINF:4.128300,
351258984042538-index10132.png
#EXTINF:7.672800,
351258984042538-index10133.png
#EXTINF:8.757000,
351258984042538-index10134.png
#EXTINF:8.256600,
351258984042538-index10135.png
#EXTINF:8.506800,
351258984042538-index10136.png
#EXTINF:10.425000,
351258984042538-index10137.png
#EXTINF:10.425000,
351258984042538-index10138.png
#EXTINF:7.005600,
351258984042538-index10139.png
#EXTINF:9.174000,
351258984042538-index10140.png
#EXTINF:10.425000,
351258984042538-index10141.png
#EXTINF:10.258200,
351258984042538-index10142.png
#EXTINF:8.214900,
351258984042538-index10143.png
#EXTINF:10.425000,
351258984042538-index10144.png
#EXTINF:10.425000,
351258984042538-index10145.png
#EXTINF:8.131500,
351258984042538-index10146.png
#EXTINF:10.425000,
351258984042538-index10147.png
#EXTINF:9.007200,
351258984042538-index10148.png
#EXTINF:10.425000,
351258984042538-index10149.png
#EXTINF:10.425000,
351258984042538-index10150.png
#EXTINF:10.425000,
351258984042538-index10151.png
#EXTINF:10.425000,
351258984042538-index10152.png
#EXTINF:10.425000,
351258984042538-index10153.png
#EXTINF:6.171600,
351258984042538-index10154.png
#EXTINF:9.007200,
351258984042538-index10155.png
#EXTINF:10.425000,
351258984042538-index10156.png
#EXTINF:10.425000,
351258984042538-index10157.png
#EXTINF:6.838800,
351258984042538-index10158.png
#EXTINF:6.922200,
351258984042538-index10159.png
#EXTINF:10.425000,
351258984042538-index10160.png
#EXTINF:9.048900,
351258984042538-index10161.png
#EXTINF:10.425000,
351258984042538-index10162.png
#EXTINF:6.004800,
351258984042538-index10163.png
#EXTINF:10.008000,
351258984042538-index10164.png
#EXTINF:10.425000,
351258984042538-index10165.png
#EXTINF:3.753000,
351258984042538-index10166.png
#EXTINF:10.425000,
351258984042538-index10167.png
#EXTINF:7.089000,
351258984042538-index10168.png
#EXTINF:10.425000,
351258984042538-index10169.png
#EXTINF:7.839600,
351258984042538-index10170.png
#EXTINF:5.546100,
351258984042538-index10171.png
#EXTINF:10.425000,
351258984042538-index10172.png
#EXTINF:10.258200,
351258984042538-index10173.png
#EXTINF:10.425000,
351258984042538-index10174.png
#EXTINF:10.425000,
351258984042538-index10175.png
#EXTINF:9.424200,
351258984042538-index10176.png
#EXTINF:9.924600,
351258984042538-index10177.png
#EXTINF:3.544500,
351258984042538-index10178.png
#EXTINF:9.257400,
351258984042538-index10179.png
#EXTINF:7.422600,
351258984042538-index10180.png
#EXTINF:9.048900,
351258984042538-index10181.png
#EXTINF:10.425000,
351258984042538-index10182.png
#EXTINF:10.425000,
351258984042538-index10183.png
#EXTINF:4.295100,
351258984042538-index10184.png
#EXTINF:10.216500,
351258984042538-index10185.png
#EXTINF:7.672800,
351258984042538-index10186.png
#EXTINF:9.174000,
351258984042538-index10187.png
#EXTINF:5.421000,
351258984042538-index10188.png
#EXTINF:10.425000,
351258984042538-index10189.png
#EXTINF:10.008000,
351258984042538-index10190.png
#EXTINF:9.716100,
351258984042538-index10191.png
#EXTINF:8.340000,
351258984042538-index10192.png
#EXTINF:6.880500,
351258984042538-index10193.png
#EXTINF:5.212500,
351258984042538-index10194.png
#EXTINF:6.963900,
351258984042538-index10195.png
#EXTINF:9.757800,
351258984042538-index10196.png
#EXTINF:4.587000,
351258984042538-index10197.png
#EXTINF:6.838800,
351258984042538-index10198.png
#EXTINF:5.629500,
351258984042538-index10199.png
#EXTINF:5.629500,
351258984042538-index10200.png
#EXTINF:6.129900,
351258984042538-index10201.png
#EXTINF:7.297500,
351258984042538-index10202.png
#EXTINF:7.839600,
351258984042538-index10203.png
#EXTINF:6.963900,
351258984042538-index10204.png
#EXTINF:7.756200,
351258984042538-index10205.png
#EXTINF:5.421000,
351258984042538-index10206.png
#EXTINF:7.631100,
351258984042538-index10207.png
#EXTINF:6.797100,
351258984042538-index10208.png
#EXTINF:9.090600,
351258984042538-index10209.png
#EXTINF:10.425000,
351258984042538-index10210.png
#EXTINF:10.425000,
351258984042538-index10211.png
#EXTINF:10.425000,
351258984042538-index10212.png
#EXTINF:10.425000,
351258984042538-index10213.png
#EXTINF:10.425000,
351258984042538-index10214.png
#EXTINF:9.465900,
351258984042538-index10215.png
#EXTINF:10.425000,
351258984042538-index10216.png
#EXTINF:9.132300,
351258984042538-index10217.png
#EXTINF:3.502800,
351258984042538-index10218.png
#EXTINF:4.295100,
351258984042538-index10219.png
#EXTINF:5.462700,
351258984042538-index10220.png
#EXTINF:10.425000,
351258984042538-index10221.png
#EXTINF:5.796300,
351258984042538-index10222.png
#EXTINF:3.794700,
351258984042538-index10223.png
#EXTINF:7.380900,
351258984042538-index10224.png
#EXTINF:10.425000,
351258984042538-index10225.png
#EXTINF:6.505200,
351258984042538-index10226.png
#EXTINF:10.425000,
351258984042538-index10227.png
#EXTINF:10.425000,
351258984042538-index10228.png
#EXTINF:10.425000,
351258984042538-index10229.png
#EXTINF:10.425000,
351258984042538-index10230.png
#EXTINF:10.425000,
351258984042538-index10231.png
#EXTINF:10.425000,
351258984042538-index10232.png
#EXTINF:10.425000,
351258984042538-index10233.png
#EXTINF:10.425000,
351258984042538-index10234.png
#EXTINF:10.425000,
351258984042538-index10235.png
#EXTINF:10.425000,
351258984042538-index10236.png
#EXTINF:10.425000,
351258984042538-index10237.png
#EXTINF:10.425000,
351258984042538-index10238.png
#EXTINF:10.425000,
351258984042538-index10239.png
#EXTINF:10.425000,
351258984042538-index10240.png
#EXTINF:10.425000,
351258984042538-index10241.png
#EXTINF:10.425000,
351258984042538-index10242.png
#EXTINF:10.425000,
351258984042538-index10243.png
#EXTINF:10.425000,
351258984042538-index10244.png
#EXTINF:10.383300,
351258984042538-index10245.png
#EXTINF:10.425000,
351258984042538-index10246.png
#EXTINF:10.425000,
351258984042538-index10247.png
#EXTINF:10.425000,
351258984042538-index10248.png
#EXTINF:8.798700,
351258984042538-index10249.png
#EXTINF:4.962300,
351258984042538-index10250.png
#EXTINF:5.170800,
351258984042538-index10251.png
#EXTINF:5.587800,
351258984042538-index10252.png
#EXTINF:9.382500,
351258984042538-index10253.png
#EXTINF:10.425000,
351258984042538-index10254.png
#EXTINF:5.546100,
351258984042538-index10255.png
#EXTINF:7.172400,
351258984042538-index10256.png
#EXTINF:10.425000,
351258984042538-index10257.png
#EXTINF:6.963900,
351258984042538-index10258.png
#EXTINF:10.425000,
351258984042538-index10259.png
#EXTINF:8.381700,
351258984042538-index10260.png
#EXTINF:5.004000,
351258984042538-index10261.png
#EXTINF:10.425000,
351258984042538-index10262.png
#EXTINF:5.546100,
351258984042538-index10263.png
#EXTINF:10.425000,
351258984042538-index10264.png
#EXTINF:9.257400,
351258984042538-index10265.png
#EXTINF:10.174800,
351258984042538-index10266.png
#EXTINF:6.171600,
351258984042538-index10267.png
#EXTINF:9.716100,
351258984042538-index10268.png
#EXTINF:5.587800,
351258984042538-index10269.png
#EXTINF:8.423400,
351258984042538-index10270.png
#EXTINF:5.671200,
351258984042538-index10271.png
#EXTINF:5.254200,
351258984042538-index10272.png
#EXTINF:10.425000,
351258984042538-index10273.png
#EXTINF:8.173200,
351258984042538-index10274.png
#EXTINF:9.048900,
351258984042538-index10275.png
#EXTINF:7.839600,
351258984042538-index10276.png
#EXTINF:10.425000,
351258984042538-index10277.png
#EXTINF:10.425000,
351258984042538-index10278.png
#EXTINF:10.425000,
351258984042538-index10279.png
#EXTINF:7.172400,
351258984042538-index10280.png
#EXTINF:5.379300,
351258984042538-index10281.png
#EXTINF:7.547700,
351258984042538-index10282.png
#EXTINF:8.298300,
351258984042538-index10283.png
#EXTINF:10.425000,
351258984042538-index10284.png
#EXTINF:10.425000,
351258984042538-index10285.png
#EXTINF:8.506800,
351258984042538-index10286.png
#EXTINF:10.133100,
351258984042538-index10287.png
#EXTINF:10.425000,
351258984042538-index10288.png
#EXTINF:10.258200,
351258984042538-index10289.png
#EXTINF:10.425000,
351258984042538-index10290.png
#EXTINF:9.591000,
351258984042538-index10291.png
#EXTINF:7.130700,
351258984042538-index10292.png
#EXTINF:10.425000,
351258984042538-index10293.png
#EXTINF:9.215700,
351258984042538-index10294.png
#EXTINF:6.672000,
351258984042538-index10295.png
#EXTINF:9.632700,
351258984042538-index10296.png
#EXTINF:7.297500,
351258984042538-index10297.png
#EXTINF:7.089000,
351258984042538-index10298.png
#EXTINF:10.425000,
351258984042538-index10299.png
#EXTINF:6.171600,
351258984042538-index10300.png
#EXTINF:10.425000,
351258984042538-index10301.png
#EXTINF:5.671200,
351258984042538-index10302.png
#EXTINF:10.133100,
351258984042538-index10303.png
#EXTINF:6.546900,
351258984042538-index10304.png
#EXTINF:6.922200,
351258984042538-index10305.png
#EXTINF:6.672000,
351258984042538-index10306.png
#EXTINF:10.425000,
351258984042538-index10307.png
#EXTINF:5.254200,
351258984042538-index10308.png
#EXTINF:10.425000,
351258984042538-index10309.png
#EXTINF:9.507600,
351258984042538-index10310.png
#EXTINF:10.425000,
351258984042538-index10311.png
#EXTINF:10.425000,
351258984042538-index10312.png
#EXTINF:6.296700,
351258984042538-index10313.png
#EXTINF:10.049700,
351258984042538-index10314.png
#EXTINF:7.714500,
351258984042538-index10315.png
#EXTINF:7.506000,
351258984042538-index10316.png
#EXTINF:10.425000,
351258984042538-index10317.png
#EXTINF:6.838800,
351258984042538-index10318.png
#EXTINF:10.425000,
351258984042538-index10319.png
#EXTINF:9.132300,
351258984042538-index10320.png
#EXTINF:10.425000,
351258984042538-index10321.png
#EXTINF:9.048900,
351258984042538-index10322.png
#EXTINF:9.924600,
351258984042538-index10323.png
#EXTINF:6.088200,
351258984042538-index10324.png
#EXTINF:5.963100,
351258984042538-index10325.png
#EXTINF:10.425000,
351258984042538-index10326.png
#EXTINF:10.425000,
351258984042538-index10327.png
#EXTINF:7.797900,
351258984042538-index10328.png
#EXTINF:8.256600,
351258984042538-index10329.png
#EXTINF:10.425000,
351258984042538-index10330.png
#EXTINF:10.091400,
351258984042538-index10331.png
#EXTINF:10.133100,
351258984042538-index10332.png
#EXTINF:10.008000,
351258984042538-index10333.png
#EXTINF:5.879700,
351258984042538-index10334.png
#EXTINF:7.881300,
351258984042538-index10335.png
#EXTINF:6.213300,
351258984042538-index10336.png
#EXTINF:10.258200,
351258984042538-index10337.png
#EXTINF:7.172400,
351258984042538-index10338.png
#EXTINF:8.882100,
351258984042538-index10339.png
#EXTINF:5.379300,
351258984042538-index10340.png
#EXTINF:6.546900,
351258984042538-index10341.png
#EXTINF:4.295100,
351258984042538-index10342.png
#EXTINF:8.256600,
351258984042538-index10343.png
#EXTINF:9.841200,
351258984042538-index10344.png
#EXTINF:10.425000,
351258984042538-index10345.png
#EXTINF:10.425000,
351258984042538-index10346.png
#EXTINF:10.425000,
351258984042538-index10347.png
#EXTINF:8.923800,
351258984042538-index10348.png
#EXTINF:9.215700,
351258984042538-index10349.png
#EXTINF:10.425000,
351258984042538-index10350.png
#EXTINF:10.425000,
351258984042538-index10351.png
#EXTINF:6.546900,
351258984042538-index10352.png
#EXTINF:8.923800,
351258984042538-index10353.png
#EXTINF:8.256600,
351258984042538-index10354.png
#EXTINF:10.425000,
351258984042538-index10355.png
#EXTINF:9.799500,
351258984042538-index10356.png
#EXTINF:8.381700,
351258984042538-index10357.png
#EXTINF:9.799500,
351258984042538-index10358.png
#EXTINF:10.425000,
351258984042538-index10359.png
#EXTINF:3.669600,
351258984042538-index10360.png
#EXTINF:10.174800,
351258984042538-index10361.png
#EXTINF:7.297500,
351258984042538-index10362.png
#EXTINF:9.924600,
351258984042538-index10363.png
#EXTINF:8.089800,
351258984042538-index10364.png
#EXTINF:8.381700,
351258984042538-index10365.png
#EXTINF:8.840400,
351258984042538-index10366.png
#EXTINF:7.839600,
351258984042538-index10367.png
#EXTINF:6.338400,
351258984042538-index10368.png
#EXTINF:10.425000,
351258984042538-index10369.png
#EXTINF:5.838000,
351258984042538-index10370.png
#EXTINF:9.340800,
351258984042538-index10371.png
#EXTINF:10.425000,
351258984042538-index10372.png
#EXTINF:8.882100,
351258984042538-index10373.png
#EXTINF:10.341600,
351258984042538-index10374.png
#EXTINF:8.882100,
351258984042538-index10375.png
#EXTINF:10.425000,
351258984042538-index10376.png
#EXTINF:2.919000,
351258984042538-index10377.png
#EXTINF:10.383300,
351258984042538-index10378.png
#EXTINF:10.425000,
351258984042538-index10379.png
#EXTINF:7.130700,
351258984042538-index10380.png
#EXTINF:10.425000,
351258984042538-index10381.png
#EXTINF:10.425000,
351258984042538-index10382.png
#EXTINF:10.425000,
351258984042538-index10383.png
#EXTINF:10.425000,
351258984042538-index10384.png
#EXTINF:10.425000,
351258984042538-index10385.png
#EXTINF:10.425000,
351258984042538-index10386.png
#EXTINF:10.425000,
351258984042538-index10387.png
#EXTINF:10.425000,
351258984042538-index10388.png
#EXTINF:10.425000,
351258984042538-index10389.png
#EXTINF:10.425000,
351258984042538-index10390.png
#EXTINF:8.256600,
351258984042538-index10391.png
#EXTINF:3.711300,
351258984042538-index10392.png
#EXTINF:5.421000,
351258984042538-index10393.png
#EXTINF:3.502800,
351258984042538-index10394.png
#EXTINF:9.591000,
351258984042538-index10395.png
#EXTINF:7.839600,
351258984042538-index10396.png
#EXTINF:10.425000,
351258984042538-index10397.png
#EXTINF:10.008000,
351258984042538-index10398.png
#EXTINF:4.628700,
351258984042538-index10399.png
#EXTINF:8.214900,
351258984042538-index10400.png
#EXTINF:8.923800,
351258984042538-index10401.png
#EXTINF:5.671200,
351258984042538-index10402.png
#EXTINF:10.425000,
351258984042538-index10403.png
#EXTINF:8.256600,
351258984042538-index10404.png
#EXTINF:10.425000,
351258984042538-index10405.png
#EXTINF:9.674400,
351258984042538-index10406.png
#EXTINF:10.425000,
351258984042538-index10407.png
#EXTINF:8.131500,
351258984042538-index10408.png
#EXTINF:3.878100,
351258984042538-index10409.png
#EXTINF:3.085800,
351258984042538-index10410.png
#EXTINF:9.424200,
351258984042538-index10411.png
#EXTINF:10.425000,
351258984042538-index10412.png
#EXTINF:10.425000,
351258984042538-index10413.png
#EXTINF:9.591000,
351258984042538-index10414.png
#EXTINF:10.425000,
351258984042538-index10415.png
#EXTINF:7.672800,
351258984042538-index10416.png
#EXTINF:6.380100,
351258984042538-index10417.png
#EXTINF:9.841200,
351258984042538-index10418.png
#EXTINF:10.425000,
351258984042538-index10419.png
#EXTINF:10.425000,
351258984042538-index10420.png
#EXTINF:10.425000,
351258984042538-index10421.png
#EXTINF:9.757800,
351258984042538-index10422.png
#EXTINF:10.425000,
351258984042538-index10423.png
#EXTINF:10.425000,
351258984042538-index10424.png
#EXTINF:9.632700,
351258984042538-index10425.png
#EXTINF:4.920600,
351258984042538-index10426.png
#EXTINF:9.007200,
351258984042538-index10427.png
#EXTINF:10.425000,
351258984042538-index10428.png
#EXTINF:10.425000,
351258984042538-index10429.png
#EXTINF:10.425000,
351258984042538-index10430.png
#EXTINF:10.425000,
351258984042538-index10431.png
#EXTINF:10.425000,
351258984042538-index10432.png
#EXTINF:10.425000,
351258984042538-index10433.png
#EXTINF:10.425000,
351258984042538-index10434.png
#EXTINF:10.425000,
351258984042538-index10435.png
#EXTINF:10.425000,
351258984042538-index10436.png
#EXTINF:10.425000,
351258984042538-index10437.png
#EXTINF:4.336800,
351258984042538-index10438.png
#EXTINF:10.425000,
351258984042538-index10439.png
#EXTINF:10.425000,
351258984042538-index10440.png
#EXTINF:10.425000,
351258984042538-index10441.png
#EXTINF:10.425000,
351258984042538-index10442.png
#EXTINF:10.425000,
351258984042538-index10443.png
#EXTINF:10.425000,
351258984042538-index10444.png
#EXTINF:10.425000,
351258984042538-index10445.png
#EXTINF:10.425000,
351258984042538-index10446.png
#EXTINF:6.797100,
351258984042538-index10447.png
#EXT-X-ENDLIST
