#EXTM3U
#EXT-X-VERSION:3
#EXT-X-TARGETDURATION:10
#EXT-X-MEDIA-SEQUENCE:10001
#EXTINF:3.466667,
353251592566569-index10001.png
#EXTINF:3.833333,
353251592566569-index10002.png
#EXTINF:4.400000,
353251592566569-index10003.png
#EXTINF:4.666667,
353251592566569-index10004.png
#EXTINF:5.266667,
353251592566569-index10005.png
#EXTINF:5.033333,
353251592566569-index10006.png
#EXTINF:2.666667,
353251592566569-index10007.png
#EXTINF:5.800000,
353251592566569-index10008.png
#EXTINF:8.166667,
353251592566569-index10009.png
#EXTINF:2.800000,
353251592566569-index10010.png
#EXTINF:4.933333,
353251592566569-index10011.png
#EXTINF:1.166667,
353251592566569-index10012.png
#EXTINF:3.766667,
353251592566569-index10013.png
#EXTINF:2.166667,
353251592566569-index10014.png
#EXTINF:2.333333,
353251592566569-index10015.png
#EXTINF:2.433333,
353251592566569-index10016.png
#EXTINF:7.666667,
353251592566569-index10017.png
#EXTINF:4.333333,
353251592566569-index10018.png
#EXTINF:2.500000,
353251592566569-index10019.png
#EXTINF:4.233333,
353251592566569-index10020.png
#EXTINF:3.133333,
353251592566569-index10021.png
#EXTINF:1.133333,
353251592566569-index10022.png
#EXTINF:3.400000,
353251592566569-index10023.png
#EXTINF:1.333333,
353251592566569-index10024.png
#EXTINF:3.966667,
353251592566569-index10025.png
#EXTINF:3.266667,
353251592566569-index10026.png
#EXTINF:2.666667,
353251592566569-index10027.png
#EXTINF:6.200000,
353251592566569-index10028.png
#EXTINF:2.866667,
353251592566569-index10029.png
#EXTINF:5.033333,
353251592566569-index10030.png
#EXTINF:1.333333,
353251592566569-index10031.png
#EXTINF:10.000000,
353251592566569-index10032.png
#EXTINF:3.566667,
353251592566569-index10033.png
#EXTINF:2.300000,
353251592566569-index10034.png
#EXTINF:9.466667,
353251592566569-index10035.png
#EXTINF:3.733333,
353251592566569-index10036.png
#EXTINF:10.000000,
353251592566569-index10037.png
#EXTINF:2.500000,
353251592566569-index10038.png
#EXTINF:5.100000,
353251592566569-index10039.png
#EXTINF:9.833333,
353251592566569-index10040.png
#EXTINF:9.066667,
353251592566569-index10041.png
#EXTINF:10.000000,
353251592566569-index10042.png
#EXTINF:8.266667,
353251592566569-index10043.png
#EXTINF:5.233333,
353251592566569-index10044.png
#EXTINF:10.000000,
353251592566569-index10045.png
#EXTINF:8.633333,
353251592566569-index10046.png
#EXTINF:3.800000,
353251592566569-index10047.png
#EXTINF:10.000000,
353251592566569-index10048.png
#EXTINF:6.733333,
353251592566569-index10049.png
#EXTINF:10.000000,
353251592566569-index10050.png
#EXTINF:7.733333,
353251592566569-index10051.png
#EXTINF:10.000000,
353251592566569-index10052.png
#EXTINF:6.566667,
353251592566569-index10053.png
#EXTINF:3.600000,
353251592566569-index10054.png
#EXTINF:10.000000,
353251592566569-index10055.png
#EXTINF:8.800000,
353251592566569-index10056.png
#EXTINF:10.000000,
353251592566569-index10057.png
#EXTINF:2.733333,
353251592566569-index10058.png
#EXTINF:4.133333,
353251592566569-index10059.png
#EXTINF:4.366667,
353251592566569-index10060.png
#EXTINF:7.600000,
353251592566569-index10061.png
#EXTINF:4.300000,
353251592566569-index10062.png
#EXTINF:10.000000,
353251592566569-index10063.png
#EXTINF:10.000000,
353251592566569-index10064.png
#EXTINF:8.900000,
353251592566569-index10065.png
#EXTINF:3.333333,
353251592566569-index10066.png
#EXTINF:8.766667,
353251592566569-index10067.png
#EXTINF:10.000000,
353251592566569-index10068.png
#EXTINF:10.000000,
353251592566569-index10069.png
#EXTINF:8.900000,
353251592566569-index10070.png
#EXTINF:2.833333,
353251592566569-index10071.png
#EXTINF:3.666667,
353251592566569-index10072.png
#EXTINF:3.333333,
353251592566569-index10073.png
#EXTINF:3.233333,
353251592566569-index10074.png
#EXTINF:3.100000,
353251592566569-index10075.png
#EXTINF:5.900000,
353251592566569-index10076.png
#EXTINF:6.866667,
353251592566569-index10077.png
#EXTINF:1.000000,
353251592566569-index10078.png
#EXTINF:3.133333,
353251592566569-index10079.png
#EXTINF:9.966667,
353251592566569-index10080.png
#EXTINF:5.566667,
353251592566569-index10081.png
#EXTINF:10.000000,
353251592566569-index10082.png
#EXTINF:6.133333,
353251592566569-index10083.png
#EXTINF:3.500000,
353251592566569-index10084.png
#EXTINF:2.066667,
353251592566569-index10085.png
#EXTINF:1.966667,
353251592566569-index10086.png
#EXTINF:5.633333,
353251592566569-index10087.png
#EXTINF:2.400000,
353251592566569-index10088.png
#EXTINF:5.366667,
353251592566569-index10089.png
#EXTINF:5.866667,
353251592566569-index10090.png
#EXTINF:5.533333,
353251592566569-index10091.png
#EXTINF:4.500000,
353251592566569-index10092.png
#EXTINF:5.300000,
353251592566569-index10093.png
#EXTINF:8.633333,
353251592566569-index10094.png
#EXTINF:8.333333,
353251592566569-index10095.png
#EXTINF:3.033333,
353251592566569-index10096.png
#EXTINF:10.000000,
353251592566569-index10097.png
#EXTINF:10.000000,
353251592566569-index10098.png
#EXTINF:3.633333,
353251592566569-index10099.png
#EXTINF:7.133333,
353251592566569-index10100.png
#EXTINF:5.466667,
353251592566569-index10101.png
#EXTINF:4.300000,
353251592566569-index10102.png
#EXTINF:1.366667,
353251592566569-index10103.png
#EXTINF:1.033333,
353251592566569-index10104.png
#EXTINF:3.133333,
353251592566569-index10105.png
#EXTINF:3.700000,
353251592566569-index10106.png
#EXTINF:4.366667,
353251592566569-index10107.png
#EXTINF:2.366667,
353251592566569-index10108.png
#EXTINF:2.366667,
353251592566569-index10109.png
#EXTINF:2.400000,
353251592566569-index10110.png
#EXTINF:3.033333,
353251592566569-index10111.png
#EXTINF:3.933333,
353251592566569-index10112.png
#EXTINF:3.666667,
353251592566569-index10113.png
#EXTINF:1.366667,
353251592566569-index10114.png
#EXTINF:2.800000,
353251592566569-index10115.png
#EXTINF:1.000000,
353251592566569-index10116.png
#EXTINF:4.266667,
353251592566569-index10117.png
#EXTINF:3.000000,
353251592566569-index10118.png
#EXTINF:4.633333,
353251592566569-index10119.png
#EXTINF:3.900000,
353251592566569-index10120.png
#EXTINF:1.400000,
353251592566569-index10121.png
#EXTINF:7.500000,
353251592566569-index10122.png
#EXTINF:2.433333,
353251592566569-index10123.png
#EXTINF:7.800000,
353251592566569-index10124.png
#EXTINF:9.533333,
353251592566569-index10125.png
#EXTINF:10.000000,
353251592566569-index10126.png
#EXTINF:6.900000,
353251592566569-index10127.png
#EXTINF:5.466667,
353251592566569-index10128.png
#EXTINF:10.000000,
353251592566569-index10129.png
#EXTINF:8.833333,
353251592566569-index10130.png
#EXTINF:5.100000,
353251592566569-index10131.png
#EXTINF:5.100000,
353251592566569-index10132.png
#EXTINF:8.800000,
353251592566569-index10133.png
#EXTINF:9.133333,
353251592566569-index10134.png
#EXTINF:6.833333,
353251592566569-index10135.png
#EXTINF:5.033333,
353251592566569-index10136.png
#EXTINF:6.833333,
353251592566569-index10137.png
#EXTINF:8.233333,
353251592566569-index10138.png
#EXTINF:10.000000,
353251592566569-index10139.png
#EXTINF:10.000000,
353251592566569-index10140.png
#EXTINF:5.433333,
353251592566569-index10141.png
#EXTINF:5.133333,
353251592566569-index10142.png
#EXTINF:4.100000,
353251592566569-index10143.png
#EXTINF:8.000000,
353251592566569-index10144.png
#EXTINF:3.066667,
353251592566569-index10145.png
#EXTINF:1.100000,
353251592566569-index10146.png
#EXTINF:5.700000,
353251592566569-index10147.png
#EXTINF:5.133333,
353251592566569-index10148.png
#EXTINF:6.433333,
353251592566569-index10149.png
#EXTINF:4.533333,
353251592566569-index10150.png
#EXTINF:5.700000,
353251592566569-index10151.png
#EXTINF:2.766667,
353251592566569-index10152.png
#EXTINF:1.733333,
353251592566569-index10153.png
#EXTINF:1.466667,
353251592566569-index10154.png
#EXTINF:2.500000,
353251592566569-index10155.png
#EXTINF:2.300000,
353251592566569-index10156.png
#EXTINF:1.300000,
353251592566569-index10157.png
#EXTINF:1.033333,
353251592566569-index10158.png
#EXTINF:2.033333,
353251592566569-index10159.png
#EXTINF:1.033333,
353251592566569-index10160.png
#EXTINF:3.100000,
353251592566569-index10161.png
#EXTINF:1.300000,
353251592566569-index10162.png
#EXTINF:1.233333,
353251592566569-index10163.png
#EXTINF:1.000000,
353251592566569-index10164.png
#EXTINF:3.733333,
353251592566569-index10165.png
#EXTINF:2.266667,
353251592566569-index10166.png
#EXTINF:2.033333,
353251592566569-index10167.png
#EXTINF:4.066667,
353251592566569-index10168.png
#EXTINF:3.100000,
353251592566569-index10169.png
#EXTINF:4.933333,
353251592566569-index10170.png
#EXTINF:1.300000,
353251592566569-index10171.png
#EXTINF:1.400000,
353251592566569-index10172.png
#EXTINF:1.366667,
353251592566569-index10173.png
#EXTINF:5.833333,
353251592566569-index10174.png
#EXTINF:3.600000,
353251592566569-index10175.png
#EXTINF:6.200000,
353251592566569-index10176.png
#EXTINF:3.533333,
353251592566569-index10177.png
#EXTINF:2.600000,
353251592566569-index10178.png
#EXTINF:5.133333,
353251592566569-index10179.png
#EXTINF:1.233333,
353251592566569-index10180.png
#EXTINF:6.066667,
353251592566569-index10181.png
#EXTINF:5.800000,
353251592566569-index10182.png
#EXTINF:8.466667,
353251592566569-index10183.png
#EXTINF:2.400000,
353251592566569-index10184.png
#EXTINF:3.833333,
353251592566569-index10185.png
#EXTINF:4.033333,
353251592566569-index10186.png
#EXTINF:3.033333,
353251592566569-index10187.png
#EXTINF:3.033333,
353251592566569-index10188.png
#EXTINF:5.500000,
353251592566569-index10189.png
#EXTINF:4.733333,
353251592566569-index10190.png
#EXTINF:7.000000,
353251592566569-index10191.png
#EXTINF:4.900000,
353251592566569-index10192.png
#EXTINF:7.600000,
353251592566569-index10193.png
#EXTINF:2.466667,
353251592566569-index10194.png
#EXTINF:2.633333,
353251592566569-index10195.png
#EXTINF:2.566667,
353251592566569-index10196.png
#EXTINF:6.366667,
353251592566569-index10197.png
#EXTINF:3.533333,
353251592566569-index10198.png
#EXTINF:1.400000,
353251592566569-index10199.png
#EXTINF:3.266667,
353251592566569-index10200.png
#EXTINF:2.166667,
353251592566569-index10201.png
#EXTINF:5.333333,
353251592566569-index10202.png
#EXTINF:7.066667,
353251592566569-index10203.png
#EXTINF:4.400000,
353251592566569-index10204.png
#EXTINF:4.066667,
353251592566569-index10205.png
#EXTINF:3.033333,
353251592566569-index10206.png
#EXTINF:3.033333,
353251592566569-index10207.png
#EXTINF:3.033333,
353251592566569-index10208.png
#EXTINF:1.700000,
353251592566569-index10209.png
#EXTINF:5.700000,
353251592566569-index10210.png
#EXTINF:2.033333,
353251592566569-index10211.png
#EXTINF:4.900000,
353251592566569-index10212.png
#EXTINF:4.366667,
353251592566569-index10213.png
#EXTINF:1.366667,
353251592566569-index10214.png
#EXTINF:2.633333,
353251592566569-index10215.png
#EXTINF:6.333333,
353251592566569-index10216.png
#EXTINF:7.233333,
353251592566569-index10217.png
#EXTINF:2.233333,
353251592566569-index10218.png
#EXTINF:3.900000,
353251592566569-index10219.png
#EXTINF:4.033333,
353251592566569-index10220.png
#EXTINF:9.466667,
353251592566569-index10221.png
#EXTINF:8.966667,
353251592566569-index10222.png
#EXTINF:5.033333,
353251592566569-index10223.png
#EXTINF:6.933333,
353251592566569-index10224.png
#EXTINF:2.700000,
353251592566569-index10225.png
#EXTINF:5.766667,
353251592566569-index10226.png
#EXTINF:6.366667,
353251592566569-index10227.png
#EXTINF:5.600000,
353251592566569-index10228.png
#EXTINF:2.833333,
353251592566569-index10229.png
#EXTINF:7.700000,
353251592566569-index10230.png
#EXTINF:8.700000,
353251592566569-index10231.png
#EXTINF:4.800000,
353251592566569-index10232.png
#EXTINF:2.466667,
353251592566569-index10233.png
#EXTINF:6.700000,
353251592566569-index10234.png
#EXTINF:2.433333,
353251592566569-index10235.png
#EXTINF:3.900000,
353251592566569-index10236.png
#EXTINF:7.266667,
353251592566569-index10237.png
#EXTINF:10.000000,
353251592566569-index10238.png
#EXTINF:6.733333,
353251592566569-index10239.png
#EXTINF:10.000000,
353251592566569-index10240.png
#EXTINF:7.933333,
353251592566569-index10241.png
#EXTINF:10.000000,
353251592566569-index10242.png
#EXTINF:10.000000,
353251592566569-index10243.png
#EXTINF:10.000000,
353251592566569-index10244.png
#EXTINF:10.000000,
353251592566569-index10245.png
#EXTINF:9.000000,
353251592566569-index10246.png
#EXTINF:10.000000,
353251592566569-index10247.png
#EXTINF:10.000000,
353251592566569-index10248.png
#EXTINF:10.000000,
353251592566569-index10249.png
#EXTINF:10.000000,
353251592566569-index10250.png
#EXTINF:6.900000,
353251592566569-index10251.png
#EXTINF:3.166667,
353251592566569-index10252.png
#EXTINF:4.833333,
353251592566569-index10253.png
#EXTINF:5.700000,
353251592566569-index10254.png
#EXTINF:9.366667,
353251592566569-index10255.png
#EXTINF:2.400000,
353251592566569-index10256.png
#EXTINF:5.433333,
353251592566569-index10257.png
#EXTINF:7.833333,
353251592566569-index10258.png
#EXT-X-ENDLIST
