#EXTM3U
#EXT-X-VERSION:3
#EXT-X-TARGETDURATION:11
#EXT-X-MEDIA-SEQUENCE:10001
#EXTINF:6.548644,
361932756172286-index10001.ts
#EXTINF:7.758267,
361932756172286-index10002.ts
#EXTINF:2.377533,
361932756172286-index10003.ts
#EXTINF:2.502667,
361932756172286-index10004.ts
#EXTINF:4.087689,
361932756172286-index10005.ts
#EXTINF:1.585022,
361932756172286-index10006.ts
#EXTINF:5.547578,
361932756172286-index10007.ts
#EXTINF:5.339022,
361932756172286-index10008.ts
#EXTINF:8.884467,
361932756172286-index10009.ts
#EXTINF:3.336889,
361932756172286-index10010.ts
#EXTINF:4.254533,
361932756172286-index10011.ts
#EXTINF:10.010667,
361932756172286-index10012.ts
#EXTINF:10.010667,
361932756172286-index10013.ts
#EXTINF:7.591422,
361932756172286-index10014.ts
#EXTINF:1.877000,
361932756172286-index10015.ts
#EXTINF:5.255600,
361932756172286-index10016.ts
#EXTINF:4.546511,
361932756172286-index10017.ts
#EXTINF:7.216022,
361932756172286-index10018.ts
#EXTINF:6.757200,
361932756172286-index10019.ts
#EXTINF:3.462022,
361932756172286-index10020.ts
#EXTINF:3.837422,
361932756172286-index10021.ts
#EXTINF:3.128333,
361932756172286-index10022.ts
#EXTINF:4.045978,
361932756172286-index10023.ts
#EXTINF:10.010667,
361932756172286-index10024.ts
#EXTINF:4.045978,
361932756172286-index10025.ts
#EXTINF:10.010667,
361932756172286-index10026.ts
#EXTINF:3.003200,
361932756172286-index10027.ts
#EXTINF:10.010667,
361932756172286-index10028.ts
#EXTINF:10.010667,
361932756172286-index10029.ts
#EXTINF:3.336889,
361932756172286-index10030.ts
#EXTINF:4.629933,
361932756172286-index10031.ts
#EXTINF:4.921911,
361932756172286-index10032.ts
#EXTINF:3.086622,
361932756172286-index10033.ts
#EXTINF:8.050244,
361932756172286-index10034.ts
#EXTINF:10.010667,
361932756172286-index10035.ts
#EXTINF:5.547578,
361932756172286-index10036.ts
#EXTINF:5.547578,
361932756172286-index10037.ts
#EXTINF:3.545444,
361932756172286-index10038.ts
#EXTINF:10.010667,
361932756172286-index10039.ts
#EXTINF:10.010667,
361932756172286-index10040.ts
#EXTINF:3.211756,
361932756172286-index10041.ts
#EXTINF:5.797844,
361932756172286-index10042.ts
#EXTINF:10.010667,
361932756172286-index10043.ts
#EXTINF:4.171111,
361932756172286-index10044.ts
#EXTINF:3.545444,
361932756172286-index10045.ts
#EXTINF:2.419244,
361932756172286-index10046.ts
#EXTINF:6.131533,
361932756172286-index10047.ts
#EXTINF:2.085556,
361932756172286-index10048.ts
#EXTINF:10.010667,
361932756172286-index10049.ts
#EXTINF:9.885533,
361932756172286-index10050.ts
#EXTINF:4.296244,
361932756172286-index10051.ts
#EXTINF:1.084489,
361932756172286-index10052.ts
#EXTINF:3.295178,
361932756172286-index10053.ts
#EXTINF:10.010667,
361932756172286-index10054.ts
#EXTINF:3.837422,
361932756172286-index10055.ts
#EXTINF:4.171111,
361932756172286-index10056.ts
#EXTINF:10.010667,
361932756172286-index10057.ts
#EXTINF:2.836356,
361932756172286-index10058.ts
#EXTINF:4.796778,
361932756172286-index10059.ts
#EXTINF:7.716556,
361932756172286-index10060.ts
#EXTINF:6.340089,
361932756172286-index10061.ts
#EXTINF:10.010667,
361932756172286-index10062.ts
#EXTINF:3.587156,
361932756172286-index10063.ts
#EXTINF:5.047044,
361932756172286-index10064.ts
#EXTINF:6.924044,
361932756172286-index10065.ts
#EXTINF:2.919778,
361932756172286-index10066.ts
#EXTINF:1.334756,
361932756172286-index10067.ts
#EXTINF:6.715489,
361932756172286-index10068.ts
#EXTINF:3.712289,
361932756172286-index10069.ts
#EXTINF:1.626733,
361932756172286-index10070.ts
#EXTINF:6.465222,
361932756172286-index10071.ts
#EXTINF:3.253467,
361932756172286-index10072.ts
#EXTINF:10.010667,
361932756172286-index10073.ts
#EXTINF:10.010667,
361932756172286-index10074.ts
#EXTINF:6.214956,
361932756172286-index10075.ts
#EXTINF:3.962556,
361932756172286-index10076.ts
#EXTINF:5.047044,
361932756172286-index10077.ts
#EXTINF:10.010667,
361932756172286-index10078.ts
#EXTINF:5.088756,
361932756172286-index10079.ts
#EXTINF:1.126200,
361932756172286-index10080.ts
#EXTINF:1.459889,
361932756172286-index10081.ts
#EXTINF:5.005333,
361932756172286-index10082.ts
#EXTINF:2.502667,
361932756172286-index10083.ts
#EXTINF:3.170044,
361932756172286-index10084.ts
#EXTINF:8.634200,
361932756172286-index10085.ts
#EXTINF:10.010667,
361932756172286-index10086.ts
#EXTINF:6.131533,
361932756172286-index10087.ts
#EXTINF:7.299444,
361932756172286-index10088.ts
#EXTINF:3.378600,
361932756172286-index10089.ts
#EXTINF:10.010667,
361932756172286-index10090.ts
#EXTINF:5.464156,
361932756172286-index10091.ts
#EXTINF:3.962556,
361932756172286-index10092.ts
#EXTINF:9.843822,
361932756172286-index10093.ts
#EXTINF:8.383933,
361932756172286-index10094.ts
#EXTINF:8.926178,
361932756172286-index10095.ts
#EXTINF:2.210689,
361932756172286-index10096.ts
#EXTINF:4.296244,
361932756172286-index10097.ts
#EXTINF:1.793578,
361932756172286-index10098.ts
#EXTINF:10.010667,
361932756172286-index10099.ts
#EXTINF:6.340089,
361932756172286-index10100.ts
#EXTINF:2.419244,
361932756172286-index10101.ts
#EXTINF:2.085556,
361932756172286-index10102.ts
#EXTINF:10.010667,
361932756172286-index10103.ts
#EXTINF:8.675911,
361932756172286-index10104.ts
#EXTINF:4.921911,
361932756172286-index10105.ts
#EXTINF:2.210689,
361932756172286-index10106.ts
#EXTINF:5.255600,
361932756172286-index10107.ts
#EXTINF:10.010667,
361932756172286-index10108.ts
#EXTINF:6.840622,
361932756172286-index10109.ts
#EXTINF:1.751867,
361932756172286-index10110.ts
#EXTINF:4.629933,
361932756172286-index10111.ts
#EXTINF:7.382867,
361932756172286-index10112.ts
#EXTINF:2.043844,
361932756172286-index10113.ts
#EXTINF:3.420311,
361932756172286-index10114.ts
#EXTINF:2.627800,
361932756172286-index10115.ts
#EXTINF:3.003200,
361932756172286-index10116.ts
#EXTINF:2.419244,
361932756172286-index10117.ts
#EXTINF:6.590356,
361932756172286-index10118.ts
#EXTINF:5.047044,
361932756172286-index10119.ts
#EXTINF:5.130467,
361932756172286-index10120.ts
#EXTINF:1.626733,
361932756172286-index10121.ts
#EXTINF:2.419244,
361932756172286-index10122.ts
#EXTINF:1.543311,
361932756172286-index10123.ts
#EXTINF:4.963622,
361932756172286-index10124.ts
#EXTINF:3.128333,
361932756172286-index10125.ts
#EXTINF:4.212822,
361932756172286-index10126.ts
#EXTINF:10.010667,
361932756172286-index10127.ts
#EXTINF:2.878067,
361932756172286-index10128.ts
#EXTINF:6.298378,
361932756172286-index10129.ts
#EXTINF:7.049178,
361932756172286-index10130.ts
#EXTINF:5.380733,
361932756172286-index10131.ts
#EXTINF:8.091956,
361932756172286-index10132.ts
#EXTINF:10.010667,
361932756172286-index10133.ts
#EXTINF:10.010667,
361932756172286-index10134.ts
#EXTINF:4.212822,
361932756172286-index10135.ts
#EXTINF:4.087689,
361932756172286-index10136.ts
#EXTINF:6.173244,
361932756172286-index10137.ts
#EXTINF:8.717622,
361932756172286-index10138.ts
#EXTINF:6.673778,
361932756172286-index10139.ts
#EXTINF:6.256667,
361932756172286-index10140.ts
#EXTINF:6.048111,
361932756172286-index10141.ts
#EXTINF:4.129400,
361932756172286-index10142.ts
#EXTINF:5.589289,
361932756172286-index10143.ts
#EXTINF:2.586089,
361932756172286-index10144.ts
#EXTINF:2.127267,
361932756172286-index10145.ts
#EXTINF:10.010667,
361932756172286-index10146.ts
#EXTINF:10.010667,
361932756172286-index10147.ts
#EXTINF:3.128333,
361932756172286-index10148.ts
#EXTINF:2.335822,
361932756172286-index10149.ts
#EXTINF:5.380733,
361932756172286-index10150.ts
#EXTINF:1.501600,
361932756172286-index10151.ts
#EXTINF:2.711222,
361932756172286-index10152.ts
#EXTINF:3.628867,
361932756172286-index10153.ts
#EXTINF:2.544378,
361932756172286-index10154.ts
#EXTINF:2.669511,
361932756172286-index10155.ts
#EXTINF:1.543311,
361932756172286-index10156.ts
#EXTINF:1.751867,
361932756172286-index10157.ts
#EXTINF:2.460956,
361932756172286-index10158.ts
#EXTINF:2.419244,
361932756172286-index10159.ts
#EXTINF:1.710156,
361932756172286-index10160.ts
#EXTINF:1.501600,
361932756172286-index10161.ts
#EXTINF:1.126200,
361932756172286-index10162.ts
#EXTINF:4.838489,
361932756172286-index10163.ts
#EXTINF:1.585022,
361932756172286-index10164.ts
#EXTINF:1.751867,
361932756172286-index10165.ts
#EXTINF:2.043844,
361932756172286-index10166.ts
#EXTINF:1.751867,
361932756172286-index10167.ts
#EXTINF:1.918711,
361932756172286-index10168.ts
#EXTINF:0.959356,
361932756172286-index10169.ts
#EXTINF:1.167911,
361932756172286-index10170.ts
#EXTINF:8.050244,
361932756172286-index10171.ts
#EXTINF:10.010667,
361932756172286-index10172.ts
#EXTINF:7.674844,
361932756172286-index10173.ts
#EXTINF:5.255600,
361932756172286-index10174.ts
#EXTINF:1.585022,
361932756172286-index10175.ts
#EXTINF:4.880200,
361932756172286-index10176.ts
#EXTINF:10.010667,
361932756172286-index10177.ts
#EXTINF:2.711222,
361932756172286-index10178.ts
#EXTINF:4.796778,
361932756172286-index10179.ts
#EXTINF:3.336889,
361932756172286-index10180.ts
#EXTINF:9.343289,
361932756172286-index10181.ts
#EXTINF:3.545444,
361932756172286-index10182.ts
#EXTINF:10.010667,
361932756172286-index10183.ts
#EXTINF:3.378600,
361932756172286-index10184.ts
#EXTINF:7.132600,
361932756172286-index10185.ts
#EXTINF:3.628867,
361932756172286-index10186.ts
#EXTINF:2.919778,
361932756172286-index10187.ts
#EXTINF:5.213889,
361932756172286-index10188.ts
#EXTINF:3.128333,
361932756172286-index10189.ts
#EXTINF:5.464156,
361932756172286-index10190.ts
#EXTINF:6.924044,
361932756172286-index10191.ts
#EXTINF:5.130467,
361932756172286-index10192.ts
#EXTINF:2.627800,
361932756172286-index10193.ts
#EXTINF:10.010667,
361932756172286-index10194.ts
#EXTINF:10.010667,
361932756172286-index10195.ts
#EXTINF:2.335822,
361932756172286-index10196.ts
#EXTINF:4.045978,
361932756172286-index10197.ts
#EXTINF:3.044911,
361932756172286-index10198.ts
#EXTINF:2.669511,
361932756172286-index10199.ts
#EXTINF:7.257733,
361932756172286-index10200.ts
#EXTINF:8.842756,
361932756172286-index10201.ts
#EXTINF:5.172178,
361932756172286-index10202.ts
#EXTINF:1.835289,
361932756172286-index10203.ts
#EXTINF:1.167911,
361932756172286-index10204.ts
#EXTINF:1.126200,
361932756172286-index10205.ts
#EXTINF:1.126200,
361932756172286-index10206.ts
#EXTINF:2.252400,
361932756172286-index10207.ts
#EXTINF:5.213889,
361932756172286-index10208.ts
#EXTINF:7.674844,
361932756172286-index10209.ts
#EXTINF:3.420311,
361932756172286-index10210.ts
#EXTINF:3.044911,
361932756172286-index10211.ts
#EXTINF:5.130467,
361932756172286-index10212.ts
#EXTINF:4.796778,
361932756172286-index10213.ts
#EXTINF:2.460956,
361932756172286-index10214.ts
#EXTINF:3.545444,
361932756172286-index10215.ts
#EXTINF:6.632067,
361932756172286-index10216.ts
#EXTINF:2.002133,
361932756172286-index10217.ts
#EXTINF:2.419244,
361932756172286-index10218.ts
#EXTINF:3.754000,
361932756172286-index10219.ts
#EXTINF:5.213889,
361932756172286-index10220.ts
#EXTINF:7.883400,
361932756172286-index10221.ts
#EXTINF:3.545444,
361932756172286-index10222.ts
#EXTINF:5.422444,
361932756172286-index10223.ts
#EXTINF:5.172178,
361932756172286-index10224.ts
#EXTINF:4.796778,
361932756172286-index10225.ts
#EXTINF:9.176444,
361932756172286-index10226.ts
#EXTINF:3.420311,
361932756172286-index10227.ts
#EXTINF:3.253467,
361932756172286-index10228.ts
#EXTINF:2.168978,
361932756172286-index10229.ts
#EXTINF:1.543311,
361932756172286-index10230.ts
#EXTINF:2.919778,
361932756172286-index10231.ts
#EXTINF:2.210689,
361932756172286-index10232.ts
#EXTINF:4.129400,
361932756172286-index10233.ts
#EXTINF:10.010667,
361932756172286-index10234.ts
#EXTINF:7.883400,
361932756172286-index10235.ts
#EXTINF:9.009600,
361932756172286-index10236.ts
#EXTINF:5.964689,
361932756172286-index10237.ts
#EXTINF:3.628867,
361932756172286-index10238.ts
#EXTINF:9.468422,
361932756172286-index10239.ts
#EXTINF:10.010667,
361932756172286-index10240.ts
#EXTINF:5.839556,
361932756172286-index10241.ts
#EXTINF:10.010667,
361932756172286-index10242.ts
#EXTINF:3.295178,
361932756172286-index10243.ts
#EXTINF:6.048111,
361932756172286-index10244.ts
#EXTINF:8.675911,
361932756172286-index10245.ts
#EXTINF:4.963622,
361932756172286-index10246.ts
#EXTINF:2.210689,
361932756172286-index10247.ts
#EXTINF:7.633133,
361932756172286-index10248.ts
#EXTINF:6.340089,
361932756172286-index10249.ts
#EXTINF:7.549711,
361932756172286-index10250.ts
#EXTINF:4.254533,
361932756172286-index10251.ts
#EXTINF:4.296244,
361932756172286-index10252.ts
#EXTINF:2.460956,
361932756172286-index10253.ts
#EXTINF:8.801044,
361932756172286-index10254.ts
#EXTINF:3.754000,
361932756172286-index10255.ts
#EXTINF:1.459889,
361932756172286-index10256.ts
#EXTINF:4.921911,
361932756172286-index10257.ts
#EXTINF:6.298378,
361932756172286-index10258.ts
#EXTINF:6.256667,
361932756172286-index10259.ts
#EXTINF:2.127267,
361932756172286-index10260.ts
#EXTINF:4.379667,
361932756172286-index10261.ts
#EXTINF:6.173244,
361932756172286-index10262.ts
#EXTINF:3.962556,
361932756172286-index10263.ts
#EXTINF:2.836356,
361932756172286-index10264.ts
#EXTINF:7.007467,
361932756172286-index10265.ts
#EXTINF:5.797844,
361932756172286-index10266.ts
#EXTINF:7.466289,
361932756172286-index10267.ts
#EXTINF:8.258800,
361932756172286-index10268.ts
#EXTINF:3.712289,
361932756172286-index10269.ts
#EXTINF:10.010667,
361932756172286-index10270.ts
#EXTINF:10.010667,
361932756172286-index10271.ts
#EXTINF:10.010667,
361932756172286-index10272.ts
#EXTINF:10.010667,
361932756172286-index10273.ts
#EXTINF:10.010667,
361932756172286-index10274.ts
#EXTINF:1.793578,
361932756172286-index10275.ts
#EXT-X-ENDLIST
