#EXTM3U
#EXT-X-VERSION:3
#EXT-X-TARGETDURATION:10
#EXT-X-MEDIA-SEQUENCE:10001
#EXTINF:10.000000,
381856451431910-index10001.png
#EXTINF:3.040000,
381856451431910-index10002.png
#EXTINF:3.480000,
381856451431910-index10003.png
#EXTINF:2.360000,
381856451431910-index10004.png
#EXTINF:1.560000,
381856451431910-index10005.png
#EXTINF:1.600000,
381856451431910-index10006.png
#EXTINF:2.880000,
381856451431910-index10007.png
#EXTINF:1.800000,
381856451431910-index10008.png
#EXTINF:3.960000,
381856451431910-index10009.png
#EXTINF:1.880000,
381856451431910-index10010.png
#EXTINF:1.040000,
381856451431910-index10011.png
#EXTINF:2.040000,
381856451431910-index10012.png
#EXTINF:5.000000,
381856451431910-index10013.png
#EXTINF:1.760000,
381856451431910-index10014.png
#EXTINF:4.880000,
381856451431910-index10015.png
#EXTINF:5.400000,
381856451431910-index10016.png
#EXTINF:2.120000,
381856451431910-index10017.png
#EXTINF:1.040000,
381856451431910-index10018.png
#EXTINF:6.080000,
381856451431910-index10019.png
#EXTINF:5.760000,
381856451431910-index10020.png
#EXTINF:7.320000,
381856451431910-index10021.png
#EXTINF:5.760000,
381856451431910-index10022.png
#EXTINF:5.840000,
381856451431910-index10023.png
#EXTINF:5.960000,
381856451431910-index10024.png
#EXTINF:6.640000,
381856451431910-index10025.png
#EXTINF:3.040000,
381856451431910-index10026.png
#EXTINF:2.120000,
381856451431910-index10027.png
#EXTINF:4.960000,
381856451431910-index10028.png
#EXTINF:1.440000,
381856451431910-index10029.png
#EXTINF:5.240000,
381856451431910-index10030.png
#EXTINF:2.960000,
381856451431910-index10031.png
#EXTINF:10.000000,
381856451431910-index10032.png
#EXTINF:1.400000,
381856451431910-index10033.png
#EXTINF:6.800000,
381856451431910-index10034.png
#EXTINF:5.240000,
381856451431910-index10035.png
#EXTINF:2.880000,
381856451431910-index10036.png
#EXTINF:2.360000,
381856451431910-index10037.png
#EXTINF:6.160000,
381856451431910-index10038.png
#EXTINF:3.960000,
381856451431910-index10039.png
#EXTINF:2.880000,
381856451431910-index10040.png
#EXTINF:6.320000,
381856451431910-index10041.png
#EXTINF:4.600000,
381856451431910-index10042.png
#EXTINF:4.640000,
381856451431910-index10043.png
#EXTINF:3.040000,
381856451431910-index10044.png
#EXTINF:2.360000,
381856451431910-index10045.png
#EXTINF:1.400000,
381856451431910-index10046.png
#EXTINF:3.480000,
381856451431910-index10047.png
#EXTINF:4.600000,
381856451431910-index10048.png
#EXTINF:7.840000,
381856451431910-index10049.png
#EXTINF:7.840000,
381856451431910-index10050.png
#EXTINF:7.280000,
381856451431910-index10051.png
#EXTINF:4.920000,
381856451431910-index10052.png
#EXTINF:2.680000,
381856451431910-index10053.png
#EXTINF:2.280000,
381856451431910-index10054.png
#EXTINF:3.600000,
381856451431910-index10055.png
#EXTINF:1.640000,
381856451431910-index10056.png
#EXTINF:8.560000,
381856451431910-index10057.png
#EXTINF:6.120000,
381856451431910-index10058.png
#EXTINF:5.640000,
381856451431910-index10059.png
#EXTINF:2.160000,
381856451431910-index10060.png
#EXTINF:1.680000,
381856451431910-index10061.png
#EXTINF:1.240000,
381856451431910-index10062.png
#EXTINF:2.520000,
381856451431910-index10063.png
#EXTINF:2.520000,
381856451431910-index10064.png
#EXTINF:5.600000,
381856451431910-index10065.png
#EXTINF:3.040000,
381856451431910-index10066.png
#EXTINF:10.000000,
381856451431910-index10067.png
#EXTINF:7.320000,
381856451431910-index10068.png
#EXTINF:3.360000,
381856451431910-index10069.png
#EXTINF:2.400000,
381856451431910-index10070.png
#EXTINF:6.640000,
381856451431910-index10071.png
#EXTINF:10.000000,
381856451431910-index10072.png
#EXTINF:3.640000,
381856451431910-index10073.png
#EXTINF:4.440000,
381856451431910-index10074.png
#EXTINF:2.080000,
381856451431910-index10075.png
#EXTINF:7.560000,
381856451431910-index10076.png
#EXTINF:1.840000,
381856451431910-index10077.png
#EXTINF:2.040000,
381856451431910-index10078.png
#EXTINF:2.400000,
381856451431910-index10079.png
#EXTINF:3.560000,
381856451431910-index10080.png
#EXTINF:3.280000,
381856451431910-index10081.png
#EXTINF:1.480000,
381856451431910-index10082.png
#EXTINF:2.760000,
381856451431910-index10083.png
#EXTINF:4.640000,
381856451431910-index10084.png
#EXTINF:6.440000,
381856451431910-index10085.png
#EXTINF:4.720000,
381856451431910-index10086.png
#EXTINF:10.000000,
381856451431910-index10087.png
#EXTINF:6.920000,
381856451431910-index10088.png
#EXTINF:5.840000,
381856451431910-index10089.png
#EXTINF:2.320000,
381856451431910-index10090.png
#EXTINF:6.160000,
381856451431910-index10091.png
#EXTINF:1.680000,
381856451431910-index10092.png
#EXTINF:2.840000,
381856451431910-index10093.png
#EXTINF:5.840000,
381856451431910-index10094.png
#EXTINF:1.600000,
381856451431910-index10095.png
#EXTINF:1.880000,
381856451431910-index10096.png
#EXTINF:9.480000,
381856451431910-index10097.png
#EXTINF:3.280000,
381856451431910-index10098.png
#EXTINF:3.520000,
381856451431910-index10099.png
#EXTINF:2.320000,
381856451431910-index10100.png
#EXTINF:10.000000,
381856451431910-index10101.png
#EXTINF:10.000000,
381856451431910-index10102.png
#EXTINF:4.800000,
381856451431910-index10103.png
#EXTINF:6.720000,
381856451431910-index10104.png
#EXTINF:3.440000,
381856451431910-index10105.png
#EXTINF:1.080000,
381856451431910-index10106.png
#EXTINF:5.920000,
381856451431910-index10107.png
#EXTINF:3.320000,
381856451431910-index10108.png
#EXTINF:3.520000,
381856451431910-index10109.png
#EXTINF:3.040000,
381856451431910-index10110.png
#EXTINF:5.520000,
381856451431910-index10111.png
#EXTINF:2.560000,
381856451431910-index10112.png
#EXTINF:10.000000,
381856451431910-index10113.png
#EXTINF:5.200000,
381856451431910-index10114.png
#EXTINF:2.920000,
381856451431910-index10115.png
#EXTINF:3.760000,
381856451431910-index10116.png
#EXTINF:5.600000,
381856451431910-index10117.png
#EXTINF:4.440000,
381856451431910-index10118.png
#EXTINF:10.000000,
381856451431910-index10119.png
#EXTINF:10.000000,
381856451431910-index10120.png
#EXTINF:10.000000,
381856451431910-index10121.png
#EXTINF:3.800000,
381856451431910-index10122.png
#EXTINF:2.200000,
381856451431910-index10123.png
#EXTINF:5.160000,
381856451431910-index10124.png
#EXTINF:5.320000,
381856451431910-index10125.png
#EXTINF:2.080000,
381856451431910-index10126.png
#EXTINF:2.120000,
381856451431910-index10127.png
#EXTINF:3.000000,
381856451431910-index10128.png
#EXTINF:4.760000,
381856451431910-index10129.png
#EXTINF:3.320000,
381856451431910-index10130.png
#EXTINF:7.440000,
381856451431910-index10131.png
#EXTINF:2.200000,
381856451431910-index10132.png
#EXTINF:5.520000,
381856451431910-index10133.png
#EXTINF:4.560000,
381856451431910-index10134.png
#EXTINF:8.040000,
381856451431910-index10135.png
#EXTINF:3.360000,
381856451431910-index10136.png
#EXTINF:7.800000,
381856451431910-index10137.png
#EXTINF:4.840000,
381856451431910-index10138.png
#EXTINF:5.640000,
381856451431910-index10139.png
#EXTINF:5.720000,
381856451431910-index10140.png
#EXTINF:4.880000,
381856451431910-index10141.png
#EXTINF:2.960000,
381856451431910-index10142.png
#EXTINF:9.920000,
381856451431910-index10143.png
#EXTINF:5.200000,
381856451431910-index10144.png
#EXTINF:5.680000,
381856451431910-index10145.png
#EXTINF:5.960000,
381856451431910-index10146.png
#EXTINF:8.560000,
381856451431910-index10147.png
#EXTINF:1.600000,
381856451431910-index10148.png
#EXTINF:9.800000,
381856451431910-index10149.png
#EXTINF:5.600000,
381856451431910-index10150.png
#EXTINF:8.000000,
381856451431910-index10151.png
#EXTINF:4.640000,
381856451431910-index10152.png
#EXTINF:10.000000,
381856451431910-index10153.png
#EXTINF:6.680000,
381856451431910-index10154.png
#EXTINF:9.080000,
381856451431910-index10155.png
#EXTINF:10.000000,
381856451431910-index10156.png
#EXTINF:2.400000,
381856451431910-index10157.png
#EXTINF:5.640000,
381856451431910-index10158.png
#EXTINF:4.120000,
381856451431910-index10159.png
#EXTINF:10.000000,
381856451431910-index10160.png
#EXTINF:1.200000,
381856451431910-index10161.png
#EXTINF:6.960000,
381856451431910-index10162.png
#EXTINF:10.000000,
381856451431910-index10163.png
#EXTINF:4.560000,
381856451431910-index10164.png
#EXTINF:4.760000,
381856451431910-index10165.png
#EXTINF:4.680000,
381856451431910-index10166.png
#EXTINF:6.600000,
381856451431910-index10167.png
#EXTINF:3.880000,
381856451431910-index10168.png
#EXTINF:4.520000,
381856451431910-index10169.png
#EXTINF:7.200000,
381856451431910-index10170.png
#EXTINF:10.000000,
381856451431910-index10171.png
#EXTINF:10.000000,
381856451431910-index10172.png
#EXTINF:10.000000,
381856451431910-index10173.png
#EXTINF:3.560000,
381856451431910-index10174.png
#EXTINF:7.200000,
381856451431910-index10175.png
#EXTINF:5.560000,
381856451431910-index10176.png
#EXTINF:2.080000,
381856451431910-index10177.png
#EXTINF:1.680000,
381856451431910-index10178.png
#EXTINF:8.320000,
381856451431910-index10179.png
#EXTINF:7.480000,
381856451431910-index10180.png
#EXTINF:2.560000,
381856451431910-index10181.png
#EXTINF:10.000000,
381856451431910-index10182.png
#EXTINF:9.960000,
381856451431910-index10183.png
#EXTINF:1.840000,
381856451431910-index10184.png
#EXTINF:4.360000,
381856451431910-index10185.png
#EXTINF:2.560000,
381856451431910-index10186.png
#EXTINF:7.320000,
381856451431910-index10187.png
#EXTINF:3.160000,
381856451431910-index10188.png
#EXTINF:5.760000,
381856451431910-index10189.png
#EXTINF:3.800000,
381856451431910-index10190.png
#EXTINF:2.120000,
381856451431910-index10191.png
#EXTINF:5.760000,
381856451431910-index10192.png
#EXTINF:2.720000,
381856451431910-index10193.png
#EXTINF:4.960000,
381856451431910-index10194.png
#EXTINF:10.000000,
381856451431910-index10195.png
#EXTINF:2.480000,
381856451431910-index10196.png
#EXTINF:6.480000,
381856451431910-index10197.png
#EXTINF:3.800000,
381856451431910-index10198.png
#EXTINF:3.760000,
381856451431910-index10199.png
#EXTINF:3.440000,
381856451431910-index10200.png
#EXTINF:3.000000,
381856451431910-index10201.png
#EXTINF:6.080000,
381856451431910-index10202.png
#EXTINF:6.320000,
381856451431910-index10203.png
#EXTINF:7.160000,
381856451431910-index10204.png
#EXTINF:4.720000,
381856451431910-index10205.png
#EXTINF:4.560000,
381856451431910-index10206.png
#EXTINF:4.360000,
381856451431910-index10207.png
#EXTINF:4.360000,
381856451431910-index10208.png
#EXTINF:10.000000,
381856451431910-index10209.png
#EXTINF:4.160000,
381856451431910-index10210.png
#EXTINF:6.440000,
381856451431910-index10211.png
#EXTINF:4.240000,
381856451431910-index10212.png
#EXTINF:5.840000,
381856451431910-index10213.png
#EXTINF:3.640000,
381856451431910-index10214.png
#EXTINF:1.360000,
381856451431910-index10215.png
#EXTINF:1.440000,
381856451431910-index10216.png
#EXTINF:1.960000,
381856451431910-index10217.png
#EXTINF:1.520000,
381856451431910-index10218.png
#EXTINF:1.120000,
381856451431910-index10219.png
#EXTINF:1.000000,
381856451431910-index10220.png
#EXTINF:1.200000,
381856451431910-index10221.png
#EXTINF:2.200000,
381856451431910-index10222.png
#EXTINF:2.080000,
381856451431910-index10223.png
#EXTINF:2.040000,
381856451431910-index10224.png
#EXTINF:2.080000,
381856451431910-index10225.png
#EXTINF:5.240000,
381856451431910-index10226.png
#EXTINF:3.080000,
381856451431910-index10227.png
#EXTINF:1.040000,
381856451431910-index10228.png
#EXTINF:2.240000,
381856451431910-index10229.png
#EXTINF:4.240000,
381856451431910-index10230.png
#EXTINF:1.760000,
381856451431910-index10231.png
#EXTINF:1.160000,
381856451431910-index10232.png
#EXTINF:2.160000,
381856451431910-index10233.png
#EXTINF:2.000000,
381856451431910-index10234.png
#EXTINF:1.600000,
381856451431910-index10235.png
#EXTINF:1.840000,
381856451431910-index10236.png
#EXTINF:1.840000,
381856451431910-index10237.png
#EXTINF:2.560000,
381856451431910-index10238.png
#EXTINF:2.560000,
381856451431910-index10239.png
#EXTINF:1.120000,
381856451431910-index10240.png
#EXTINF:1.960000,
381856451431910-index10241.png
#EXTINF:2.200000,
381856451431910-index10242.png
#EXTINF:1.800000,
381856451431910-index10243.png
#EXTINF:3.160000,
381856451431910-index10244.png
#EXTINF:1.520000,
381856451431910-index10245.png
#EXTINF:1.720000,
381856451431910-index10246.png
#EXTINF:4.480000,
381856451431910-index10247.png
#EXTINF:4.240000,
381856451431910-index10248.png
#EXTINF:7.480000,
381856451431910-index10249.png
#EXTINF:2.160000,
381856451431910-index10250.png
#EXTINF:1.080000,
381856451431910-index10251.png
#EXTINF:2.840000,
381856451431910-index10252.png
#EXT-X-ENDLIST
