#EXTM3U
#EXT-X-VERSION:3
#EXT-X-TARGETDURATION:11
#EXT-X-MEDIA-SEQUENCE:10001
#EXTINF:10.825967,
382137037813663-index10001.png
#EXTINF:10.825967,
382137037813663-index10002.png
#EXTINF:10.869444,
382137037813663-index10003.png
#EXTINF:3.565178,
382137037813663-index10004.png
#EXTINF:2.304322,
382137037813663-index10005.png
#EXTINF:2.521711,
382137037813663-index10006.png
#EXTINF:2.478233,
382137037813663-index10007.png
#EXTINF:5.130378,
382137037813663-index10008.png
#EXTINF:7.826000,
382137037813663-index10009.png
#EXTINF:7.999911,
382137037813663-index10010.png
#EXTINF:10.869444,
382137037813663-index10011.png
#EXTINF:6.869489,
382137037813663-index10012.png
#EXTINF:10.869444,
382137037813663-index10013.png
#EXTINF:7.695567,
382137037813663-index10014.png
#EXTINF:9.043378,
382137037813663-index10015.png
#EXTINF:6.695578,
382137037813663-index10016.png
#EXTINF:10.869444,
382137037813663-index10017.png
#EXTINF:10.869444,
382137037813663-index10018.png
#EXTINF:10.869444,
382137037813663-index10019.png
#EXTINF:7.869478,
382137037813663-index10020.png
#EXTINF:9.652067,
382137037813663-index10021.png
#EXTINF:4.652122,
382137037813663-index10022.png
#EXTINF:7.347744,
382137037813663-index10023.png
#EXTINF:6.739056,
382137037813663-index10024.png
#EXTINF:5.782544,
382137037813663-index10025.png
#EXTINF:7.695567,
382137037813663-index10026.png
#EXTINF:10.869444,
382137037813663-index10027.png
#EXTINF:9.347722,
382137037813663-index10028.png
#EXTINF:10.869444,
382137037813663-index10029.png
#EXTINF:9.217289,
382137037813663-index10030.png
#EXTINF:10.869444,
382137037813663-index10031.png
#EXTINF:7.739044,
382137037813663-index10032.png
#EXTINF:10.869444,
382137037813663-index10033.png
#EXTINF:10.869444,
382137037813663-index10034.png
#EXTINF:10.217278,
382137037813663-index10035.png
#EXTINF:10.086844,
382137037813663-index10036.png
#EXTINF:6.565144,
382137037813663-index10037.png
#EXTINF:9.695544,
382137037813663-index10038.png
#EXTINF:10.869444,
382137037813663-index10039.png
#EXTINF:7.478178,
382137037813663-index10040.png
#EXTINF:10.869444,
382137037813663-index10041.png
#EXTINF:10.869444,
382137037813663-index10042.png
#EXTINF:10.869444,
382137037813663-index10043.png
#EXTINF:6.260800,
382137037813663-index10044.png
#EXTINF:10.869444,
382137037813663-index10045.png
#EXTINF:10.869444,
382137037813663-index10046.png
#EXTINF:10.869444,
382137037813663-index10047.png
#EXTINF:10.869444,
382137037813663-index10048.png
#EXTINF:9.478156,
382137037813663-index10049.png
#EXTINF:10.869444,
382137037813663-index10050.png
#EXTINF:10.869444,
382137037813663-index10051.png
#EXTINF:6.173844,
382137037813663-index10052.png
#EXTINF:4.739078,
382137037813663-index10053.png
#EXTINF:10.869444,
382137037813663-index10054.png
#EXTINF:10.869444,
382137037813663-index10055.png
#EXTINF:10.608578,
382137037813663-index10056.png
#EXTINF:10.130322,
382137037813663-index10057.png
#EXTINF:9.391200,
382137037813663-index10058.png
#EXTINF:8.999900,
382137037813663-index10059.png
#EXTINF:10.869444,
382137037813663-index10060.png
#EXTINF:5.434722,
382137037813663-index10061.png
#EXTINF:5.999933,
382137037813663-index10062.png
#EXTINF:10.869444,
382137037813663-index10063.png
#EXTINF:10.347711,
382137037813663-index10064.png
#EXTINF:4.478211,
382137037813663-index10065.png
#EXTINF:9.434678,
382137037813663-index10066.png
#EXTINF:7.043400,
382137037813663-index10067.png
#EXTINF:7.956433,
382137037813663-index10068.png
#EXTINF:10.869444,
382137037813663-index10069.png
#EXTINF:8.608600,
382137037813663-index10070.png
#EXTINF:10.869444,
382137037813663-index10071.png
#EXTINF:4.086911,
382137037813663-index10072.png
#EXTINF:10.869444,
382137037813663-index10073.png
#EXTINF:6.956444,
382137037813663-index10074.png
#EXTINF:10.304233,
382137037813663-index10075.png
#EXTINF:10.869444,
382137037813663-index10076.png
#EXTINF:6.652100,
382137037813663-index10077.png
#EXTINF:10.869444,
382137037813663-index10078.png
#EXTINF:3.608656,
382137037813663-index10079.png
#EXTINF:7.434700,
382137037813663-index10080.png
#EXTINF:9.782500,
382137037813663-index10081.png
#EXTINF:8.304256,
382137037813663-index10082.png
#EXTINF:8.652078,
382137037813663-index10083.png
#EXTINF:7.260789,
382137037813663-index10084.png
#EXTINF:7.217311,
382137037813663-index10085.png
#EXTINF:6.130367,
382137037813663-index10086.png
#EXTINF:9.956411,
382137037813663-index10087.png
#EXTINF:8.782511,
382137037813663-index10088.png
#EXTINF:6.391233,
382137037813663-index10089.png
#EXTINF:10.869444,
382137037813663-index10090.png
#EXTINF:5.739067,
382137037813663-index10091.png
#EXTINF:9.347722,
382137037813663-index10092.png
#EXTINF:10.869444,
382137037813663-index10093.png
#EXTINF:10.869444,
382137037813663-index10094.png
#EXTINF:5.391244,
382137037813663-index10095.png
#EXTINF:4.999944,
382137037813663-index10096.png
#EXTINF:9.086856,
382137037813663-index10097.png
#EXTINF:4.999944,
382137037813663-index10098.png
#EXTINF:4.434733,
382137037813663-index10099.png
#EXTINF:4.217344,
382137037813663-index10100.png
#EXTINF:4.912989,
382137037813663-index10101.png
#EXTINF:1.217378,
382137037813663-index10102.png
#EXTINF:3.130400,
382137037813663-index10103.png
#EXTINF:4.043433,
382137037813663-index10104.png
#EXTINF:3.956478,
382137037813663-index10105.png
#EXTINF:10.869444,
382137037813663-index10106.png
#EXTINF:3.043444,
382137037813663-index10107.png
#EXTINF:8.608600,
382137037813663-index10108.png
#EXTINF:2.086933,
382137037813663-index10109.png
#EXTINF:2.608667,
382137037813663-index10110.png
#EXTINF:4.869511,
382137037813663-index10111.png
#EXTINF:2.391278,
382137037813663-index10112.png
#EXTINF:8.608600,
382137037813663-index10113.png
#EXTINF:2.826056,
382137037813663-index10114.png
#EXTINF:5.565156,
382137037813663-index10115.png
#EXTINF:3.869522,
382137037813663-index10116.png
#EXTINF:10.869444,
382137037813663-index10117.png
#EXTINF:5.826022,
382137037813663-index10118.png
#EXTINF:10.869444,
382137037813663-index10119.png
#EXTINF:10.869444,
382137037813663-index10120.png
#EXTINF:8.217300,
382137037813663-index10121.png
#EXTINF:10.869444,
382137037813663-index10122.png
#EXTINF:10.869444,
382137037813663-index10123.png
#EXTINF:10.869444,
382137037813663-index10124.png
#EXTINF:8.869467,
382137037813663-index10125.png
#EXTINF:10.869444,
382137037813663-index10126.png
#EXTINF:7.478178,
382137037813663-index10127.png
#EXTINF:10.869444,
382137037813663-index10128.png
#EXTINF:9.956411,
382137037813663-index10129.png
#EXTINF:10.869444,
382137037813663-index10130.png
#EXTINF:10.869444,
382137037813663-index10131.png
#EXTINF:10.869444,
382137037813663-index10132.png
#EXTINF:10.869444,
382137037813663-index10133.png
#EXTINF:10.869444,
382137037813663-index10134.png
#EXTINF:10.869444,
382137037813663-index10135.png
#EXTINF:10.869444,
382137037813663-index10136.png
#EXTINF:10.869444,
382137037813663-index10137.png
#EXTINF:10.869444,
382137037813663-index10138.png
#EXTINF:10.869444,
382137037813663-index10139.png
#EXTINF:10.869444,
382137037813663-index10140.png
#EXTINF:0.695644,
382137037813663-index10141.png
#EXT-X-ENDLIST
