#EXTM3U
#EXT-X-VERSION:3
#EXT-X-TARGETDURATION:11
#EXT-X-MEDIA-SEQUENCE:10001
#EXTINF:8.695556,
390942516840166-index10001.png
#EXTINF:10.869444,
390942516840166-index10002.png
#EXTINF:2.086933,
390942516840166-index10003.png
#EXTINF:5.739067,
390942516840166-index10004.png
#EXTINF:4.739078,
390942516840166-index10005.png
#EXTINF:4.912989,
390942516840166-index10006.png
#EXTINF:4.782556,
390942516840166-index10007.png
#EXTINF:7.695567,
390942516840166-index10008.png
#EXTINF:6.608622,
390942516840166-index10009.png
#EXTINF:3.869522,
390942516840166-index10010.png
#EXTINF:6.999922,
390942516840166-index10011.png
#EXTINF:4.912989,
390942516840166-index10012.png
#EXTINF:6.217322,
390942516840166-index10013.png
#EXTINF:5.869500,
390942516840166-index10014.png
#EXTINF:4.608644,
390942516840166-index10015.png
#EXTINF:5.130378,
390942516840166-index10016.png
#EXTINF:9.695544,
390942516840166-index10017.png
#EXTINF:4.652122,
390942516840166-index10018.png
#EXTINF:6.347756,
390942516840166-index10019.png
#EXTINF:10.869444,
390942516840166-index10020.png
#EXTINF:5.782544,
390942516840166-index10021.png
#EXTINF:5.782544,
390942516840166-index10022.png
#EXTINF:5.260811,
390942516840166-index10023.png
#EXTINF:6.652100,
390942516840166-index10024.png
#EXTINF:5.521678,
390942516840166-index10025.png
#EXTINF:9.739022,
390942516840166-index10026.png
#EXTINF:3.130400,
390942516840166-index10027.png
#EXTINF:2.521711,
390942516840166-index10028.png
#EXTINF:3.869522,
390942516840166-index10029.png
#EXTINF:7.565133,
390942516840166-index10030.png
#EXTINF:4.130389,
390942516840166-index10031.png
#EXTINF:2.826056,
390942516840166-index10032.png
#EXTINF:2.913011,
390942516840166-index10033.png
#EXTINF:2.565189,
390942516840166-index10034.png
#EXTINF:10.869444,
390942516840166-index10035.png
#EXTINF:1.478244,
390942516840166-index10036.png
#EXTINF:10.869444,
390942516840166-index10037.png
#EXTINF:3.260833,
390942516840166-index10038.png
#EXTINF:3.260833,
390942516840166-index10039.png
#EXTINF:2.608667,
390942516840166-index10040.png
#EXTINF:6.304278,
390942516840166-index10041.png
#EXTINF:6.130367,
390942516840166-index10042.png
#EXTINF:4.521689,
390942516840166-index10043.png
#EXTINF:3.695611,
390942516840166-index10044.png
#EXTINF:6.565144,
390942516840166-index10045.png
#EXTINF:8.043389,
390942516840166-index10046.png
#EXTINF:3.826044,
390942516840166-index10047.png
#EXTINF:7.217311,
390942516840166-index10048.png
#EXTINF:2.130411,
390942516840166-index10049.png
#EXTINF:10.565100,
390942516840166-index10050.png
#EXTINF:2.999967,
390942516840166-index10051.png
#EXTINF:6.043411,
390942516840166-index10052.png
#EXTINF:2.217367,
390942516840166-index10053.png
#EXTINF:4.956467,
390942516840166-index10054.png
#EXTINF:3.173878,
390942516840166-index10055.png
#EXTINF:5.173856,
390942516840166-index10056.png
#EXTINF:2.999967,
390942516840166-index10057.png
#EXTINF:3.347789,
390942516840166-index10058.png
#EXTINF:6.391233,
390942516840166-index10059.png
#EXTINF:2.130411,
390942516840166-index10060.png
#EXTINF:2.173889,
390942516840166-index10061.png
#EXTINF:4.608644,
390942516840166-index10062.png
#EXTINF:5.043422,
390942516840166-index10063.png
#EXTINF:4.999944,
390942516840166-index10064.png
#EXTINF:7.826000,
390942516840166-index10065.png
#EXTINF:5.608633,
390942516840166-index10066.png
#EXTINF:6.391233,
390942516840166-index10067.png
#EXTINF:1.739111,
390942516840166-index10068.png
#EXTINF:6.999922,
390942516840166-index10069.png
#EXTINF:5.043422,
390942516840166-index10070.png
#EXTINF:10.869444,
390942516840166-index10071.png
#EXTINF:5.304289,
390942516840166-index10072.png
#EXTINF:8.608600,
390942516840166-index10073.png
#EXTINF:6.478189,
390942516840166-index10074.png
#EXTINF:4.999944,
390942516840166-index10075.png
#EXTINF:4.130389,
390942516840166-index10076.png
#EXTINF:7.999911,
390942516840166-index10077.png
#EXTINF:10.869444,
390942516840166-index10078.png
#EXTINF:2.260844,
390942516840166-index10079.png
#EXTINF:7.217311,
390942516840166-index10080.png
#EXTINF:9.608589,
390942516840166-index10081.png
#EXTINF:8.043389,
390942516840166-index10082.png
#EXTINF:6.739056,
390942516840166-index10083.png
#EXTINF:2.565189,
390942516840166-index10084.png
#EXTINF:4.521689,
390942516840166-index10085.png
#EXTINF:3.608656,
390942516840166-index10086.png
#EXTINF:8.173822,
390942516840166-index10087.png
#EXTINF:8.173822,
390942516840166-index10088.png
#EXTINF:5.434722,
390942516840166-index10089.png
#EXTINF:3.826044,
390942516840166-index10090.png
#EXTINF:3.565178,
390942516840166-index10091.png
#EXTINF:5.217333,
390942516840166-index10092.png
#EXTINF:5.782544,
390942516840166-index10093.png
#EXTINF:4.782556,
390942516840166-index10094.png
#EXTINF:6.869489,
390942516840166-index10095.png
#EXTINF:10.869444,
390942516840166-index10096.png
#EXTINF:5.912978,
390942516840166-index10097.png
#EXTINF:5.782544,
390942516840166-index10098.png
#EXTINF:3.130400,
390942516840166-index10099.png
#EXTINF:10.869444,
390942516840166-index10100.png
#EXTINF:5.130378,
390942516840166-index10101.png
#EXTINF:8.652078,
390942516840166-index10102.png
#EXTINF:5.260811,
390942516840166-index10103.png
#EXTINF:4.782556,
390942516840166-index10104.png
#EXTINF:4.478211,
390942516840166-index10105.png
#EXTINF:4.869511,
390942516840166-index10106.png
#EXTINF:6.912967,
390942516840166-index10107.png
#EXTINF:5.695589,
390942516840166-index10108.png
#EXTINF:7.739044,
390942516840166-index10109.png
#EXTINF:7.608611,
390942516840166-index10110.png
#EXTINF:10.869444,
390942516840166-index10111.png
#EXTINF:10.869444,
390942516840166-index10112.png
#EXTINF:10.173800,
390942516840166-index10113.png
#EXTINF:6.999922,
390942516840166-index10114.png
#EXTINF:10.869444,
390942516840166-index10115.png
#EXTINF:10.869444,
390942516840166-index10116.png
#EXTINF:8.825989,
390942516840166-index10117.png
#EXTINF:5.652111,
390942516840166-index10118.png
#EXTINF:10.869444,
390942516840166-index10119.png
#EXTINF:7.173833,
390942516840166-index10120.png
#EXTINF:5.999933,
390942516840166-index10121.png
#EXTINF:7.826000,
390942516840166-index10122.png
#EXT-X-ENDLIST
