#EXTM3U
#EXT-X-VERSION:3
#EXT-X-TARGETDURATION:11
#EXT-X-MEDIA-SEQUENCE:10001
#EXTINF:2.752200,
409873827877971-index10001.png
#EXTINF:2.877300,
409873827877971-index10002.png
#EXTINF:3.753000,
409873827877971-index10003.png
#EXTINF:8.506800,
409873827877971-index10004.png
#EXTINF:10.425000,
409873827877971-index10005.png
#EXTINF:6.505200,
409873827877971-index10006.png
#EXTINF:7.005600,
409873827877971-index10007.png
#EXTINF:4.545300,
409873827877971-index10008.png
#EXTINF:3.502800,
409873827877971-index10009.png
#EXTINF:5.004000,
409873827877971-index10010.png
#EXTINF:3.461100,
409873827877971-index10011.png
#EXTINF:1.626300,
409873827877971-index10012.png
#EXTINF:10.425000,
409873827877971-index10013.png
#EXTINF:4.837200,
409873827877971-index10014.png
#EXTINF:5.421000,
409873827877971-index10015.png
#EXTINF:5.587800,
409873827877971-index10016.png
#EXTINF:1.793100,
409873827877971-index10017.png
#EXTINF:7.214100,
409873827877971-index10018.png
#EXTINF:4.503600,
409873827877971-index10019.png
#EXTINF:1.751400,
409873827877971-index10020.png
#EXTINF:8.173200,
409873827877971-index10021.png
#EXTINF:6.129900,
409873827877971-index10022.png
#EXTINF:7.547700,
409873827877971-index10023.png
#EXTINF:6.046500,
409873827877971-index10024.png
#EXTINF:4.128300,
409873827877971-index10025.png
#EXTINF:10.425000,
409873827877971-index10026.png
#EXTINF:8.048100,
409873827877971-index10027.png
#EXTINF:6.380100,
409873827877971-index10028.png
#EXTINF:10.425000,
409873827877971-index10029.png
#EXTINF:4.253400,
409873827877971-index10030.png
#EXTINF:6.755400,
409873827877971-index10031.png
#EXTINF:6.880500,
409873827877971-index10032.png
#EXTINF:6.213300,
409873827877971-index10033.png
#EXTINF:5.129100,
409873827877971-index10034.png
#EXTINF:2.001600,
409873827877971-index10035.png
#EXTINF:4.003200,
409873827877971-index10036.png
#EXTINF:10.425000,
409873827877971-index10037.png
#EXTINF:9.966300,
409873827877971-index10038.png
#EXTINF:9.382500,
409873827877971-index10039.png
#EXTINF:10.425000,
409873827877971-index10040.png
#EXTINF:5.712900,
409873827877971-index10041.png
#EXTINF:6.129900,
409873827877971-index10042.png
#EXTINF:3.002400,
409873827877971-index10043.png
#EXTINF:8.131500,
409873827877971-index10044.png
#EXTINF:8.131500,
409873827877971-index10045.png
#EXTINF:5.629500,
409873827877971-index10046.png
#EXTINF:5.254200,
409873827877971-index10047.png
#EXTINF:10.425000,
409873827877971-index10048.png
#EXTINF:5.587800,
409873827877971-index10049.png
#EXTINF:10.425000,
409873827877971-index10050.png
#EXTINF:7.089000,
409873827877971-index10051.png
#EXTINF:7.005600,
409873827877971-index10052.png
#EXTINF:10.425000,
409873827877971-index10053.png
#EXTINF:8.089800,
409873827877971-index10054.png
#EXTINF:6.046500,
409873827877971-index10055.png
#EXTINF:9.132300,
409873827877971-index10056.png
#EXTINF:8.506800,
409873827877971-index10057.png
#EXTINF:8.506800,
409873827877971-index10058.png
#EXTINF:7.756200,
409873827877971-index10059.png
#EXTINF:8.131500,
409873827877971-index10060.png
#EXTINF:5.504400,
409873827877971-index10061.png
#EXTINF:4.378500,
409873827877971-index10062.png
#EXTINF:8.256600,
409873827877971-index10063.png
#EXTINF:7.005600,
409873827877971-index10064.png
#EXTINF:6.963900,
409873827877971-index10065.png
#EXTINF:9.507600,
409873827877971-index10066.png
#EXTINF:4.003200,
409873827877971-index10067.png
#EXTINF:10.425000,
409873827877971-index10068.png
#EXTINF:4.587000,
409873827877971-index10069.png
#EXTINF:8.381700,
409873827877971-index10070.png
#EXTINF:4.712100,
409873827877971-index10071.png
#EXTINF:6.755400,
409873827877971-index10072.png
#EXTINF:3.002400,
409873827877971-index10073.png
#EXTINF:7.130700,
409873827877971-index10074.png
#EXTINF:3.502800,
409873827877971-index10075.png
#EXTINF:8.798700,
409873827877971-index10076.png
#EXTINF:8.131500,
409873827877971-index10077.png
#EXTINF:4.003200,
409873827877971-index10078.png
#EXTINF:7.881300,
409873827877971-index10079.png
#EXTINF:10.425000,
409873827877971-index10080.png
#EXTINF:9.340800,
409873827877971-index10081.png
#EXTINF:8.256600,
409873827877971-index10082.png
#EXTINF:10.425000,
409873827877971-index10083.png
#EXTINF:8.840400,
409873827877971-index10084.png
#EXTINF:10.425000,
409873827877971-index10085.png
#EXTINF:7.464300,
409873827877971-index10086.png
#EXTINF:10.425000,
409873827877971-index10087.png
#EXTINF:7.214100,
409873827877971-index10088.png
#EXTINF:7.506000,
409873827877971-index10089.png
#EXTINF:9.757800,
409873827877971-index10090.png
#EXTINF:6.088200,
409873827877971-index10091.png
#EXTINF:10.425000,
409873827877971-index10092.png
#EXTINF:6.463500,
409873827877971-index10093.png
#EXTINF:8.256600,
409873827877971-index10094.png
#EXTINF:4.878900,
409873827877971-index10095.png
#EXTINF:6.505200,
409873827877971-index10096.png
#EXTINF:9.757800,
409873827877971-index10097.png
#EXTINF:5.421000,
409873827877971-index10098.png
#EXTINF:5.963100,
409873827877971-index10099.png
#EXTINF:5.796300,
409873827877971-index10100.png
#EXTINF:3.002400,
409873827877971-index10101.png
#EXTINF:6.004800,
409873827877971-index10102.png
#EXTINF:2.001600,
409873827877971-index10103.png
#EXTINF:9.174000,
409873827877971-index10104.png
#EXTINF:5.254200,
409873827877971-index10105.png
#EXTINF:8.256600,
409873827877971-index10106.png
#EXTINF:10.425000,
409873827877971-index10107.png
#EXTINF:5.963100,
409873827877971-index10108.png
#EXTINF:8.757000,
409873827877971-index10109.png
#EXTINF:10.425000,
409873827877971-index10110.png
#EXTINF:7.339200,
409873827877971-index10111.png
#EXTINF:10.425000,
409873827877971-index10112.png
#EXTINF:3.336000,
409873827877971-index10113.png
#EXTINF:5.170800,
409873827877971-index10114.png
#EXTINF:7.089000,
409873827877971-index10115.png
#EXTINF:9.257400,
409873827877971-index10116.png
#EXTINF:7.506000,
409873827877971-index10117.png
#EXTINF:5.504400,
409873827877971-index10118.png
#EXTINF:6.004800,
409873827877971-index10119.png
#EXTINF:10.425000,
409873827877971-index10120.png
#EXTINF:8.965500,
409873827877971-index10121.png
#EXTINF:5.254200,
409873827877971-index10122.png
#EXTINF:10.008000,
409873827877971-index10123.png
#EXTINF:5.004000,
409873827877971-index10124.png
#EXTINF:9.132300,
409873827877971-index10125.png
#EXTINF:8.256600,
409873827877971-index10126.png
#EXTINF:5.504400,
409873827877971-index10127.png
#EXTINF:7.506000,
409873827877971-index10128.png
#EXTINF:10.008000,
409873827877971-index10129.png
#EXTINF:5.004000,
409873827877971-index10130.png
#EXTINF:10.258200,
409873827877971-index10131.png
#EXTINF:4.003200,
409873827877971-index10132.png
#EXTINF:4.253400,
409873827877971-index10133.png
#EXTINF:2.001600,
409873827877971-index10134.png
#EXTINF:6.004800,
409873827877971-index10135.png
#EXTINF:3.502800,
409873827877971-index10136.png
#EXTINF:9.007200,
409873827877971-index10137.png
#EXTINF:6.755400,
409873827877971-index10138.png
#EXTINF:10.425000,
409873827877971-index10139.png
#EXTINF:6.963900,
409873827877971-index10140.png
#EXTINF:7.506000,
409873827877971-index10141.png
#EXTINF:8.256600,
409873827877971-index10142.png
#EXTINF:9.007200,
409873827877971-index10143.png
#EXTINF:10.425000,
409873827877971-index10144.png
#EXTINF:10.425000,
409873827877971-index10145.png
#EXTINF:9.674400,
409873827877971-index10146.png
#EXTINF:10.425000,
409873827877971-index10147.png
#EXTINF:9.591000,
409873827877971-index10148.png
#EXTINF:4.503600,
409873827877971-index10149.png
#EXTINF:10.425000,
409873827877971-index10150.png
#EXTINF:9.382500,
409873827877971-index10151.png
#EXTINF:10.425000,
409873827877971-index10152.png
#EXTINF:8.840400,
409873827877971-index10153.png
#EXTINF:10.425000,
409873827877971-index10154.png
#EXTINF:10.425000,
409873827877971-index10155.png
#EXTINF:9.424200,
409873827877971-index10156.png
#EXTINF:10.425000,
409873827877971-index10157.png
#EXTINF:7.756200,
409873827877971-index10158.png
#EXTINF:10.425000,
409873827877971-index10159.png
#EXTINF:10.425000,
409873827877971-index10160.png
#EXTINF:10.425000,
409873827877971-index10161.png
#EXTINF:8.882100,
409873827877971-index10162.png
#EXTINF:10.425000,
409873827877971-index10163.png
#EXTINF:10.425000,
409873827877971-index10164.png
#EXTINF:3.961500,
409873827877971-index10165.png
#EXTINF:10.425000,
409873827877971-index10166.png
#EXTINF:10.425000,
409873827877971-index10167.png
#EXTINF:10.425000,
409873827877971-index10168.png
#EXTINF:10.425000,
409873827877971-index10169.png
#EXTINF:10.425000,
409873827877971-index10170.png
#EXTINF:10.425000,
409873827877971-index10171.png
#EXTINF:10.425000,
409873827877971-index10172.png
#EXTINF:8.423400,
409873827877971-index10173.png
#EXTINF:8.840400,
409873827877971-index10174.png
#EXTINF:6.004800,
409873827877971-index10175.png
#EXTINF:6.255000,
409873827877971-index10176.png
#EXTINF:9.632700,
409873827877971-index10177.png
#EXTINF:9.507600,
409873827877971-index10178.png
#EXTINF:7.964700,
409873827877971-index10179.png
#EXTINF:9.257400,
409873827877971-index10180.png
#EXTINF:6.755400,
409873827877971-index10181.png
#EXTINF:5.379300,
409873827877971-index10182.png
#EXTINF:10.425000,
409873827877971-index10183.png
#EXTINF:10.425000,
409873827877971-index10184.png
#EXTINF:9.340800,
409873827877971-index10185.png
#EXTINF:6.797100,
409873827877971-index10186.png
#EXTINF:4.712100,
409873827877971-index10187.png
#EXTINF:5.754600,
409873827877971-index10188.png
#EXTINF:7.923000,
409873827877971-index10189.png
#EXT-X-ENDLIST
