#EXTM3U
#EXT-X-VERSION:3
#EXT-X-TARGETDURATION:10
#EXT-X-MEDIA-SEQUENCE:10001
#EXTINF:10.000000,
415134374466207-index10001.png
#EXTINF:7.080000,
415134374466207-index10002.png
#EXTINF:6.800000,
415134374466207-index10003.png
#EXTINF:4.560000,
415134374466207-index10004.png
#EXTINF:7.440000,
415134374466207-index10005.png
#EXTINF:6.280000,
415134374466207-index10006.png
#EXTINF:7.960000,
415134374466207-index10007.png
#EXTINF:6.680000,
415134374466207-index10008.png
#EXTINF:5.480000,
415134374466207-index10009.png
#EXTINF:3.360000,
415134374466207-index10010.png
#EXTINF:2.440000,
415134374466207-index10011.png
#EXTINF:1.320000,
415134374466207-index10012.png
#EXTINF:3.440000,
415134374466207-index10013.png
#EXTINF:2.560000,
415134374466207-index10014.png
#EXTINF:10.000000,
415134374466207-index10015.png
#EXTINF:6.160000,
415134374466207-index10016.png
#EXTINF:10.000000,
415134374466207-index10017.png
#EXTINF:10.000000,
415134374466207-index10018.png
#EXTINF:10.000000,
415134374466207-index10019.png
#EXTINF:10.000000,
415134374466207-index10020.png
#EXTINF:10.000000,
415134374466207-index10021.png
#EXTINF:7.440000,
415134374466207-index10022.png
#EXTINF:10.000000,
415134374466207-index10023.png
#EXTINF:10.000000,
415134374466207-index10024.png
#EXTINF:10.000000,
415134374466207-index10025.png
#EXTINF:10.000000,
415134374466207-index10026.png
#EXTINF:10.000000,
415134374466207-index10027.png
#EXTINF:10.000000,
415134374466207-index10028.png
#EXTINF:10.000000,
415134374466207-index10029.png
#EXTINF:5.640000,
415134374466207-index10030.png
#EXTINF:10.000000,
415134374466207-index10031.png
#EXTINF:10.000000,
415134374466207-index10032.png
#EXTINF:10.000000,
415134374466207-index10033.png
#EXTINF:10.000000,
415134374466207-index10034.png
#EXTINF:10.000000,
415134374466207-index10035.png
#EXTINF:10.000000,
415134374466207-index10036.png
#EXTINF:10.000000,
415134374466207-index10037.png
#EXTINF:10.000000,
415134374466207-index10038.png
#EXTINF:10.000000,
415134374466207-index10039.png
#EXTINF:10.000000,
415134374466207-index10040.png
#EXTINF:10.000000,
415134374466207-index10041.png
#EXTINF:10.000000,
415134374466207-index10042.png
#EXTINF:10.000000,
415134374466207-index10043.png
#EXTINF:10.000000,
415134374466207-index10044.png
#EXTINF:10.000000,
415134374466207-index10045.png
#EXTINF:9.800000,
415134374466207-index10046.png
#EXTINF:10.000000,
415134374466207-index10047.png
#EXTINF:8.560000,
415134374466207-index10048.png
#EXTINF:10.000000,
415134374466207-index10049.png
#EXTINF:7.960000,
415134374466207-index10050.png
#EXTINF:6.840000,
415134374466207-index10051.png
#EXTINF:8.240000,
415134374466207-index10052.png
#EXTINF:10.000000,
415134374466207-index10053.png
#EXTINF:7.320000,
415134374466207-index10054.png
#EXTINF:10.000000,
415134374466207-index10055.png
#EXTINF:10.000000,
415134374466207-index10056.png
#EXTINF:6.600000,
415134374466207-index10057.png
#EXTINF:9.880000,
415134374466207-index10058.png
#EXTINF:7.040000,
415134374466207-index10059.png
#EXTINF:10.000000,
415134374466207-index10060.png
#EXTINF:8.480000,
415134374466207-index10061.png
#EXTINF:8.080000,
415134374466207-index10062.png
#EXTINF:6.120000,
415134374466207-index10063.png
#EXTINF:8.120000,
415134374466207-index10064.png
#EXTINF:6.480000,
415134374466207-index10065.png
#EXTINF:8.640000,
415134374466207-index10066.png
#EXTINF:5.520000,
415134374466207-index10067.png
#EXTINF:7.080000,
415134374466207-index10068.png
#EXTINF:10.000000,
415134374466207-index10069.png
#EXTINF:8.440000,
415134374466207-index10070.png
#EXTINF:9.200000,
415134374466207-index10071.png
#EXTINF:10.000000,
415134374466207-index10072.png
#EXTINF:9.400000,
415134374466207-index10073.png
#EXTINF:10.000000,
415134374466207-index10074.png
#EXTINF:10.000000,
415134374466207-index10075.png
#EXTINF:10.000000,
415134374466207-index10076.png
#EXTINF:10.000000,
415134374466207-index10077.png
#EXTINF:10.000000,
415134374466207-index10078.png
#EXTINF:10.000000,
415134374466207-index10079.png
#EXTINF:6.120000,
415134374466207-index10080.png
#EXTINF:10.000000,
415134374466207-index10081.png
#EXTINF:7.600000,
415134374466207-index10082.png
#EXTINF:7.000000,
415134374466207-index10083.png
#EXTINF:9.640000,
415134374466207-index10084.png
#EXTINF:6.160000,
415134374466207-index10085.png
#EXTINF:10.000000,
415134374466207-index10086.png
#EXTINF:3.640000,
415134374466207-index10087.png
#EXTINF:9.720000,
415134374466207-index10088.png
#EXTINF:5.160000,
415134374466207-index10089.png
#EXTINF:9.680000,
415134374466207-index10090.png
#EXTINF:10.000000,
415134374466207-index10091.png
#EXTINF:10.000000,
415134374466207-index10092.png
#EXTINF:6.600000,
415134374466207-index10093.png
#EXTINF:6.000000,
415134374466207-index10094.png
#EXTINF:3.600000,
415134374466207-index10095.png
#EXTINF:6.320000,
415134374466207-index10096.png
#EXTINF:8.520000,
415134374466207-index10097.png
#EXTINF:7.480000,
415134374466207-index10098.png
#EXTINF:7.040000,
415134374466207-index10099.png
#EXTINF:2.680000,
415134374466207-index10100.png
#EXTINF:3.960000,
415134374466207-index10101.png
#EXTINF:10.000000,
415134374466207-index10102.png
#EXTINF:6.600000,
415134374466207-index10103.png
#EXTINF:5.160000,
415134374466207-index10104.png
#EXTINF:6.720000,
415134374466207-index10105.png
#EXTINF:8.200000,
415134374466207-index10106.png
#EXTINF:6.840000,
415134374466207-index10107.png
#EXTINF:7.880000,
415134374466207-index10108.png
#EXTINF:6.480000,
415134374466207-index10109.png
#EXTINF:7.960000,
415134374466207-index10110.png
#EXTINF:7.040000,
415134374466207-index10111.png
#EXTINF:10.000000,
415134374466207-index10112.png
#EXTINF:7.800000,
415134374466207-index10113.png
#EXTINF:10.000000,
415134374466207-index10114.png
#EXTINF:6.960000,
415134374466207-index10115.png
#EXTINF:8.880000,
415134374466207-index10116.png
#EXTINF:4.960000,
415134374466207-index10117.png
#EXTINF:6.320000,
415134374466207-index10118.png
#EXTINF:9.720000,
415134374466207-index10119.png
#EXTINF:9.600000,
415134374466207-index10120.png
#EXTINF:8.880000,
415134374466207-index10121.png
#EXTINF:6.680000,
415134374466207-index10122.png
#EXTINF:10.000000,
415134374466207-index10123.png
#EXTINF:4.320000,
415134374466207-index10124.png
#EXTINF:10.000000,
415134374466207-index10125.png
#EXTINF:5.960000,
415134374466207-index10126.png
#EXTINF:9.440000,
415134374466207-index10127.png
#EXTINF:10.000000,
415134374466207-index10128.png
#EXTINF:8.040000,
415134374466207-index10129.png
#EXTINF:4.040000,
415134374466207-index10130.png
#EXTINF:3.120000,
415134374466207-index10131.png
#EXTINF:6.760000,
415134374466207-index10132.png
#EXTINF:7.240000,
415134374466207-index10133.png
#EXTINF:8.320000,
415134374466207-index10134.png
#EXTINF:5.240000,
415134374466207-index10135.png
#EXTINF:6.040000,
415134374466207-index10136.png
#EXTINF:10.000000,
415134374466207-index10137.png
#EXTINF:8.040000,
415134374466207-index10138.png
#EXTINF:8.840000,
415134374466207-index10139.png
#EXTINF:9.320000,
415134374466207-index10140.png
#EXTINF:7.200000,
415134374466207-index10141.png
#EXTINF:5.960000,
415134374466207-index10142.png
#EXTINF:9.560000,
415134374466207-index10143.png
#EXTINF:8.440000,
415134374466207-index10144.png
#EXTINF:10.000000,
415134374466207-index10145.png
#EXTINF:8.400000,
415134374466207-index10146.png
#EXTINF:8.000000,
415134374466207-index10147.png
#EXTINF:10.000000,
415134374466207-index10148.png
#EXTINF:10.000000,
415134374466207-index10149.png
#EXTINF:10.000000,
415134374466207-index10150.png
#EXTINF:4.560000,
415134374466207-index10151.png
#EXTINF:7.240000,
415134374466207-index10152.png
#EXTINF:10.000000,
415134374466207-index10153.png
#EXTINF:6.840000,
415134374466207-index10154.png
#EXTINF:10.000000,
415134374466207-index10155.png
#EXTINF:5.160000,
415134374466207-index10156.png
#EXTINF:10.000000,
415134374466207-index10157.png
#EXTINF:10.000000,
415134374466207-index10158.png
#EXTINF:10.000000,
415134374466207-index10159.png
#EXTINF:10.000000,
415134374466207-index10160.png
#EXTINF:10.000000,
415134374466207-index10161.png
#EXTINF:3.040000,
415134374466207-index10162.png
#EXTINF:10.000000,
415134374466207-index10163.png
#EXTINF:9.160000,
415134374466207-index10164.png
#EXTINF:7.880000,
415134374466207-index10165.png
#EXTINF:6.320000,
415134374466207-index10166.png
#EXTINF:7.400000,
415134374466207-index10167.png
#EXTINF:7.800000,
415134374466207-index10168.png
#EXTINF:9.080000,
415134374466207-index10169.png
#EXTINF:10.000000,
415134374466207-index10170.png
#EXTINF:2.960000,
415134374466207-index10171.png
#EXTINF:9.640000,
415134374466207-index10172.png
#EXTINF:10.000000,
415134374466207-index10173.png
#EXTINF:7.880000,
415134374466207-index10174.png
#EXTINF:3.400000,
415134374466207-index10175.png
#EXTINF:10.000000,
415134374466207-index10176.png
#EXTINF:10.000000,
415134374466207-index10177.png
#EXTINF:6.760000,
415134374466207-index10178.png
#EXTINF:10.000000,
415134374466207-index10179.png
#EXTINF:2.400000,
415134374466207-index10180.png
#EXTINF:6.000000,
415134374466207-index10181.png
#EXTINF:10.000000,
415134374466207-index10182.png
#EXTINF:10.000000,
415134374466207-index10183.png
#EXTINF:10.000000,
415134374466207-index10184.png
#EXTINF:6.520000,
415134374466207-index10185.png
#EXTINF:10.000000,
415134374466207-index10186.png
#EXTINF:10.000000,
415134374466207-index10187.png
#EXTINF:10.000000,
415134374466207-index10188.png
#EXTINF:10.000000,
415134374466207-index10189.png
#EXTINF:5.360000,
415134374466207-index10190.png
#EXTINF:10.000000,
415134374466207-index10191.png
#EXTINF:8.240000,
415134374466207-index10192.png
#EXTINF:1.720000,
415134374466207-index10193.png
#EXTINF:10.000000,
415134374466207-index10194.png
#EXTINF:10.000000,
415134374466207-index10195.png
#EXTINF:8.880000,
415134374466207-index10196.png
#EXTINF:5.440000,
415134374466207-index10197.png
#EXTINF:7.800000,
415134374466207-index10198.png
#EXTINF:8.800000,
415134374466207-index10199.png
#EXTINF:5.200000,
415134374466207-index10200.png
#EXTINF:4.040000,
415134374466207-index10201.png
#EXTINF:6.840000,
415134374466207-index10202.png
#EXTINF:10.000000,
415134374466207-index10203.png
#EXTINF:10.000000,
415134374466207-index10204.png
#EXTINF:8.720000,
415134374466207-index10205.png
#EXTINF:10.000000,
415134374466207-index10206.png
#EXTINF:7.520000,
415134374466207-index10207.png
#EXTINF:9.880000,
415134374466207-index10208.png
#EXTINF:10.000000,
415134374466207-index10209.png
#EXTINF:6.400000,
415134374466207-index10210.png
#EXTINF:7.160000,
415134374466207-index10211.png
#EXTINF:6.080000,
415134374466207-index10212.png
#EXTINF:9.080000,
415134374466207-index10213.png
#EXTINF:6.320000,
415134374466207-index10214.png
#EXTINF:6.440000,
415134374466207-index10215.png
#EXTINF:7.440000,
415134374466207-index10216.png
#EXTINF:10.000000,
415134374466207-index10217.png
#EXTINF:5.640000,
415134374466207-index10218.png
#EXTINF:4.160000,
415134374466207-index10219.png
#EXTINF:9.000000,
415134374466207-index10220.png
#EXTINF:2.720000,
415134374466207-index10221.png
#EXTINF:10.000000,
415134374466207-index10222.png
#EXTINF:10.000000,
415134374466207-index10223.png
#EXTINF:9.560000,
415134374466207-index10224.png
#EXTINF:3.040000,
415134374466207-index10225.png
#EXTINF:7.160000,
415134374466207-index10226.png
#EXTINF:10.000000,
415134374466207-index10227.png
#EXTINF:7.960000,
415134374466207-index10228.png
#EXTINF:9.800000,
415134374466207-index10229.png
#EXTINF:10.000000,
415134374466207-index10230.png
#EXTINF:5.800000,
415134374466207-index10231.png
#EXTINF:7.640000,
415134374466207-index10232.png
#EXTINF:5.360000,
415134374466207-index10233.png
#EXTINF:3.200000,
415134374466207-index10234.png
#EXTINF:9.160000,
415134374466207-index10235.png
#EXTINF:8.480000,
415134374466207-index10236.png
#EXTINF:8.240000,
415134374466207-index10237.png
#EXTINF:10.000000,
415134374466207-index10238.png
#EXTINF:10.000000,
415134374466207-index10239.png
#EXTINF:10.000000,
415134374466207-index10240.png
#EXTINF:5.000000,
415134374466207-index10241.png
#EXTINF:9.560000,
415134374466207-index10242.png
#EXTINF:9.640000,
415134374466207-index10243.png
#EXTINF:4.800000,
415134374466207-index10244.png
#EXTINF:4.800000,
415134374466207-index10245.png
#EXTINF:10.000000,
415134374466207-index10246.png
#EXTINF:4.400000,
415134374466207-index10247.png
#EXTINF:4.800000,
415134374466207-index10248.png
#EXTINF:9.600000,
415134374466207-index10249.png
#EXTINF:4.800000,
415134374466207-index10250.png
#EXTINF:4.800000,
415134374466207-index10251.png
#EXTINF:9.600000,
415134374466207-index10252.png
#EXTINF:4.800000,
415134374466207-index10253.png
#EXTINF:4.800000,
415134374466207-index10254.png
#EXTINF:4.800000,
415134374466207-index10255.png
#EXTINF:5.840000,
415134374466207-index10256.png
#EXTINF:4.720000,
415134374466207-index10257.png
#EXTINF:6.840000,
415134374466207-index10258.png
#EXT-X-ENDLIST
