#EXTM3U
#EXT-X-VERSION:3
#EXT-X-TARGETDURATION:11
#EXT-X-MEDIA-SEQUENCE:10001
#EXTINF:10.439889,
417732324865129-index10001.ts
#EXTINF:10.416667,
417732324865129-index10002.ts
#EXTINF:10.416667,
417732324865129-index10003.ts
#EXTINF:10.416667,
417732324865129-index10004.ts
#EXTINF:10.416667,
417732324865129-index10005.ts
#EXTINF:10.416667,
417732324865129-index10006.ts
#EXTINF:10.416667,
417732324865129-index10007.ts
#EXTINF:10.416667,
417732324865129-index10008.ts
#EXTINF:10.416667,
417732324865129-index10009.ts
#EXTINF:10.416667,
417732324865129-index10010.ts
#EXTINF:10.416667,
417732324865129-index10011.ts
#EXTINF:10.416667,
417732324865129-index10012.ts
#EXTINF:10.416667,
417732324865129-index10013.ts
#EXTINF:10.416667,
417732324865129-index10014.ts
#EXTINF:10.416667,
417732324865129-index10015.ts
#EXTINF:10.416667,
417732324865129-index10016.ts
#EXTINF:10.416667,
417732324865129-index10017.ts
#EXTINF:10.416667,
417732324865129-index10018.ts
#EXTINF:10.416667,
417732324865129-index10019.ts
#EXTINF:10.416667,
417732324865129-index10020.ts
#EXTINF:10.416667,
417732324865129-index10021.ts
#EXTINF:10.416667,
417732324865129-index10022.ts
#EXTINF:10.416667,
417732324865129-index10023.ts
#EXTINF:10.416667,
417732324865129-index10024.ts
#EXTINF:10.416667,
417732324865129-index10025.ts
#EXTINF:10.416667,
417732324865129-index10026.ts
#EXTINF:10.416667,
417732324865129-index10027.ts
#EXTINF:10.416667,
417732324865129-index10028.ts
#EXTINF:10.416667,
417732324865129-index10029.ts
#EXTINF:10.416667,
417732324865129-index10030.ts
#EXTINF:10.416667,
417732324865129-index10031.ts
#EXTINF:10.416667,
417732324865129-index10032.ts
#EXTINF:10.416667,
417732324865129-index10033.ts
#EXTINF:10.416667,
417732324865129-index10034.ts
#EXTINF:10.416667,
417732324865129-index10035.ts
#EXTINF:10.416667,
417732324865129-index10036.ts
#EXTINF:10.416667,
417732324865129-index10037.ts
#EXTINF:10.416667,
417732324865129-index10038.ts
#EXTINF:10.416667,
417732324865129-index10039.ts
#EXTINF:10.416667,
417732324865129-index10040.ts
#EXTINF:10.416667,
417732324865129-index10041.ts
#EXTINF:10.416667,
417732324865129-index10042.ts
#EXTINF:10.416667,
417732324865129-index10043.ts
#EXTINF:10.416667,
417732324865129-index10044.ts
#EXTINF:10.416667,
417732324865129-index10045.ts
#EXTINF:10.416667,
417732324865129-index10046.ts
#EXTINF:10.416667,
417732324865129-index10047.ts
#EXTINF:10.416667,
417732324865129-index10048.ts
#EXTINF:10.416667,
417732324865129-index10049.ts
#EXTINF:10.416667,
417732324865129-index10050.ts
#EXTINF:10.416667,
417732324865129-index10051.ts
#EXTINF:10.416667,
417732324865129-index10052.ts
#EXTINF:10.416667,
417732324865129-index10053.ts
#EXTINF:10.416667,
417732324865129-index10054.ts
#EXTINF:10.416667,
417732324865129-index10055.ts
#EXTINF:10.416667,
417732324865129-index10056.ts
#EXTINF:10.416667,
417732324865129-index10057.ts
#EXTINF:10.416667,
417732324865129-index10058.ts
#EXTINF:10.416667,
417732324865129-index10059.ts
#EXTINF:10.416667,
417732324865129-index10060.ts
#EXTINF:10.416667,
417732324865129-index10061.ts
#EXTINF:10.416667,
417732324865129-index10062.ts
#EXTINF:10.416667,
417732324865129-index10063.ts
#EXTINF:10.416667,
417732324865129-index10064.ts
#EXTINF:10.416667,
417732324865129-index10065.ts
#EXTINF:10.416667,
417732324865129-index10066.ts
#EXTINF:10.416667,
417732324865129-index10067.ts
#EXTINF:10.416667,
417732324865129-index10068.ts
#EXTINF:10.416667,
417732324865129-index10069.ts
#EXTINF:10.416667,
417732324865129-index10070.ts
#EXTINF:10.416667,
417732324865129-index10071.ts
#EXTINF:10.416667,
417732324865129-index10072.ts
#EXTINF:10.416667,
417732324865129-index10073.ts
#EXTINF:10.416667,
417732324865129-index10074.ts
#EXTINF:10.416667,
417732324865129-index10075.ts
#EXTINF:10.416667,
417732324865129-index10076.ts
#EXTINF:10.416667,
417732324865129-index10077.ts
#EXTINF:10.416667,
417732324865129-index10078.ts
#EXTINF:10.416667,
417732324865129-index10079.ts
#EXTINF:10.416667,
417732324865129-index10080.ts
#EXTINF:10.416667,
417732324865129-index10081.ts
#EXTINF:10.416667,
417732324865129-index10082.ts
#EXTINF:10.416667,
417732324865129-index10083.ts
#EXTINF:10.416667,
417732324865129-index10084.ts
#EXTINF:10.416667,
417732324865129-index10085.ts
#EXTINF:10.416667,
417732324865129-index10086.ts
#EXTINF:10.416667,
417732324865129-index10087.ts
#EXTINF:10.416667,
417732324865129-index10088.ts
#EXTINF:10.416667,
417732324865129-index10089.ts
#EXTINF:10.416667,
417732324865129-index10090.ts
#EXTINF:10.416667,
417732324865129-index10091.ts
#EXTINF:10.416667,
417732324865129-index10092.ts
#EXTINF:10.416667,
417732324865129-index10093.ts
#EXTINF:10.416667,
417732324865129-index10094.ts
#EXTINF:10.416667,
417732324865129-index10095.ts
#EXTINF:10.416667,
417732324865129-index10096.ts
#EXTINF:10.416667,
417732324865129-index10097.ts
#EXTINF:10.416667,
417732324865129-index10098.ts
#EXTINF:10.416667,
417732324865129-index10099.ts
#EXTINF:10.416667,
417732324865129-index10100.ts
#EXTINF:10.416667,
417732324865129-index10101.ts
#EXTINF:10.416667,
417732324865129-index10102.ts
#EXTINF:10.416667,
417732324865129-index10103.ts
#EXTINF:10.416667,
417732324865129-index10104.ts
#EXTINF:10.416667,
417732324865129-index10105.ts
#EXTINF:10.416667,
417732324865129-index10106.ts
#EXTINF:10.416667,
417732324865129-index10107.ts
#EXTINF:10.416667,
417732324865129-index10108.ts
#EXTINF:10.416667,
417732324865129-index10109.ts
#EXTINF:10.416667,
417732324865129-index10110.ts
#EXTINF:10.416667,
417732324865129-index10111.ts
#EXTINF:10.416667,
417732324865129-index10112.ts
#EXTINF:10.416667,
417732324865129-index10113.ts
#EXTINF:10.416667,
417732324865129-index10114.ts
#EXTINF:10.416667,
417732324865129-index10115.ts
#EXTINF:10.416667,
417732324865129-index10116.ts
#EXTINF:10.416667,
417732324865129-index10117.ts
#EXTINF:10.416667,
417732324865129-index10118.ts
#EXTINF:10.416667,
417732324865129-index10119.ts
#EXTINF:10.416667,
417732324865129-index10120.ts
#EXTINF:10.416667,
417732324865129-index10121.ts
#EXTINF:10.416667,
417732324865129-index10122.ts
#EXTINF:10.416667,
417732324865129-index10123.ts
#EXTINF:10.416667,
417732324865129-index10124.ts
#EXTINF:10.416667,
417732324865129-index10125.ts
#EXTINF:10.416667,
417732324865129-index10126.ts
#EXTINF:10.416667,
417732324865129-index10127.ts
#EXTINF:10.416667,
417732324865129-index10128.ts
#EXTINF:10.416667,
417732324865129-index10129.ts
#EXTINF:10.416667,
417732324865129-index10130.ts
#EXTINF:10.416667,
417732324865129-index10131.ts
#EXTINF:10.416667,
417732324865129-index10132.ts
#EXTINF:10.416667,
417732324865129-index10133.ts
#EXTINF:10.416667,
417732324865129-index10134.ts
#EXTINF:10.416667,
417732324865129-index10135.ts
#EXTINF:10.416667,
417732324865129-index10136.ts
#EXTINF:10.416667,
417732324865129-index10137.ts
#EXTINF:10.416667,
417732324865129-index10138.ts
#EXTINF:10.416667,
417732324865129-index10139.ts
#EXTINF:10.416667,
417732324865129-index10140.ts
#EXTINF:10.416667,
417732324865129-index10141.ts
#EXTINF:10.416667,
417732324865129-index10142.ts
#EXTINF:10.416667,
417732324865129-index10143.ts
#EXTINF:10.416667,
417732324865129-index10144.ts
#EXTINF:10.416667,
417732324865129-index10145.ts
#EXTINF:10.416667,
417732324865129-index10146.ts
#EXTINF:10.416667,
417732324865129-index10147.ts
#EXTINF:10.416667,
417732324865129-index10148.ts
#EXTINF:10.416667,
417732324865129-index10149.ts
#EXTINF:10.416667,
417732324865129-index10150.ts
#EXTINF:10.416667,
417732324865129-index10151.ts
#EXTINF:10.416667,
417732324865129-index10152.ts
#EXTINF:10.416667,
417732324865129-index10153.ts
#EXTINF:10.416667,
417732324865129-index10154.ts
#EXTINF:10.416667,
417732324865129-index10155.ts
#EXTINF:10.416667,
417732324865129-index10156.ts
#EXTINF:10.416667,
417732324865129-index10157.ts
#EXTINF:10.416667,
417732324865129-index10158.ts
#EXTINF:10.416667,
417732324865129-index10159.ts
#EXTINF:10.416667,
417732324865129-index10160.ts
#EXTINF:10.416667,
417732324865129-index10161.ts
#EXTINF:10.416667,
417732324865129-index10162.ts
#EXTINF:10.416667,
417732324865129-index10163.ts
#EXTINF:10.416667,
417732324865129-index10164.ts
#EXTINF:10.416667,
417732324865129-index10165.ts
#EXTINF:10.416667,
417732324865129-index10166.ts
#EXTINF:10.416667,
417732324865129-index10167.ts
#EXTINF:10.416667,
417732324865129-index10168.ts
#EXTINF:10.416667,
417732324865129-index10169.ts
#EXTINF:10.416667,
417732324865129-index10170.ts
#EXTINF:10.416667,
417732324865129-index10171.ts
#EXTINF:10.416667,
417732324865129-index10172.ts
#EXTINF:10.416667,
417732324865129-index10173.ts
#EXTINF:10.416667,
417732324865129-index10174.ts
#EXTINF:10.416667,
417732324865129-index10175.ts
#EXTINF:10.416667,
417732324865129-index10176.ts
#EXTINF:10.416667,
417732324865129-index10177.ts
#EXTINF:10.416667,
417732324865129-index10178.ts
#EXTINF:10.416667,
417732324865129-index10179.ts
#EXTINF:10.416667,
417732324865129-index10180.ts
#EXTINF:10.416667,
417732324865129-index10181.ts
#EXTINF:10.416667,
417732324865129-index10182.ts
#EXTINF:10.416667,
417732324865129-index10183.ts
#EXTINF:10.416667,
417732324865129-index10184.ts
#EXTINF:10.416667,
417732324865129-index10185.ts
#EXTINF:10.416667,
417732324865129-index10186.ts
#EXTINF:10.416667,
417732324865129-index10187.ts
#EXTINF:10.416667,
417732324865129-index10188.ts
#EXTINF:10.416667,
417732324865129-index10189.ts
#EXTINF:10.416667,
417732324865129-index10190.ts
#EXTINF:3.833333,
417732324865129-index10191.ts
#EXT-X-ENDLIST
