#EXTM3U
#EXT-X-VERSION:3
#EXT-X-TARGETDURATION:11
#EXT-X-MEDIA-SEQUENCE:10001
#EXTINF:8.608600,
418582372367382-index10001.ts
#EXTINF:10.869444,
418582372367382-index10002.ts
#EXTINF:4.478211,
418582372367382-index10003.ts
#EXTINF:3.652133,
418582372367382-index10004.ts
#EXTINF:7.565133,
418582372367382-index10005.ts
#EXTINF:3.565178,
418582372367382-index10006.ts
#EXTINF:2.565189,
418582372367382-index10007.ts
#EXTINF:1.304333,
418582372367382-index10008.ts
#EXTINF:1.608678,
418582372367382-index10009.ts
#EXTINF:4.652122,
418582372367382-index10010.ts
#EXTINF:3.217356,
418582372367382-index10011.ts
#EXTINF:3.826044,
418582372367382-index10012.ts
#EXTINF:3.521700,
418582372367382-index10013.ts
#EXTINF:3.304311,
418582372367382-index10014.ts
#EXTINF:8.956422,
418582372367382-index10015.ts
#EXTINF:4.565167,
418582372367382-index10016.ts
#EXTINF:4.869511,
418582372367382-index10017.ts
#EXTINF:5.173856,
418582372367382-index10018.ts
#EXTINF:3.434744,
418582372367382-index10019.ts
#EXTINF:9.347722,
418582372367382-index10020.ts
#EXTINF:8.391211,
418582372367382-index10021.ts
#EXTINF:5.869500,
418582372367382-index10022.ts
#EXTINF:6.347756,
418582372367382-index10023.ts
#EXTINF:8.434689,
418582372367382-index10024.ts
#EXTINF:9.217289,
418582372367382-index10025.ts
#EXTINF:8.260778,
418582372367382-index10026.ts
#EXTINF:10.869444,
418582372367382-index10027.ts
#EXTINF:8.695556,
418582372367382-index10028.ts
#EXTINF:4.130389,
418582372367382-index10029.ts
#EXTINF:5.912978,
418582372367382-index10030.ts
#EXTINF:10.391189,
418582372367382-index10031.ts
#EXTINF:2.565189,
418582372367382-index10032.ts
#EXTINF:6.391233,
418582372367382-index10033.ts
#EXTINF:5.043422,
418582372367382-index10034.ts
#EXTINF:10.304233,
418582372367382-index10035.ts
#EXTINF:2.478233,
418582372367382-index10036.ts
#EXTINF:6.304278,
418582372367382-index10037.ts
#EXTINF:3.652133,
418582372367382-index10038.ts
#EXTINF:7.173833,
418582372367382-index10039.ts
#EXTINF:10.869444,
418582372367382-index10040.ts
#EXTINF:8.043389,
418582372367382-index10041.ts
#EXTINF:7.217311,
418582372367382-index10042.ts
#EXTINF:5.695589,
418582372367382-index10043.ts
#EXTINF:6.739056,
418582372367382-index10044.ts
#EXTINF:6.217322,
418582372367382-index10045.ts
#EXTINF:10.782489,
418582372367382-index10046.ts
#EXTINF:6.565144,
418582372367382-index10047.ts
#EXTINF:6.304278,
418582372367382-index10048.ts
#EXTINF:10.869444,
418582372367382-index10049.ts
#EXTINF:4.434733,
418582372367382-index10050.ts
#EXTINF:7.739044,
418582372367382-index10051.ts
#EXTINF:10.869444,
418582372367382-index10052.ts
#EXTINF:7.304267,
418582372367382-index10053.ts
#EXTINF:4.956467,
418582372367382-index10054.ts
#EXTINF:4.434733,
418582372367382-index10055.ts
#EXTINF:10.869444,
418582372367382-index10056.ts
#EXTINF:10.695533,
418582372367382-index10057.ts
#EXTINF:6.826011,
418582372367382-index10058.ts
#EXTINF:4.521689,
418582372367382-index10059.ts
#EXTINF:10.869444,
418582372367382-index10060.ts
#EXTINF:10.869444,
418582372367382-index10061.ts
#EXTINF:8.825989,
418582372367382-index10062.ts
#EXTINF:5.521678,
418582372367382-index10063.ts
#EXTINF:6.999922,
418582372367382-index10064.ts
#EXTINF:6.912967,
418582372367382-index10065.ts
#EXTINF:7.826000,
418582372367382-index10066.ts
#EXTINF:10.869444,
418582372367382-index10067.ts
#EXTINF:7.782522,
418582372367382-index10068.ts
#EXTINF:9.086856,
418582372367382-index10069.ts
#EXTINF:10.869444,
418582372367382-index10070.ts
#EXTINF:5.521678,
418582372367382-index10071.ts
#EXTINF:10.869444,
418582372367382-index10072.ts
#EXTINF:10.869444,
418582372367382-index10073.ts
#EXTINF:10.869444,
418582372367382-index10074.ts
#EXTINF:4.869511,
418582372367382-index10075.ts
#EXTINF:7.695567,
418582372367382-index10076.ts
#EXTINF:3.999956,
418582372367382-index10077.ts
#EXTINF:10.869444,
418582372367382-index10078.ts
#EXTINF:10.739011,
418582372367382-index10079.ts
#EXTINF:6.652100,
418582372367382-index10080.ts
#EXTINF:6.912967,
418582372367382-index10081.ts
#EXTINF:5.956456,
418582372367382-index10082.ts
#EXTINF:9.869456,
418582372367382-index10083.ts
#EXTINF:6.347756,
418582372367382-index10084.ts
#EXTINF:5.478200,
418582372367382-index10085.ts
#EXTINF:6.608622,
418582372367382-index10086.ts
#EXTINF:4.521689,
418582372367382-index10087.ts
#EXTINF:7.260789,
418582372367382-index10088.ts
#EXTINF:7.826000,
418582372367382-index10089.ts
#EXTINF:10.869444,
418582372367382-index10090.ts
#EXTINF:4.826033,
418582372367382-index10091.ts
#EXTINF:7.869478,
418582372367382-index10092.ts
#EXTINF:5.999933,
418582372367382-index10093.ts
#EXTINF:6.478189,
418582372367382-index10094.ts
#EXTINF:1.913022,
418582372367382-index10095.ts
#EXTINF:3.391267,
418582372367382-index10096.ts
#EXTINF:4.608644,
418582372367382-index10097.ts
#EXTINF:9.825978,
418582372367382-index10098.ts
#EXTINF:10.869444,
418582372367382-index10099.ts
#EXTINF:7.478178,
418582372367382-index10100.ts
#EXTINF:9.956411,
418582372367382-index10101.ts
#EXT-X-ENDLIST
