#EXTM3U
#EXT-X-VERSION:3
#EXT-X-TARGETDURATION:10
#EXT-X-MEDIA-SEQUENCE:10001
#EXTINF:6.200000,
420655352373917-index10001.png
#EXTINF:1.866667,
420655352373917-index10002.png
#EXTINF:2.766667,
420655352373917-index10003.png
#EXTINF:6.766667,
420655352373917-index10004.png
#EXTINF:4.400000,
420655352373917-index10005.png
#EXTINF:4.666667,
420655352373917-index10006.png
#EXTINF:5.166667,
420655352373917-index10007.png
#EXTINF:5.066667,
420655352373917-index10008.png
#EXTINF:2.666667,
420655352373917-index10009.png
#EXTINF:6.133333,
420655352373917-index10010.png
#EXTINF:10.000000,
420655352373917-index10011.png
#EXTINF:10.000000,
420655352373917-index10012.png
#EXTINF:2.666667,
420655352373917-index10013.png
#EXTINF:2.333333,
420655352373917-index10014.png
#EXTINF:3.533333,
420655352373917-index10015.png
#EXTINF:8.400000,
420655352373917-index10016.png
#EXTINF:4.200000,
420655352373917-index10017.png
#EXTINF:5.033333,
420655352373917-index10018.png
#EXTINF:4.000000,
420655352373917-index10019.png
#EXTINF:4.466667,
420655352373917-index10020.png
#EXTINF:6.100000,
420655352373917-index10021.png
#EXTINF:1.666667,
420655352373917-index10022.png
#EXTINF:2.666667,
420655352373917-index10023.png
#EXTINF:6.200000,
420655352373917-index10024.png
#EXTINF:2.866667,
420655352373917-index10025.png
#EXTINF:5.033333,
420655352373917-index10026.png
#EXTINF:9.966667,
420655352373917-index10027.png
#EXTINF:1.566667,
420655352373917-index10028.png
#EXTINF:2.966667,
420655352373917-index10029.png
#EXTINF:6.733333,
420655352373917-index10030.png
#EXTINF:7.200000,
420655352373917-index10031.png
#EXTINF:1.933333,
420655352373917-index10032.png
#EXTINF:1.500000,
420655352373917-index10033.png
#EXTINF:4.300000,
420655352373917-index10034.png
#EXTINF:7.166667,
420655352373917-index10035.png
#EXTINF:10.000000,
420655352373917-index10036.png
#EXTINF:7.666667,
420655352373917-index10037.png
#EXTINF:10.000000,
420655352373917-index10038.png
#EXTINF:8.433333,
420655352373917-index10039.png
#EXTINF:9.433333,
420655352373917-index10040.png
#EXTINF:4.100000,
420655352373917-index10041.png
#EXTINF:4.033333,
420655352373917-index10042.png
#EXTINF:5.600000,
420655352373917-index10043.png
#EXTINF:9.433333,
420655352373917-index10044.png
#EXTINF:10.000000,
420655352373917-index10045.png
#EXTINF:10.000000,
420655352373917-index10046.png
#EXTINF:4.900000,
420655352373917-index10047.png
#EXTINF:8.333333,
420655352373917-index10048.png
#EXTINF:10.000000,
420655352373917-index10049.png
#EXTINF:3.200000,
420655352373917-index10050.png
#EXTINF:10.000000,
420655352373917-index10051.png
#EXTINF:1.666667,
420655352373917-index10052.png
#EXTINF:8.866667,
420655352373917-index10053.png
#EXTINF:7.133333,
420655352373917-index10054.png
#EXTINF:6.266667,
420655352373917-index10055.png
#EXTINF:9.133333,
420655352373917-index10056.png
#EXTINF:9.066667,
420655352373917-index10057.png
#EXTINF:4.700000,
420655352373917-index10058.png
#EXTINF:8.133333,
420655352373917-index10059.png
#EXTINF:5.033333,
420655352373917-index10060.png
#EXTINF:10.000000,
420655352373917-index10061.png
#EXTINF:10.000000,
420655352373917-index10062.png
#EXTINF:4.000000,
420655352373917-index10063.png
#EXTINF:10.000000,
420655352373917-index10064.png
#EXTINF:6.833333,
420655352373917-index10065.png
#EXTINF:1.833333,
420655352373917-index10066.png
#EXTINF:4.033333,
420655352373917-index10067.png
#EXTINF:9.033333,
420655352373917-index10068.png
#EXTINF:10.000000,
420655352373917-index10069.png
#EXTINF:1.733333,
420655352373917-index10070.png
#EXTINF:10.000000,
420655352373917-index10071.png
#EXTINF:9.300000,
420655352373917-index10072.png
#EXTINF:3.033333,
420655352373917-index10073.png
#EXTINF:6.400000,
420655352373917-index10074.png
#EXTINF:4.000000,
420655352373917-index10075.png
#EXTINF:10.000000,
420655352373917-index10076.png
#EXTINF:10.000000,
420655352373917-index10077.png
#EXTINF:10.000000,
420655352373917-index10078.png
#EXTINF:3.200000,
420655352373917-index10079.png
#EXTINF:8.433333,
420655352373917-index10080.png
#EXTINF:7.666667,
420655352373917-index10081.png
#EXTINF:7.133333,
420655352373917-index10082.png
#EXTINF:3.366667,
420655352373917-index10083.png
#EXTINF:7.733333,
420655352373917-index10084.png
#EXTINF:3.533333,
420655352373917-index10085.png
#EXTINF:3.566667,
420655352373917-index10086.png
#EXTINF:10.000000,
420655352373917-index10087.png
#EXTINF:3.433333,
420655352373917-index10088.png
#EXTINF:4.566667,
420655352373917-index10089.png
#EXTINF:3.033333,
420655352373917-index10090.png
#EXTINF:9.966667,
420655352373917-index10091.png
#EXTINF:9.966667,
420655352373917-index10092.png
#EXTINF:2.133333,
420655352373917-index10093.png
#EXTINF:10.000000,
420655352373917-index10094.png
#EXTINF:3.533333,
420655352373917-index10095.png
#EXTINF:4.033333,
420655352373917-index10096.png
#EXTINF:4.366667,
420655352373917-index10097.png
#EXTINF:1.466667,
420655352373917-index10098.png
#EXTINF:4.766667,
420655352373917-index10099.png
#EXTINF:2.700000,
420655352373917-index10100.png
#EXTINF:3.200000,
420655352373917-index10101.png
#EXTINF:4.833333,
420655352373917-index10102.png
#EXTINF:3.400000,
420655352373917-index10103.png
#EXTINF:5.300000,
420655352373917-index10104.png
#EXTINF:4.333333,
420655352373917-index10105.png
#EXTINF:6.733333,
420655352373917-index10106.png
#EXTINF:1.166667,
420655352373917-index10107.png
#EXTINF:2.866667,
420655352373917-index10108.png
#EXTINF:10.000000,
420655352373917-index10109.png
#EXTINF:6.200000,
420655352373917-index10110.png
#EXTINF:8.600000,
420655352373917-index10111.png
#EXTINF:4.900000,
420655352373917-index10112.png
#EXTINF:3.000000,
420655352373917-index10113.png
#EXTINF:7.900000,
420655352373917-index10114.png
#EXTINF:6.733333,
420655352373917-index10115.png
#EXTINF:7.500000,
420655352373917-index10116.png
#EXTINF:2.833333,
420655352373917-index10117.png
#EXTINF:7.000000,
420655352373917-index10118.png
#EXTINF:8.633333,
420655352373917-index10119.png
#EXTINF:5.966667,
420655352373917-index10120.png
#EXTINF:4.666667,
420655352373917-index10121.png
#EXTINF:2.066667,
420655352373917-index10122.png
#EXTINF:10.000000,
420655352373917-index10123.png
#EXTINF:2.133333,
420655352373917-index10124.png
#EXTINF:2.900000,
420655352373917-index10125.png
#EXTINF:5.933333,
420655352373917-index10126.png
#EXTINF:5.833333,
420655352373917-index10127.png
#EXTINF:3.600000,
420655352373917-index10128.png
#EXTINF:6.200000,
420655352373917-index10129.png
#EXTINF:2.000000,
420655352373917-index10130.png
#EXTINF:8.633333,
420655352373917-index10131.png
#EXTINF:5.066667,
420655352373917-index10132.png
#EXTINF:2.900000,
420655352373917-index10133.png
#EXTINF:2.200000,
420655352373917-index10134.png
#EXTINF:1.666667,
420655352373917-index10135.png
#EXTINF:5.066667,
420655352373917-index10136.png
#EXTINF:4.833333,
420655352373917-index10137.png
#EXTINF:10.000000,
420655352373917-index10138.png
#EXTINF:10.000000,
420655352373917-index10139.png
#EXTINF:10.000000,
420655352373917-index10140.png
#EXTINF:3.100000,
420655352373917-index10141.png
#EXTINF:8.333333,
420655352373917-index10142.png
#EXTINF:8.833333,
420655352373917-index10143.png
#EXTINF:9.933333,
420655352373917-index10144.png
#EXTINF:10.000000,
420655352373917-index10145.png
#EXTINF:10.000000,
420655352373917-index10146.png
#EXTINF:9.966667,
420655352373917-index10147.png
#EXTINF:8.200000,
420655352373917-index10148.png
#EXTINF:8.066667,
420655352373917-index10149.png
#EXTINF:5.333333,
420655352373917-index10150.png
#EXTINF:3.033333,
420655352373917-index10151.png
#EXTINF:2.566667,
420655352373917-index10152.png
#EXTINF:1.666667,
420655352373917-index10153.png
#EXTINF:1.466667,
420655352373917-index10154.png
#EXTINF:7.300000,
420655352373917-index10155.png
#EXTINF:6.566667,
420655352373917-index10156.png
#EXTINF:7.766667,
420655352373917-index10157.png
#EXTINF:7.733333,
420655352373917-index10158.png
#EXTINF:5.633333,
420655352373917-index10159.png
#EXTINF:6.633333,
420655352373917-index10160.png
#EXTINF:10.000000,
420655352373917-index10161.png
#EXTINF:10.000000,
420655352373917-index10162.png
#EXTINF:10.000000,
420655352373917-index10163.png
#EXTINF:10.000000,
420655352373917-index10164.png
#EXTINF:5.266667,
420655352373917-index10165.png
#EXTINF:5.066667,
420655352373917-index10166.png
#EXTINF:4.666667,
420655352373917-index10167.png
#EXTINF:10.000000,
420655352373917-index10168.png
#EXTINF:10.000000,
420655352373917-index10169.png
#EXTINF:9.866667,
420655352373917-index10170.png
#EXTINF:7.866667,
420655352373917-index10171.png
#EXTINF:9.966667,
420655352373917-index10172.png
#EXTINF:5.666667,
420655352373917-index10173.png
#EXTINF:4.766667,
420655352373917-index10174.png
#EXTINF:2.866667,
420655352373917-index10175.png
#EXTINF:1.833333,
420655352373917-index10176.png
#EXTINF:4.500000,
420655352373917-index10177.png
#EXTINF:3.200000,
420655352373917-index10178.png
#EXTINF:2.366667,
420655352373917-index10179.png
#EXTINF:5.166667,
420655352373917-index10180.png
#EXTINF:3.400000,
420655352373917-index10181.png
#EXTINF:10.000000,
420655352373917-index10182.png
#EXTINF:3.100000,
420655352373917-index10183.png
#EXTINF:10.000000,
420655352373917-index10184.png
#EXTINF:7.933333,
420655352373917-index10185.png
#EXTINF:10.000000,
420655352373917-index10186.png
#EXTINF:7.833333,
420655352373917-index10187.png
#EXTINF:10.000000,
420655352373917-index10188.png
#EXTINF:10.000000,
420655352373917-index10189.png
#EXTINF:10.000000,
420655352373917-index10190.png
#EXTINF:10.000000,
420655352373917-index10191.png
#EXTINF:10.000000,
420655352373917-index10192.png
#EXTINF:10.000000,
420655352373917-index10193.png
#EXTINF:10.000000,
420655352373917-index10194.png
#EXTINF:9.966667,
420655352373917-index10195.png
#EXTINF:3.666667,
420655352373917-index10196.png
#EXTINF:7.666667,
420655352373917-index10197.png
#EXTINF:9.966667,
420655352373917-index10198.png
#EXTINF:4.900000,
420655352373917-index10199.png
#EXTINF:10.000000,
420655352373917-index10200.png
#EXTINF:0.433333,
420655352373917-index10201.png
#EXT-X-ENDLIST
