#EXTM3U
#EXT-X-VERSION:3
#EXT-X-TARGETDURATION:4
#EXT-X-MEDIA-SEQUENCE:10001
#EXTINF:3.041667,
428564933025174-index10001.ts
#EXTINF:3.041711,
428564933025174-index10002.ts
#EXTINF:3.041622,
428564933025174-index10003.ts
#EXTINF:3.041667,
428564933025174-index10004.ts
#EXTINF:3.041711,
428564933025174-index10005.ts
#EXTINF:3.041622,
428564933025174-index10006.ts
#EXTINF:3.041667,
428564933025174-index10007.ts
#EXTINF:3.041711,
428564933025174-index10008.ts
#EXTINF:3.041622,
428564933025174-index10009.ts
#EXTINF:3.041667,
428564933025174-index10010.ts
#EXTINF:3.041711,
428564933025174-index10011.ts
#EXTINF:3.041622,
428564933025174-index10012.ts
#EXTINF:3.041667,
428564933025174-index10013.ts
#EXTINF:3.041711,
428564933025174-index10014.ts
#EXTINF:3.041622,
428564933025174-index10015.ts
#EXTINF:3.041667,
428564933025174-index10016.ts
#EXTINF:3.041711,
428564933025174-index10017.ts
#EXTINF:3.041622,
428564933025174-index10018.ts
#EXTINF:3.041667,
428564933025174-index10019.ts
#EXTINF:3.041711,
428564933025174-index10020.ts
#EXTINF:3.041622,
428564933025174-index10021.ts
#EXTINF:3.041667,
428564933025174-index10022.ts
#EXTINF:3.041711,
428564933025174-index10023.ts
#EXTINF:3.041622,
428564933025174-index10024.ts
#EXTINF:3.041667,
428564933025174-index10025.ts
#EXTINF:3.041711,
428564933025174-index10026.ts
#EXTINF:3.041622,
428564933025174-index10027.ts
#EXTINF:3.041667,
428564933025174-index10028.ts
#EXTINF:3.041711,
428564933025174-index10029.ts
#EXTINF:3.041622,
428564933025174-index10030.ts
#EXTINF:3.041667,
428564933025174-index10031.ts
#EXTINF:3.041711,
428564933025174-index10032.ts
#EXTINF:3.041622,
428564933025174-index10033.ts
#EXTINF:3.041667,
428564933025174-index10034.ts
#EXTINF:3.041711,
428564933025174-index10035.ts
#EXTINF:3.041622,
428564933025174-index10036.ts
#EXTINF:3.041667,
428564933025174-index10037.ts
#EXTINF:3.041711,
428564933025174-index10038.ts
#EXTINF:3.041622,
428564933025174-index10039.ts
#EXTINF:3.041667,
428564933025174-index10040.ts
#EXTINF:3.041711,
428564933025174-index10041.ts
#EXTINF:3.041622,
428564933025174-index10042.ts
#EXTINF:3.041667,
428564933025174-index10043.ts
#EXTINF:3.041711,
428564933025174-index10044.ts
#EXTINF:3.041622,
428564933025174-index10045.ts
#EXTINF:3.041667,
428564933025174-index10046.ts
#EXTINF:3.041711,
428564933025174-index10047.ts
#EXTINF:3.041622,
428564933025174-index10048.ts
#EXTINF:3.041667,
428564933025174-index10049.ts
#EXTINF:3.041711,
428564933025174-index10050.ts
#EXTINF:3.041622,
428564933025174-index10051.ts
#EXTINF:3.041667,
428564933025174-index10052.ts
#EXTINF:3.041711,
428564933025174-index10053.ts
#EXTINF:3.041622,
428564933025174-index10054.ts
#EXTINF:3.041667,
428564933025174-index10055.ts
#EXTINF:3.041711,
428564933025174-index10056.ts
#EXTINF:3.041622,
428564933025174-index10057.ts
#EXTINF:3.041667,
428564933025174-index10058.ts
#EXTINF:3.041711,
428564933025174-index10059.ts
#EXTINF:3.041622,
428564933025174-index10060.ts
#EXTINF:3.041667,
428564933025174-index10061.ts
#EXTINF:3.041711,
428564933025174-index10062.ts
#EXTINF:3.041622,
428564933025174-index10063.ts
#EXTINF:3.041667,
428564933025174-index10064.ts
#EXTINF:3.041711,
428564933025174-index10065.ts
#EXTINF:3.041622,
428564933025174-index10066.ts
#EXTINF:3.041667,
428564933025174-index10067.ts
#EXTINF:3.041711,
428564933025174-index10068.ts
#EXTINF:3.041622,
428564933025174-index10069.ts
#EXTINF:3.041667,
428564933025174-index10070.ts
#EXTINF:3.041711,
428564933025174-index10071.ts
#EXTINF:3.041622,
428564933025174-index10072.ts
#EXTINF:3.041667,
428564933025174-index10073.ts
#EXTINF:3.041711,
428564933025174-index10074.ts
#EXTINF:3.041622,
428564933025174-index10075.ts
#EXTINF:3.041667,
428564933025174-index10076.ts
#EXTINF:3.041711,
428564933025174-index10077.ts
#EXTINF:3.041622,
428564933025174-index10078.ts
#EXTINF:3.041667,
428564933025174-index10079.ts
#EXTINF:3.041711,
428564933025174-index10080.ts
#EXTINF:3.041622,
428564933025174-index10081.ts
#EXTINF:3.041667,
428564933025174-index10082.ts
#EXTINF:3.041711,
428564933025174-index10083.ts
#EXTINF:3.041622,
428564933025174-index10084.ts
#EXTINF:3.041667,
428564933025174-index10085.ts
#EXTINF:3.041711,
428564933025174-index10086.ts
#EXTINF:3.041622,
428564933025174-index10087.ts
#EXTINF:3.041667,
428564933025174-index10088.ts
#EXTINF:3.041711,
428564933025174-index10089.ts
#EXTINF:3.041622,
428564933025174-index10090.ts
#EXTINF:3.041667,
428564933025174-index10091.ts
#EXTINF:3.041711,
428564933025174-index10092.ts
#EXTINF:3.041622,
428564933025174-index10093.ts
#EXTINF:3.041667,
428564933025174-index10094.ts
#EXTINF:3.041711,
428564933025174-index10095.ts
#EXTINF:3.041622,
428564933025174-index10096.ts
#EXTINF:3.041667,
428564933025174-index10097.ts
#EXTINF:3.041711,
428564933025174-index10098.ts
#EXTINF:3.041622,
428564933025174-index10099.ts
#EXTINF:3.041667,
428564933025174-index10100.ts
#EXTINF:3.041711,
428564933025174-index10101.ts
#EXTINF:3.041622,
428564933025174-index10102.ts
#EXTINF:3.041667,
428564933025174-index10103.ts
#EXTINF:3.041711,
428564933025174-index10104.ts
#EXTINF:3.041622,
428564933025174-index10105.ts
#EXTINF:3.041667,
428564933025174-index10106.ts
#EXTINF:3.041711,
428564933025174-index10107.ts
#EXTINF:3.041622,
428564933025174-index10108.ts
#EXTINF:3.041667,
428564933025174-index10109.ts
#EXTINF:3.041711,
428564933025174-index10110.ts
#EXTINF:3.041622,
428564933025174-index10111.ts
#EXTINF:3.041667,
428564933025174-index10112.ts
#EXTINF:3.041711,
428564933025174-index10113.ts
#EXTINF:3.041622,
428564933025174-index10114.ts
#EXTINF:3.041667,
428564933025174-index10115.ts
#EXTINF:3.041711,
428564933025174-index10116.ts
#EXTINF:3.041622,
428564933025174-index10117.ts
#EXTINF:3.041667,
428564933025174-index10118.ts
#EXTINF:3.041711,
428564933025174-index10119.ts
#EXTINF:3.041622,
428564933025174-index10120.ts
#EXTINF:3.041667,
428564933025174-index10121.ts
#EXTINF:3.041711,
428564933025174-index10122.ts
#EXTINF:3.041622,
428564933025174-index10123.ts
#EXTINF:3.041667,
428564933025174-index10124.ts
#EXTINF:3.041711,
428564933025174-index10125.ts
#EXTINF:3.041622,
428564933025174-index10126.ts
#EXTINF:3.041667,
428564933025174-index10127.ts
#EXTINF:3.041711,
428564933025174-index10128.ts
#EXTINF:3.041622,
428564933025174-index10129.ts
#EXTINF:3.041667,
428564933025174-index10130.ts
#EXTINF:3.041711,
428564933025174-index10131.ts
#EXTINF:3.041622,
428564933025174-index10132.ts
#EXTINF:3.041667,
428564933025174-index10133.ts
#EXTINF:3.041711,
428564933025174-index10134.ts
#EXTINF:3.041622,
428564933025174-index10135.ts
#EXTINF:3.041667,
428564933025174-index10136.ts
#EXTINF:3.041711,
428564933025174-index10137.ts
#EXTINF:3.041622,
428564933025174-index10138.ts
#EXTINF:3.041667,
428564933025174-index10139.ts
#EXTINF:3.041711,
428564933025174-index10140.ts
#EXTINF:3.041622,
428564933025174-index10141.ts
#EXTINF:3.041667,
428564933025174-index10142.ts
#EXTINF:3.041711,
428564933025174-index10143.ts
#EXTINF:3.041622,
428564933025174-index10144.ts
#EXTINF:3.041667,
428564933025174-index10145.ts
#EXTINF:3.041711,
428564933025174-index10146.ts
#EXTINF:3.041622,
428564933025174-index10147.ts
#EXTINF:3.041667,
428564933025174-index10148.ts
#EXTINF:3.041711,
428564933025174-index10149.ts
#EXTINF:3.041622,
428564933025174-index10150.ts
#EXTINF:3.041667,
428564933025174-index10151.ts
#EXTINF:3.041711,
428564933025174-index10152.ts
#EXTINF:3.041622,
428564933025174-index10153.ts
#EXTINF:3.041667,
428564933025174-index10154.ts
#EXTINF:3.041711,
428564933025174-index10155.ts
#EXTINF:3.041622,
428564933025174-index10156.ts
#EXTINF:3.041667,
428564933025174-index10157.ts
#EXTINF:3.041711,
428564933025174-index10158.ts
#EXTINF:3.041622,
428564933025174-index10159.ts
#EXTINF:3.041667,
428564933025174-index10160.ts
#EXTINF:3.041711,
428564933025174-index10161.ts
#EXTINF:3.041622,
428564933025174-index10162.ts
#EXTINF:3.041667,
428564933025174-index10163.ts
#EXTINF:3.041711,
428564933025174-index10164.ts
#EXTINF:3.041622,
428564933025174-index10165.ts
#EXTINF:3.041667,
428564933025174-index10166.ts
#EXTINF:3.041711,
428564933025174-index10167.ts
#EXTINF:3.041622,
428564933025174-index10168.ts
#EXTINF:3.041667,
428564933025174-index10169.ts
#EXTINF:3.041711,
428564933025174-index10170.ts
#EXTINF:3.041622,
428564933025174-index10171.ts
#EXTINF:3.041667,
428564933025174-index10172.ts
#EXTINF:3.041711,
428564933025174-index10173.ts
#EXTINF:3.041622,
428564933025174-index10174.ts
#EXTINF:3.041667,
428564933025174-index10175.ts
#EXTINF:3.041711,
428564933025174-index10176.ts
#EXTINF:3.041622,
428564933025174-index10177.ts
#EXTINF:3.041667,
428564933025174-index10178.ts
#EXTINF:3.041711,
428564933025174-index10179.ts
#EXTINF:3.041622,
428564933025174-index10180.ts
#EXTINF:3.041667,
428564933025174-index10181.ts
#EXTINF:3.041711,
428564933025174-index10182.ts
#EXTINF:3.041622,
428564933025174-index10183.ts
#EXTINF:3.041667,
428564933025174-index10184.ts
#EXTINF:3.041711,
428564933025174-index10185.ts
#EXTINF:3.041622,
428564933025174-index10186.ts
#EXTINF:3.041667,
428564933025174-index10187.ts
#EXTINF:3.041711,
428564933025174-index10188.ts
#EXTINF:3.041622,
428564933025174-index10189.ts
#EXTINF:3.041667,
428564933025174-index10190.ts
#EXTINF:3.041711,
428564933025174-index10191.ts
#EXTINF:3.041622,
428564933025174-index10192.ts
#EXTINF:3.041667,
428564933025174-index10193.ts
#EXTINF:3.041711,
428564933025174-index10194.ts
#EXTINF:3.041622,
428564933025174-index10195.ts
#EXTINF:3.041667,
428564933025174-index10196.ts
#EXTINF:3.041711,
428564933025174-index10197.ts
#EXTINF:3.041622,
428564933025174-index10198.ts
#EXTINF:3.041667,
428564933025174-index10199.ts
#EXTINF:3.041711,
428564933025174-index10200.ts
#EXTINF:3.041622,
428564933025174-index10201.ts
#EXTINF:3.041667,
428564933025174-index10202.ts
#EXTINF:3.041711,
428564933025174-index10203.ts
#EXTINF:3.041622,
428564933025174-index10204.ts
#EXTINF:3.041667,
428564933025174-index10205.ts
#EXTINF:3.041711,
428564933025174-index10206.ts
#EXTINF:3.041622,
428564933025174-index10207.ts
#EXTINF:3.041667,
428564933025174-index10208.ts
#EXTINF:3.041711,
428564933025174-index10209.ts
#EXTINF:3.041622,
428564933025174-index10210.ts
#EXTINF:3.041667,
428564933025174-index10211.ts
#EXTINF:3.041711,
428564933025174-index10212.ts
#EXTINF:3.041622,
428564933025174-index10213.ts
#EXTINF:3.041667,
428564933025174-index10214.ts
#EXTINF:3.041711,
428564933025174-index10215.ts
#EXTINF:3.041622,
428564933025174-index10216.ts
#EXTINF:3.041667,
428564933025174-index10217.ts
#EXTINF:3.041711,
428564933025174-index10218.ts
#EXTINF:3.041622,
428564933025174-index10219.ts
#EXTINF:3.041667,
428564933025174-index10220.ts
#EXTINF:3.041711,
428564933025174-index10221.ts
#EXTINF:3.041622,
428564933025174-index10222.ts
#EXTINF:3.041667,
428564933025174-index10223.ts
#EXTINF:3.041711,
428564933025174-index10224.ts
#EXTINF:3.041622,
428564933025174-index10225.ts
#EXTINF:3.041667,
428564933025174-index10226.ts
#EXTINF:3.041711,
428564933025174-index10227.ts
#EXTINF:3.041622,
428564933025174-index10228.ts
#EXTINF:3.041667,
428564933025174-index10229.ts
#EXTINF:3.041711,
428564933025174-index10230.ts
#EXTINF:3.041622,
428564933025174-index10231.ts
#EXTINF:3.041667,
428564933025174-index10232.ts
#EXTINF:3.041711,
428564933025174-index10233.ts
#EXTINF:3.041622,
428564933025174-index10234.ts
#EXTINF:3.041667,
428564933025174-index10235.ts
#EXTINF:3.041711,
428564933025174-index10236.ts
#EXTINF:3.041622,
428564933025174-index10237.ts
#EXTINF:3.041667,
428564933025174-index10238.ts
#EXTINF:3.041711,
428564933025174-index10239.ts
#EXTINF:3.041622,
428564933025174-index10240.ts
#EXTINF:3.041667,
428564933025174-index10241.ts
#EXTINF:3.041711,
428564933025174-index10242.ts
#EXTINF:3.041622,
428564933025174-index10243.ts
#EXTINF:3.041667,
428564933025174-index10244.ts
#EXTINF:3.041711,
428564933025174-index10245.ts
#EXTINF:3.041622,
428564933025174-index10246.ts
#EXTINF:3.041667,
428564933025174-index10247.ts
#EXTINF:3.041711,
428564933025174-index10248.ts
#EXTINF:3.041622,
428564933025174-index10249.ts
#EXTINF:3.041667,
428564933025174-index10250.ts
#EXTINF:3.041711,
428564933025174-index10251.ts
#EXTINF:3.041622,
428564933025174-index10252.ts
#EXTINF:3.041667,
428564933025174-index10253.ts
#EXTINF:3.041711,
428564933025174-index10254.ts
#EXTINF:3.041622,
428564933025174-index10255.ts
#EXTINF:3.041667,
428564933025174-index10256.ts
#EXTINF:3.041711,
428564933025174-index10257.ts
#EXTINF:3.041622,
428564933025174-index10258.ts
#EXTINF:3.041667,
428564933025174-index10259.ts
#EXTINF:3.041711,
428564933025174-index10260.ts
#EXTINF:3.041622,
428564933025174-index10261.ts
#EXTINF:3.041667,
428564933025174-index10262.ts
#EXTINF:3.041711,
428564933025174-index10263.ts
#EXTINF:3.041622,
428564933025174-index10264.ts
#EXTINF:3.041667,
428564933025174-index10265.ts
#EXTINF:3.041711,
428564933025174-index10266.ts
#EXTINF:3.041622,
428564933025174-index10267.ts
#EXTINF:3.041667,
428564933025174-index10268.ts
#EXTINF:3.041711,
428564933025174-index10269.ts
#EXTINF:3.041622,
428564933025174-index10270.ts
#EXTINF:3.041667,
428564933025174-index10271.ts
#EXTINF:3.041711,
428564933025174-index10272.ts
#EXTINF:3.041622,
428564933025174-index10273.ts
#EXTINF:3.041667,
428564933025174-index10274.ts
#EXTINF:3.041711,
428564933025174-index10275.ts
#EXTINF:3.041622,
428564933025174-index10276.ts
#EXTINF:3.041667,
428564933025174-index10277.ts
#EXTINF:3.041711,
428564933025174-index10278.ts
#EXTINF:3.041622,
428564933025174-index10279.ts
#EXTINF:3.041667,
428564933025174-index10280.ts
#EXTINF:3.041711,
428564933025174-index10281.ts
#EXTINF:3.041622,
428564933025174-index10282.ts
#EXTINF:3.041667,
428564933025174-index10283.ts
#EXTINF:3.041711,
428564933025174-index10284.ts
#EXTINF:3.041622,
428564933025174-index10285.ts
#EXTINF:3.041667,
428564933025174-index10286.ts
#EXTINF:3.041711,
428564933025174-index10287.ts
#EXTINF:3.041622,
428564933025174-index10288.ts
#EXTINF:3.041667,
428564933025174-index10289.ts
#EXTINF:3.041711,
428564933025174-index10290.ts
#EXTINF:3.041622,
428564933025174-index10291.ts
#EXTINF:3.041667,
428564933025174-index10292.ts
#EXTINF:3.041711,
428564933025174-index10293.ts
#EXTINF:3.041622,
428564933025174-index10294.ts
#EXTINF:3.041667,
428564933025174-index10295.ts
#EXTINF:3.041711,
428564933025174-index10296.ts
#EXTINF:3.041622,
428564933025174-index10297.ts
#EXTINF:3.041667,
428564933025174-index10298.ts
#EXTINF:3.041711,
428564933025174-index10299.ts
#EXTINF:3.041622,
428564933025174-index10300.ts
#EXTINF:3.041667,
428564933025174-index10301.ts
#EXTINF:3.041711,
428564933025174-index10302.ts
#EXTINF:3.041622,
428564933025174-index10303.ts
#EXTINF:3.041667,
428564933025174-index10304.ts
#EXTINF:3.041711,
428564933025174-index10305.ts
#EXTINF:3.041622,
428564933025174-index10306.ts
#EXTINF:3.041667,
428564933025174-index10307.ts
#EXTINF:3.041711,
428564933025174-index10308.ts
#EXTINF:3.041622,
428564933025174-index10309.ts
#EXTINF:3.041667,
428564933025174-index10310.ts
#EXTINF:3.041711,
428564933025174-index10311.ts
#EXTINF:3.041622,
428564933025174-index10312.ts
#EXTINF:3.041667,
428564933025174-index10313.ts
#EXTINF:3.041711,
428564933025174-index10314.ts
#EXTINF:3.041622,
428564933025174-index10315.ts
#EXTINF:3.041667,
428564933025174-index10316.ts
#EXTINF:3.041711,
428564933025174-index10317.ts
#EXTINF:3.041622,
428564933025174-index10318.ts
#EXTINF:3.041667,
428564933025174-index10319.ts
#EXTINF:3.041711,
428564933025174-index10320.ts
#EXTINF:3.041622,
428564933025174-index10321.ts
#EXTINF:3.041667,
428564933025174-index10322.ts
#EXTINF:3.041711,
428564933025174-index10323.ts
#EXTINF:3.041622,
428564933025174-index10324.ts
#EXTINF:3.041667,
428564933025174-index10325.ts
#EXTINF:3.041711,
428564933025174-index10326.ts
#EXTINF:3.041622,
428564933025174-index10327.ts
#EXTINF:3.041667,
428564933025174-index10328.ts
#EXTINF:3.041711,
428564933025174-index10329.ts
#EXTINF:3.041622,
428564933025174-index10330.ts
#EXTINF:3.041667,
428564933025174-index10331.ts
#EXTINF:3.041711,
428564933025174-index10332.ts
#EXTINF:3.041622,
428564933025174-index10333.ts
#EXTINF:3.041667,
428564933025174-index10334.ts
#EXTINF:3.041711,
428564933025174-index10335.ts
#EXTINF:3.041622,
428564933025174-index10336.ts
#EXTINF:3.041667,
428564933025174-index10337.ts
#EXTINF:3.041711,
428564933025174-index10338.ts
#EXTINF:3.041622,
428564933025174-index10339.ts
#EXTINF:3.041667,
428564933025174-index10340.ts
#EXTINF:3.041711,
428564933025174-index10341.ts
#EXTINF:3.041622,
428564933025174-index10342.ts
#EXTINF:3.041667,
428564933025174-index10343.ts
#EXTINF:3.041711,
428564933025174-index10344.ts
#EXTINF:3.041622,
428564933025174-index10345.ts
#EXTINF:3.041667,
428564933025174-index10346.ts
#EXTINF:3.041711,
428564933025174-index10347.ts
#EXTINF:3.041622,
428564933025174-index10348.ts
#EXTINF:3.041667,
428564933025174-index10349.ts
#EXTINF:3.041711,
428564933025174-index10350.ts
#EXTINF:3.041622,
428564933025174-index10351.ts
#EXTINF:3.041667,
428564933025174-index10352.ts
#EXTINF:3.041711,
428564933025174-index10353.ts
#EXTINF:3.041622,
428564933025174-index10354.ts
#EXTINF:3.041667,
428564933025174-index10355.ts
#EXTINF:3.041711,
428564933025174-index10356.ts
#EXTINF:3.041622,
428564933025174-index10357.ts
#EXTINF:3.041667,
428564933025174-index10358.ts
#EXTINF:3.041711,
428564933025174-index10359.ts
#EXTINF:3.041622,
428564933025174-index10360.ts
#EXTINF:3.041667,
428564933025174-index10361.ts
#EXTINF:3.041711,
428564933025174-index10362.ts
#EXTINF:3.041622,
428564933025174-index10363.ts
#EXTINF:3.041667,
428564933025174-index10364.ts
#EXTINF:3.041711,
428564933025174-index10365.ts
#EXTINF:3.041622,
428564933025174-index10366.ts
#EXTINF:3.041667,
428564933025174-index10367.ts
#EXTINF:3.041711,
428564933025174-index10368.ts
#EXTINF:3.041622,
428564933025174-index10369.ts
#EXTINF:3.041667,
428564933025174-index10370.ts
#EXTINF:3.041711,
428564933025174-index10371.ts
#EXTINF:3.041622,
428564933025174-index10372.ts
#EXTINF:3.041667,
428564933025174-index10373.ts
#EXTINF:3.041711,
428564933025174-index10374.ts
#EXTINF:3.041622,
428564933025174-index10375.ts
#EXTINF:3.041667,
428564933025174-index10376.ts
#EXTINF:3.041711,
428564933025174-index10377.ts
#EXTINF:3.041622,
428564933025174-index10378.ts
#EXTINF:3.041667,
428564933025174-index10379.ts
#EXTINF:3.041711,
428564933025174-index10380.ts
#EXTINF:3.041622,
428564933025174-index10381.ts
#EXTINF:3.041667,
428564933025174-index10382.ts
#EXTINF:3.041711,
428564933025174-index10383.ts
#EXTINF:3.041622,
428564933025174-index10384.ts
#EXTINF:3.041667,
428564933025174-index10385.ts
#EXTINF:3.041711,
428564933025174-index10386.ts
#EXTINF:3.041622,
428564933025174-index10387.ts
#EXTINF:3.041667,
428564933025174-index10388.ts
#EXTINF:3.041711,
428564933025174-index10389.ts
#EXTINF:3.041622,
428564933025174-index10390.ts
#EXTINF:3.041667,
428564933025174-index10391.ts
#EXTINF:3.041711,
428564933025174-index10392.ts
#EXTINF:3.041622,
428564933025174-index10393.ts
#EXTINF:3.041667,
428564933025174-index10394.ts
#EXTINF:3.041711,
428564933025174-index10395.ts
#EXTINF:3.041622,
428564933025174-index10396.ts
#EXTINF:3.041667,
428564933025174-index10397.ts
#EXTINF:3.041711,
428564933025174-index10398.ts
#EXTINF:3.041622,
428564933025174-index10399.ts
#EXTINF:3.041667,
428564933025174-index10400.ts
#EXTINF:3.041711,
428564933025174-index10401.ts
#EXTINF:3.041622,
428564933025174-index10402.ts
#EXTINF:3.041667,
428564933025174-index10403.ts
#EXTINF:3.041711,
428564933025174-index10404.ts
#EXTINF:3.041622,
428564933025174-index10405.ts
#EXTINF:3.041667,
428564933025174-index10406.ts
#EXTINF:3.041711,
428564933025174-index10407.ts
#EXTINF:3.041622,
428564933025174-index10408.ts
#EXTINF:3.041667,
428564933025174-index10409.ts
#EXTINF:3.041711,
428564933025174-index10410.ts
#EXTINF:3.041622,
428564933025174-index10411.ts
#EXTINF:3.041667,
428564933025174-index10412.ts
#EXTINF:3.041711,
428564933025174-index10413.ts
#EXTINF:3.041622,
428564933025174-index10414.ts
#EXTINF:3.041667,
428564933025174-index10415.ts
#EXTINF:3.041711,
428564933025174-index10416.ts
#EXTINF:3.041622,
428564933025174-index10417.ts
#EXTINF:3.041667,
428564933025174-index10418.ts
#EXTINF:3.041711,
428564933025174-index10419.ts
#EXTINF:3.041622,
428564933025174-index10420.ts
#EXTINF:3.041667,
428564933025174-index10421.ts
#EXTINF:3.041711,
428564933025174-index10422.ts
#EXTINF:3.041622,
428564933025174-index10423.ts
#EXTINF:3.041667,
428564933025174-index10424.ts
#EXTINF:3.041711,
428564933025174-index10425.ts
#EXTINF:3.041622,
428564933025174-index10426.ts
#EXTINF:3.041667,
428564933025174-index10427.ts
#EXTINF:3.041711,
428564933025174-index10428.ts
#EXTINF:3.041622,
428564933025174-index10429.ts
#EXTINF:3.041667,
428564933025174-index10430.ts
#EXTINF:3.041711,
428564933025174-index10431.ts
#EXTINF:3.041622,
428564933025174-index10432.ts
#EXTINF:3.041667,
428564933025174-index10433.ts
#EXTINF:3.041711,
428564933025174-index10434.ts
#EXTINF:3.041622,
428564933025174-index10435.ts
#EXTINF:3.041667,
428564933025174-index10436.ts
#EXTINF:3.041711,
428564933025174-index10437.ts
#EXTINF:3.041622,
428564933025174-index10438.ts
#EXTINF:3.041667,
428564933025174-index10439.ts
#EXTINF:3.041711,
428564933025174-index10440.ts
#EXTINF:3.041622,
428564933025174-index10441.ts
#EXTINF:3.041667,
428564933025174-index10442.ts
#EXTINF:3.041711,
428564933025174-index10443.ts
#EXTINF:3.041622,
428564933025174-index10444.ts
#EXTINF:3.041667,
428564933025174-index10445.ts
#EXTINF:3.041711,
428564933025174-index10446.ts
#EXTINF:3.041622,
428564933025174-index10447.ts
#EXTINF:3.041667,
428564933025174-index10448.ts
#EXTINF:3.041711,
428564933025174-index10449.ts
#EXTINF:3.041622,
428564933025174-index10450.ts
#EXTINF:3.041667,
428564933025174-index10451.ts
#EXTINF:3.041711,
428564933025174-index10452.ts
#EXTINF:3.041622,
428564933025174-index10453.ts
#EXTINF:3.041667,
428564933025174-index10454.ts
#EXTINF:3.041711,
428564933025174-index10455.ts
#EXTINF:3.041622,
428564933025174-index10456.ts
#EXTINF:3.041667,
428564933025174-index10457.ts
#EXTINF:3.041711,
428564933025174-index10458.ts
#EXTINF:3.041622,
428564933025174-index10459.ts
#EXTINF:3.041667,
428564933025174-index10460.ts
#EXTINF:3.041711,
428564933025174-index10461.ts
#EXTINF:3.041622,
428564933025174-index10462.ts
#EXTINF:3.041667,
428564933025174-index10463.ts
#EXTINF:3.041711,
428564933025174-index10464.ts
#EXTINF:3.041622,
428564933025174-index10465.ts
#EXTINF:3.041667,
428564933025174-index10466.ts
#EXTINF:3.041711,
428564933025174-index10467.ts
#EXTINF:3.041622,
428564933025174-index10468.ts
#EXTINF:3.041667,
428564933025174-index10469.ts
#EXTINF:3.041711,
428564933025174-index10470.ts
#EXTINF:3.041622,
428564933025174-index10471.ts
#EXTINF:3.041667,
428564933025174-index10472.ts
#EXTINF:3.041711,
428564933025174-index10473.ts
#EXTINF:3.041622,
428564933025174-index10474.ts
#EXTINF:3.041667,
428564933025174-index10475.ts
#EXTINF:3.041711,
428564933025174-index10476.ts
#EXTINF:3.041622,
428564933025174-index10477.ts
#EXTINF:3.041667,
428564933025174-index10478.ts
#EXTINF:3.041711,
428564933025174-index10479.ts
#EXTINF:3.041622,
428564933025174-index10480.ts
#EXTINF:3.041667,
428564933025174-index10481.ts
#EXTINF:3.041711,
428564933025174-index10482.ts
#EXTINF:3.041622,
428564933025174-index10483.ts
#EXTINF:3.041667,
428564933025174-index10484.ts
#EXTINF:3.041711,
428564933025174-index10485.ts
#EXTINF:3.041622,
428564933025174-index10486.ts
#EXTINF:3.041667,
428564933025174-index10487.ts
#EXTINF:3.041711,
428564933025174-index10488.ts
#EXTINF:3.041622,
428564933025174-index10489.ts
#EXTINF:3.041667,
428564933025174-index10490.ts
#EXTINF:3.041711,
428564933025174-index10491.ts
#EXTINF:3.041622,
428564933025174-index10492.ts
#EXTINF:3.041667,
428564933025174-index10493.ts
#EXTINF:3.041711,
428564933025174-index10494.ts
#EXTINF:3.041622,
428564933025174-index10495.ts
#EXTINF:3.041667,
428564933025174-index10496.ts
#EXTINF:3.041711,
428564933025174-index10497.ts
#EXTINF:3.041622,
428564933025174-index10498.ts
#EXTINF:3.041667,
428564933025174-index10499.ts
#EXTINF:3.041711,
428564933025174-index10500.ts
#EXTINF:3.041622,
428564933025174-index10501.ts
#EXTINF:3.041667,
428564933025174-index10502.ts
#EXTINF:3.041711,
428564933025174-index10503.ts
#EXTINF:3.041622,
428564933025174-index10504.ts
#EXTINF:3.041667,
428564933025174-index10505.ts
#EXTINF:3.041711,
428564933025174-index10506.ts
#EXTINF:3.041622,
428564933025174-index10507.ts
#EXTINF:3.041667,
428564933025174-index10508.ts
#EXTINF:3.041711,
428564933025174-index10509.ts
#EXTINF:3.041622,
428564933025174-index10510.ts
#EXTINF:3.041667,
428564933025174-index10511.ts
#EXTINF:3.041711,
428564933025174-index10512.ts
#EXTINF:3.041622,
428564933025174-index10513.ts
#EXTINF:3.041667,
428564933025174-index10514.ts
#EXTINF:3.041711,
428564933025174-index10515.ts
#EXTINF:3.041622,
428564933025174-index10516.ts
#EXTINF:3.041667,
428564933025174-index10517.ts
#EXTINF:3.041711,
428564933025174-index10518.ts
#EXTINF:3.041622,
428564933025174-index10519.ts
#EXTINF:3.041667,
428564933025174-index10520.ts
#EXTINF:3.041711,
428564933025174-index10521.ts
#EXTINF:3.041622,
428564933025174-index10522.ts
#EXTINF:3.041667,
428564933025174-index10523.ts
#EXTINF:3.041711,
428564933025174-index10524.ts
#EXTINF:3.041622,
428564933025174-index10525.ts
#EXTINF:3.041667,
428564933025174-index10526.ts
#EXTINF:3.041711,
428564933025174-index10527.ts
#EXTINF:3.041622,
428564933025174-index10528.ts
#EXTINF:3.041667,
428564933025174-index10529.ts
#EXTINF:3.041711,
428564933025174-index10530.ts
#EXTINF:3.041622,
428564933025174-index10531.ts
#EXTINF:3.041667,
428564933025174-index10532.ts
#EXTINF:3.041711,
428564933025174-index10533.ts
#EXTINF:3.041622,
428564933025174-index10534.ts
#EXTINF:3.041667,
428564933025174-index10535.ts
#EXTINF:3.041711,
428564933025174-index10536.ts
#EXTINF:3.041622,
428564933025174-index10537.ts
#EXTINF:3.041667,
428564933025174-index10538.ts
#EXTINF:3.041711,
428564933025174-index10539.ts
#EXTINF:3.041622,
428564933025174-index10540.ts
#EXTINF:3.041667,
428564933025174-index10541.ts
#EXTINF:3.041711,
428564933025174-index10542.ts
#EXTINF:3.041622,
428564933025174-index10543.ts
#EXTINF:3.041667,
428564933025174-index10544.ts
#EXTINF:3.041711,
428564933025174-index10545.ts
#EXTINF:3.041622,
428564933025174-index10546.ts
#EXTINF:3.041667,
428564933025174-index10547.ts
#EXTINF:3.041711,
428564933025174-index10548.ts
#EXTINF:3.041622,
428564933025174-index10549.ts
#EXTINF:3.041667,
428564933025174-index10550.ts
#EXTINF:3.041711,
428564933025174-index10551.ts
#EXTINF:3.041622,
428564933025174-index10552.ts
#EXTINF:3.041667,
428564933025174-index10553.ts
#EXTINF:3.041711,
428564933025174-index10554.ts
#EXTINF:3.041622,
428564933025174-index10555.ts
#EXTINF:3.041667,
428564933025174-index10556.ts
#EXTINF:3.041711,
428564933025174-index10557.ts
#EXTINF:3.041622,
428564933025174-index10558.ts
#EXTINF:3.041667,
428564933025174-index10559.ts
#EXTINF:3.041711,
428564933025174-index10560.ts
#EXTINF:3.041622,
428564933025174-index10561.ts
#EXTINF:3.041667,
428564933025174-index10562.ts
#EXTINF:3.041711,
428564933025174-index10563.ts
#EXTINF:3.041622,
428564933025174-index10564.ts
#EXTINF:3.041667,
428564933025174-index10565.ts
#EXTINF:3.041711,
428564933025174-index10566.ts
#EXTINF:3.041622,
428564933025174-index10567.ts
#EXTINF:3.041667,
428564933025174-index10568.ts
#EXTINF:3.041711,
428564933025174-index10569.ts
#EXTINF:3.041622,
428564933025174-index10570.ts
#EXTINF:3.041667,
428564933025174-index10571.ts
#EXTINF:3.041711,
428564933025174-index10572.ts
#EXTINF:3.041622,
428564933025174-index10573.ts
#EXTINF:3.041667,
428564933025174-index10574.ts
#EXTINF:3.041711,
428564933025174-index10575.ts
#EXTINF:3.041622,
428564933025174-index10576.ts
#EXTINF:3.041667,
428564933025174-index10577.ts
#EXTINF:3.041711,
428564933025174-index10578.ts
#EXTINF:3.041622,
428564933025174-index10579.ts
#EXTINF:3.041667,
428564933025174-index10580.ts
#EXTINF:3.041711,
428564933025174-index10581.ts
#EXTINF:3.041622,
428564933025174-index10582.ts
#EXTINF:3.041667,
428564933025174-index10583.ts
#EXTINF:3.041711,
428564933025174-index10584.ts
#EXTINF:3.041622,
428564933025174-index10585.ts
#EXTINF:3.041667,
428564933025174-index10586.ts
#EXTINF:3.041711,
428564933025174-index10587.ts
#EXTINF:3.041622,
428564933025174-index10588.ts
#EXTINF:3.041667,
428564933025174-index10589.ts
#EXTINF:3.041711,
428564933025174-index10590.ts
#EXTINF:3.041622,
428564933025174-index10591.ts
#EXTINF:3.041667,
428564933025174-index10592.ts
#EXTINF:3.041711,
428564933025174-index10593.ts
#EXTINF:3.041622,
428564933025174-index10594.ts
#EXTINF:3.041667,
428564933025174-index10595.ts
#EXTINF:3.041711,
428564933025174-index10596.ts
#EXTINF:3.041622,
428564933025174-index10597.ts
#EXTINF:3.041667,
428564933025174-index10598.ts
#EXTINF:3.041711,
428564933025174-index10599.ts
#EXTINF:3.041622,
428564933025174-index10600.ts
#EXTINF:3.041667,
428564933025174-index10601.ts
#EXTINF:3.041711,
428564933025174-index10602.ts
#EXTINF:3.041622,
428564933025174-index10603.ts
#EXTINF:3.041667,
428564933025174-index10604.ts
#EXTINF:3.041711,
428564933025174-index10605.ts
#EXTINF:3.041622,
428564933025174-index10606.ts
#EXTINF:3.041667,
428564933025174-index10607.ts
#EXTINF:3.041711,
428564933025174-index10608.ts
#EXTINF:3.041622,
428564933025174-index10609.ts
#EXTINF:3.041667,
428564933025174-index10610.ts
#EXTINF:3.041711,
428564933025174-index10611.ts
#EXTINF:3.041622,
428564933025174-index10612.ts
#EXTINF:3.041667,
428564933025174-index10613.ts
#EXTINF:3.041711,
428564933025174-index10614.ts
#EXTINF:3.041622,
428564933025174-index10615.ts
#EXTINF:3.041667,
428564933025174-index10616.ts
#EXTINF:3.041711,
428564933025174-index10617.ts
#EXTINF:3.041622,
428564933025174-index10618.ts
#EXTINF:3.041667,
428564933025174-index10619.ts
#EXTINF:3.041711,
428564933025174-index10620.ts
#EXTINF:3.041622,
428564933025174-index10621.ts
#EXTINF:3.041667,
428564933025174-index10622.ts
#EXTINF:3.041711,
428564933025174-index10623.ts
#EXTINF:3.041622,
428564933025174-index10624.ts
#EXTINF:3.041667,
428564933025174-index10625.ts
#EXTINF:3.041711,
428564933025174-index10626.ts
#EXTINF:3.041622,
428564933025174-index10627.ts
#EXTINF:3.041667,
428564933025174-index10628.ts
#EXTINF:3.041711,
428564933025174-index10629.ts
#EXTINF:3.041622,
428564933025174-index10630.ts
#EXTINF:3.041667,
428564933025174-index10631.ts
#EXTINF:3.041711,
428564933025174-index10632.ts
#EXTINF:3.041622,
428564933025174-index10633.ts
#EXTINF:3.041667,
428564933025174-index10634.ts
#EXTINF:3.041711,
428564933025174-index10635.ts
#EXTINF:3.041622,
428564933025174-index10636.ts
#EXTINF:3.041667,
428564933025174-index10637.ts
#EXTINF:3.041711,
428564933025174-index10638.ts
#EXTINF:3.041622,
428564933025174-index10639.ts
#EXTINF:3.041667,
428564933025174-index10640.ts
#EXTINF:3.041711,
428564933025174-index10641.ts
#EXTINF:3.041622,
428564933025174-index10642.ts
#EXTINF:3.041667,
428564933025174-index10643.ts
#EXTINF:3.041711,
428564933025174-index10644.ts
#EXTINF:3.041622,
428564933025174-index10645.ts
#EXTINF:3.041667,
428564933025174-index10646.ts
#EXTINF:3.041711,
428564933025174-index10647.ts
#EXTINF:3.041622,
428564933025174-index10648.ts
#EXTINF:3.041667,
428564933025174-index10649.ts
#EXTINF:3.041711,
428564933025174-index10650.ts
#EXTINF:3.041622,
428564933025174-index10651.ts
#EXTINF:3.041667,
428564933025174-index10652.ts
#EXTINF:3.041711,
428564933025174-index10653.ts
#EXTINF:3.041622,
428564933025174-index10654.ts
#EXTINF:3.041667,
428564933025174-index10655.ts
#EXTINF:3.041711,
428564933025174-index10656.ts
#EXTINF:3.041622,
428564933025174-index10657.ts
#EXTINF:3.041667,
428564933025174-index10658.ts
#EXTINF:3.041711,
428564933025174-index10659.ts
#EXTINF:3.041622,
428564933025174-index10660.ts
#EXTINF:3.041667,
428564933025174-index10661.ts
#EXTINF:3.041711,
428564933025174-index10662.ts
#EXTINF:3.041622,
428564933025174-index10663.ts
#EXTINF:3.041667,
428564933025174-index10664.ts
#EXTINF:3.041711,
428564933025174-index10665.ts
#EXTINF:3.041622,
428564933025174-index10666.ts
#EXTINF:3.041667,
428564933025174-index10667.ts
#EXTINF:3.041711,
428564933025174-index10668.ts
#EXTINF:3.041622,
428564933025174-index10669.ts
#EXTINF:3.041667,
428564933025174-index10670.ts
#EXTINF:3.041711,
428564933025174-index10671.ts
#EXTINF:3.041622,
428564933025174-index10672.ts
#EXTINF:3.041667,
428564933025174-index10673.ts
#EXTINF:3.041711,
428564933025174-index10674.ts
#EXTINF:3.041622,
428564933025174-index10675.ts
#EXTINF:3.041667,
428564933025174-index10676.ts
#EXTINF:3.041711,
428564933025174-index10677.ts
#EXTINF:3.041622,
428564933025174-index10678.ts
#EXTINF:3.041667,
428564933025174-index10679.ts
#EXTINF:3.041711,
428564933025174-index10680.ts
#EXTINF:3.041622,
428564933025174-index10681.ts
#EXTINF:3.041667,
428564933025174-index10682.ts
#EXTINF:3.041711,
428564933025174-index10683.ts
#EXTINF:3.041622,
428564933025174-index10684.ts
#EXTINF:3.041667,
428564933025174-index10685.ts
#EXTINF:3.041711,
428564933025174-index10686.ts
#EXTINF:3.041622,
428564933025174-index10687.ts
#EXTINF:3.041667,
428564933025174-index10688.ts
#EXTINF:3.041711,
428564933025174-index10689.ts
#EXTINF:3.041622,
428564933025174-index10690.ts
#EXTINF:3.041667,
428564933025174-index10691.ts
#EXTINF:3.041711,
428564933025174-index10692.ts
#EXTINF:3.041622,
428564933025174-index10693.ts
#EXTINF:3.041667,
428564933025174-index10694.ts
#EXTINF:3.041711,
428564933025174-index10695.ts
#EXTINF:3.041622,
428564933025174-index10696.ts
#EXTINF:3.041667,
428564933025174-index10697.ts
#EXTINF:3.041711,
428564933025174-index10698.ts
#EXTINF:3.041622,
428564933025174-index10699.ts
#EXTINF:3.041667,
428564933025174-index10700.ts
#EXTINF:3.041711,
428564933025174-index10701.ts
#EXTINF:3.041622,
428564933025174-index10702.ts
#EXTINF:3.041667,
428564933025174-index10703.ts
#EXTINF:3.041711,
428564933025174-index10704.ts
#EXTINF:3.041622,
428564933025174-index10705.ts
#EXTINF:3.041667,
428564933025174-index10706.ts
#EXTINF:3.041711,
428564933025174-index10707.ts
#EXTINF:3.041622,
428564933025174-index10708.ts
#EXTINF:3.041667,
428564933025174-index10709.ts
#EXTINF:3.041711,
428564933025174-index10710.ts
#EXTINF:3.041622,
428564933025174-index10711.ts
#EXTINF:3.041667,
428564933025174-index10712.ts
#EXTINF:3.041711,
428564933025174-index10713.ts
#EXTINF:3.041622,
428564933025174-index10714.ts
#EXTINF:3.041667,
428564933025174-index10715.ts
#EXTINF:3.041711,
428564933025174-index10716.ts
#EXTINF:3.041622,
428564933025174-index10717.ts
#EXTINF:3.041667,
428564933025174-index10718.ts
#EXTINF:3.041711,
428564933025174-index10719.ts
#EXTINF:3.041622,
428564933025174-index10720.ts
#EXTINF:3.041667,
428564933025174-index10721.ts
#EXTINF:3.041711,
428564933025174-index10722.ts
#EXTINF:3.041622,
428564933025174-index10723.ts
#EXTINF:3.041667,
428564933025174-index10724.ts
#EXTINF:3.041711,
428564933025174-index10725.ts
#EXTINF:3.041622,
428564933025174-index10726.ts
#EXTINF:3.041667,
428564933025174-index10727.ts
#EXTINF:3.041711,
428564933025174-index10728.ts
#EXTINF:3.041622,
428564933025174-index10729.ts
#EXTINF:3.041667,
428564933025174-index10730.ts
#EXTINF:3.041711,
428564933025174-index10731.ts
#EXTINF:3.041622,
428564933025174-index10732.ts
#EXTINF:3.041667,
428564933025174-index10733.ts
#EXTINF:3.041711,
428564933025174-index10734.ts
#EXTINF:3.041622,
428564933025174-index10735.ts
#EXTINF:3.041667,
428564933025174-index10736.ts
#EXTINF:3.041711,
428564933025174-index10737.ts
#EXTINF:3.041622,
428564933025174-index10738.ts
#EXTINF:3.041667,
428564933025174-index10739.ts
#EXTINF:3.041711,
428564933025174-index10740.ts
#EXTINF:3.041622,
428564933025174-index10741.ts
#EXTINF:3.041667,
428564933025174-index10742.ts
#EXTINF:3.041711,
428564933025174-index10743.ts
#EXTINF:3.041622,
428564933025174-index10744.ts
#EXTINF:3.041667,
428564933025174-index10745.ts
#EXTINF:3.041711,
428564933025174-index10746.ts
#EXTINF:3.041622,
428564933025174-index10747.ts
#EXTINF:3.041667,
428564933025174-index10748.ts
#EXTINF:3.041711,
428564933025174-index10749.ts
#EXTINF:3.041622,
428564933025174-index10750.ts
#EXTINF:3.041667,
428564933025174-index10751.ts
#EXTINF:3.041711,
428564933025174-index10752.ts
#EXTINF:3.041622,
428564933025174-index10753.ts
#EXTINF:3.041667,
428564933025174-index10754.ts
#EXTINF:3.041711,
428564933025174-index10755.ts
#EXTINF:3.041622,
428564933025174-index10756.ts
#EXTINF:3.041667,
428564933025174-index10757.ts
#EXTINF:3.041711,
428564933025174-index10758.ts
#EXTINF:3.041622,
428564933025174-index10759.ts
#EXTINF:3.041667,
428564933025174-index10760.ts
#EXTINF:3.041711,
428564933025174-index10761.ts
#EXTINF:3.041622,
428564933025174-index10762.ts
#EXTINF:3.041667,
428564933025174-index10763.ts
#EXTINF:3.041711,
428564933025174-index10764.ts
#EXTINF:3.041622,
428564933025174-index10765.ts
#EXTINF:3.041667,
428564933025174-index10766.ts
#EXTINF:3.041711,
428564933025174-index10767.ts
#EXTINF:3.041622,
428564933025174-index10768.ts
#EXTINF:3.041667,
428564933025174-index10769.ts
#EXTINF:3.041711,
428564933025174-index10770.ts
#EXTINF:3.041622,
428564933025174-index10771.ts
#EXTINF:3.041667,
428564933025174-index10772.ts
#EXTINF:3.041711,
428564933025174-index10773.ts
#EXTINF:3.041622,
428564933025174-index10774.ts
#EXTINF:3.041667,
428564933025174-index10775.ts
#EXTINF:3.041711,
428564933025174-index10776.ts
#EXTINF:3.041622,
428564933025174-index10777.ts
#EXTINF:3.041667,
428564933025174-index10778.ts
#EXTINF:3.041711,
428564933025174-index10779.ts
#EXTINF:3.041622,
428564933025174-index10780.ts
#EXTINF:3.041667,
428564933025174-index10781.ts
#EXTINF:3.041711,
428564933025174-index10782.ts
#EXTINF:3.041622,
428564933025174-index10783.ts
#EXTINF:3.041667,
428564933025174-index10784.ts
#EXTINF:3.041711,
428564933025174-index10785.ts
#EXTINF:3.041622,
428564933025174-index10786.ts
#EXTINF:3.041667,
428564933025174-index10787.ts
#EXTINF:3.041711,
428564933025174-index10788.ts
#EXTINF:3.041622,
428564933025174-index10789.ts
#EXTINF:3.041667,
428564933025174-index10790.ts
#EXTINF:3.041711,
428564933025174-index10791.ts
#EXTINF:3.041622,
428564933025174-index10792.ts
#EXTINF:3.041667,
428564933025174-index10793.ts
#EXTINF:3.041711,
428564933025174-index10794.ts
#EXTINF:3.041622,
428564933025174-index10795.ts
#EXTINF:3.041667,
428564933025174-index10796.ts
#EXTINF:3.041711,
428564933025174-index10797.ts
#EXTINF:3.041622,
428564933025174-index10798.ts
#EXTINF:3.041667,
428564933025174-index10799.ts
#EXTINF:3.041711,
428564933025174-index10800.ts
#EXTINF:3.041622,
428564933025174-index10801.ts
#EXTINF:3.041667,
428564933025174-index10802.ts
#EXTINF:3.041711,
428564933025174-index10803.ts
#EXTINF:3.041622,
428564933025174-index10804.ts
#EXTINF:3.041667,
428564933025174-index10805.ts
#EXTINF:3.041711,
428564933025174-index10806.ts
#EXTINF:3.041622,
428564933025174-index10807.ts
#EXTINF:3.041667,
428564933025174-index10808.ts
#EXTINF:3.041711,
428564933025174-index10809.ts
#EXTINF:3.041622,
428564933025174-index10810.ts
#EXTINF:3.041667,
428564933025174-index10811.ts
#EXTINF:3.041711,
428564933025174-index10812.ts
#EXTINF:3.041622,
428564933025174-index10813.ts
#EXTINF:3.041667,
428564933025174-index10814.ts
#EXTINF:3.041711,
428564933025174-index10815.ts
#EXTINF:3.041622,
428564933025174-index10816.ts
#EXTINF:3.041667,
428564933025174-index10817.ts
#EXTINF:3.041711,
428564933025174-index10818.ts
#EXTINF:3.041622,
428564933025174-index10819.ts
#EXTINF:3.041667,
428564933025174-index10820.ts
#EXTINF:3.041711,
428564933025174-index10821.ts
#EXTINF:3.041622,
428564933025174-index10822.ts
#EXTINF:3.041667,
428564933025174-index10823.ts
#EXTINF:3.041711,
428564933025174-index10824.ts
#EXTINF:3.041622,
428564933025174-index10825.ts
#EXTINF:3.041667,
428564933025174-index10826.ts
#EXTINF:3.041711,
428564933025174-index10827.ts
#EXTINF:3.041622,
428564933025174-index10828.ts
#EXTINF:3.041667,
428564933025174-index10829.ts
#EXTINF:3.041711,
428564933025174-index10830.ts
#EXTINF:3.041622,
428564933025174-index10831.ts
#EXTINF:3.041667,
428564933025174-index10832.ts
#EXTINF:3.041711,
428564933025174-index10833.ts
#EXTINF:3.041622,
428564933025174-index10834.ts
#EXTINF:3.041667,
428564933025174-index10835.ts
#EXTINF:3.041711,
428564933025174-index10836.ts
#EXTINF:3.041622,
428564933025174-index10837.ts
#EXTINF:3.041667,
428564933025174-index10838.ts
#EXTINF:3.041711,
428564933025174-index10839.ts
#EXTINF:3.041622,
428564933025174-index10840.ts
#EXTINF:3.041667,
428564933025174-index10841.ts
#EXTINF:3.041711,
428564933025174-index10842.ts
#EXTINF:3.041622,
428564933025174-index10843.ts
#EXTINF:3.041667,
428564933025174-index10844.ts
#EXTINF:3.041711,
428564933025174-index10845.ts
#EXTINF:3.041622,
428564933025174-index10846.ts
#EXTINF:3.041667,
428564933025174-index10847.ts
#EXTINF:3.041711,
428564933025174-index10848.ts
#EXTINF:3.041622,
428564933025174-index10849.ts
#EXTINF:3.041667,
428564933025174-index10850.ts
#EXTINF:3.041711,
428564933025174-index10851.ts
#EXTINF:3.041622,
428564933025174-index10852.ts
#EXTINF:3.041667,
428564933025174-index10853.ts
#EXTINF:3.041711,
428564933025174-index10854.ts
#EXTINF:3.041622,
428564933025174-index10855.ts
#EXTINF:3.041667,
428564933025174-index10856.ts
#EXTINF:3.041711,
428564933025174-index10857.ts
#EXTINF:3.041622,
428564933025174-index10858.ts
#EXTINF:3.041667,
428564933025174-index10859.ts
#EXTINF:3.041711,
428564933025174-index10860.ts
#EXTINF:3.041622,
428564933025174-index10861.ts
#EXTINF:3.041667,
428564933025174-index10862.ts
#EXTINF:3.041711,
428564933025174-index10863.ts
#EXTINF:3.041622,
428564933025174-index10864.ts
#EXTINF:3.041667,
428564933025174-index10865.ts
#EXTINF:3.041711,
428564933025174-index10866.ts
#EXTINF:3.041622,
428564933025174-index10867.ts
#EXTINF:3.041667,
428564933025174-index10868.ts
#EXTINF:3.041711,
428564933025174-index10869.ts
#EXTINF:3.041622,
428564933025174-index10870.ts
#EXTINF:3.041667,
428564933025174-index10871.ts
#EXTINF:3.041711,
428564933025174-index10872.ts
#EXTINF:3.041622,
428564933025174-index10873.ts
#EXTINF:3.041667,
428564933025174-index10874.ts
#EXTINF:3.041711,
428564933025174-index10875.ts
#EXTINF:3.041622,
428564933025174-index10876.ts
#EXTINF:3.041667,
428564933025174-index10877.ts
#EXTINF:3.041711,
428564933025174-index10878.ts
#EXTINF:3.041622,
428564933025174-index10879.ts
#EXTINF:3.041667,
428564933025174-index10880.ts
#EXTINF:3.041711,
428564933025174-index10881.ts
#EXTINF:3.041622,
428564933025174-index10882.ts
#EXTINF:3.041667,
428564933025174-index10883.ts
#EXTINF:3.041711,
428564933025174-index10884.ts
#EXTINF:3.041622,
428564933025174-index10885.ts
#EXTINF:3.041667,
428564933025174-index10886.ts
#EXTINF:3.041711,
428564933025174-index10887.ts
#EXTINF:3.041622,
428564933025174-index10888.ts
#EXTINF:3.041667,
428564933025174-index10889.ts
#EXTINF:3.041711,
428564933025174-index10890.ts
#EXTINF:3.041622,
428564933025174-index10891.ts
#EXTINF:3.041667,
428564933025174-index10892.ts
#EXTINF:3.041711,
428564933025174-index10893.ts
#EXTINF:3.041622,
428564933025174-index10894.ts
#EXTINF:3.041667,
428564933025174-index10895.ts
#EXTINF:3.041711,
428564933025174-index10896.ts
#EXTINF:3.041622,
428564933025174-index10897.ts
#EXTINF:3.041667,
428564933025174-index10898.ts
#EXTINF:3.041711,
428564933025174-index10899.ts
#EXTINF:3.041622,
428564933025174-index10900.ts
#EXTINF:3.041667,
428564933025174-index10901.ts
#EXTINF:3.041711,
428564933025174-index10902.ts
#EXTINF:3.041622,
428564933025174-index10903.ts
#EXTINF:3.041667,
428564933025174-index10904.ts
#EXTINF:3.041711,
428564933025174-index10905.ts
#EXTINF:3.041622,
428564933025174-index10906.ts
#EXTINF:3.041667,
428564933025174-index10907.ts
#EXTINF:3.041711,
428564933025174-index10908.ts
#EXTINF:3.041622,
428564933025174-index10909.ts
#EXTINF:3.041667,
428564933025174-index10910.ts
#EXTINF:3.041711,
428564933025174-index10911.ts
#EXTINF:3.041622,
428564933025174-index10912.ts
#EXTINF:3.041667,
428564933025174-index10913.ts
#EXTINF:3.041711,
428564933025174-index10914.ts
#EXTINF:3.041622,
428564933025174-index10915.ts
#EXTINF:3.041667,
428564933025174-index10916.ts
#EXTINF:3.041711,
428564933025174-index10917.ts
#EXTINF:3.041622,
428564933025174-index10918.ts
#EXTINF:3.041667,
428564933025174-index10919.ts
#EXTINF:3.041711,
428564933025174-index10920.ts
#EXTINF:3.041622,
428564933025174-index10921.ts
#EXTINF:3.041667,
428564933025174-index10922.ts
#EXTINF:3.041711,
428564933025174-index10923.ts
#EXTINF:3.041622,
428564933025174-index10924.ts
#EXTINF:3.041667,
428564933025174-index10925.ts
#EXTINF:3.041711,
428564933025174-index10926.ts
#EXTINF:3.041622,
428564933025174-index10927.ts
#EXTINF:3.041667,
428564933025174-index10928.ts
#EXTINF:3.041711,
428564933025174-index10929.ts
#EXTINF:3.041622,
428564933025174-index10930.ts
#EXTINF:3.041667,
428564933025174-index10931.ts
#EXTINF:3.041711,
428564933025174-index10932.ts
#EXTINF:3.041622,
428564933025174-index10933.ts
#EXTINF:3.041667,
428564933025174-index10934.ts
#EXTINF:3.041711,
428564933025174-index10935.ts
#EXTINF:3.041622,
428564933025174-index10936.ts
#EXTINF:3.041667,
428564933025174-index10937.ts
#EXTINF:3.041711,
428564933025174-index10938.ts
#EXTINF:3.041622,
428564933025174-index10939.ts
#EXTINF:3.041667,
428564933025174-index10940.ts
#EXTINF:3.041711,
428564933025174-index10941.ts
#EXTINF:3.041622,
428564933025174-index10942.ts
#EXTINF:3.041667,
428564933025174-index10943.ts
#EXTINF:3.041711,
428564933025174-index10944.ts
#EXTINF:3.041622,
428564933025174-index10945.ts
#EXTINF:3.041667,
428564933025174-index10946.ts
#EXTINF:3.041711,
428564933025174-index10947.ts
#EXTINF:3.041622,
428564933025174-index10948.ts
#EXTINF:3.041667,
428564933025174-index10949.ts
#EXTINF:3.041711,
428564933025174-index10950.ts
#EXTINF:3.041622,
428564933025174-index10951.ts
#EXTINF:3.041667,
428564933025174-index10952.ts
#EXTINF:3.041711,
428564933025174-index10953.ts
#EXTINF:3.041622,
428564933025174-index10954.ts
#EXTINF:3.041667,
428564933025174-index10955.ts
#EXTINF:3.041711,
428564933025174-index10956.ts
#EXTINF:3.041622,
428564933025174-index10957.ts
#EXTINF:3.041667,
428564933025174-index10958.ts
#EXTINF:3.041711,
428564933025174-index10959.ts
#EXTINF:3.041622,
428564933025174-index10960.ts
#EXTINF:3.041667,
428564933025174-index10961.ts
#EXTINF:3.041711,
428564933025174-index10962.ts
#EXTINF:3.041622,
428564933025174-index10963.ts
#EXTINF:3.041667,
428564933025174-index10964.ts
#EXTINF:3.041711,
428564933025174-index10965.ts
#EXTINF:3.041622,
428564933025174-index10966.ts
#EXTINF:3.041667,
428564933025174-index10967.ts
#EXTINF:3.041711,
428564933025174-index10968.ts
#EXTINF:3.041622,
428564933025174-index10969.ts
#EXTINF:3.041667,
428564933025174-index10970.ts
#EXTINF:3.041711,
428564933025174-index10971.ts
#EXTINF:3.041622,
428564933025174-index10972.ts
#EXTINF:3.041667,
428564933025174-index10973.ts
#EXTINF:3.041711,
428564933025174-index10974.ts
#EXTINF:3.041622,
428564933025174-index10975.ts
#EXTINF:3.041667,
428564933025174-index10976.ts
#EXTINF:3.041711,
428564933025174-index10977.ts
#EXTINF:3.041622,
428564933025174-index10978.ts
#EXTINF:3.041667,
428564933025174-index10979.ts
#EXTINF:3.041711,
428564933025174-index10980.ts
#EXTINF:3.041622,
428564933025174-index10981.ts
#EXTINF:3.041667,
428564933025174-index10982.ts
#EXTINF:3.041711,
428564933025174-index10983.ts
#EXTINF:3.041622,
428564933025174-index10984.ts
#EXTINF:3.041667,
428564933025174-index10985.ts
#EXTINF:3.041711,
428564933025174-index10986.ts
#EXTINF:3.041622,
428564933025174-index10987.ts
#EXTINF:3.041667,
428564933025174-index10988.ts
#EXTINF:3.041711,
428564933025174-index10989.ts
#EXTINF:3.041622,
428564933025174-index10990.ts
#EXTINF:3.041667,
428564933025174-index10991.ts
#EXTINF:3.041711,
428564933025174-index10992.ts
#EXTINF:3.041622,
428564933025174-index10993.ts
#EXTINF:3.041667,
428564933025174-index10994.ts
#EXTINF:3.041711,
428564933025174-index10995.ts
#EXTINF:3.041622,
428564933025174-index10996.ts
#EXTINF:3.041667,
428564933025174-index10997.ts
#EXTINF:3.041711,
428564933025174-index10998.ts
#EXTINF:3.041622,
428564933025174-index10999.ts
#EXTINF:3.041667,
428564933025174-index11000.ts
#EXTINF:3.041711,
428564933025174-index11001.ts
#EXTINF:3.041622,
428564933025174-index11002.ts
#EXTINF:3.041667,
428564933025174-index11003.ts
#EXTINF:3.041711,
428564933025174-index11004.ts
#EXTINF:3.041622,
428564933025174-index11005.ts
#EXTINF:3.041667,
428564933025174-index11006.ts
#EXTINF:3.041711,
428564933025174-index11007.ts
#EXTINF:3.041622,
428564933025174-index11008.ts
#EXTINF:3.041667,
428564933025174-index11009.ts
#EXTINF:3.041711,
428564933025174-index11010.ts
#EXTINF:3.041622,
428564933025174-index11011.ts
#EXTINF:3.041667,
428564933025174-index11012.ts
#EXTINF:3.041711,
428564933025174-index11013.ts
#EXTINF:3.041622,
428564933025174-index11014.ts
#EXTINF:3.041667,
428564933025174-index11015.ts
#EXTINF:3.041711,
428564933025174-index11016.ts
#EXTINF:3.041622,
428564933025174-index11017.ts
#EXTINF:3.041667,
428564933025174-index11018.ts
#EXTINF:3.041711,
428564933025174-index11019.ts
#EXTINF:3.041622,
428564933025174-index11020.ts
#EXTINF:3.041667,
428564933025174-index11021.ts
#EXTINF:3.041711,
428564933025174-index11022.ts
#EXTINF:3.041622,
428564933025174-index11023.ts
#EXTINF:3.041667,
428564933025174-index11024.ts
#EXTINF:3.041711,
428564933025174-index11025.ts
#EXTINF:3.041622,
428564933025174-index11026.ts
#EXTINF:3.041667,
428564933025174-index11027.ts
#EXTINF:3.041711,
428564933025174-index11028.ts
#EXTINF:3.041622,
428564933025174-index11029.ts
#EXTINF:3.041667,
428564933025174-index11030.ts
#EXTINF:3.041711,
428564933025174-index11031.ts
#EXTINF:3.041622,
428564933025174-index11032.ts
#EXTINF:3.041667,
428564933025174-index11033.ts
#EXTINF:3.041711,
428564933025174-index11034.ts
#EXTINF:3.041622,
428564933025174-index11035.ts
#EXTINF:3.041667,
428564933025174-index11036.ts
#EXTINF:3.041711,
428564933025174-index11037.ts
#EXTINF:3.041622,
428564933025174-index11038.ts
#EXTINF:3.041667,
428564933025174-index11039.ts
#EXTINF:3.041711,
428564933025174-index11040.ts
#EXTINF:3.041622,
428564933025174-index11041.ts
#EXTINF:3.041667,
428564933025174-index11042.ts
#EXTINF:3.041711,
428564933025174-index11043.ts
#EXTINF:3.041622,
428564933025174-index11044.ts
#EXTINF:3.041667,
428564933025174-index11045.ts
#EXTINF:3.041711,
428564933025174-index11046.ts
#EXTINF:3.041622,
428564933025174-index11047.ts
#EXTINF:3.041667,
428564933025174-index11048.ts
#EXTINF:3.041711,
428564933025174-index11049.ts
#EXTINF:3.041622,
428564933025174-index11050.ts
#EXTINF:3.041667,
428564933025174-index11051.ts
#EXTINF:3.041711,
428564933025174-index11052.ts
#EXTINF:3.041622,
428564933025174-index11053.ts
#EXTINF:3.041667,
428564933025174-index11054.ts
#EXTINF:3.041711,
428564933025174-index11055.ts
#EXTINF:3.041622,
428564933025174-index11056.ts
#EXTINF:3.041667,
428564933025174-index11057.ts
#EXTINF:3.041711,
428564933025174-index11058.ts
#EXTINF:3.041622,
428564933025174-index11059.ts
#EXTINF:3.041667,
428564933025174-index11060.ts
#EXTINF:3.041711,
428564933025174-index11061.ts
#EXTINF:3.041622,
428564933025174-index11062.ts
#EXTINF:3.041667,
428564933025174-index11063.ts
#EXTINF:3.041711,
428564933025174-index11064.ts
#EXTINF:3.041622,
428564933025174-index11065.ts
#EXTINF:3.041667,
428564933025174-index11066.ts
#EXTINF:3.041711,
428564933025174-index11067.ts
#EXTINF:3.041622,
428564933025174-index11068.ts
#EXTINF:3.041667,
428564933025174-index11069.ts
#EXTINF:3.041711,
428564933025174-index11070.ts
#EXTINF:3.041622,
428564933025174-index11071.ts
#EXTINF:3.041667,
428564933025174-index11072.ts
#EXTINF:3.041711,
428564933025174-index11073.ts
#EXTINF:3.041622,
428564933025174-index11074.ts
#EXTINF:3.041667,
428564933025174-index11075.ts
#EXTINF:3.041711,
428564933025174-index11076.ts
#EXTINF:3.041622,
428564933025174-index11077.ts
#EXTINF:3.041667,
428564933025174-index11078.ts
#EXTINF:3.041711,
428564933025174-index11079.ts
#EXTINF:3.041622,
428564933025174-index11080.ts
#EXTINF:3.041667,
428564933025174-index11081.ts
#EXTINF:3.041711,
428564933025174-index11082.ts
#EXTINF:3.041622,
428564933025174-index11083.ts
#EXTINF:3.041667,
428564933025174-index11084.ts
#EXTINF:3.041711,
428564933025174-index11085.ts
#EXTINF:3.041622,
428564933025174-index11086.ts
#EXTINF:3.041667,
428564933025174-index11087.ts
#EXTINF:3.041711,
428564933025174-index11088.ts
#EXTINF:3.041622,
428564933025174-index11089.ts
#EXTINF:3.041667,
428564933025174-index11090.ts
#EXTINF:3.041711,
428564933025174-index11091.ts
#EXTINF:3.041622,
428564933025174-index11092.ts
#EXTINF:3.041667,
428564933025174-index11093.ts
#EXTINF:3.041711,
428564933025174-index11094.ts
#EXTINF:3.041622,
428564933025174-index11095.ts
#EXTINF:3.041667,
428564933025174-index11096.ts
#EXTINF:3.041711,
428564933025174-index11097.ts
#EXTINF:3.041622,
428564933025174-index11098.ts
#EXTINF:3.041667,
428564933025174-index11099.ts
#EXTINF:3.041711,
428564933025174-index11100.ts
#EXTINF:3.041622,
428564933025174-index11101.ts
#EXTINF:3.041667,
428564933025174-index11102.ts
#EXTINF:3.041711,
428564933025174-index11103.ts
#EXTINF:3.041622,
428564933025174-index11104.ts
#EXTINF:3.041667,
428564933025174-index11105.ts
#EXTINF:3.041711,
428564933025174-index11106.ts
#EXTINF:3.041622,
428564933025174-index11107.ts
#EXTINF:3.041667,
428564933025174-index11108.ts
#EXTINF:3.041711,
428564933025174-index11109.ts
#EXTINF:3.041622,
428564933025174-index11110.ts
#EXTINF:3.041667,
428564933025174-index11111.ts
#EXTINF:3.041711,
428564933025174-index11112.ts
#EXTINF:3.041622,
428564933025174-index11113.ts
#EXTINF:3.041667,
428564933025174-index11114.ts
#EXTINF:3.041711,
428564933025174-index11115.ts
#EXTINF:3.041622,
428564933025174-index11116.ts
#EXTINF:3.041667,
428564933025174-index11117.ts
#EXTINF:3.041711,
428564933025174-index11118.ts
#EXTINF:3.041622,
428564933025174-index11119.ts
#EXTINF:3.041667,
428564933025174-index11120.ts
#EXTINF:3.041711,
428564933025174-index11121.ts
#EXTINF:3.041622,
428564933025174-index11122.ts
#EXTINF:3.041667,
428564933025174-index11123.ts
#EXTINF:3.041711,
428564933025174-index11124.ts
#EXTINF:3.041622,
428564933025174-index11125.ts
#EXTINF:3.041667,
428564933025174-index11126.ts
#EXTINF:3.041711,
428564933025174-index11127.ts
#EXTINF:3.041622,
428564933025174-index11128.ts
#EXTINF:3.041667,
428564933025174-index11129.ts
#EXTINF:3.041711,
428564933025174-index11130.ts
#EXTINF:3.041622,
428564933025174-index11131.ts
#EXTINF:3.041667,
428564933025174-index11132.ts
#EXTINF:3.041711,
428564933025174-index11133.ts
#EXTINF:3.041622,
428564933025174-index11134.ts
#EXTINF:3.041667,
428564933025174-index11135.ts
#EXTINF:3.041711,
428564933025174-index11136.ts
#EXTINF:3.041622,
428564933025174-index11137.ts
#EXTINF:3.041667,
428564933025174-index11138.ts
#EXTINF:3.041711,
428564933025174-index11139.ts
#EXTINF:3.041622,
428564933025174-index11140.ts
#EXTINF:3.041667,
428564933025174-index11141.ts
#EXTINF:3.041711,
428564933025174-index11142.ts
#EXTINF:3.041622,
428564933025174-index11143.ts
#EXTINF:3.041667,
428564933025174-index11144.ts
#EXTINF:3.041711,
428564933025174-index11145.ts
#EXTINF:3.041622,
428564933025174-index11146.ts
#EXTINF:3.041667,
428564933025174-index11147.ts
#EXTINF:3.041711,
428564933025174-index11148.ts
#EXTINF:3.041622,
428564933025174-index11149.ts
#EXTINF:3.041667,
428564933025174-index11150.ts
#EXTINF:3.041711,
428564933025174-index11151.ts
#EXTINF:3.041622,
428564933025174-index11152.ts
#EXTINF:3.041667,
428564933025174-index11153.ts
#EXTINF:3.041711,
428564933025174-index11154.ts
#EXTINF:3.041622,
428564933025174-index11155.ts
#EXTINF:3.041667,
428564933025174-index11156.ts
#EXTINF:3.041711,
428564933025174-index11157.ts
#EXTINF:3.041622,
428564933025174-index11158.ts
#EXTINF:3.041667,
428564933025174-index11159.ts
#EXTINF:3.041711,
428564933025174-index11160.ts
#EXTINF:3.041622,
428564933025174-index11161.ts
#EXTINF:3.041667,
428564933025174-index11162.ts
#EXTINF:3.041711,
428564933025174-index11163.ts
#EXTINF:3.041622,
428564933025174-index11164.ts
#EXTINF:3.041667,
428564933025174-index11165.ts
#EXTINF:3.041711,
428564933025174-index11166.ts
#EXTINF:3.041622,
428564933025174-index11167.ts
#EXTINF:3.041667,
428564933025174-index11168.ts
#EXTINF:3.041711,
428564933025174-index11169.ts
#EXTINF:3.041622,
428564933025174-index11170.ts
#EXTINF:3.041667,
428564933025174-index11171.ts
#EXTINF:3.041711,
428564933025174-index11172.ts
#EXTINF:3.041622,
428564933025174-index11173.ts
#EXTINF:3.041667,
428564933025174-index11174.ts
#EXTINF:3.041711,
428564933025174-index11175.ts
#EXTINF:3.041622,
428564933025174-index11176.ts
#EXTINF:3.041667,
428564933025174-index11177.ts
#EXTINF:3.041711,
428564933025174-index11178.ts
#EXTINF:3.041622,
428564933025174-index11179.ts
#EXTINF:3.041667,
428564933025174-index11180.ts
#EXTINF:3.041711,
428564933025174-index11181.ts
#EXTINF:3.041622,
428564933025174-index11182.ts
#EXTINF:3.041667,
428564933025174-index11183.ts
#EXTINF:3.041711,
428564933025174-index11184.ts
#EXTINF:3.041622,
428564933025174-index11185.ts
#EXTINF:3.041667,
428564933025174-index11186.ts
#EXTINF:3.041711,
428564933025174-index11187.ts
#EXTINF:3.041622,
428564933025174-index11188.ts
#EXTINF:3.041667,
428564933025174-index11189.ts
#EXTINF:3.041711,
428564933025174-index11190.ts
#EXTINF:3.041622,
428564933025174-index11191.ts
#EXTINF:3.041667,
428564933025174-index11192.ts
#EXTINF:3.041711,
428564933025174-index11193.ts
#EXTINF:3.041622,
428564933025174-index11194.ts
#EXTINF:3.041667,
428564933025174-index11195.ts
#EXTINF:3.041711,
428564933025174-index11196.ts
#EXTINF:3.041622,
428564933025174-index11197.ts
#EXTINF:3.041667,
428564933025174-index11198.ts
#EXTINF:3.041711,
428564933025174-index11199.ts
#EXTINF:3.041622,
428564933025174-index11200.ts
#EXTINF:3.041667,
428564933025174-index11201.ts
#EXTINF:3.041711,
428564933025174-index11202.ts
#EXTINF:3.041622,
428564933025174-index11203.ts
#EXTINF:3.041667,
428564933025174-index11204.ts
#EXTINF:3.041711,
428564933025174-index11205.ts
#EXTINF:3.041622,
428564933025174-index11206.ts
#EXTINF:3.041667,
428564933025174-index11207.ts
#EXTINF:3.041711,
428564933025174-index11208.ts
#EXTINF:3.041622,
428564933025174-index11209.ts
#EXTINF:3.041667,
428564933025174-index11210.ts
#EXTINF:3.041711,
428564933025174-index11211.ts
#EXTINF:3.041622,
428564933025174-index11212.ts
#EXTINF:3.041667,
428564933025174-index11213.ts
#EXTINF:3.041711,
428564933025174-index11214.ts
#EXTINF:3.041622,
428564933025174-index11215.ts
#EXTINF:3.041667,
428564933025174-index11216.ts
#EXTINF:3.041711,
428564933025174-index11217.ts
#EXTINF:3.041622,
428564933025174-index11218.ts
#EXTINF:3.041667,
428564933025174-index11219.ts
#EXTINF:3.041711,
428564933025174-index11220.ts
#EXTINF:3.041622,
428564933025174-index11221.ts
#EXTINF:3.041667,
428564933025174-index11222.ts
#EXTINF:3.041711,
428564933025174-index11223.ts
#EXTINF:3.041622,
428564933025174-index11224.ts
#EXTINF:3.041667,
428564933025174-index11225.ts
#EXTINF:3.041711,
428564933025174-index11226.ts
#EXTINF:3.041622,
428564933025174-index11227.ts
#EXTINF:3.041667,
428564933025174-index11228.ts
#EXTINF:3.041711,
428564933025174-index11229.ts
#EXTINF:3.041622,
428564933025174-index11230.ts
#EXTINF:3.041667,
428564933025174-index11231.ts
#EXTINF:3.041711,
428564933025174-index11232.ts
#EXTINF:3.041622,
428564933025174-index11233.ts
#EXTINF:3.041667,
428564933025174-index11234.ts
#EXTINF:3.041711,
428564933025174-index11235.ts
#EXTINF:3.041622,
428564933025174-index11236.ts
#EXTINF:3.041667,
428564933025174-index11237.ts
#EXTINF:3.041711,
428564933025174-index11238.ts
#EXTINF:3.041622,
428564933025174-index11239.ts
#EXTINF:3.041667,
428564933025174-index11240.ts
#EXTINF:3.041711,
428564933025174-index11241.ts
#EXTINF:3.041622,
428564933025174-index11242.ts
#EXTINF:3.041667,
428564933025174-index11243.ts
#EXTINF:3.041711,
428564933025174-index11244.ts
#EXTINF:3.041622,
428564933025174-index11245.ts
#EXTINF:3.041667,
428564933025174-index11246.ts
#EXTINF:3.041711,
428564933025174-index11247.ts
#EXTINF:3.041622,
428564933025174-index11248.ts
#EXTINF:3.041667,
428564933025174-index11249.ts
#EXTINF:3.041711,
428564933025174-index11250.ts
#EXTINF:3.041622,
428564933025174-index11251.ts
#EXTINF:3.041667,
428564933025174-index11252.ts
#EXTINF:3.041711,
428564933025174-index11253.ts
#EXTINF:3.041622,
428564933025174-index11254.ts
#EXTINF:3.041667,
428564933025174-index11255.ts
#EXTINF:3.041711,
428564933025174-index11256.ts
#EXTINF:3.041622,
428564933025174-index11257.ts
#EXTINF:3.041667,
428564933025174-index11258.ts
#EXTINF:3.041711,
428564933025174-index11259.ts
#EXTINF:3.041622,
428564933025174-index11260.ts
#EXTINF:3.041667,
428564933025174-index11261.ts
#EXTINF:3.041711,
428564933025174-index11262.ts
#EXTINF:3.041622,
428564933025174-index11263.ts
#EXTINF:3.041667,
428564933025174-index11264.ts
#EXTINF:3.041711,
428564933025174-index11265.ts
#EXTINF:3.041622,
428564933025174-index11266.ts
#EXTINF:3.041667,
428564933025174-index11267.ts
#EXTINF:3.041711,
428564933025174-index11268.ts
#EXTINF:3.041622,
428564933025174-index11269.ts
#EXTINF:3.041667,
428564933025174-index11270.ts
#EXTINF:3.041711,
428564933025174-index11271.ts
#EXTINF:3.041622,
428564933025174-index11272.ts
#EXTINF:3.041667,
428564933025174-index11273.ts
#EXTINF:3.041711,
428564933025174-index11274.ts
#EXTINF:3.041622,
428564933025174-index11275.ts
#EXTINF:3.041667,
428564933025174-index11276.ts
#EXTINF:3.041711,
428564933025174-index11277.ts
#EXTINF:3.041622,
428564933025174-index11278.ts
#EXTINF:3.041667,
428564933025174-index11279.ts
#EXTINF:3.041711,
428564933025174-index11280.ts
#EXTINF:3.041622,
428564933025174-index11281.ts
#EXTINF:3.041667,
428564933025174-index11282.ts
#EXTINF:3.041711,
428564933025174-index11283.ts
#EXTINF:3.041622,
428564933025174-index11284.ts
#EXTINF:3.041667,
428564933025174-index11285.ts
#EXTINF:3.041711,
428564933025174-index11286.ts
#EXTINF:3.041622,
428564933025174-index11287.ts
#EXTINF:3.041667,
428564933025174-index11288.ts
#EXTINF:3.041711,
428564933025174-index11289.ts
#EXTINF:3.041622,
428564933025174-index11290.ts
#EXTINF:3.041667,
428564933025174-index11291.ts
#EXTINF:3.041711,
428564933025174-index11292.ts
#EXTINF:3.041622,
428564933025174-index11293.ts
#EXTINF:3.041667,
428564933025174-index11294.ts
#EXTINF:1.953067,
428564933025174-index11295.ts
#EXT-X-ENDLIST
