#EXTM3U
#EXT-X-VERSION:3
#EXT-X-TARGETDURATION:11
#EXT-X-MEDIA-SEQUENCE:10001
#EXTINF:9.841200,
430756727440489-index10001.png
#EXTINF:10.008000,
430756727440489-index10002.png
#EXTINF:10.008000,
430756727440489-index10003.png
#EXTINF:4.545300,
430756727440489-index10004.png
#EXTINF:1.209300,
430756727440489-index10005.png
#EXTINF:2.001600,
430756727440489-index10006.png
#EXTINF:3.294300,
430756727440489-index10007.png
#EXTINF:10.008000,
430756727440489-index10008.png
#EXTINF:7.214100,
430756727440489-index10009.png
#EXTINF:2.460300,
430756727440489-index10010.png
#EXTINF:2.460300,
430756727440489-index10011.png
#EXTINF:3.419400,
430756727440489-index10012.png
#EXTINF:2.502000,
430756727440489-index10013.png
#EXTINF:0.583800,
430756727440489-index10014.png
#EXTINF:1.584600,
430756727440489-index10015.png
#EXTINF:5.671200,
430756727440489-index10016.png
#EXTINF:7.964700,
430756727440489-index10017.png
#EXTINF:8.506800,
430756727440489-index10018.png
#EXTINF:7.380900,
430756727440489-index10019.png
#EXTINF:8.465100,
430756727440489-index10020.png
#EXTINF:7.714500,
430756727440489-index10021.png
#EXTINF:3.961500,
430756727440489-index10022.png
#EXTINF:7.881300,
430756727440489-index10023.png
#EXTINF:10.008000,
430756727440489-index10024.png
#EXTINF:9.424200,
430756727440489-index10025.png
#EXTINF:1.876500,
430756727440489-index10026.png
#EXTINF:3.002400,
430756727440489-index10027.png
#EXTINF:2.460300,
430756727440489-index10028.png
#EXTINF:10.008000,
430756727440489-index10029.png
#EXTINF:2.001600,
430756727440489-index10030.png
#EXTINF:3.210900,
430756727440489-index10031.png
#EXTINF:2.710500,
430756727440489-index10032.png
#EXTINF:3.461100,
430756727440489-index10033.png
#EXTINF:3.961500,
430756727440489-index10034.png
#EXTINF:3.669600,
430756727440489-index10035.png
#EXTINF:3.002400,
430756727440489-index10036.png
#EXTINF:1.709700,
430756727440489-index10037.png
#EXTINF:3.461100,
430756727440489-index10038.png
#EXTINF:2.793900,
430756727440489-index10039.png
#EXTINF:1.542900,
430756727440489-index10040.png
#EXTINF:2.960700,
430756727440489-index10041.png
#EXTINF:1.292700,
430756727440489-index10042.png
#EXTINF:1.709700,
430756727440489-index10043.png
#EXTINF:4.837200,
430756727440489-index10044.png
#EXTINF:3.836400,
430756727440489-index10045.png
#EXTINF:4.962300,
430756727440489-index10046.png
#EXTINF:2.960700,
430756727440489-index10047.png
#EXTINF:2.710500,
430756727440489-index10048.png
#EXTINF:3.711300,
430756727440489-index10049.png
#EXTINF:6.713700,
430756727440489-index10050.png
#EXTINF:4.712100,
430756727440489-index10051.png
#EXTINF:4.461900,
430756727440489-index10052.png
#EXTINF:1.959900,
430756727440489-index10053.png
#EXTINF:2.960700,
430756727440489-index10054.png
#EXTINF:2.460300,
430756727440489-index10055.png
#EXTINF:4.712100,
430756727440489-index10056.png
#EXTINF:2.960700,
430756727440489-index10057.png
#EXTINF:8.465100,
430756727440489-index10058.png
#EXTINF:2.502000,
430756727440489-index10059.png
#EXTINF:7.964700,
430756727440489-index10060.png
#EXTINF:3.002400,
430756727440489-index10061.png
#EXTINF:3.711300,
430756727440489-index10062.png
#EXTINF:1.584600,
430756727440489-index10063.png
#EXTINF:2.460300,
430756727440489-index10064.png
#EXTINF:3.002400,
430756727440489-index10065.png
#EXTINF:9.465900,
430756727440489-index10066.png
#EXTINF:3.002400,
430756727440489-index10067.png
#EXTINF:5.462700,
430756727440489-index10068.png
#EXTINF:2.960700,
430756727440489-index10069.png
#EXTINF:3.461100,
430756727440489-index10070.png
#EXTINF:3.669600,
430756727440489-index10071.png
#EXTINF:2.710500,
430756727440489-index10072.png
#EXTINF:5.004000,
430756727440489-index10073.png
#EXTINF:2.502000,
430756727440489-index10074.png
#EXTINF:10.008000,
430756727440489-index10075.png
#EXTINF:3.544500,
430756727440489-index10076.png
#EXTINF:8.465100,
430756727440489-index10077.png
#EXTINF:2.960700,
430756727440489-index10078.png
#EXTINF:10.008000,
430756727440489-index10079.png
#EXTINF:8.673600,
430756727440489-index10080.png
#EXTINF:4.211700,
430756727440489-index10081.png
#EXTINF:1.834800,
430756727440489-index10082.png
#EXTINF:4.962300,
430756727440489-index10083.png
#EXTINF:4.128300,
430756727440489-index10084.png
#EXTINF:2.960700,
430756727440489-index10085.png
#EXTINF:4.962300,
430756727440489-index10086.png
#EXTINF:2.710500,
430756727440489-index10087.png
#EXTINF:3.002400,
430756727440489-index10088.png
#EXTINF:3.711300,
430756727440489-index10089.png
#EXTINF:5.212500,
430756727440489-index10090.png
#EXTINF:4.003200,
430756727440489-index10091.png
#EXTINF:3.461100,
430756727440489-index10092.png
#EXTINF:3.461100,
430756727440489-index10093.png
#EXTINF:7.964700,
430756727440489-index10094.png
#EXTINF:5.838000,
430756727440489-index10095.png
#EXTINF:4.461900,
430756727440489-index10096.png
#EXTINF:5.963100,
430756727440489-index10097.png
#EXTINF:5.963100,
430756727440489-index10098.png
#EXTINF:2.210100,
430756727440489-index10099.png
#EXTINF:3.961500,
430756727440489-index10100.png
#EXTINF:6.463500,
430756727440489-index10101.png
#EXTINF:1.209300,
430756727440489-index10102.png
#EXTINF:4.587000,
430756727440489-index10103.png
#EXTINF:2.085000,
430756727440489-index10104.png
#EXTINF:2.960700,
430756727440489-index10105.png
#EXTINF:5.963100,
430756727440489-index10106.png
#EXTINF:3.085800,
430756727440489-index10107.png
#EXTINF:7.964700,
430756727440489-index10108.png
#EXTINF:6.546900,
430756727440489-index10109.png
#EXTINF:9.174000,
430756727440489-index10110.png
#EXTINF:2.752200,
430756727440489-index10111.png
#EXTINF:5.712900,
430756727440489-index10112.png
#EXTINF:6.713700,
430756727440489-index10113.png
#EXTINF:4.461900,
430756727440489-index10114.png
#EXTINF:3.586200,
430756727440489-index10115.png
#EXTINF:2.919000,
430756727440489-index10116.png
#EXTINF:3.210900,
430756727440489-index10117.png
#EXTINF:2.293500,
430756727440489-index10118.png
#EXTINF:8.465100,
430756727440489-index10119.png
#EXTINF:9.632700,
430756727440489-index10120.png
#EXTINF:3.794700,
430756727440489-index10121.png
#EXTINF:1.959900,
430756727440489-index10122.png
#EXTINF:2.251800,
430756727440489-index10123.png
#EXTINF:3.461100,
430756727440489-index10124.png
#EXTINF:10.008000,
430756727440489-index10125.png
#EXTINF:8.256600,
430756727440489-index10126.png
#EXTINF:6.922200,
430756727440489-index10127.png
#EXTINF:10.008000,
430756727440489-index10128.png
#EXTINF:10.008000,
430756727440489-index10129.png
#EXTINF:9.090600,
430756727440489-index10130.png
#EXTINF:10.008000,
430756727440489-index10131.png
#EXTINF:10.008000,
430756727440489-index10132.png
#EXTINF:6.380100,
430756727440489-index10133.png
#EXTINF:10.008000,
430756727440489-index10134.png
#EXTINF:7.547700,
430756727440489-index10135.png
#EXTINF:5.337600,
430756727440489-index10136.png
#EXTINF:4.336800,
430756727440489-index10137.png
#EXTINF:10.008000,
430756727440489-index10138.png
#EXTINF:10.008000,
430756727440489-index10139.png
#EXTINF:5.712900,
430756727440489-index10140.png
#EXTINF:1.709700,
430756727440489-index10141.png
#EXTINF:3.336000,
430756727440489-index10142.png
#EXTINF:4.712100,
430756727440489-index10143.png
#EXTINF:7.464300,
430756727440489-index10144.png
#EXTINF:2.960700,
430756727440489-index10145.png
#EXTINF:7.714500,
430756727440489-index10146.png
#EXTINF:4.086600,
430756727440489-index10147.png
#EXTINF:4.003200,
430756727440489-index10148.png
#EXTINF:4.211700,
430756727440489-index10149.png
#EXTINF:3.711300,
430756727440489-index10150.png
#EXTINF:3.711300,
430756727440489-index10151.png
#EXTINF:4.753800,
430756727440489-index10152.png
#EXTINF:6.296700,
430756727440489-index10153.png
#EXTINF:1.959900,
430756727440489-index10154.png
#EXTINF:5.587800,
430756727440489-index10155.png
#EXTINF:1.084200,
430756727440489-index10156.png
#EXTINF:3.419400,
430756727440489-index10157.png
#EXTINF:5.712900,
430756727440489-index10158.png
#EXTINF:4.503600,
430756727440489-index10159.png
#EXTINF:3.753000,
430756727440489-index10160.png
#EXTINF:3.586200,
430756727440489-index10161.png
#EXTINF:4.587000,
430756727440489-index10162.png
#EXTINF:2.543700,
430756727440489-index10163.png
#EXTINF:1.751400,
430756727440489-index10164.png
#EXTINF:6.713700,
430756727440489-index10165.png
#EXTINF:2.502000,
430756727440489-index10166.png
#EXTINF:2.960700,
430756727440489-index10167.png
#EXTINF:3.961500,
430756727440489-index10168.png
#EXTINF:5.796300,
430756727440489-index10169.png
#EXTINF:2.627100,
430756727440489-index10170.png
#EXTINF:10.008000,
430756727440489-index10171.png
#EXTINF:4.587000,
430756727440489-index10172.png
#EXTINF:3.002400,
430756727440489-index10173.png
#EXTINF:4.962300,
430756727440489-index10174.png
#EXTINF:1.959900,
430756727440489-index10175.png
#EXTINF:3.461100,
430756727440489-index10176.png
#EXTINF:3.210900,
430756727440489-index10177.png
#EXTINF:5.421000,
430756727440489-index10178.png
#EXTINF:3.711300,
430756727440489-index10179.png
#EXTINF:2.960700,
430756727440489-index10180.png
#EXTINF:5.712900,
430756727440489-index10181.png
#EXTINF:9.966300,
430756727440489-index10182.png
#EXTINF:4.003200,
430756727440489-index10183.png
#EXTINF:2.960700,
430756727440489-index10184.png
#EXTINF:10.008000,
430756727440489-index10185.png
#EXTINF:4.044900,
430756727440489-index10186.png
#EXTINF:10.008000,
430756727440489-index10187.png
#EXTINF:8.465100,
430756727440489-index10188.png
#EXTINF:4.211700,
430756727440489-index10189.png
#EXTINF:7.881300,
430756727440489-index10190.png
#EXTINF:1.793100,
430756727440489-index10191.png
#EXTINF:2.460300,
430756727440489-index10192.png
#EXTINF:4.211700,
430756727440489-index10193.png
#EXTINF:6.213300,
430756727440489-index10194.png
#EXTINF:10.008000,
430756727440489-index10195.png
#EXTINF:5.838000,
430756727440489-index10196.png
#EXTINF:8.798700,
430756727440489-index10197.png
#EXTINF:4.295100,
430756727440489-index10198.png
#EXTINF:7.714500,
430756727440489-index10199.png
#EXTINF:6.255000,
430756727440489-index10200.png
#EXTINF:1.459500,
430756727440489-index10201.png
#EXTINF:2.460300,
430756727440489-index10202.png
#EXTINF:2.210100,
430756727440489-index10203.png
#EXTINF:2.460300,
430756727440489-index10204.png
#EXTINF:4.670400,
430756727440489-index10205.png
#EXTINF:10.008000,
430756727440489-index10206.png
#EXTINF:10.008000,
430756727440489-index10207.png
#EXTINF:8.923800,
430756727440489-index10208.png
#EXTINF:10.008000,
430756727440489-index10209.png
#EXTINF:10.008000,
430756727440489-index10210.png
#EXTINF:9.340800,
430756727440489-index10211.png
#EXTINF:8.923800,
430756727440489-index10212.png
#EXTINF:10.008000,
430756727440489-index10213.png
#EXTINF:3.419400,
430756727440489-index10214.png
#EXTINF:4.086600,
430756727440489-index10215.png
#EXTINF:7.422600,
430756727440489-index10216.png
#EXTINF:4.670400,
430756727440489-index10217.png
#EXTINF:10.008000,
430756727440489-index10218.png
#EXTINF:10.008000,
430756727440489-index10219.png
#EXTINF:10.008000,
430756727440489-index10220.png
#EXTINF:10.008000,
430756727440489-index10221.png
#EXTINF:10.008000,
430756727440489-index10222.png
#EXTINF:10.008000,
430756727440489-index10223.png
#EXTINF:10.008000,
430756727440489-index10224.png
#EXTINF:10.008000,
430756727440489-index10225.png
#EXTINF:10.008000,
430756727440489-index10226.png
#EXTINF:10.008000,
430756727440489-index10227.png
#EXTINF:10.008000,
430756727440489-index10228.png
#EXTINF:10.008000,
430756727440489-index10229.png
#EXTINF:10.008000,
430756727440489-index10230.png
#EXTINF:10.008000,
430756727440489-index10231.png
#EXTINF:10.008000,
430756727440489-index10232.png
#EXTINF:10.008000,
430756727440489-index10233.png
#EXTINF:4.962300,
430756727440489-index10234.png
#EXTINF:10.008000,
430756727440489-index10235.png
#EXTINF:7.422600,
430756727440489-index10236.png
#EXTINF:5.963100,
430756727440489-index10237.png
#EXTINF:8.965500,
430756727440489-index10238.png
#EXTINF:4.837200,
430756727440489-index10239.png
#EXTINF:8.173200,
430756727440489-index10240.png
#EXTINF:7.756200,
430756727440489-index10241.png
#EXTINF:8.965500,
430756727440489-index10242.png
#EXTINF:6.255000,
430756727440489-index10243.png
#EXTINF:10.008000,
430756727440489-index10244.png
#EXTINF:10.008000,
430756727440489-index10245.png
#EXTINF:7.339200,
430756727440489-index10246.png
#EXTINF:10.008000,
430756727440489-index10247.png
#EXTINF:10.008000,
430756727440489-index10248.png
#EXTINF:10.008000,
430756727440489-index10249.png
#EXTINF:10.008000,
430756727440489-index10250.png
#EXTINF:5.587800,
430756727440489-index10251.png
#EXTINF:2.502000,
430756727440489-index10252.png
#EXTINF:10.008000,
430756727440489-index10253.png
#EXTINF:6.505200,
430756727440489-index10254.png
#EXTINF:3.461100,
430756727440489-index10255.png
#EXTINF:1.542900,
430756727440489-index10256.png
#EXT-X-ENDLIST
