#EXTM3U
#EXT-X-VERSION:3
#EXT-X-TARGETDURATION:11
#EXT-X-MEDIA-SEQUENCE:10001
#EXTINF:10.425000,
431221971909205-index10001.png
#EXTINF:10.425000,
431221971909205-index10002.png
#EXTINF:10.425000,
431221971909205-index10003.png
#EXTINF:10.425000,
431221971909205-index10004.png
#EXTINF:10.425000,
431221971909205-index10005.png
#EXTINF:10.425000,
431221971909205-index10006.png
#EXTINF:10.425000,
431221971909205-index10007.png
#EXTINF:10.425000,
431221971909205-index10008.png
#EXTINF:10.091400,
431221971909205-index10009.png
#EXTINF:8.631900,
431221971909205-index10010.png
#EXTINF:8.465100,
431221971909205-index10011.png
#EXTINF:7.797900,
431221971909205-index10012.png
#EXTINF:4.962300,
431221971909205-index10013.png
#EXTINF:10.425000,
431221971909205-index10014.png
#EXTINF:9.424200,
431221971909205-index10015.png
#EXTINF:10.425000,
431221971909205-index10016.png
#EXTINF:10.425000,
431221971909205-index10017.png
#EXTINF:10.216500,
431221971909205-index10018.png
#EXTINF:10.425000,
431221971909205-index10019.png
#EXTINF:10.425000,
431221971909205-index10020.png
#EXTINF:10.425000,
431221971909205-index10021.png
#EXTINF:10.425000,
431221971909205-index10022.png
#EXTINF:10.425000,
431221971909205-index10023.png
#EXTINF:10.425000,
431221971909205-index10024.png
#EXTINF:10.425000,
431221971909205-index10025.png
#EXTINF:10.425000,
431221971909205-index10026.png
#EXTINF:7.422600,
431221971909205-index10027.png
#EXTINF:10.425000,
431221971909205-index10028.png
#EXTINF:8.173200,
431221971909205-index10029.png
#EXTINF:10.425000,
431221971909205-index10030.png
#EXTINF:10.425000,
431221971909205-index10031.png
#EXTINF:10.425000,
431221971909205-index10032.png
#EXTINF:10.425000,
431221971909205-index10033.png
#EXTINF:10.425000,
431221971909205-index10034.png
#EXTINF:10.425000,
431221971909205-index10035.png
#EXTINF:10.425000,
431221971909205-index10036.png
#EXTINF:9.591000,
431221971909205-index10037.png
#EXTINF:10.425000,
431221971909205-index10038.png
#EXTINF:9.716100,
431221971909205-index10039.png
#EXTINF:10.425000,
431221971909205-index10040.png
#EXTINF:9.299100,
431221971909205-index10041.png
#EXTINF:6.963900,
431221971909205-index10042.png
#EXTINF:10.425000,
431221971909205-index10043.png
#EXTINF:10.425000,
431221971909205-index10044.png
#EXTINF:10.425000,
431221971909205-index10045.png
#EXTINF:10.425000,
431221971909205-index10046.png
#EXTINF:10.425000,
431221971909205-index10047.png
#EXTINF:10.425000,
431221971909205-index10048.png
#EXTINF:7.714500,
431221971909205-index10049.png
#EXTINF:10.133100,
431221971909205-index10050.png
#EXTINF:10.425000,
431221971909205-index10051.png
#EXTINF:10.425000,
431221971909205-index10052.png
#EXTINF:9.799500,
431221971909205-index10053.png
#EXTINF:10.425000,
431221971909205-index10054.png
#EXTINF:9.674400,
431221971909205-index10055.png
#EXTINF:7.589400,
431221971909205-index10056.png
#EXTINF:10.425000,
431221971909205-index10057.png
#EXTINF:10.425000,
431221971909205-index10058.png
#EXTINF:10.425000,
431221971909205-index10059.png
#EXTINF:6.171600,
431221971909205-index10060.png
#EXTINF:7.047300,
431221971909205-index10061.png
#EXTINF:10.425000,
431221971909205-index10062.png
#EXTINF:10.425000,
431221971909205-index10063.png
#EXTINF:10.425000,
431221971909205-index10064.png
#EXTINF:10.425000,
431221971909205-index10065.png
#EXTINF:10.425000,
431221971909205-index10066.png
#EXTINF:10.425000,
431221971909205-index10067.png
#EXTINF:10.425000,
431221971909205-index10068.png
#EXTINF:10.425000,
431221971909205-index10069.png
#EXTINF:10.425000,
431221971909205-index10070.png
#EXTINF:9.674400,
431221971909205-index10071.png
#EXTINF:10.216500,
431221971909205-index10072.png
#EXTINF:10.425000,
431221971909205-index10073.png
#EXTINF:10.425000,
431221971909205-index10074.png
#EXTINF:10.425000,
431221971909205-index10075.png
#EXTINF:10.425000,
431221971909205-index10076.png
#EXTINF:10.425000,
431221971909205-index10077.png
#EXTINF:10.425000,
431221971909205-index10078.png
#EXTINF:10.008000,
431221971909205-index10079.png
#EXTINF:10.425000,
431221971909205-index10080.png
#EXTINF:10.425000,
431221971909205-index10081.png
#EXTINF:10.425000,
431221971909205-index10082.png
#EXTINF:10.425000,
431221971909205-index10083.png
#EXTINF:10.425000,
431221971909205-index10084.png
#EXTINF:10.425000,
431221971909205-index10085.png
#EXTINF:10.425000,
431221971909205-index10086.png
#EXTINF:10.425000,
431221971909205-index10087.png
#EXTINF:10.425000,
431221971909205-index10088.png
#EXTINF:10.425000,
431221971909205-index10089.png
#EXTINF:10.425000,
431221971909205-index10090.png
#EXTINF:10.425000,
431221971909205-index10091.png
#EXTINF:10.425000,
431221971909205-index10092.png
#EXTINF:10.425000,
431221971909205-index10093.png
#EXTINF:10.425000,
431221971909205-index10094.png
#EXTINF:10.425000,
431221971909205-index10095.png
#EXTINF:10.425000,
431221971909205-index10096.png
#EXTINF:10.425000,
431221971909205-index10097.png
#EXTINF:10.425000,
431221971909205-index10098.png
#EXTINF:10.425000,
431221971909205-index10099.png
#EXTINF:10.425000,
431221971909205-index10100.png
#EXTINF:10.425000,
431221971909205-index10101.png
#EXTINF:10.425000,
431221971909205-index10102.png
#EXTINF:7.464300,
431221971909205-index10103.png
#EXTINF:10.425000,
431221971909205-index10104.png
#EXTINF:10.425000,
431221971909205-index10105.png
#EXTINF:10.425000,
431221971909205-index10106.png
#EXTINF:10.425000,
431221971909205-index10107.png
#EXTINF:10.425000,
431221971909205-index10108.png
#EXTINF:10.425000,
431221971909205-index10109.png
#EXTINF:10.425000,
431221971909205-index10110.png
#EXTINF:10.425000,
431221971909205-index10111.png
#EXTINF:10.425000,
431221971909205-index10112.png
#EXTINF:10.425000,
431221971909205-index10113.png
#EXTINF:10.425000,
431221971909205-index10114.png
#EXTINF:10.425000,
431221971909205-index10115.png
#EXTINF:10.425000,
431221971909205-index10116.png
#EXTINF:10.425000,
431221971909205-index10117.png
#EXTINF:10.425000,
431221971909205-index10118.png
#EXTINF:10.425000,
431221971909205-index10119.png
#EXTINF:10.425000,
431221971909205-index10120.png
#EXTINF:10.425000,
431221971909205-index10121.png
#EXTINF:10.425000,
431221971909205-index10122.png
#EXTINF:10.425000,
431221971909205-index10123.png
#EXTINF:10.425000,
431221971909205-index10124.png
#EXTINF:10.425000,
431221971909205-index10125.png
#EXTINF:10.425000,
431221971909205-index10126.png
#EXTINF:10.425000,
431221971909205-index10127.png
#EXTINF:10.425000,
431221971909205-index10128.png
#EXTINF:10.425000,
431221971909205-index10129.png
#EXTINF:10.425000,
431221971909205-index10130.png
#EXTINF:7.297500,
431221971909205-index10131.png
#EXTINF:10.425000,
431221971909205-index10132.png
#EXTINF:7.380900,
431221971909205-index10133.png
#EXTINF:9.465900,
431221971909205-index10134.png
#EXTINF:10.425000,
431221971909205-index10135.png
#EXTINF:10.425000,
431221971909205-index10136.png
#EXTINF:9.257400,
431221971909205-index10137.png
#EXTINF:10.425000,
431221971909205-index10138.png
#EXTINF:6.421800,
431221971909205-index10139.png
#EXTINF:5.838000,
431221971909205-index10140.png
#EXTINF:10.425000,
431221971909205-index10141.png
#EXTINF:4.962300,
431221971909205-index10142.png
#EXTINF:10.174800,
431221971909205-index10143.png
#EXTINF:6.838800,
431221971909205-index10144.png
#EXTINF:6.713700,
431221971909205-index10145.png
#EXTINF:10.174800,
431221971909205-index10146.png
#EXTINF:7.172400,
431221971909205-index10147.png
#EXTINF:9.674400,
431221971909205-index10148.png
#EXTINF:4.920600,
431221971909205-index10149.png
#EXTINF:10.425000,
431221971909205-index10150.png
#EXTINF:10.425000,
431221971909205-index10151.png
#EXTINF:10.425000,
431221971909205-index10152.png
#EXTINF:10.425000,
431221971909205-index10153.png
#EXTINF:10.425000,
431221971909205-index10154.png
#EXTINF:10.425000,
431221971909205-index10155.png
#EXTINF:10.425000,
431221971909205-index10156.png
#EXTINF:10.425000,
431221971909205-index10157.png
#EXTINF:8.840400,
431221971909205-index10158.png
#EXTINF:10.425000,
431221971909205-index10159.png
#EXTINF:10.425000,
431221971909205-index10160.png
#EXTINF:10.425000,
431221971909205-index10161.png
#EXTINF:7.756200,
431221971909205-index10162.png
#EXTINF:10.425000,
431221971909205-index10163.png
#EXTINF:10.425000,
431221971909205-index10164.png
#EXTINF:7.506000,
431221971909205-index10165.png
#EXTINF:10.425000,
431221971909205-index10166.png
#EXTINF:10.425000,
431221971909205-index10167.png
#EXTINF:10.425000,
431221971909205-index10168.png
#EXTINF:10.425000,
431221971909205-index10169.png
#EXTINF:10.425000,
431221971909205-index10170.png
#EXTINF:10.425000,
431221971909205-index10171.png
#EXTINF:10.425000,
431221971909205-index10172.png
#EXTINF:10.425000,
431221971909205-index10173.png
#EXTINF:10.425000,
431221971909205-index10174.png
#EXTINF:10.299900,
431221971909205-index10175.png
#EXTINF:10.425000,
431221971909205-index10176.png
#EXTINF:10.425000,
431221971909205-index10177.png
#EXTINF:10.425000,
431221971909205-index10178.png
#EXTINF:10.425000,
431221971909205-index10179.png
#EXTINF:10.425000,
431221971909205-index10180.png
#EXTINF:10.425000,
431221971909205-index10181.png
#EXTINF:10.425000,
431221971909205-index10182.png
#EXTINF:10.425000,
431221971909205-index10183.png
#EXTINF:10.425000,
431221971909205-index10184.png
#EXTINF:10.425000,
431221971909205-index10185.png
#EXTINF:10.425000,
431221971909205-index10186.png
#EXTINF:10.425000,
431221971909205-index10187.png
#EXTINF:10.425000,
431221971909205-index10188.png
#EXTINF:10.425000,
431221971909205-index10189.png
#EXTINF:10.425000,
431221971909205-index10190.png
#EXTINF:9.465900,
431221971909205-index10191.png
#EXTINF:10.425000,
431221971909205-index10192.png
#EXTINF:10.425000,
431221971909205-index10193.png
#EXTINF:10.425000,
431221971909205-index10194.png
#EXTINF:10.425000,
431221971909205-index10195.png
#EXTINF:10.425000,
431221971909205-index10196.png
#EXTINF:10.425000,
431221971909205-index10197.png
#EXTINF:10.425000,
431221971909205-index10198.png
#EXTINF:10.425000,
431221971909205-index10199.png
#EXTINF:10.425000,
431221971909205-index10200.png
#EXTINF:10.425000,
431221971909205-index10201.png
#EXTINF:10.425000,
431221971909205-index10202.png
#EXTINF:10.425000,
431221971909205-index10203.png
#EXTINF:10.425000,
431221971909205-index10204.png
#EXTINF:10.425000,
431221971909205-index10205.png
#EXTINF:10.425000,
431221971909205-index10206.png
#EXTINF:10.425000,
431221971909205-index10207.png
#EXTINF:10.425000,
431221971909205-index10208.png
#EXTINF:10.425000,
431221971909205-index10209.png
#EXTINF:10.425000,
431221971909205-index10210.png
#EXTINF:10.425000,
431221971909205-index10211.png
#EXTINF:10.425000,
431221971909205-index10212.png
#EXTINF:10.425000,
431221971909205-index10213.png
#EXTINF:10.425000,
431221971909205-index10214.png
#EXTINF:10.425000,
431221971909205-index10215.png
#EXTINF:9.048900,
431221971909205-index10216.png
#EXTINF:6.588600,
431221971909205-index10217.png
#EXTINF:8.214900,
431221971909205-index10218.png
#EXTINF:10.425000,
431221971909205-index10219.png
#EXTINF:3.085800,
431221971909205-index10220.png
#EXTINF:9.591000,
431221971909205-index10221.png
#EXTINF:10.091400,
431221971909205-index10222.png
#EXTINF:4.628700,
431221971909205-index10223.png
#EXTINF:10.425000,
431221971909205-index10224.png
#EXTINF:5.796300,
431221971909205-index10225.png
#EXTINF:2.877300,
431221971909205-index10226.png
#EXTINF:4.878900,
431221971909205-index10227.png
#EXTINF:3.127500,
431221971909205-index10228.png
#EXTINF:5.379300,
431221971909205-index10229.png
#EXTINF:6.338400,
431221971909205-index10230.png
#EXTINF:9.174000,
431221971909205-index10231.png
#EXTINF:10.425000,
431221971909205-index10232.png
#EXTINF:9.215700,
431221971909205-index10233.png
#EXTINF:10.425000,
431221971909205-index10234.png
#EXTINF:10.425000,
431221971909205-index10235.png
#EXTINF:10.425000,
431221971909205-index10236.png
#EXTINF:10.425000,
431221971909205-index10237.png
#EXTINF:10.425000,
431221971909205-index10238.png
#EXTINF:10.425000,
431221971909205-index10239.png
#EXTINF:10.425000,
431221971909205-index10240.png
#EXTINF:10.425000,
431221971909205-index10241.png
#EXTINF:10.425000,
431221971909205-index10242.png
#EXTINF:10.425000,
431221971909205-index10243.png
#EXTINF:10.425000,
431221971909205-index10244.png
#EXTINF:10.258200,
431221971909205-index10245.png
#EXTINF:10.425000,
431221971909205-index10246.png
#EXTINF:10.425000,
431221971909205-index10247.png
#EXTINF:10.425000,
431221971909205-index10248.png
#EXTINF:10.425000,
431221971909205-index10249.png
#EXTINF:10.425000,
431221971909205-index10250.png
#EXTINF:10.425000,
431221971909205-index10251.png
#EXTINF:5.295900,
431221971909205-index10252.png
#EXTINF:10.425000,
431221971909205-index10253.png
#EXTINF:10.425000,
431221971909205-index10254.png
#EXTINF:8.131500,
431221971909205-index10255.png
#EXTINF:7.464300,
431221971909205-index10256.png
#EXTINF:6.713700,
431221971909205-index10257.png
#EXTINF:8.757000,
431221971909205-index10258.png
#EXTINF:8.506800,
431221971909205-index10259.png
#EXTINF:10.425000,
431221971909205-index10260.png
#EXTINF:4.670400,
431221971909205-index10261.png
#EXTINF:8.965500,
431221971909205-index10262.png
#EXTINF:6.004800,
431221971909205-index10263.png
#EXTINF:10.425000,
431221971909205-index10264.png
#EXTINF:10.425000,
431221971909205-index10265.png
#EXTINF:10.425000,
431221971909205-index10266.png
#EXTINF:10.425000,
431221971909205-index10267.png
#EXTINF:10.425000,
431221971909205-index10268.png
#EXTINF:10.425000,
431221971909205-index10269.png
#EXTINF:8.340000,
431221971909205-index10270.png
#EXTINF:7.714500,
431221971909205-index10271.png
#EXTINF:9.340800,
431221971909205-index10272.png
#EXTINF:10.425000,
431221971909205-index10273.png
#EXTINF:9.299100,
431221971909205-index10274.png
#EXTINF:8.590200,
431221971909205-index10275.png
#EXTINF:9.632700,
431221971909205-index10276.png
#EXTINF:10.425000,
431221971909205-index10277.png
#EXTINF:10.425000,
431221971909205-index10278.png
#EXTINF:10.425000,
431221971909205-index10279.png
#EXTINF:10.425000,
431221971909205-index10280.png
#EXTINF:10.425000,
431221971909205-index10281.png
#EXTINF:10.425000,
431221971909205-index10282.png
#EXTINF:8.340000,
431221971909205-index10283.png
#EXTINF:5.754600,
431221971909205-index10284.png
#EXTINF:5.004000,
431221971909205-index10285.png
#EXTINF:7.422600,
431221971909205-index10286.png
#EXTINF:10.425000,
431221971909205-index10287.png
#EXTINF:7.464300,
431221971909205-index10288.png
#EXTINF:10.425000,
431221971909205-index10289.png
#EXTINF:10.425000,
431221971909205-index10290.png
#EXTINF:9.841200,
431221971909205-index10291.png
#EXTINF:9.007200,
431221971909205-index10292.png
#EXTINF:7.672800,
431221971909205-index10293.png
#EXTINF:10.425000,
431221971909205-index10294.png
#EXTINF:6.672000,
431221971909205-index10295.png
#EXTINF:10.425000,
431221971909205-index10296.png
#EXTINF:10.425000,
431221971909205-index10297.png
#EXTINF:9.966300,
431221971909205-index10298.png
#EXTINF:10.425000,
431221971909205-index10299.png
#EXTINF:2.835600,
431221971909205-index10300.png
#EXTINF:9.257400,
431221971909205-index10301.png
#EXTINF:7.964700,
431221971909205-index10302.png
#EXTINF:10.425000,
431221971909205-index10303.png
#EXTINF:10.425000,
431221971909205-index10304.png
#EXTINF:10.425000,
431221971909205-index10305.png
#EXTINF:10.425000,
431221971909205-index10306.png
#EXTINF:10.425000,
431221971909205-index10307.png
#EXTINF:4.920600,
431221971909205-index10308.png
#EXTINF:8.173200,
431221971909205-index10309.png
#EXTINF:10.425000,
431221971909205-index10310.png
#EXTINF:10.425000,
431221971909205-index10311.png
#EXTINF:10.425000,
431221971909205-index10312.png
#EXTINF:10.425000,
431221971909205-index10313.png
#EXTINF:10.425000,
431221971909205-index10314.png
#EXTINF:7.547700,
431221971909205-index10315.png
#EXTINF:8.340000,
431221971909205-index10316.png
#EXTINF:10.425000,
431221971909205-index10317.png
#EXTINF:10.425000,
431221971909205-index10318.png
#EXTINF:7.672800,
431221971909205-index10319.png
#EXTINF:10.425000,
431221971909205-index10320.png
#EXTINF:9.424200,
431221971909205-index10321.png
#EXTINF:10.425000,
431221971909205-index10322.png
#EXTINF:10.425000,
431221971909205-index10323.png
#EXTINF:10.425000,
431221971909205-index10324.png
#EXTINF:10.425000,
431221971909205-index10325.png
#EXTINF:10.425000,
431221971909205-index10326.png
#EXTINF:10.425000,
431221971909205-index10327.png
#EXTINF:10.425000,
431221971909205-index10328.png
#EXTINF:10.425000,
431221971909205-index10329.png
#EXTINF:10.425000,
431221971909205-index10330.png
#EXTINF:10.425000,
431221971909205-index10331.png
#EXTINF:7.506000,
431221971909205-index10332.png
#EXTINF:10.425000,
431221971909205-index10333.png
#EXTINF:7.464300,
431221971909205-index10334.png
#EXTINF:7.130700,
431221971909205-index10335.png
#EXTINF:10.425000,
431221971909205-index10336.png
#EXTINF:10.425000,
431221971909205-index10337.png
#EXTINF:10.425000,
431221971909205-index10338.png
#EXTINF:6.129900,
431221971909205-index10339.png
#EXTINF:10.425000,
431221971909205-index10340.png
#EXTINF:5.379300,
431221971909205-index10341.png
#EXTINF:10.425000,
431221971909205-index10342.png
#EXTINF:10.425000,
431221971909205-index10343.png
#EXTINF:10.425000,
431221971909205-index10344.png
#EXTINF:10.425000,
431221971909205-index10345.png
#EXTINF:10.425000,
431221971909205-index10346.png
#EXTINF:9.591000,
431221971909205-index10347.png
#EXTINF:10.425000,
431221971909205-index10348.png
#EXTINF:10.425000,
431221971909205-index10349.png
#EXTINF:10.425000,
431221971909205-index10350.png
#EXTINF:10.425000,
431221971909205-index10351.png
#EXTINF:10.425000,
431221971909205-index10352.png
#EXTINF:10.425000,
431221971909205-index10353.png
#EXTINF:10.425000,
431221971909205-index10354.png
#EXTINF:10.425000,
431221971909205-index10355.png
#EXTINF:10.425000,
431221971909205-index10356.png
#EXTINF:10.425000,
431221971909205-index10357.png
#EXTINF:10.425000,
431221971909205-index10358.png
#EXTINF:10.425000,
431221971909205-index10359.png
#EXTINF:10.425000,
431221971909205-index10360.png
#EXTINF:10.425000,
431221971909205-index10361.png
#EXTINF:10.425000,
431221971909205-index10362.png
#EXTINF:10.425000,
431221971909205-index10363.png
#EXTINF:10.425000,
431221971909205-index10364.png
#EXTINF:10.425000,
431221971909205-index10365.png
#EXTINF:10.425000,
431221971909205-index10366.png
#EXTINF:10.425000,
431221971909205-index10367.png
#EXTINF:10.425000,
431221971909205-index10368.png
#EXTINF:10.425000,
431221971909205-index10369.png
#EXTINF:10.425000,
431221971909205-index10370.png
#EXTINF:10.425000,
431221971909205-index10371.png
#EXTINF:10.425000,
431221971909205-index10372.png
#EXTINF:10.425000,
431221971909205-index10373.png
#EXTINF:10.425000,
431221971909205-index10374.png
#EXTINF:10.425000,
431221971909205-index10375.png
#EXTINF:10.425000,
431221971909205-index10376.png
#EXTINF:10.425000,
431221971909205-index10377.png
#EXTINF:10.425000,
431221971909205-index10378.png
#EXTINF:10.425000,
431221971909205-index10379.png
#EXTINF:10.425000,
431221971909205-index10380.png
#EXTINF:10.425000,
431221971909205-index10381.png
#EXTINF:10.425000,
431221971909205-index10382.png
#EXTINF:10.425000,
431221971909205-index10383.png
#EXTINF:0.083400,
431221971909205-index10384.png
#EXT-X-ENDLIST
