#EXTM3U
#EXT-X-VERSION:3
#EXT-X-TARGETDURATION:11
#EXT-X-MEDIA-SEQUENCE:10001
#EXTINF:5.347767,
441645271248287-index10001.png
#EXTINF:7.086878,
441645271248287-index10002.png
#EXTINF:8.043389,
441645271248287-index10003.png
#EXTINF:3.608656,
441645271248287-index10004.png
#EXTINF:7.478178,
441645271248287-index10005.png
#EXTINF:7.434700,
441645271248287-index10006.png
#EXTINF:3.695611,
441645271248287-index10007.png
#EXTINF:3.826044,
441645271248287-index10008.png
#EXTINF:10.869444,
441645271248287-index10009.png
#EXTINF:0.999989,
441645271248287-index10010.png
#EXTINF:10.217278,
441645271248287-index10011.png
#EXTINF:10.782489,
441645271248287-index10012.png
#EXTINF:10.869444,
441645271248287-index10013.png
#EXTINF:5.999933,
441645271248287-index10014.png
#EXTINF:8.434689,
441645271248287-index10015.png
#EXTINF:10.869444,
441645271248287-index10016.png
#EXTINF:10.869444,
441645271248287-index10017.png
#EXTINF:10.869444,
441645271248287-index10018.png
#EXTINF:10.869444,
441645271248287-index10019.png
#EXTINF:6.521667,
441645271248287-index10020.png
#EXTINF:8.869467,
441645271248287-index10021.png
#EXTINF:6.565144,
441645271248287-index10022.png
#EXTINF:3.217356,
441645271248287-index10023.png
#EXTINF:10.869444,
441645271248287-index10024.png
#EXTINF:2.608667,
441645271248287-index10025.png
#EXTINF:4.912989,
441645271248287-index10026.png
#EXTINF:10.869444,
441645271248287-index10027.png
#EXTINF:2.304322,
441645271248287-index10028.png
#EXTINF:2.217367,
441645271248287-index10029.png
#EXTINF:4.826033,
441645271248287-index10030.png
#EXTINF:4.695600,
441645271248287-index10031.png
#EXTINF:4.478211,
441645271248287-index10032.png
#EXTINF:9.347722,
441645271248287-index10033.png
#EXTINF:7.652089,
441645271248287-index10034.png
#EXTINF:5.652111,
441645271248287-index10035.png
#EXTINF:5.086900,
441645271248287-index10036.png
#EXTINF:7.217311,
441645271248287-index10037.png
#EXTINF:7.782522,
441645271248287-index10038.png
#EXTINF:4.652122,
441645271248287-index10039.png
#EXTINF:3.913000,
441645271248287-index10040.png
#EXTINF:10.869444,
441645271248287-index10041.png
#EXTINF:10.869444,
441645271248287-index10042.png
#EXTINF:10.869444,
441645271248287-index10043.png
#EXTINF:4.826033,
441645271248287-index10044.png
#EXTINF:8.086867,
441645271248287-index10045.png
#EXTINF:10.260756,
441645271248287-index10046.png
#EXTINF:3.782567,
441645271248287-index10047.png
#EXTINF:9.521633,
441645271248287-index10048.png
#EXTINF:8.912944,
441645271248287-index10049.png
#EXTINF:10.869444,
441645271248287-index10050.png
#EXTINF:7.912956,
441645271248287-index10051.png
#EXTINF:4.434733,
441645271248287-index10052.png
#EXTINF:5.478200,
441645271248287-index10053.png
#EXTINF:4.652122,
441645271248287-index10054.png
#EXTINF:4.956467,
441645271248287-index10055.png
#EXTINF:3.521700,
441645271248287-index10056.png
#EXTINF:3.391267,
441645271248287-index10057.png
#EXTINF:3.869522,
441645271248287-index10058.png
#EXTINF:7.782522,
441645271248287-index10059.png
#EXTINF:10.043367,
441645271248287-index10060.png
#EXTINF:6.478189,
441645271248287-index10061.png
#EXTINF:4.391256,
441645271248287-index10062.png
#EXTINF:6.739056,
441645271248287-index10063.png
#EXTINF:3.173878,
441645271248287-index10064.png
#EXTINF:1.739111,
441645271248287-index10065.png
#EXTINF:5.043422,
441645271248287-index10066.png
#EXTINF:2.347800,
441645271248287-index10067.png
#EXTINF:3.999956,
441645271248287-index10068.png
#EXTINF:3.260833,
441645271248287-index10069.png
#EXTINF:4.086911,
441645271248287-index10070.png
#EXTINF:3.695611,
441645271248287-index10071.png
#EXTINF:10.869444,
441645271248287-index10072.png
#EXTINF:10.869444,
441645271248287-index10073.png
#EXTINF:10.869444,
441645271248287-index10074.png
#EXTINF:2.478233,
441645271248287-index10075.png
#EXT-X-ENDLIST
