#EXTM3U
#EXT-X-VERSION:3
#EXT-X-TARGETDURATION:7
#EXT-X-MEDIA-SEQUENCE:10001
#EXTINF:6.960000,
443352702591154-index10001.ts
#EXTINF:5.160000,
443352702591154-index10002.ts
#EXTINF:6.520000,
443352702591154-index10003.ts
#EXTINF:6.320000,
443352702591154-index10004.ts
#EXTINF:5.680000,
443352702591154-index10005.ts
#EXTINF:5.520000,
443352702591154-index10006.ts
#EXTINF:6.000000,
443352702591154-index10007.ts
#EXTINF:6.480000,
443352702591154-index10008.ts
#EXTINF:5.600000,
443352702591154-index10009.ts
#EXTINF:6.160000,
443352702591154-index10010.ts
#EXTINF:6.000000,
443352702591154-index10011.ts
#EXTINF:5.720000,
443352702591154-index10012.ts
#EXTINF:6.160000,
443352702591154-index10013.ts
#EXTINF:6.000000,
443352702591154-index10014.ts
#EXTINF:6.000000,
443352702591154-index10015.ts
#EXTINF:6.520000,
443352702591154-index10016.ts
#EXTINF:6.000000,
443352702591154-index10017.ts
#EXTINF:6.000000,
443352702591154-index10018.ts
#EXTINF:5.280000,
443352702591154-index10019.ts
#EXTINF:6.000000,
443352702591154-index10020.ts
#EXTINF:6.560000,
443352702591154-index10021.ts
#EXTINF:5.520000,
443352702591154-index10022.ts
#EXTINF:6.040000,
443352702591154-index10023.ts
#EXTINF:6.000000,
443352702591154-index10024.ts
#EXTINF:6.520000,
443352702591154-index10025.ts
#EXTINF:6.000000,
443352702591154-index10026.ts
#EXTINF:6.040000,
443352702591154-index10027.ts
#EXTINF:6.160000,
443352702591154-index10028.ts
#EXTINF:5.400000,
443352702591154-index10029.ts
#EXTINF:6.480000,
443352702591154-index10030.ts
#EXTINF:5.320000,
443352702591154-index10031.ts
#EXTINF:6.480000,
443352702591154-index10032.ts
#EXTINF:5.520000,
443352702591154-index10033.ts
#EXTINF:6.000000,
443352702591154-index10034.ts
#EXTINF:6.280000,
443352702591154-index10035.ts
#EXTINF:6.520000,
443352702591154-index10036.ts
#EXTINF:6.000000,
443352702591154-index10037.ts
#EXTINF:6.040000,
443352702591154-index10038.ts
#EXTINF:5.440000,
443352702591154-index10039.ts
#EXTINF:6.040000,
443352702591154-index10040.ts
#EXTINF:6.520000,
443352702591154-index10041.ts
#EXTINF:6.000000,
443352702591154-index10042.ts
#EXTINF:6.000000,
443352702591154-index10043.ts
#EXTINF:5.280000,
443352702591154-index10044.ts
#EXTINF:6.000000,
443352702591154-index10045.ts
#EXTINF:6.360000,
443352702591154-index10046.ts
#EXTINF:6.000000,
443352702591154-index10047.ts
#EXTINF:6.280000,
443352702591154-index10048.ts
#EXTINF:5.520000,
443352702591154-index10049.ts
#EXTINF:6.400000,
443352702591154-index10050.ts
#EXTINF:6.000000,
443352702591154-index10051.ts
#EXTINF:5.600000,
443352702591154-index10052.ts
#EXTINF:5.640000,
443352702591154-index10053.ts
#EXTINF:6.560000,
443352702591154-index10054.ts
#EXTINF:6.160000,
443352702591154-index10055.ts
#EXTINF:0.800000,
443352702591154-index10056.ts
#EXT-X-ENDLIST
