#EXTM3U
#EXT-X-VERSION:3
#EXT-X-TARGETDURATION:6
#EXT-X-MEDIA-SEQUENCE:10001
#EXTINF:5.110356,
447427857667207-index10001.png
#EXTINF:5.005000,
447427857667207-index10002.png
#EXTINF:5.005000,
447427857667207-index10003.png
#EXTINF:5.005000,
447427857667207-index10004.png
#EXTINF:5.005000,
447427857667207-index10005.png
#EXTINF:5.005000,
447427857667207-index10006.png
#EXTINF:5.005000,
447427857667207-index10007.png
#EXTINF:5.005000,
447427857667207-index10008.png
#EXTINF:5.005000,
447427857667207-index10009.png
#EXTINF:5.005000,
447427857667207-index10010.png
#EXTINF:5.005000,
447427857667207-index10011.png
#EXTINF:5.005000,
447427857667207-index10012.png
#EXTINF:5.005000,
447427857667207-index10013.png
#EXTINF:5.005000,
447427857667207-index10014.png
#EXTINF:5.005000,
447427857667207-index10015.png
#EXTINF:5.005000,
447427857667207-index10016.png
#EXTINF:5.005000,
447427857667207-index10017.png
#EXTINF:5.005000,
447427857667207-index10018.png
#EXTINF:5.005000,
447427857667207-index10019.png
#EXTINF:5.005000,
447427857667207-index10020.png
#EXTINF:5.005000,
447427857667207-index10021.png
#EXTINF:5.005000,
447427857667207-index10022.png
#EXTINF:5.005000,
447427857667207-index10023.png
#EXTINF:5.005000,
447427857667207-index10024.png
#EXTINF:5.005000,
447427857667207-index10025.png
#EXTINF:5.005000,
447427857667207-index10026.png
#EXTINF:5.005000,
447427857667207-index10027.png
#EXTINF:5.005000,
447427857667207-index10028.png
#EXTINF:5.005000,
447427857667207-index10029.png
#EXTINF:5.005000,
447427857667207-index10030.png
#EXTINF:5.005000,
447427857667207-index10031.png
#EXTINF:5.005000,
447427857667207-index10032.png
#EXTINF:5.005000,
447427857667207-index10033.png
#EXTINF:5.005000,
447427857667207-index10034.png
#EXTINF:5.005000,
447427857667207-index10035.png
#EXTINF:5.005000,
447427857667207-index10036.png
#EXTINF:5.005000,
447427857667207-index10037.png
#EXTINF:5.005000,
447427857667207-index10038.png
#EXTINF:5.005000,
447427857667207-index10039.png
#EXTINF:5.005000,
447427857667207-index10040.png
#EXTINF:5.005000,
447427857667207-index10041.png
#EXTINF:5.005000,
447427857667207-index10042.png
#EXTINF:5.005000,
447427857667207-index10043.png
#EXTINF:5.005000,
447427857667207-index10044.png
#EXTINF:5.005000,
447427857667207-index10045.png
#EXTINF:5.005000,
447427857667207-index10046.png
#EXTINF:5.005000,
447427857667207-index10047.png
#EXTINF:5.005000,
447427857667207-index10048.png
#EXTINF:5.005000,
447427857667207-index10049.png
#EXTINF:5.005000,
447427857667207-index10050.png
#EXTINF:5.005000,
447427857667207-index10051.png
#EXTINF:5.005000,
447427857667207-index10052.png
#EXTINF:5.005000,
447427857667207-index10053.png
#EXTINF:5.005000,
447427857667207-index10054.png
#EXTINF:5.005000,
447427857667207-index10055.png
#EXTINF:5.005000,
447427857667207-index10056.png
#EXTINF:5.005000,
447427857667207-index10057.png
#EXTINF:5.005000,
447427857667207-index10058.png
#EXTINF:5.005000,
447427857667207-index10059.png
#EXTINF:5.005000,
447427857667207-index10060.png
#EXTINF:5.005000,
447427857667207-index10061.png
#EXTINF:5.005000,
447427857667207-index10062.png
#EXTINF:5.005000,
447427857667207-index10063.png
#EXTINF:5.005000,
447427857667207-index10064.png
#EXTINF:5.005000,
447427857667207-index10065.png
#EXTINF:5.005000,
447427857667207-index10066.png
#EXTINF:5.005000,
447427857667207-index10067.png
#EXTINF:5.005000,
447427857667207-index10068.png
#EXTINF:5.005000,
447427857667207-index10069.png
#EXTINF:5.005000,
447427857667207-index10070.png
#EXTINF:5.005000,
447427857667207-index10071.png
#EXTINF:5.005000,
447427857667207-index10072.png
#EXTINF:5.005000,
447427857667207-index10073.png
#EXTINF:5.005000,
447427857667207-index10074.png
#EXTINF:5.005000,
447427857667207-index10075.png
#EXTINF:5.005000,
447427857667207-index10076.png
#EXTINF:5.005000,
447427857667207-index10077.png
#EXTINF:5.005000,
447427857667207-index10078.png
#EXTINF:5.005000,
447427857667207-index10079.png
#EXTINF:5.005000,
447427857667207-index10080.png
#EXTINF:5.005000,
447427857667207-index10081.png
#EXTINF:5.005000,
447427857667207-index10082.png
#EXTINF:5.005000,
447427857667207-index10083.png
#EXTINF:5.005000,
447427857667207-index10084.png
#EXTINF:5.005000,
447427857667207-index10085.png
#EXTINF:5.005000,
447427857667207-index10086.png
#EXTINF:5.005000,
447427857667207-index10087.png
#EXTINF:5.005000,
447427857667207-index10088.png
#EXTINF:5.005000,
447427857667207-index10089.png
#EXTINF:5.005000,
447427857667207-index10090.png
#EXTINF:5.005000,
447427857667207-index10091.png
#EXTINF:5.005000,
447427857667207-index10092.png
#EXTINF:5.005000,
447427857667207-index10093.png
#EXTINF:5.005000,
447427857667207-index10094.png
#EXTINF:5.005000,
447427857667207-index10095.png
#EXTINF:5.005000,
447427857667207-index10096.png
#EXTINF:5.005000,
447427857667207-index10097.png
#EXTINF:5.005000,
447427857667207-index10098.png
#EXTINF:5.005000,
447427857667207-index10099.png
#EXTINF:5.005000,
447427857667207-index10100.png
#EXTINF:5.005000,
447427857667207-index10101.png
#EXTINF:5.005000,
447427857667207-index10102.png
#EXTINF:5.005000,
447427857667207-index10103.png
#EXTINF:5.005000,
447427857667207-index10104.png
#EXTINF:5.005000,
447427857667207-index10105.png
#EXTINF:5.005000,
447427857667207-index10106.png
#EXTINF:5.005000,
447427857667207-index10107.png
#EXTINF:5.005000,
447427857667207-index10108.png
#EXTINF:5.005000,
447427857667207-index10109.png
#EXTINF:5.005000,
447427857667207-index10110.png
#EXTINF:5.005000,
447427857667207-index10111.png
#EXTINF:5.005000,
447427857667207-index10112.png
#EXTINF:5.005000,
447427857667207-index10113.png
#EXTINF:5.005000,
447427857667207-index10114.png
#EXTINF:5.005000,
447427857667207-index10115.png
#EXTINF:5.005000,
447427857667207-index10116.png
#EXTINF:5.005000,
447427857667207-index10117.png
#EXTINF:5.005000,
447427857667207-index10118.png
#EXTINF:5.005000,
447427857667207-index10119.png
#EXTINF:5.005000,
447427857667207-index10120.png
#EXTINF:5.005000,
447427857667207-index10121.png
#EXTINF:5.005000,
447427857667207-index10122.png
#EXTINF:5.005000,
447427857667207-index10123.png
#EXTINF:5.005000,
447427857667207-index10124.png
#EXTINF:5.005000,
447427857667207-index10125.png
#EXTINF:5.005000,
447427857667207-index10126.png
#EXTINF:5.005000,
447427857667207-index10127.png
#EXTINF:5.005000,
447427857667207-index10128.png
#EXTINF:5.005000,
447427857667207-index10129.png
#EXTINF:5.005000,
447427857667207-index10130.png
#EXTINF:5.005000,
447427857667207-index10131.png
#EXTINF:5.005000,
447427857667207-index10132.png
#EXTINF:5.005000,
447427857667207-index10133.png
#EXTINF:5.005000,
447427857667207-index10134.png
#EXTINF:5.005000,
447427857667207-index10135.png
#EXTINF:5.005000,
447427857667207-index10136.png
#EXTINF:5.005000,
447427857667207-index10137.png
#EXTINF:5.005000,
447427857667207-index10138.png
#EXTINF:5.005000,
447427857667207-index10139.png
#EXTINF:5.005000,
447427857667207-index10140.png
#EXTINF:5.005000,
447427857667207-index10141.png
#EXTINF:5.005000,
447427857667207-index10142.png
#EXTINF:5.005000,
447427857667207-index10143.png
#EXTINF:5.005000,
447427857667207-index10144.png
#EXTINF:5.005000,
447427857667207-index10145.png
#EXTINF:5.005000,
447427857667207-index10146.png
#EXTINF:5.005000,
447427857667207-index10147.png
#EXTINF:5.005000,
447427857667207-index10148.png
#EXTINF:5.005000,
447427857667207-index10149.png
#EXTINF:5.005000,
447427857667207-index10150.png
#EXTINF:5.005000,
447427857667207-index10151.png
#EXTINF:5.005000,
447427857667207-index10152.png
#EXTINF:5.005000,
447427857667207-index10153.png
#EXTINF:5.005000,
447427857667207-index10154.png
#EXTINF:5.005000,
447427857667207-index10155.png
#EXTINF:5.005000,
447427857667207-index10156.png
#EXTINF:5.005000,
447427857667207-index10157.png
#EXTINF:5.005000,
447427857667207-index10158.png
#EXTINF:5.005000,
447427857667207-index10159.png
#EXTINF:5.005000,
447427857667207-index10160.png
#EXTINF:5.005000,
447427857667207-index10161.png
#EXTINF:5.005000,
447427857667207-index10162.png
#EXTINF:5.005000,
447427857667207-index10163.png
#EXTINF:5.005000,
447427857667207-index10164.png
#EXTINF:5.005000,
447427857667207-index10165.png
#EXTINF:5.005000,
447427857667207-index10166.png
#EXTINF:5.005000,
447427857667207-index10167.png
#EXTINF:5.005000,
447427857667207-index10168.png
#EXTINF:5.005000,
447427857667207-index10169.png
#EXTINF:5.005000,
447427857667207-index10170.png
#EXTINF:5.005000,
447427857667207-index10171.png
#EXTINF:5.005000,
447427857667207-index10172.png
#EXTINF:5.005000,
447427857667207-index10173.png
#EXTINF:5.005000,
447427857667207-index10174.png
#EXTINF:5.005000,
447427857667207-index10175.png
#EXTINF:5.005000,
447427857667207-index10176.png
#EXTINF:5.005000,
447427857667207-index10177.png
#EXTINF:5.005000,
447427857667207-index10178.png
#EXTINF:5.005000,
447427857667207-index10179.png
#EXTINF:5.005000,
447427857667207-index10180.png
#EXTINF:5.005000,
447427857667207-index10181.png
#EXTINF:5.005000,
447427857667207-index10182.png
#EXTINF:5.005000,
447427857667207-index10183.png
#EXTINF:5.005000,
447427857667207-index10184.png
#EXTINF:5.005000,
447427857667207-index10185.png
#EXTINF:5.005000,
447427857667207-index10186.png
#EXTINF:5.005000,
447427857667207-index10187.png
#EXTINF:5.005000,
447427857667207-index10188.png
#EXTINF:5.005000,
447427857667207-index10189.png
#EXTINF:5.005000,
447427857667207-index10190.png
#EXTINF:5.005000,
447427857667207-index10191.png
#EXTINF:5.005000,
447427857667207-index10192.png
#EXTINF:5.005000,
447427857667207-index10193.png
#EXTINF:5.005000,
447427857667207-index10194.png
#EXTINF:5.005000,
447427857667207-index10195.png
#EXTINF:5.005000,
447427857667207-index10196.png
#EXTINF:5.005000,
447427857667207-index10197.png
#EXTINF:5.005000,
447427857667207-index10198.png
#EXTINF:5.005000,
447427857667207-index10199.png
#EXTINF:5.005000,
447427857667207-index10200.png
#EXTINF:5.005000,
447427857667207-index10201.png
#EXTINF:5.005000,
447427857667207-index10202.png
#EXTINF:5.005000,
447427857667207-index10203.png
#EXTINF:5.005000,
447427857667207-index10204.png
#EXTINF:5.005000,
447427857667207-index10205.png
#EXTINF:5.005000,
447427857667207-index10206.png
#EXTINF:5.005000,
447427857667207-index10207.png
#EXTINF:5.005000,
447427857667207-index10208.png
#EXTINF:5.005000,
447427857667207-index10209.png
#EXTINF:5.005000,
447427857667207-index10210.png
#EXTINF:5.005000,
447427857667207-index10211.png
#EXTINF:5.005000,
447427857667207-index10212.png
#EXTINF:5.005000,
447427857667207-index10213.png
#EXTINF:5.005000,
447427857667207-index10214.png
#EXTINF:5.005000,
447427857667207-index10215.png
#EXTINF:5.005000,
447427857667207-index10216.png
#EXTINF:5.005000,
447427857667207-index10217.png
#EXTINF:5.005000,
447427857667207-index10218.png
#EXTINF:5.005000,
447427857667207-index10219.png
#EXTINF:5.005000,
447427857667207-index10220.png
#EXTINF:5.005000,
447427857667207-index10221.png
#EXTINF:5.005000,
447427857667207-index10222.png
#EXTINF:5.005000,
447427857667207-index10223.png
#EXTINF:5.005000,
447427857667207-index10224.png
#EXTINF:5.005000,
447427857667207-index10225.png
#EXTINF:5.005000,
447427857667207-index10226.png
#EXTINF:5.005000,
447427857667207-index10227.png
#EXTINF:5.005000,
447427857667207-index10228.png
#EXTINF:5.005000,
447427857667207-index10229.png
#EXTINF:5.005000,
447427857667207-index10230.png
#EXTINF:5.005000,
447427857667207-index10231.png
#EXTINF:5.005000,
447427857667207-index10232.png
#EXTINF:5.005000,
447427857667207-index10233.png
#EXTINF:5.005000,
447427857667207-index10234.png
#EXTINF:5.005000,
447427857667207-index10235.png
#EXTINF:5.005000,
447427857667207-index10236.png
#EXTINF:5.005000,
447427857667207-index10237.png
#EXTINF:5.005000,
447427857667207-index10238.png
#EXTINF:5.005000,
447427857667207-index10239.png
#EXTINF:5.005000,
447427857667207-index10240.png
#EXTINF:5.005000,
447427857667207-index10241.png
#EXTINF:5.005000,
447427857667207-index10242.png
#EXTINF:5.005000,
447427857667207-index10243.png
#EXTINF:5.005000,
447427857667207-index10244.png
#EXTINF:5.005000,
447427857667207-index10245.png
#EXTINF:5.005000,
447427857667207-index10246.png
#EXTINF:5.005000,
447427857667207-index10247.png
#EXTINF:5.005000,
447427857667207-index10248.png
#EXTINF:5.005000,
447427857667207-index10249.png
#EXTINF:5.005000,
447427857667207-index10250.png
#EXTINF:5.005000,
447427857667207-index10251.png
#EXTINF:5.005000,
447427857667207-index10252.png
#EXTINF:5.005000,
447427857667207-index10253.png
#EXTINF:5.005000,
447427857667207-index10254.png
#EXTINF:5.005000,
447427857667207-index10255.png
#EXTINF:5.005000,
447427857667207-index10256.png
#EXTINF:5.005000,
447427857667207-index10257.png
#EXTINF:5.005000,
447427857667207-index10258.png
#EXTINF:5.005000,
447427857667207-index10259.png
#EXTINF:5.005000,
447427857667207-index10260.png
#EXTINF:5.005000,
447427857667207-index10261.png
#EXTINF:5.005000,
447427857667207-index10262.png
#EXTINF:5.005000,
447427857667207-index10263.png
#EXTINF:5.005000,
447427857667207-index10264.png
#EXTINF:5.005000,
447427857667207-index10265.png
#EXTINF:5.005000,
447427857667207-index10266.png
#EXTINF:5.005000,
447427857667207-index10267.png
#EXTINF:5.005000,
447427857667207-index10268.png
#EXTINF:5.005000,
447427857667207-index10269.png
#EXTINF:5.005000,
447427857667207-index10270.png
#EXTINF:5.005000,
447427857667207-index10271.png
#EXTINF:5.005000,
447427857667207-index10272.png
#EXTINF:5.005000,
447427857667207-index10273.png
#EXTINF:5.005000,
447427857667207-index10274.png
#EXTINF:5.005000,
447427857667207-index10275.png
#EXTINF:5.005000,
447427857667207-index10276.png
#EXTINF:5.005000,
447427857667207-index10277.png
#EXTINF:5.005000,
447427857667207-index10278.png
#EXTINF:5.005000,
447427857667207-index10279.png
#EXTINF:5.005000,
447427857667207-index10280.png
#EXTINF:5.005000,
447427857667207-index10281.png
#EXTINF:5.005000,
447427857667207-index10282.png
#EXTINF:5.005000,
447427857667207-index10283.png
#EXTINF:5.005000,
447427857667207-index10284.png
#EXTINF:5.005000,
447427857667207-index10285.png
#EXTINF:5.005000,
447427857667207-index10286.png
#EXTINF:5.005000,
447427857667207-index10287.png
#EXTINF:5.005000,
447427857667207-index10288.png
#EXTINF:4.604600,
447427857667207-index10289.png
#EXT-X-ENDLIST
