#EXTM3U
#EXT-X-VERSION:3
#EXT-X-TARGETDURATION:11
#EXT-X-MEDIA-SEQUENCE:10001
#EXTINF:3.608656,
453669140736261-index10001.png
#EXTINF:7.826000,
453669140736261-index10002.png
#EXTINF:5.173856,
453669140736261-index10003.png
#EXTINF:1.521722,
453669140736261-index10004.png
#EXTINF:5.912978,
453669140736261-index10005.png
#EXTINF:4.999944,
453669140736261-index10006.png
#EXTINF:5.304289,
453669140736261-index10007.png
#EXTINF:3.782567,
453669140736261-index10008.png
#EXTINF:1.608678,
453669140736261-index10009.png
#EXTINF:1.956500,
453669140736261-index10010.png
#EXTINF:4.217344,
453669140736261-index10011.png
#EXTINF:1.739111,
453669140736261-index10012.png
#EXTINF:3.304311,
453669140736261-index10013.png
#EXTINF:5.739067,
453669140736261-index10014.png
#EXTINF:2.782578,
453669140736261-index10015.png
#EXTINF:5.173856,
453669140736261-index10016.png
#EXTINF:5.956456,
453669140736261-index10017.png
#EXTINF:5.999933,
453669140736261-index10018.png
#EXTINF:2.347800,
453669140736261-index10019.png
#EXTINF:1.999978,
453669140736261-index10020.png
#EXTINF:4.173867,
453669140736261-index10021.png
#EXTINF:3.999956,
453669140736261-index10022.png
#EXTINF:10.869444,
453669140736261-index10023.png
#EXTINF:10.869444,
453669140736261-index10024.png
#EXTINF:8.391211,
453669140736261-index10025.png
#EXTINF:10.869444,
453669140736261-index10026.png
#EXTINF:10.869444,
453669140736261-index10027.png
#EXTINF:9.304244,
453669140736261-index10028.png
#EXTINF:10.869444,
453669140736261-index10029.png
#EXTINF:10.869444,
453669140736261-index10030.png
#EXTINF:8.130344,
453669140736261-index10031.png
#EXTINF:8.999900,
453669140736261-index10032.png
#EXTINF:7.217311,
453669140736261-index10033.png
#EXTINF:10.869444,
453669140736261-index10034.png
#EXTINF:6.260800,
453669140736261-index10035.png
#EXTINF:4.565167,
453669140736261-index10036.png
#EXTINF:7.391222,
453669140736261-index10037.png
#EXTINF:9.825978,
453669140736261-index10038.png
#EXTINF:10.521622,
453669140736261-index10039.png
#EXTINF:6.739056,
453669140736261-index10040.png
#EXTINF:5.782544,
453669140736261-index10041.png
#EXTINF:6.869489,
453669140736261-index10042.png
#EXTINF:9.043378,
453669140736261-index10043.png
#EXTINF:10.869444,
453669140736261-index10044.png
#EXTINF:6.999922,
453669140736261-index10045.png
#EXTINF:6.912967,
453669140736261-index10046.png
#EXTINF:10.869444,
453669140736261-index10047.png
#EXTINF:8.869467,
453669140736261-index10048.png
#EXTINF:1.347811,
453669140736261-index10049.png
#EXTINF:10.869444,
453669140736261-index10050.png
#EXTINF:10.869444,
453669140736261-index10051.png
#EXTINF:10.869444,
453669140736261-index10052.png
#EXTINF:10.869444,
453669140736261-index10053.png
#EXTINF:3.434744,
453669140736261-index10054.png
#EXTINF:6.347756,
453669140736261-index10055.png
#EXTINF:9.347722,
453669140736261-index10056.png
#EXTINF:8.304256,
453669140736261-index10057.png
#EXTINF:10.869444,
453669140736261-index10058.png
#EXTINF:6.912967,
453669140736261-index10059.png
#EXTINF:10.869444,
453669140736261-index10060.png
#EXTINF:10.869444,
453669140736261-index10061.png
#EXTINF:10.869444,
453669140736261-index10062.png
#EXTINF:8.260778,
453669140736261-index10063.png
#EXT-X-ENDLIST
