#EXTM3U
#EXT-X-VERSION:3
#EXT-X-TARGETDURATION:7
#EXT-X-MEDIA-SEQUENCE:10001
#EXTINF:6.585411,
464190842790736-index10001.png
#EXTINF:5.000000,
464190842790736-index10002.png
#EXTINF:5.000000,
464190842790736-index10003.png
#EXTINF:5.000000,
464190842790736-index10004.png
#EXTINF:5.000000,
464190842790736-index10005.png
#EXTINF:5.000000,
464190842790736-index10006.png
#EXTINF:5.000000,
464190842790736-index10007.png
#EXTINF:5.000000,
464190842790736-index10008.png
#EXTINF:5.000000,
464190842790736-index10009.png
#EXTINF:5.000000,
464190842790736-index10010.png
#EXTINF:5.000000,
464190842790736-index10011.png
#EXTINF:5.000000,
464190842790736-index10012.png
#EXTINF:5.000000,
464190842790736-index10013.png
#EXTINF:5.000000,
464190842790736-index10014.png
#EXTINF:5.000000,
464190842790736-index10015.png
#EXTINF:5.000000,
464190842790736-index10016.png
#EXTINF:5.000000,
464190842790736-index10017.png
#EXTINF:5.000000,
464190842790736-index10018.png
#EXTINF:5.000000,
464190842790736-index10019.png
#EXTINF:5.000000,
464190842790736-index10020.png
#EXTINF:5.000000,
464190842790736-index10021.png
#EXTINF:5.000000,
464190842790736-index10022.png
#EXTINF:5.000000,
464190842790736-index10023.png
#EXTINF:5.000000,
464190842790736-index10024.png
#EXTINF:5.000000,
464190842790736-index10025.png
#EXTINF:5.000000,
464190842790736-index10026.png
#EXTINF:5.000000,
464190842790736-index10027.png
#EXTINF:5.000000,
464190842790736-index10028.png
#EXTINF:5.000000,
464190842790736-index10029.png
#EXTINF:5.000000,
464190842790736-index10030.png
#EXTINF:5.000000,
464190842790736-index10031.png
#EXTINF:5.000000,
464190842790736-index10032.png
#EXTINF:5.000000,
464190842790736-index10033.png
#EXTINF:5.000000,
464190842790736-index10034.png
#EXTINF:5.000000,
464190842790736-index10035.png
#EXTINF:5.000000,
464190842790736-index10036.png
#EXTINF:5.000000,
464190842790736-index10037.png
#EXTINF:5.000000,
464190842790736-index10038.png
#EXTINF:5.000000,
464190842790736-index10039.png
#EXTINF:5.000000,
464190842790736-index10040.png
#EXTINF:5.000000,
464190842790736-index10041.png
#EXTINF:5.000000,
464190842790736-index10042.png
#EXTINF:5.000000,
464190842790736-index10043.png
#EXTINF:5.000000,
464190842790736-index10044.png
#EXTINF:5.000000,
464190842790736-index10045.png
#EXTINF:5.000000,
464190842790736-index10046.png
#EXTINF:5.000000,
464190842790736-index10047.png
#EXTINF:5.000000,
464190842790736-index10048.png
#EXTINF:5.000000,
464190842790736-index10049.png
#EXTINF:5.000000,
464190842790736-index10050.png
#EXTINF:5.000000,
464190842790736-index10051.png
#EXTINF:5.000000,
464190842790736-index10052.png
#EXTINF:5.000000,
464190842790736-index10053.png
#EXTINF:5.000000,
464190842790736-index10054.png
#EXTINF:5.000000,
464190842790736-index10055.png
#EXTINF:5.000000,
464190842790736-index10056.png
#EXTINF:5.000000,
464190842790736-index10057.png
#EXTINF:5.000000,
464190842790736-index10058.png
#EXTINF:5.000000,
464190842790736-index10059.png
#EXTINF:5.000000,
464190842790736-index10060.png
#EXTINF:5.000000,
464190842790736-index10061.png
#EXTINF:5.000000,
464190842790736-index10062.png
#EXTINF:5.000000,
464190842790736-index10063.png
#EXTINF:5.000000,
464190842790736-index10064.png
#EXTINF:5.000000,
464190842790736-index10065.png
#EXTINF:5.000000,
464190842790736-index10066.png
#EXTINF:5.000000,
464190842790736-index10067.png
#EXTINF:5.000000,
464190842790736-index10068.png
#EXTINF:5.000000,
464190842790736-index10069.png
#EXTINF:5.000000,
464190842790736-index10070.png
#EXTINF:5.000000,
464190842790736-index10071.png
#EXTINF:5.000000,
464190842790736-index10072.png
#EXTINF:5.000000,
464190842790736-index10073.png
#EXTINF:5.000000,
464190842790736-index10074.png
#EXTINF:5.000000,
464190842790736-index10075.png
#EXTINF:5.000000,
464190842790736-index10076.png
#EXTINF:5.000000,
464190842790736-index10077.png
#EXTINF:5.000000,
464190842790736-index10078.png
#EXTINF:5.000000,
464190842790736-index10079.png
#EXTINF:5.000000,
464190842790736-index10080.png
#EXTINF:5.000000,
464190842790736-index10081.png
#EXTINF:5.000000,
464190842790736-index10082.png
#EXTINF:5.000000,
464190842790736-index10083.png
#EXTINF:5.000000,
464190842790736-index10084.png
#EXTINF:5.000000,
464190842790736-index10085.png
#EXTINF:5.000000,
464190842790736-index10086.png
#EXTINF:5.000000,
464190842790736-index10087.png
#EXTINF:5.000000,
464190842790736-index10088.png
#EXTINF:5.000000,
464190842790736-index10089.png
#EXTINF:5.000000,
464190842790736-index10090.png
#EXTINF:5.000000,
464190842790736-index10091.png
#EXTINF:5.000000,
464190842790736-index10092.png
#EXTINF:5.000000,
464190842790736-index10093.png
#EXTINF:5.000000,
464190842790736-index10094.png
#EXTINF:5.000000,
464190842790736-index10095.png
#EXTINF:5.000000,
464190842790736-index10096.png
#EXTINF:5.000000,
464190842790736-index10097.png
#EXTINF:5.000000,
464190842790736-index10098.png
#EXTINF:5.000000,
464190842790736-index10099.png
#EXTINF:5.000000,
464190842790736-index10100.png
#EXTINF:5.000000,
464190842790736-index10101.png
#EXTINF:0.840000,
464190842790736-index10102.png
#EXT-X-ENDLIST
