#EXTM3U
#EXT-X-VERSION:3
#EXT-X-TARGETDURATION:9
#EXT-X-MEDIA-SEQUENCE:10001
#EXTINF:8.341667,
470543724795182-index10001.png
#EXTINF:1.568233,
470543724795182-index10002.png
#EXTINF:2.268933,
470543724795182-index10003.png
#EXTINF:3.436767,
470543724795182-index10004.png
#EXTINF:4.170833,
470543724795182-index10005.png
#EXTINF:4.270933,
470543724795182-index10006.png
#EXTINF:3.336667,
470543724795182-index10007.png
#EXTINF:6.573233,
470543724795182-index10008.png
#EXTINF:7.007000,
470543724795182-index10009.png
#EXTINF:8.341667,
470543724795182-index10010.png
#EXTINF:6.339667,
470543724795182-index10011.png
#EXTINF:1.835167,
470543724795182-index10012.png
#EXTINF:5.839167,
470543724795182-index10013.png
#EXTINF:2.435767,
470543724795182-index10014.png
#EXTINF:5.038367,
470543724795182-index10015.png
#EXTINF:5.271933,
470543724795182-index10016.png
#EXTINF:2.202200,
470543724795182-index10017.png
#EXTINF:2.902900,
470543724795182-index10018.png
#EXTINF:2.569233,
470543724795182-index10019.png
#EXTINF:4.904900,
470543724795182-index10020.png
#EXTINF:4.671333,
470543724795182-index10021.png
#EXTINF:8.341667,
470543724795182-index10022.png
#EXTINF:1.501500,
470543724795182-index10023.png
#EXTINF:6.006000,
470543724795182-index10024.png
#EXTINF:5.638967,
470543724795182-index10025.png
#EXTINF:6.740067,
470543724795182-index10026.png
#EXTINF:4.738067,
470543724795182-index10027.png
#EXTINF:4.270933,
470543724795182-index10028.png
#EXTINF:5.672333,
470543724795182-index10029.png
#EXTINF:1.568233,
470543724795182-index10030.png
#EXTINF:4.170833,
470543724795182-index10031.png
#EXTINF:3.903900,
470543724795182-index10032.png
#EXTINF:1.935267,
470543724795182-index10033.png
#EXTINF:1.401400,
470543724795182-index10034.png
#EXTINF:7.307300,
470543724795182-index10035.png
#EXTINF:4.504500,
470543724795182-index10036.png
#EXTINF:1.668333,
470543724795182-index10037.png
#EXTINF:2.235567,
470543724795182-index10038.png
#EXTINF:3.937267,
470543724795182-index10039.png
#EXTINF:3.370033,
470543724795182-index10040.png
#EXTINF:1.935267,
470543724795182-index10041.png
#EXTINF:6.339667,
470543724795182-index10042.png
#EXTINF:8.208200,
470543724795182-index10043.png
#EXTINF:8.241567,
470543724795182-index10044.png
#EXTINF:3.803800,
470543724795182-index10045.png
#EXTINF:3.870533,
470543724795182-index10046.png
#EXTINF:6.006000,
470543724795182-index10047.png
#EXTINF:6.639967,
470543724795182-index10048.png
#EXTINF:4.971633,
470543724795182-index10049.png
#EXTINF:5.905900,
470543724795182-index10050.png
#EXTINF:2.769433,
470543724795182-index10051.png
#EXTINF:3.803800,
470543724795182-index10052.png
#EXTINF:6.740067,
470543724795182-index10053.png
#EXTINF:1.434767,
470543724795182-index10054.png
#EXTINF:3.169833,
470543724795182-index10055.png
#EXTINF:1.534867,
470543724795182-index10056.png
#EXTINF:3.636967,
470543724795182-index10057.png
#EXTINF:3.436767,
470543724795182-index10058.png
#EXTINF:3.136467,
470543724795182-index10059.png
#EXTINF:2.936267,
470543724795182-index10060.png
#EXTINF:5.338667,
470543724795182-index10061.png
#EXTINF:8.341667,
470543724795182-index10062.png
#EXTINF:7.674333,
470543724795182-index10063.png
#EXTINF:5.605600,
470543724795182-index10064.png
#EXTINF:5.905900,
470543724795182-index10065.png
#EXTINF:8.341667,
470543724795182-index10066.png
#EXTINF:8.274933,
470543724795182-index10067.png
#EXTINF:4.637967,
470543724795182-index10068.png
#EXTINF:8.341667,
470543724795182-index10069.png
#EXTINF:5.538867,
470543724795182-index10070.png
#EXTINF:8.341667,
470543724795182-index10071.png
#EXTINF:4.304300,
470543724795182-index10072.png
#EXTINF:8.341667,
470543724795182-index10073.png
#EXTINF:7.674333,
470543724795182-index10074.png
#EXTINF:3.503500,
470543724795182-index10075.png
#EXTINF:1.368033,
470543724795182-index10076.png
#EXTINF:4.137467,
470543724795182-index10077.png
#EXTINF:4.204200,
470543724795182-index10078.png
#EXTINF:8.341667,
470543724795182-index10079.png
#EXTINF:3.503500,
470543724795182-index10080.png
#EXTINF:8.341667,
470543724795182-index10081.png
#EXTINF:8.341667,
470543724795182-index10082.png
#EXTINF:8.341667,
470543724795182-index10083.png
#EXTINF:3.336667,
470543724795182-index10084.png
#EXTINF:3.336667,
470543724795182-index10085.png
#EXTINF:7.907900,
470543724795182-index10086.png
#EXTINF:4.771433,
470543724795182-index10087.png
#EXTINF:1.835167,
470543724795182-index10088.png
#EXTINF:4.471133,
470543724795182-index10089.png
#EXTINF:2.302300,
470543724795182-index10090.png
#EXTINF:1.067733,
470543724795182-index10091.png
#EXTINF:4.471133,
470543724795182-index10092.png
#EXTINF:3.003000,
470543724795182-index10093.png
#EXTINF:3.470133,
470543724795182-index10094.png
#EXTINF:8.341667,
470543724795182-index10095.png
#EXTINF:1.901900,
470543724795182-index10096.png
#EXTINF:1.801800,
470543724795182-index10097.png
#EXTINF:4.771433,
470543724795182-index10098.png
#EXTINF:1.501500,
470543724795182-index10099.png
#EXTINF:1.701700,
470543724795182-index10100.png
#EXTINF:1.501500,
470543724795182-index10101.png
#EXTINF:1.401400,
470543724795182-index10102.png
#EXTINF:5.138467,
470543724795182-index10103.png
#EXTINF:1.634967,
470543724795182-index10104.png
#EXTINF:1.234567,
470543724795182-index10105.png
#EXTINF:2.068733,
470543724795182-index10106.png
#EXTINF:6.106100,
470543724795182-index10107.png
#EXTINF:3.169833,
470543724795182-index10108.png
#EXTINF:1.434767,
470543724795182-index10109.png
#EXTINF:1.968633,
470543724795182-index10110.png
#EXTINF:7.774433,
470543724795182-index10111.png
#EXTINF:2.002000,
470543724795182-index10112.png
#EXTINF:1.634967,
470543724795182-index10113.png
#EXTINF:1.668333,
470543724795182-index10114.png
#EXTINF:1.868533,
470543724795182-index10115.png
#EXTINF:6.339667,
470543724795182-index10116.png
#EXTINF:3.636967,
470543724795182-index10117.png
#EXTINF:1.034367,
470543724795182-index10118.png
#EXTINF:2.669333,
470543724795182-index10119.png
#EXTINF:1.234567,
470543724795182-index10120.png
#EXTINF:3.069733,
470543724795182-index10121.png
#EXTINF:3.203200,
470543724795182-index10122.png
#EXTINF:2.168833,
470543724795182-index10123.png
#EXTINF:1.668333,
470543724795182-index10124.png
#EXTINF:8.341667,
470543724795182-index10125.png
#EXTINF:4.571233,
470543724795182-index10126.png
#EXTINF:1.835167,
470543724795182-index10127.png
#EXTINF:7.407400,
470543724795182-index10128.png
#EXTINF:8.341667,
470543724795182-index10129.png
#EXTINF:7.340667,
470543724795182-index10130.png
#EXTINF:3.436767,
470543724795182-index10131.png
#EXTINF:4.838167,
470543724795182-index10132.png
#EXTINF:4.371033,
470543724795182-index10133.png
#EXTINF:2.902900,
470543724795182-index10134.png
#EXTINF:4.904900,
470543724795182-index10135.png
#EXTINF:3.370033,
470543724795182-index10136.png
#EXTINF:4.537867,
470543724795182-index10137.png
#EXTINF:4.204200,
470543724795182-index10138.png
#EXTINF:3.269933,
470543724795182-index10139.png
#EXTINF:4.571233,
470543724795182-index10140.png
#EXTINF:4.004000,
470543724795182-index10141.png
#EXTINF:2.836167,
470543724795182-index10142.png
#EXTINF:7.107100,
470543724795182-index10143.png
#EXTINF:6.473133,
470543724795182-index10144.png
#EXTINF:4.404400,
470543724795182-index10145.png
#EXTINF:4.504500,
470543724795182-index10146.png
#EXTINF:1.201200,
470543724795182-index10147.png
#EXTINF:6.506500,
470543724795182-index10148.png
#EXTINF:8.341667,
470543724795182-index10149.png
#EXTINF:7.574233,
470543724795182-index10150.png
#EXTINF:8.341667,
470543724795182-index10151.png
#EXTINF:3.503500,
470543724795182-index10152.png
#EXTINF:7.741067,
470543724795182-index10153.png
#EXTINF:1.034367,
470543724795182-index10154.png
#EXTINF:6.940267,
470543724795182-index10155.png
#EXTINF:6.573233,
470543724795182-index10156.png
#EXTINF:6.773433,
470543724795182-index10157.png
#EXTINF:7.841167,
470543724795182-index10158.png
#EXTINF:4.971633,
470543724795182-index10159.png
#EXTINF:6.272933,
470543724795182-index10160.png
#EXTINF:8.341667,
470543724795182-index10161.png
#EXTINF:7.707700,
470543724795182-index10162.png
#EXTINF:3.203200,
470543724795182-index10163.png
#EXTINF:3.169833,
470543724795182-index10164.png
#EXTINF:1.067733,
470543724795182-index10165.png
#EXTINF:7.507500,
470543724795182-index10166.png
#EXTINF:8.341667,
470543724795182-index10167.png
#EXTINF:3.303300,
470543724795182-index10168.png
#EXTINF:8.341667,
470543724795182-index10169.png
#EXTINF:3.303300,
470543724795182-index10170.png
#EXTINF:5.772433,
470543724795182-index10171.png
#EXTINF:6.106100,
470543724795182-index10172.png
#EXTINF:1.801800,
470543724795182-index10173.png
#EXTINF:8.341667,
470543724795182-index10174.png
#EXTINF:3.503500,
470543724795182-index10175.png
#EXTINF:4.504500,
470543724795182-index10176.png
#EXTINF:5.438767,
470543724795182-index10177.png
#EXTINF:3.236567,
470543724795182-index10178.png
#EXTINF:4.371033,
470543724795182-index10179.png
#EXTINF:1.067733,
470543724795182-index10180.png
#EXTINF:1.601600,
470543724795182-index10181.png
#EXTINF:2.369033,
470543724795182-index10182.png
#EXTINF:4.304300,
470543724795182-index10183.png
#EXTINF:8.341667,
470543724795182-index10184.png
#EXTINF:7.874533,
470543724795182-index10185.png
#EXTINF:8.341667,
470543724795182-index10186.png
#EXTINF:8.341667,
470543724795182-index10187.png
#EXTINF:7.007000,
470543724795182-index10188.png
#EXTINF:2.635967,
470543724795182-index10189.png
#EXTINF:6.673333,
470543724795182-index10190.png
#EXTINF:5.672333,
470543724795182-index10191.png
#EXTINF:3.536867,
470543724795182-index10192.png
#EXTINF:7.807800,
470543724795182-index10193.png
#EXTINF:8.341667,
470543724795182-index10194.png
#EXTINF:8.341667,
470543724795182-index10195.png
#EXTINF:8.341667,
470543724795182-index10196.png
#EXTINF:2.836167,
470543724795182-index10197.png
#EXTINF:2.168833,
470543724795182-index10198.png
#EXTINF:8.341667,
470543724795182-index10199.png
#EXTINF:2.736067,
470543724795182-index10200.png
#EXTINF:1.601600,
470543724795182-index10201.png
#EXTINF:1.134467,
470543724795182-index10202.png
#EXTINF:3.403400,
470543724795182-index10203.png
#EXTINF:8.341667,
470543724795182-index10204.png
#EXTINF:5.472133,
470543724795182-index10205.png
#EXTINF:8.341667,
470543724795182-index10206.png
#EXTINF:6.906900,
470543724795182-index10207.png
#EXTINF:3.603600,
470543724795182-index10208.png
#EXTINF:1.735067,
470543724795182-index10209.png
#EXTINF:1.634967,
470543724795182-index10210.png
#EXTINF:8.341667,
470543724795182-index10211.png
#EXTINF:8.341667,
470543724795182-index10212.png
#EXTINF:7.674333,
470543724795182-index10213.png
#EXTINF:1.267933,
470543724795182-index10214.png
#EXTINF:2.569233,
470543724795182-index10215.png
#EXTINF:6.639967,
470543724795182-index10216.png
#EXTINF:3.803800,
470543724795182-index10217.png
#EXTINF:5.338667,
470543724795182-index10218.png
#EXTINF:4.771433,
470543724795182-index10219.png
#EXTINF:6.239567,
470543724795182-index10220.png
#EXTINF:8.341667,
470543724795182-index10221.png
#EXTINF:3.169833,
470543724795182-index10222.png
#EXTINF:1.334667,
470543724795182-index10223.png
#EXTINF:3.036367,
470543724795182-index10224.png
#EXTINF:2.569233,
470543724795182-index10225.png
#EXTINF:6.773433,
470543724795182-index10226.png
#EXTINF:2.135467,
470543724795182-index10227.png
#EXTINF:8.341667,
470543724795182-index10228.png
#EXTINF:8.341667,
470543724795182-index10229.png
#EXTINF:8.341667,
470543724795182-index10230.png
#EXTINF:8.208200,
470543724795182-index10231.png
#EXTINF:2.135467,
470543724795182-index10232.png
#EXTINF:8.341667,
470543724795182-index10233.png
#EXTINF:6.840167,
470543724795182-index10234.png
#EXTINF:8.241567,
470543724795182-index10235.png
#EXTINF:8.341667,
470543724795182-index10236.png
#EXTINF:8.341667,
470543724795182-index10237.png
#EXTINF:6.272933,
470543724795182-index10238.png
#EXTINF:8.341667,
470543724795182-index10239.png
#EXTINF:2.369033,
470543724795182-index10240.png
#EXTINF:8.341667,
470543724795182-index10241.png
#EXTINF:8.341667,
470543724795182-index10242.png
#EXTINF:8.308300,
470543724795182-index10243.png
#EXTINF:6.072733,
470543724795182-index10244.png
#EXTINF:8.341667,
470543724795182-index10245.png
#EXTINF:8.341667,
470543724795182-index10246.png
#EXTINF:8.341667,
470543724795182-index10247.png
#EXTINF:8.341667,
470543724795182-index10248.png
#EXTINF:3.636967,
470543724795182-index10249.png
#EXTINF:3.069733,
470543724795182-index10250.png
#EXTINF:8.341667,
470543724795182-index10251.png
#EXTINF:8.341667,
470543724795182-index10252.png
#EXTINF:6.272933,
470543724795182-index10253.png
#EXTINF:2.635967,
470543724795182-index10254.png
#EXTINF:2.836167,
470543724795182-index10255.png
#EXTINF:1.835167,
470543724795182-index10256.png
#EXTINF:1.768433,
470543724795182-index10257.png
#EXTINF:7.140467,
470543724795182-index10258.png
#EXTINF:1.868533,
470543724795182-index10259.png
#EXTINF:8.341667,
470543724795182-index10260.png
#EXTINF:4.437767,
470543724795182-index10261.png
#EXTINF:3.169833,
470543724795182-index10262.png
#EXTINF:3.570233,
470543724795182-index10263.png
#EXTINF:3.937267,
470543724795182-index10264.png
#EXTINF:5.338667,
470543724795182-index10265.png
#EXTINF:5.538867,
470543724795182-index10266.png
#EXTINF:2.002000,
470543724795182-index10267.png
#EXTINF:3.470133,
470543724795182-index10268.png
#EXTINF:5.638967,
470543724795182-index10269.png
#EXTINF:2.702700,
470543724795182-index10270.png
#EXTINF:2.002000,
470543724795182-index10271.png
#EXTINF:1.067733,
470543724795182-index10272.png
#EXTINF:1.301300,
470543724795182-index10273.png
#EXTINF:1.134467,
470543724795182-index10274.png
#EXTINF:2.736067,
470543724795182-index10275.png
#EXTINF:6.639967,
470543724795182-index10276.png
#EXTINF:5.972633,
470543724795182-index10277.png
#EXTINF:8.341667,
470543724795182-index10278.png
#EXTINF:1.901900,
470543724795182-index10279.png
#EXTINF:4.637967,
470543724795182-index10280.png
#EXTINF:5.338667,
470543724795182-index10281.png
#EXTINF:1.468133,
470543724795182-index10282.png
#EXTINF:2.869533,
470543724795182-index10283.png
#EXTINF:1.434767,
470543724795182-index10284.png
#EXTINF:2.268933,
470543724795182-index10285.png
#EXTINF:2.502500,
470543724795182-index10286.png
#EXTINF:2.669333,
470543724795182-index10287.png
#EXTINF:3.903900,
470543724795182-index10288.png
#EXTINF:2.769433,
470543724795182-index10289.png
#EXTINF:1.601600,
470543724795182-index10290.png
#EXTINF:5.872533,
470543724795182-index10291.png
#EXTINF:0.934267,
470543724795182-index10292.png
#EXTINF:1.534867,
470543724795182-index10293.png
#EXTINF:1.901900,
470543724795182-index10294.png
#EXTINF:8.341667,
470543724795182-index10295.png
#EXTINF:1.568233,
470543724795182-index10296.png
#EXTINF:2.402400,
470543724795182-index10297.png
#EXTINF:2.268933,
470543724795182-index10298.png
#EXTINF:4.838167,
470543724795182-index10299.png
#EXTINF:4.571233,
470543724795182-index10300.png
#EXTINF:1.935267,
470543724795182-index10301.png
#EXTINF:3.903900,
470543724795182-index10302.png
#EXTINF:2.135467,
470543724795182-index10303.png
#EXTINF:2.369033,
470543724795182-index10304.png
#EXTINF:2.335667,
470543724795182-index10305.png
#EXTINF:3.636967,
470543724795182-index10306.png
#EXTINF:8.341667,
470543724795182-index10307.png
#EXTINF:4.637967,
470543724795182-index10308.png
#EXTINF:7.841167,
470543724795182-index10309.png
#EXTINF:1.534867,
470543724795182-index10310.png
#EXTINF:7.307300,
470543724795182-index10311.png
#EXTINF:4.104100,
470543724795182-index10312.png
#EXTINF:1.067733,
470543724795182-index10313.png
#EXTINF:1.768433,
470543724795182-index10314.png
#EXTINF:5.238567,
470543724795182-index10315.png
#EXTINF:3.269933,
470543724795182-index10316.png
#EXTINF:7.607600,
470543724795182-index10317.png
#EXTINF:8.241567,
470543724795182-index10318.png
#EXTINF:4.471133,
470543724795182-index10319.png
#EXTINF:5.605600,
470543724795182-index10320.png
#EXTINF:6.906900,
470543724795182-index10321.png
#EXTINF:3.937267,
470543724795182-index10322.png
#EXTINF:5.205200,
470543724795182-index10323.png
#EXTINF:5.305300,
470543724795182-index10324.png
#EXTINF:2.902900,
470543724795182-index10325.png
#EXTINF:5.305300,
470543724795182-index10326.png
#EXTINF:5.205200,
470543724795182-index10327.png
#EXTINF:3.803800,
470543724795182-index10328.png
#EXTINF:8.341667,
470543724795182-index10329.png
#EXTINF:6.172833,
470543724795182-index10330.png
#EXTINF:5.472133,
470543724795182-index10331.png
#EXTINF:3.336667,
470543724795182-index10332.png
#EXTINF:2.068733,
470543724795182-index10333.png
#EXTINF:1.434767,
470543724795182-index10334.png
#EXTINF:5.005000,
470543724795182-index10335.png
#EXTINF:5.038367,
470543724795182-index10336.png
#EXTINF:3.403400,
470543724795182-index10337.png
#EXTINF:4.070733,
470543724795182-index10338.png
#EXTINF:8.341667,
470543724795182-index10339.png
#EXTINF:3.236567,
470543724795182-index10340.png
#EXTINF:3.636967,
470543724795182-index10341.png
#EXTINF:1.835167,
470543724795182-index10342.png
#EXTINF:2.469133,
470543724795182-index10343.png
#EXTINF:8.341667,
470543724795182-index10344.png
#EXTINF:7.073733,
470543724795182-index10345.png
#EXTINF:3.503500,
470543724795182-index10346.png
#EXTINF:7.774433,
470543724795182-index10347.png
#EXTINF:5.538867,
470543724795182-index10348.png
#EXTINF:4.537867,
470543724795182-index10349.png
#EXTINF:1.668333,
470543724795182-index10350.png
#EXTINF:7.774433,
470543724795182-index10351.png
#EXTINF:1.334667,
470543724795182-index10352.png
#EXTINF:4.270933,
470543724795182-index10353.png
#EXTINF:8.341667,
470543724795182-index10354.png
#EXTINF:6.906900,
470543724795182-index10355.png
#EXTINF:7.007000,
470543724795182-index10356.png
#EXTINF:4.604600,
470543724795182-index10357.png
#EXTINF:1.735067,
470543724795182-index10358.png
#EXTINF:3.436767,
470543724795182-index10359.png
#EXTINF:1.234567,
470543724795182-index10360.png
#EXTINF:3.503500,
470543724795182-index10361.png
#EXTINF:3.770433,
470543724795182-index10362.png
#EXTINF:1.801800,
470543724795182-index10363.png
#EXTINF:1.301300,
470543724795182-index10364.png
#EXTINF:1.334667,
470543724795182-index10365.png
#EXTINF:6.006000,
470543724795182-index10366.png
#EXTINF:3.203200,
470543724795182-index10367.png
#EXTINF:5.705700,
470543724795182-index10368.png
#EXTINF:2.602600,
470543724795182-index10369.png
#EXTINF:5.305300,
470543724795182-index10370.png
#EXTINF:6.673333,
470543724795182-index10371.png
#EXTINF:3.069733,
470543724795182-index10372.png
#EXTINF:7.440767,
470543724795182-index10373.png
#EXTINF:8.341667,
470543724795182-index10374.png
#EXTINF:4.004000,
470543724795182-index10375.png
#EXTINF:1.568233,
470543724795182-index10376.png
#EXTINF:1.835167,
470543724795182-index10377.png
#EXTINF:7.374033,
470543724795182-index10378.png
#EXTINF:8.341667,
470543724795182-index10379.png
#EXTINF:8.341667,
470543724795182-index10380.png
#EXTINF:7.173833,
470543724795182-index10381.png
#EXTINF:1.301300,
470543724795182-index10382.png
#EXTINF:2.002000,
470543724795182-index10383.png
#EXTINF:3.236567,
470543724795182-index10384.png
#EXTINF:7.540867,
470543724795182-index10385.png
#EXTINF:7.207200,
470543724795182-index10386.png
#EXTINF:6.339667,
470543724795182-index10387.png
#EXTINF:8.341667,
470543724795182-index10388.png
#EXTINF:7.207200,
470543724795182-index10389.png
#EXTINF:4.137467,
470543724795182-index10390.png
#EXTINF:8.341667,
470543724795182-index10391.png
#EXTINF:2.902900,
470543724795182-index10392.png
#EXTINF:2.736067,
470543724795182-index10393.png
#EXTINF:4.504500,
470543724795182-index10394.png
#EXTINF:2.902900,
470543724795182-index10395.png
#EXTINF:1.368033,
470543724795182-index10396.png
#EXTINF:2.936267,
470543724795182-index10397.png
#EXTINF:3.003000,
470543724795182-index10398.png
#EXTINF:1.401400,
470543724795182-index10399.png
#EXTINF:5.939267,
470543724795182-index10400.png
#EXTINF:6.639967,
470543724795182-index10401.png
#EXTINF:1.434767,
470543724795182-index10402.png
#EXTINF:2.302300,
470543724795182-index10403.png
#EXTINF:3.703700,
470543724795182-index10404.png
#EXTINF:2.836167,
470543724795182-index10405.png
#EXTINF:8.341667,
470543724795182-index10406.png
#EXTINF:8.341667,
470543724795182-index10407.png
#EXTINF:3.136467,
470543724795182-index10408.png
#EXTINF:8.341667,
470543724795182-index10409.png
#EXTINF:3.803800,
470543724795182-index10410.png
#EXTINF:5.372033,
470543724795182-index10411.png
#EXTINF:5.005000,
470543724795182-index10412.png
#EXTINF:7.674333,
470543724795182-index10413.png
#EXTINF:6.473133,
470543724795182-index10414.png
#EXTINF:3.203200,
470543724795182-index10415.png
#EXTINF:4.471133,
470543724795182-index10416.png
#EXTINF:1.401400,
470543724795182-index10417.png
#EXTINF:3.670333,
470543724795182-index10418.png
#EXTINF:5.338667,
470543724795182-index10419.png
#EXTINF:2.168833,
470543724795182-index10420.png
#EXTINF:3.903900,
470543724795182-index10421.png
#EXTINF:8.008000,
470543724795182-index10422.png
#EXTINF:1.901900,
470543724795182-index10423.png
#EXTINF:1.668333,
470543724795182-index10424.png
#EXTINF:7.640967,
470543724795182-index10425.png
#EXTINF:6.339667,
470543724795182-index10426.png
#EXTINF:7.374033,
470543724795182-index10427.png
#EXTINF:4.304300,
470543724795182-index10428.png
#EXTINF:6.306300,
470543724795182-index10429.png
#EXTINF:6.373033,
470543724795182-index10430.png
#EXTINF:1.668333,
470543724795182-index10431.png
#EXTINF:8.341667,
470543724795182-index10432.png
#EXTINF:3.370033,
470543724795182-index10433.png
#EXTINF:8.008000,
470543724795182-index10434.png
#EXTINF:5.372033,
470543724795182-index10435.png
#EXTINF:5.505500,
470543724795182-index10436.png
#EXTINF:5.405400,
470543724795182-index10437.png
#EXTINF:2.736067,
470543724795182-index10438.png
#EXTINF:3.970633,
470543724795182-index10439.png
#EXTINF:5.071733,
470543724795182-index10440.png
#EXTINF:4.971633,
470543724795182-index10441.png
#EXTINF:5.505500,
470543724795182-index10442.png
#EXTINF:4.104100,
470543724795182-index10443.png
#EXTINF:1.267933,
470543724795182-index10444.png
#EXTINF:5.505500,
470543724795182-index10445.png
#EXTINF:3.603600,
470543724795182-index10446.png
#EXTINF:8.341667,
470543724795182-index10447.png
#EXTINF:5.205200,
470543724795182-index10448.png
#EXTINF:2.502500,
470543724795182-index10449.png
#EXTINF:7.807800,
470543724795182-index10450.png
#EXTINF:6.172833,
470543724795182-index10451.png
#EXTINF:7.374033,
470543724795182-index10452.png
#EXTINF:7.107100,
470543724795182-index10453.png
#EXTINF:5.171833,
470543724795182-index10454.png
#EXTINF:7.774433,
470543724795182-index10455.png
#EXTINF:8.341667,
470543724795182-index10456.png
#EXTINF:4.904900,
470543724795182-index10457.png
#EXTINF:6.239567,
470543724795182-index10458.png
#EXTINF:7.040367,
470543724795182-index10459.png
#EXTINF:1.968633,
470543724795182-index10460.png
#EXTINF:2.635967,
470543724795182-index10461.png
#EXTINF:3.003000,
470543724795182-index10462.png
#EXTINF:4.237567,
470543724795182-index10463.png
#EXTINF:1.301300,
470543724795182-index10464.png
#EXTINF:1.267933,
470543724795182-index10465.png
#EXTINF:1.501500,
470543724795182-index10466.png
#EXTINF:8.341667,
470543724795182-index10467.png
#EXTINF:8.341667,
470543724795182-index10468.png
#EXTINF:8.341667,
470543724795182-index10469.png
#EXTINF:5.605600,
470543724795182-index10470.png
#EXTINF:8.341667,
470543724795182-index10471.png
#EXTINF:7.407400,
470543724795182-index10472.png
#EXTINF:2.936267,
470543724795182-index10473.png
#EXTINF:1.601600,
470543724795182-index10474.png
#EXTINF:6.006000,
470543724795182-index10475.png
#EXTINF:3.236567,
470543724795182-index10476.png
#EXTINF:2.435767,
470543724795182-index10477.png
#EXTINF:4.204200,
470543724795182-index10478.png
#EXTINF:2.702700,
470543724795182-index10479.png
#EXTINF:4.304300,
470543724795182-index10480.png
#EXTINF:7.540867,
470543724795182-index10481.png
#EXTINF:8.341667,
470543724795182-index10482.png
#EXTINF:4.671333,
470543724795182-index10483.png
#EXTINF:8.341667,
470543724795182-index10484.png
#EXTINF:8.341667,
470543724795182-index10485.png
#EXTINF:8.341667,
470543724795182-index10486.png
#EXTINF:8.341667,
470543724795182-index10487.png
#EXTINF:4.504500,
470543724795182-index10488.png
#EXTINF:5.238567,
470543724795182-index10489.png
#EXTINF:1.835167,
470543724795182-index10490.png
#EXTINF:8.341667,
470543724795182-index10491.png
#EXTINF:2.002000,
470543724795182-index10492.png
#EXTINF:8.341667,
470543724795182-index10493.png
#EXTINF:8.341667,
470543724795182-index10494.png
#EXTINF:8.341667,
470543724795182-index10495.png
#EXTINF:8.341667,
470543724795182-index10496.png
#EXTINF:2.435767,
470543724795182-index10497.png
#EXTINF:1.167833,
470543724795182-index10498.png
#EXTINF:5.572233,
470543724795182-index10499.png
#EXTINF:6.706700,
470543724795182-index10500.png
#EXTINF:3.370033,
470543724795182-index10501.png
#EXTINF:5.438767,
470543724795182-index10502.png
#EXTINF:8.341667,
470543724795182-index10503.png
#EXTINF:8.341667,
470543724795182-index10504.png
#EXTINF:3.103100,
470543724795182-index10505.png
#EXTINF:2.736067,
470543724795182-index10506.png
#EXTINF:5.105100,
470543724795182-index10507.png
#EXTINF:3.803800,
470543724795182-index10508.png
#EXTINF:2.369033,
470543724795182-index10509.png
#EXTINF:3.636967,
470543724795182-index10510.png
#EXTINF:5.372033,
470543724795182-index10511.png
#EXTINF:8.341667,
470543724795182-index10512.png
#EXTINF:8.341667,
470543724795182-index10513.png
#EXTINF:8.341667,
470543724795182-index10514.png
#EXTINF:7.640967,
470543724795182-index10515.png
#EXTINF:7.273933,
470543724795182-index10516.png
#EXTINF:6.006000,
470543724795182-index10517.png
#EXTINF:6.239567,
470543724795182-index10518.png
#EXTINF:4.371033,
470543724795182-index10519.png
#EXTINF:4.070733,
470543724795182-index10520.png
#EXTINF:6.706700,
470543724795182-index10521.png
#EXTINF:7.073733,
470543724795182-index10522.png
#EXTINF:4.070733,
470543724795182-index10523.png
#EXTINF:8.341667,
470543724795182-index10524.png
#EXTINF:5.005000,
470543724795182-index10525.png
#EXTINF:3.903900,
470543724795182-index10526.png
#EXTINF:2.435767,
470543724795182-index10527.png
#EXTINF:5.772433,
470543724795182-index10528.png
#EXTINF:8.341667,
470543724795182-index10529.png
#EXTINF:3.837167,
470543724795182-index10530.png
#EXTINF:3.803800,
470543724795182-index10531.png
#EXTINF:7.707700,
470543724795182-index10532.png
#EXTINF:8.341667,
470543724795182-index10533.png
#EXTINF:4.404400,
470543724795182-index10534.png
#EXTINF:2.535867,
470543724795182-index10535.png
#EXTINF:2.335667,
470543724795182-index10536.png
#EXTINF:4.137467,
470543724795182-index10537.png
#EXTINF:5.405400,
470543724795182-index10538.png
#EXTINF:6.206200,
470543724795182-index10539.png
#EXTINF:4.904900,
470543724795182-index10540.png
#EXTINF:8.174833,
470543724795182-index10541.png
#EXTINF:8.341667,
470543724795182-index10542.png
#EXTINF:8.108100,
470543724795182-index10543.png
#EXTINF:7.073733,
470543724795182-index10544.png
#EXTINF:8.341667,
470543724795182-index10545.png
#EXTINF:3.870533,
470543724795182-index10546.png
#EXTINF:6.139467,
470543724795182-index10547.png
#EXTINF:5.672333,
470543724795182-index10548.png
#EXTINF:1.201200,
470543724795182-index10549.png
#EXTINF:2.469133,
470543724795182-index10550.png
#EXTINF:8.341667,
470543724795182-index10551.png
#EXTINF:8.341667,
470543724795182-index10552.png
#EXTINF:8.341667,
470543724795182-index10553.png
#EXTINF:1.334667,
470543724795182-index10554.png
#EXTINF:8.341667,
470543724795182-index10555.png
#EXTINF:8.341667,
470543724795182-index10556.png
#EXTINF:8.341667,
470543724795182-index10557.png
#EXTINF:8.341667,
470543724795182-index10558.png
#EXTINF:4.738067,
470543724795182-index10559.png
#EXTINF:4.704700,
470543724795182-index10560.png
#EXTINF:8.341667,
470543724795182-index10561.png
#EXTINF:7.140467,
470543724795182-index10562.png
#EXTINF:1.167833,
470543724795182-index10563.png
#EXTINF:5.305300,
470543724795182-index10564.png
#EXTINF:6.239567,
470543724795182-index10565.png
#EXTINF:7.340667,
470543724795182-index10566.png
#EXTINF:6.339667,
470543724795182-index10567.png
#EXTINF:2.335667,
470543724795182-index10568.png
#EXTINF:6.639967,
470543724795182-index10569.png
#EXTINF:3.837167,
470543724795182-index10570.png
#EXTINF:2.102100,
470543724795182-index10571.png
#EXTINF:7.207200,
470543724795182-index10572.png
#EXTINF:8.341667,
470543724795182-index10573.png
#EXTINF:5.705700,
470543724795182-index10574.png
#EXTINF:1.968633,
470543724795182-index10575.png
#EXTINF:8.341667,
470543724795182-index10576.png
#EXTINF:8.174833,
470543724795182-index10577.png
#EXTINF:7.741067,
470543724795182-index10578.png
#EXTINF:1.801800,
470543724795182-index10579.png
#EXTINF:4.270933,
470543724795182-index10580.png
#EXTINF:7.874533,
470543724795182-index10581.png
#EXTINF:1.634967,
470543724795182-index10582.png
#EXTINF:8.341667,
470543724795182-index10583.png
#EXTINF:4.371033,
470543724795182-index10584.png
#EXTINF:7.173833,
470543724795182-index10585.png
#EXTINF:3.370033,
470543724795182-index10586.png
#EXTINF:6.206200,
470543724795182-index10587.png
#EXTINF:8.341667,
470543724795182-index10588.png
#EXTINF:6.639967,
470543724795182-index10589.png
#EXTINF:3.837167,
470543724795182-index10590.png
#EXTINF:3.970633,
470543724795182-index10591.png
#EXTINF:4.804800,
470543724795182-index10592.png
#EXTINF:5.438767,
470543724795182-index10593.png
#EXTINF:5.772433,
470543724795182-index10594.png
#EXTINF:2.902900,
470543724795182-index10595.png
#EXTINF:2.235567,
470543724795182-index10596.png
#EXTINF:8.341667,
470543724795182-index10597.png
#EXTINF:7.774433,
470543724795182-index10598.png
#EXTINF:6.339667,
470543724795182-index10599.png
#EXTINF:8.341667,
470543724795182-index10600.png
#EXTINF:8.341667,
470543724795182-index10601.png
#EXTINF:4.938267,
470543724795182-index10602.png
#EXTINF:8.341667,
470543724795182-index10603.png
#EXTINF:8.341667,
470543724795182-index10604.png
#EXTINF:5.672333,
470543724795182-index10605.png
#EXTINF:5.405400,
470543724795182-index10606.png
#EXTINF:8.341667,
470543724795182-index10607.png
#EXTINF:8.341667,
470543724795182-index10608.png
#EXTINF:8.341667,
470543724795182-index10609.png
#EXTINF:8.341667,
470543724795182-index10610.png
#EXTINF:1.601600,
470543724795182-index10611.png
#EXTINF:4.371033,
470543724795182-index10612.png
#EXTINF:1.668333,
470543724795182-index10613.png
#EXTINF:4.371033,
470543724795182-index10614.png
#EXTINF:5.972633,
470543724795182-index10615.png
#EXTINF:8.341667,
470543724795182-index10616.png
#EXTINF:5.939267,
470543724795182-index10617.png
#EXTINF:7.407400,
470543724795182-index10618.png
#EXTINF:8.274933,
470543724795182-index10619.png
#EXTINF:7.073733,
470543724795182-index10620.png
#EXTINF:8.341667,
470543724795182-index10621.png
#EXTINF:8.341667,
470543724795182-index10622.png
#EXTINF:8.341667,
470543724795182-index10623.png
#EXTINF:8.341667,
470543724795182-index10624.png
#EXTINF:8.341667,
470543724795182-index10625.png
#EXTINF:8.341667,
470543724795182-index10626.png
#EXTINF:8.341667,
470543724795182-index10627.png
#EXTINF:8.341667,
470543724795182-index10628.png
#EXTINF:8.341667,
470543724795182-index10629.png
#EXTINF:8.341667,
470543724795182-index10630.png
#EXTINF:8.341667,
470543724795182-index10631.png
#EXTINF:8.341667,
470543724795182-index10632.png
#EXTINF:8.174833,
470543724795182-index10633.png
#EXTINF:8.341667,
470543724795182-index10634.png
#EXTINF:8.341667,
470543724795182-index10635.png
#EXTINF:8.341667,
470543724795182-index10636.png
#EXTINF:8.341667,
470543724795182-index10637.png
#EXTINF:8.008000,
470543724795182-index10638.png
#EXTINF:2.969633,
470543724795182-index10639.png
#EXTINF:1.001000,
470543724795182-index10640.png
#EXTINF:8.341667,
470543724795182-index10641.png
#EXTINF:8.341667,
470543724795182-index10642.png
#EXTINF:6.006000,
470543724795182-index10643.png
#EXTINF:4.704700,
470543724795182-index10644.png
#EXTINF:3.570233,
470543724795182-index10645.png
#EXTINF:7.207200,
470543724795182-index10646.png
#EXTINF:8.341667,
470543724795182-index10647.png
#EXTINF:8.341667,
470543724795182-index10648.png
#EXTINF:7.207200,
470543724795182-index10649.png
#EXTINF:5.138467,
470543724795182-index10650.png
#EXTINF:8.341667,
470543724795182-index10651.png
#EXTINF:5.138467,
470543724795182-index10652.png
#EXTINF:7.574233,
470543724795182-index10653.png
#EXTINF:4.170833,
470543724795182-index10654.png
#EXTINF:8.341667,
470543724795182-index10655.png
#EXTINF:7.674333,
470543724795182-index10656.png
#EXTINF:7.340667,
470543724795182-index10657.png
#EXTINF:8.341667,
470543724795182-index10658.png
#EXTINF:8.341667,
470543724795182-index10659.png
#EXTINF:8.341667,
470543724795182-index10660.png
#EXTINF:8.341667,
470543724795182-index10661.png
#EXTINF:8.341667,
470543724795182-index10662.png
#EXTINF:8.341667,
470543724795182-index10663.png
#EXTINF:8.341667,
470543724795182-index10664.png
#EXTINF:8.341667,
470543724795182-index10665.png
#EXTINF:8.341667,
470543724795182-index10666.png
#EXTINF:8.341667,
470543724795182-index10667.png
#EXTINF:8.341667,
470543724795182-index10668.png
#EXTINF:8.341667,
470543724795182-index10669.png
#EXTINF:8.341667,
470543724795182-index10670.png
#EXTINF:8.341667,
470543724795182-index10671.png
#EXTINF:8.341667,
470543724795182-index10672.png
#EXTINF:8.341667,
470543724795182-index10673.png
#EXTINF:8.341667,
470543724795182-index10674.png
#EXTINF:8.341667,
470543724795182-index10675.png
#EXTINF:8.341667,
470543724795182-index10676.png
#EXTINF:8.341667,
470543724795182-index10677.png
#EXTINF:8.341667,
470543724795182-index10678.png
#EXTINF:7.707700,
470543724795182-index10679.png
#EXTINF:8.341667,
470543724795182-index10680.png
#EXTINF:8.341667,
470543724795182-index10681.png
#EXTINF:8.341667,
470543724795182-index10682.png
#EXTINF:5.805800,
470543724795182-index10683.png
#EXTINF:5.638967,
470543724795182-index10684.png
#EXTINF:3.803800,
470543724795182-index10685.png
#EXTINF:8.341667,
470543724795182-index10686.png
#EXTINF:8.341667,
470543724795182-index10687.png
#EXTINF:5.071733,
470543724795182-index10688.png
#EXTINF:7.073733,
470543724795182-index10689.png
#EXTINF:5.038367,
470543724795182-index10690.png
#EXTINF:1.401400,
470543724795182-index10691.png
#EXTINF:8.341667,
470543724795182-index10692.png
#EXTINF:8.341667,
470543724795182-index10693.png
#EXTINF:6.873533,
470543724795182-index10694.png
#EXTINF:8.341667,
470543724795182-index10695.png
#EXTINF:8.341667,
470543724795182-index10696.png
#EXTINF:8.341667,
470543724795182-index10697.png
#EXTINF:7.407400,
470543724795182-index10698.png
#EXTINF:8.341667,
470543724795182-index10699.png
#EXTINF:5.605600,
470543724795182-index10700.png
#EXTINF:5.638967,
470543724795182-index10701.png
#EXTINF:2.602600,
470543724795182-index10702.png
#EXTINF:5.338667,
470543724795182-index10703.png
#EXTINF:3.570233,
470543724795182-index10704.png
#EXTINF:8.341667,
470543724795182-index10705.png
#EXTINF:4.237567,
470543724795182-index10706.png
#EXTINF:1.267933,
470543724795182-index10707.png
#EXTINF:6.006000,
470543724795182-index10708.png
#EXTINF:8.074733,
470543724795182-index10709.png
#EXTINF:8.208200,
470543724795182-index10710.png
#EXTINF:5.405400,
470543724795182-index10711.png
#EXTINF:6.373033,
470543724795182-index10712.png
#EXTINF:8.341667,
470543724795182-index10713.png
#EXTINF:8.341667,
470543724795182-index10714.png
#EXTINF:4.537867,
470543724795182-index10715.png
#EXTINF:8.341667,
470543724795182-index10716.png
#EXTINF:2.969633,
470543724795182-index10717.png
#EXTINF:8.341667,
470543724795182-index10718.png
#EXTINF:8.208200,
470543724795182-index10719.png
#EXTINF:3.336667,
470543724795182-index10720.png
#EXTINF:8.341667,
470543724795182-index10721.png
#EXTINF:8.341667,
470543724795182-index10722.png
#EXTINF:8.341667,
470543724795182-index10723.png
#EXTINF:8.341667,
470543724795182-index10724.png
#EXTINF:8.341667,
470543724795182-index10725.png
#EXTINF:8.341667,
470543724795182-index10726.png
#EXTINF:8.341667,
470543724795182-index10727.png
#EXTINF:8.341667,
470543724795182-index10728.png
#EXTINF:7.640967,
470543724795182-index10729.png
#EXTINF:8.341667,
470543724795182-index10730.png
#EXTINF:4.137467,
470543724795182-index10731.png
#EXTINF:8.341667,
470543724795182-index10732.png
#EXTINF:8.041367,
470543724795182-index10733.png
#EXTINF:6.706700,
470543724795182-index10734.png
#EXTINF:8.341667,
470543724795182-index10735.png
#EXTINF:6.473133,
470543724795182-index10736.png
#EXTINF:4.738067,
470543724795182-index10737.png
#EXTINF:2.068733,
470543724795182-index10738.png
#EXTINF:3.236567,
470543724795182-index10739.png
#EXTINF:7.807800,
470543724795182-index10740.png
#EXTINF:8.341667,
470543724795182-index10741.png
#EXTINF:8.341667,
470543724795182-index10742.png
#EXTINF:8.341667,
470543724795182-index10743.png
#EXTINF:8.341667,
470543724795182-index10744.png
#EXTINF:8.341667,
470543724795182-index10745.png
#EXTINF:8.341667,
470543724795182-index10746.png
#EXTINF:5.071733,
470543724795182-index10747.png
#EXTINF:8.341667,
470543724795182-index10748.png
#EXTINF:8.341667,
470543724795182-index10749.png
#EXTINF:6.473133,
470543724795182-index10750.png
#EXTINF:5.138467,
470543724795182-index10751.png
#EXTINF:8.341667,
470543724795182-index10752.png
#EXTINF:4.938267,
470543724795182-index10753.png
#EXTINF:5.572233,
470543724795182-index10754.png
#EXTINF:8.041367,
470543724795182-index10755.png
#EXTINF:8.008000,
470543724795182-index10756.png
#EXTINF:4.004000,
470543724795182-index10757.png
#EXT-X-ENDLIST
