#EXTM3U
#EXT-X-VERSION:3
#EXT-X-TARGETDURATION:10
#EXT-X-MEDIA-SEQUENCE:10001
#EXTINF:10.000000,
472154762181970-index10001.png
#EXTINF:10.000000,
472154762181970-index10002.png
#EXTINF:10.000000,
472154762181970-index10003.png
#EXTINF:10.000000,
472154762181970-index10004.png
#EXTINF:10.000000,
472154762181970-index10005.png
#EXTINF:10.000000,
472154762181970-index10006.png
#EXTINF:10.000000,
472154762181970-index10007.png
#EXTINF:10.000000,
472154762181970-index10008.png
#EXTINF:10.000000,
472154762181970-index10009.png
#EXTINF:10.000000,
472154762181970-index10010.png
#EXTINF:10.000000,
472154762181970-index10011.png
#EXTINF:10.000000,
472154762181970-index10012.png
#EXTINF:10.000000,
472154762181970-index10013.png
#EXTINF:10.000000,
472154762181970-index10014.png
#EXTINF:10.000000,
472154762181970-index10015.png
#EXTINF:10.000000,
472154762181970-index10016.png
#EXTINF:10.000000,
472154762181970-index10017.png
#EXTINF:10.000000,
472154762181970-index10018.png
#EXTINF:10.000000,
472154762181970-index10019.png
#EXTINF:10.000000,
472154762181970-index10020.png
#EXTINF:10.000000,
472154762181970-index10021.png
#EXTINF:10.000000,
472154762181970-index10022.png
#EXTINF:10.000000,
472154762181970-index10023.png
#EXTINF:10.000000,
472154762181970-index10024.png
#EXTINF:10.000000,
472154762181970-index10025.png
#EXTINF:10.000000,
472154762181970-index10026.png
#EXTINF:10.000000,
472154762181970-index10027.png
#EXTINF:10.000000,
472154762181970-index10028.png
#EXTINF:10.000000,
472154762181970-index10029.png
#EXTINF:10.000000,
472154762181970-index10030.png
#EXTINF:10.000000,
472154762181970-index10031.png
#EXTINF:10.000000,
472154762181970-index10032.png
#EXTINF:10.000000,
472154762181970-index10033.png
#EXTINF:10.000000,
472154762181970-index10034.png
#EXTINF:10.000000,
472154762181970-index10035.png
#EXTINF:10.000000,
472154762181970-index10036.png
#EXTINF:10.000000,
472154762181970-index10037.png
#EXTINF:10.000000,
472154762181970-index10038.png
#EXTINF:10.000000,
472154762181970-index10039.png
#EXTINF:10.000000,
472154762181970-index10040.png
#EXTINF:10.000000,
472154762181970-index10041.png
#EXTINF:10.000000,
472154762181970-index10042.png
#EXTINF:10.000000,
472154762181970-index10043.png
#EXTINF:10.000000,
472154762181970-index10044.png
#EXTINF:10.000000,
472154762181970-index10045.png
#EXTINF:10.000000,
472154762181970-index10046.png
#EXTINF:10.000000,
472154762181970-index10047.png
#EXTINF:10.000000,
472154762181970-index10048.png
#EXTINF:10.000000,
472154762181970-index10049.png
#EXTINF:10.000000,
472154762181970-index10050.png
#EXTINF:10.000000,
472154762181970-index10051.png
#EXTINF:10.000000,
472154762181970-index10052.png
#EXTINF:10.000000,
472154762181970-index10053.png
#EXTINF:10.000000,
472154762181970-index10054.png
#EXTINF:10.000000,
472154762181970-index10055.png
#EXTINF:10.000000,
472154762181970-index10056.png
#EXTINF:10.000000,
472154762181970-index10057.png
#EXTINF:10.000000,
472154762181970-index10058.png
#EXTINF:10.000000,
472154762181970-index10059.png
#EXTINF:10.000000,
472154762181970-index10060.png
#EXTINF:10.000000,
472154762181970-index10061.png
#EXTINF:10.000000,
472154762181970-index10062.png
#EXTINF:10.000000,
472154762181970-index10063.png
#EXTINF:10.000000,
472154762181970-index10064.png
#EXTINF:10.000000,
472154762181970-index10065.png
#EXTINF:10.000000,
472154762181970-index10066.png
#EXTINF:10.000000,
472154762181970-index10067.png
#EXTINF:4.200000,
472154762181970-index10068.png
#EXT-X-ENDLIST
