#EXTM3U
#EXT-X-VERSION:3
#EXT-X-TARGETDURATION:12
#EXT-X-MEDIA-SEQUENCE:10001
#EXTINF:11.874800,
475417027456892-index10001.png
#EXTINF:6.434711,
475417027456892-index10002.png
#EXTINF:4.434733,
475417027456892-index10003.png
#EXTINF:5.478200,
475417027456892-index10004.png
#EXTINF:4.999944,
475417027456892-index10005.png
#EXTINF:10.869444,
475417027456892-index10006.png
#EXTINF:5.826022,
475417027456892-index10007.png
#EXTINF:4.521689,
475417027456892-index10008.png
#EXTINF:4.391256,
475417027456892-index10009.png
#EXTINF:10.434667,
475417027456892-index10010.png
#EXTINF:4.173867,
475417027456892-index10011.png
#EXTINF:4.260822,
475417027456892-index10012.png
#EXTINF:7.912956,
475417027456892-index10013.png
#EXTINF:9.869456,
475417027456892-index10014.png
#EXTINF:4.912989,
475417027456892-index10015.png
#EXTINF:2.826056,
475417027456892-index10016.png
#EXTINF:1.913022,
475417027456892-index10017.png
#EXTINF:5.826022,
475417027456892-index10018.png
#EXTINF:3.956478,
475417027456892-index10019.png
#EXTINF:2.913011,
475417027456892-index10020.png
#EXTINF:7.521656,
475417027456892-index10021.png
#EXTINF:5.565156,
475417027456892-index10022.png
#EXTINF:4.260822,
475417027456892-index10023.png
#EXTINF:8.912944,
475417027456892-index10024.png
#EXTINF:9.217289,
475417027456892-index10025.png
#EXTINF:10.869444,
475417027456892-index10026.png
#EXTINF:3.217356,
475417027456892-index10027.png
#EXTINF:1.913022,
475417027456892-index10028.png
#EXTINF:5.826022,
475417027456892-index10029.png
#EXTINF:4.347778,
475417027456892-index10030.png
#EXTINF:10.869444,
475417027456892-index10031.png
#EXTINF:4.608644,
475417027456892-index10032.png
#EXTINF:10.869444,
475417027456892-index10033.png
#EXTINF:10.869444,
475417027456892-index10034.png
#EXTINF:6.086889,
475417027456892-index10035.png
#EXTINF:4.869511,
475417027456892-index10036.png
#EXTINF:5.086900,
475417027456892-index10037.png
#EXTINF:1.956500,
475417027456892-index10038.png
#EXTINF:10.869444,
475417027456892-index10039.png
#EXTINF:10.869444,
475417027456892-index10040.png
#EXTINF:9.565111,
475417027456892-index10041.png
#EXTINF:8.217300,
475417027456892-index10042.png
#EXTINF:8.912944,
475417027456892-index10043.png
#EXTINF:8.565122,
475417027456892-index10044.png
#EXTINF:6.043411,
475417027456892-index10045.png
#EXTINF:10.825967,
475417027456892-index10046.png
#EXTINF:7.869478,
475417027456892-index10047.png
#EXTINF:6.695578,
475417027456892-index10048.png
#EXTINF:3.521700,
475417027456892-index10049.png
#EXTINF:7.782522,
475417027456892-index10050.png
#EXTINF:8.999900,
475417027456892-index10051.png
#EXTINF:3.739089,
475417027456892-index10052.png
#EXTINF:10.825967,
475417027456892-index10053.png
#EXTINF:10.869444,
475417027456892-index10054.png
#EXTINF:8.695556,
475417027456892-index10055.png
#EXTINF:10.391189,
475417027456892-index10056.png
#EXTINF:3.521700,
475417027456892-index10057.png
#EXTINF:7.956433,
475417027456892-index10058.png
#EXTINF:8.347733,
475417027456892-index10059.png
#EXTINF:10.869444,
475417027456892-index10060.png
#EXTINF:10.869444,
475417027456892-index10061.png
#EXTINF:4.739078,
475417027456892-index10062.png
#EXTINF:8.652078,
475417027456892-index10063.png
#EXTINF:5.217333,
475417027456892-index10064.png
#EXTINF:4.826033,
475417027456892-index10065.png
#EXTINF:0.086956,
475417027456892-index10066.png
#EXT-X-ENDLIST
