#EXTM3U
#EXT-X-VERSION:3
#EXT-X-TARGETDURATION:11
#EXT-X-MEDIA-SEQUENCE:10001
#EXTINF:7.173833,
479720318482981-index10001.png
#EXTINF:10.869444,
479720318482981-index10002.png
#EXTINF:6.869489,
479720318482981-index10003.png
#EXTINF:10.869444,
479720318482981-index10004.png
#EXTINF:10.695533,
479720318482981-index10005.png
#EXTINF:6.652100,
479720318482981-index10006.png
#EXTINF:10.869444,
479720318482981-index10007.png
#EXTINF:10.869444,
479720318482981-index10008.png
#EXTINF:10.869444,
479720318482981-index10009.png
#EXTINF:8.260778,
479720318482981-index10010.png
#EXTINF:4.652122,
479720318482981-index10011.png
#EXTINF:2.608667,
479720318482981-index10012.png
#EXTINF:7.304267,
479720318482981-index10013.png
#EXTINF:10.869444,
479720318482981-index10014.png
#EXTINF:10.869444,
479720318482981-index10015.png
#EXTINF:10.869444,
479720318482981-index10016.png
#EXTINF:8.956422,
479720318482981-index10017.png
#EXTINF:10.869444,
479720318482981-index10018.png
#EXTINF:7.086878,
479720318482981-index10019.png
#EXTINF:5.695589,
479720318482981-index10020.png
#EXTINF:9.478156,
479720318482981-index10021.png
#EXTINF:7.565133,
479720318482981-index10022.png
#EXTINF:10.869444,
479720318482981-index10023.png
#EXTINF:6.260800,
479720318482981-index10024.png
#EXTINF:4.782556,
479720318482981-index10025.png
#EXTINF:10.869444,
479720318482981-index10026.png
#EXTINF:6.304278,
479720318482981-index10027.png
#EXTINF:7.739044,
479720318482981-index10028.png
#EXTINF:10.869444,
479720318482981-index10029.png
#EXTINF:7.130356,
479720318482981-index10030.png
#EXTINF:9.043378,
479720318482981-index10031.png
#EXTINF:10.869444,
479720318482981-index10032.png
#EXTINF:3.608656,
479720318482981-index10033.png
#EXTINF:8.304256,
479720318482981-index10034.png
#EXTINF:7.086878,
479720318482981-index10035.png
#EXTINF:6.695578,
479720318482981-index10036.png
#EXTINF:5.391244,
479720318482981-index10037.png
#EXTINF:5.999933,
479720318482981-index10038.png
#EXTINF:10.086844,
479720318482981-index10039.png
#EXTINF:8.478167,
479720318482981-index10040.png
#EXTINF:8.304256,
479720318482981-index10041.png
#EXTINF:5.130378,
479720318482981-index10042.png
#EXTINF:10.869444,
479720318482981-index10043.png
#EXTINF:4.130389,
479720318482981-index10044.png
#EXTINF:3.217356,
479720318482981-index10045.png
#EXTINF:2.695622,
479720318482981-index10046.png
#EXTINF:5.478200,
479720318482981-index10047.png
#EXTINF:2.565189,
479720318482981-index10048.png
#EXTINF:3.173878,
479720318482981-index10049.png
#EXTINF:5.521678,
479720318482981-index10050.png
#EXTINF:3.130400,
479720318482981-index10051.png
#EXTINF:5.956456,
479720318482981-index10052.png
#EXTINF:5.347767,
479720318482981-index10053.png
#EXTINF:3.913000,
479720318482981-index10054.png
#EXTINF:3.173878,
479720318482981-index10055.png
#EXTINF:10.869444,
479720318482981-index10056.png
#EXTINF:7.695567,
479720318482981-index10057.png
#EXTINF:5.782544,
479720318482981-index10058.png
#EXTINF:3.130400,
479720318482981-index10059.png
#EXTINF:10.869444,
479720318482981-index10060.png
#EXTINF:10.869444,
479720318482981-index10061.png
#EXTINF:5.347767,
479720318482981-index10062.png
#EXT-X-ENDLIST
