#EXTM3U
#EXT-X-VERSION:3
#EXT-X-TARGETDURATION:11
#EXT-X-MEDIA-SEQUENCE:10001
#EXTINF:10.449111,
480874866247177-index10001.ts
#EXTINF:10.427778,
480874866247177-index10002.ts
#EXTINF:10.427778,
480874866247177-index10003.ts
#EXTINF:10.427778,
480874866247177-index10004.ts
#EXTINF:10.427778,
480874866247177-index10005.ts
#EXTINF:10.427778,
480874866247177-index10006.ts
#EXTINF:10.427778,
480874866247177-index10007.ts
#EXTINF:10.427778,
480874866247177-index10008.ts
#EXTINF:10.427778,
480874866247177-index10009.ts
#EXTINF:10.427778,
480874866247177-index10010.ts
#EXTINF:10.427778,
480874866247177-index10011.ts
#EXTINF:10.427778,
480874866247177-index10012.ts
#EXTINF:10.427778,
480874866247177-index10013.ts
#EXTINF:10.427778,
480874866247177-index10014.ts
#EXTINF:10.427778,
480874866247177-index10015.ts
#EXTINF:10.427778,
480874866247177-index10016.ts
#EXTINF:10.427778,
480874866247177-index10017.ts
#EXTINF:10.427778,
480874866247177-index10018.ts
#EXTINF:10.427778,
480874866247177-index10019.ts
#EXTINF:10.427778,
480874866247177-index10020.ts
#EXTINF:10.427778,
480874866247177-index10021.ts
#EXTINF:10.427778,
480874866247177-index10022.ts
#EXTINF:10.427778,
480874866247177-index10023.ts
#EXTINF:10.427778,
480874866247177-index10024.ts
#EXTINF:10.427778,
480874866247177-index10025.ts
#EXTINF:10.427778,
480874866247177-index10026.ts
#EXTINF:10.427778,
480874866247177-index10027.ts
#EXTINF:10.427778,
480874866247177-index10028.ts
#EXTINF:10.427778,
480874866247177-index10029.ts
#EXTINF:10.427778,
480874866247177-index10030.ts
#EXTINF:10.427778,
480874866247177-index10031.ts
#EXTINF:10.427778,
480874866247177-index10032.ts
#EXTINF:10.427778,
480874866247177-index10033.ts
#EXTINF:10.427778,
480874866247177-index10034.ts
#EXTINF:10.427778,
480874866247177-index10035.ts
#EXTINF:10.427778,
480874866247177-index10036.ts
#EXTINF:10.427778,
480874866247177-index10037.ts
#EXTINF:10.427778,
480874866247177-index10038.ts
#EXTINF:10.427778,
480874866247177-index10039.ts
#EXTINF:10.427778,
480874866247177-index10040.ts
#EXTINF:10.427778,
480874866247177-index10041.ts
#EXTINF:10.427778,
480874866247177-index10042.ts
#EXTINF:10.427778,
480874866247177-index10043.ts
#EXTINF:10.427778,
480874866247177-index10044.ts
#EXTINF:10.427778,
480874866247177-index10045.ts
#EXTINF:10.427778,
480874866247177-index10046.ts
#EXTINF:10.427778,
480874866247177-index10047.ts
#EXTINF:10.427778,
480874866247177-index10048.ts
#EXTINF:10.427778,
480874866247177-index10049.ts
#EXTINF:10.427778,
480874866247177-index10050.ts
#EXTINF:10.427778,
480874866247177-index10051.ts
#EXTINF:10.427778,
480874866247177-index10052.ts
#EXTINF:10.427778,
480874866247177-index10053.ts
#EXTINF:10.427778,
480874866247177-index10054.ts
#EXTINF:10.427778,
480874866247177-index10055.ts
#EXTINF:10.427778,
480874866247177-index10056.ts
#EXTINF:10.427778,
480874866247177-index10057.ts
#EXTINF:10.427778,
480874866247177-index10058.ts
#EXTINF:10.427778,
480874866247177-index10059.ts
#EXTINF:10.427778,
480874866247177-index10060.ts
#EXTINF:10.427778,
480874866247177-index10061.ts
#EXTINF:10.427778,
480874866247177-index10062.ts
#EXTINF:10.427778,
480874866247177-index10063.ts
#EXTINF:10.427778,
480874866247177-index10064.ts
#EXTINF:10.427778,
480874866247177-index10065.ts
#EXTINF:10.427778,
480874866247177-index10066.ts
#EXTINF:10.427778,
480874866247177-index10067.ts
#EXTINF:10.427778,
480874866247177-index10068.ts
#EXTINF:10.427778,
480874866247177-index10069.ts
#EXTINF:10.427778,
480874866247177-index10070.ts
#EXTINF:10.427778,
480874866247177-index10071.ts
#EXTINF:10.427778,
480874866247177-index10072.ts
#EXTINF:10.427778,
480874866247177-index10073.ts
#EXTINF:10.427778,
480874866247177-index10074.ts
#EXTINF:10.427778,
480874866247177-index10075.ts
#EXTINF:10.427778,
480874866247177-index10076.ts
#EXTINF:10.427778,
480874866247177-index10077.ts
#EXTINF:10.427778,
480874866247177-index10078.ts
#EXTINF:10.427778,
480874866247177-index10079.ts
#EXTINF:10.427778,
480874866247177-index10080.ts
#EXTINF:10.427778,
480874866247177-index10081.ts
#EXTINF:10.427778,
480874866247177-index10082.ts
#EXTINF:10.427778,
480874866247177-index10083.ts
#EXTINF:10.427778,
480874866247177-index10084.ts
#EXTINF:10.427778,
480874866247177-index10085.ts
#EXTINF:10.427778,
480874866247177-index10086.ts
#EXTINF:10.427778,
480874866247177-index10087.ts
#EXTINF:10.427778,
480874866247177-index10088.ts
#EXTINF:10.427778,
480874866247177-index10089.ts
#EXTINF:10.427778,
480874866247177-index10090.ts
#EXTINF:10.427778,
480874866247177-index10091.ts
#EXTINF:10.427778,
480874866247177-index10092.ts
#EXTINF:10.427778,
480874866247177-index10093.ts
#EXTINF:10.427778,
480874866247177-index10094.ts
#EXTINF:10.427778,
480874866247177-index10095.ts
#EXTINF:10.427778,
480874866247177-index10096.ts
#EXTINF:10.427778,
480874866247177-index10097.ts
#EXTINF:10.427778,
480874866247177-index10098.ts
#EXTINF:10.427778,
480874866247177-index10099.ts
#EXTINF:10.427778,
480874866247177-index10100.ts
#EXTINF:10.427778,
480874866247177-index10101.ts
#EXTINF:10.427778,
480874866247177-index10102.ts
#EXTINF:10.427778,
480874866247177-index10103.ts
#EXTINF:10.427778,
480874866247177-index10104.ts
#EXTINF:10.427778,
480874866247177-index10105.ts
#EXTINF:10.427778,
480874866247177-index10106.ts
#EXTINF:10.427778,
480874866247177-index10107.ts
#EXTINF:10.427778,
480874866247177-index10108.ts
#EXTINF:10.427778,
480874866247177-index10109.ts
#EXTINF:10.427778,
480874866247177-index10110.ts
#EXTINF:10.427778,
480874866247177-index10111.ts
#EXTINF:10.427778,
480874866247177-index10112.ts
#EXTINF:10.427778,
480874866247177-index10113.ts
#EXTINF:10.427778,
480874866247177-index10114.ts
#EXTINF:10.427778,
480874866247177-index10115.ts
#EXTINF:10.427778,
480874866247177-index10116.ts
#EXTINF:10.427778,
480874866247177-index10117.ts
#EXTINF:10.427778,
480874866247177-index10118.ts
#EXTINF:10.427778,
480874866247177-index10119.ts
#EXTINF:10.427778,
480874866247177-index10120.ts
#EXTINF:10.427778,
480874866247177-index10121.ts
#EXTINF:10.427778,
480874866247177-index10122.ts
#EXTINF:10.427778,
480874866247177-index10123.ts
#EXTINF:10.427778,
480874866247177-index10124.ts
#EXTINF:10.427778,
480874866247177-index10125.ts
#EXTINF:10.427778,
480874866247177-index10126.ts
#EXTINF:10.427778,
480874866247177-index10127.ts
#EXTINF:10.427778,
480874866247177-index10128.ts
#EXTINF:10.427778,
480874866247177-index10129.ts
#EXTINF:10.427778,
480874866247177-index10130.ts
#EXTINF:10.427778,
480874866247177-index10131.ts
#EXTINF:10.427778,
480874866247177-index10132.ts
#EXTINF:10.427778,
480874866247177-index10133.ts
#EXTINF:10.427778,
480874866247177-index10134.ts
#EXTINF:10.427778,
480874866247177-index10135.ts
#EXTINF:10.427778,
480874866247177-index10136.ts
#EXTINF:10.427778,
480874866247177-index10137.ts
#EXTINF:10.427778,
480874866247177-index10138.ts
#EXTINF:10.427778,
480874866247177-index10139.ts
#EXTINF:10.427778,
480874866247177-index10140.ts
#EXTINF:10.427778,
480874866247177-index10141.ts
#EXTINF:10.427778,
480874866247177-index10142.ts
#EXTINF:10.427778,
480874866247177-index10143.ts
#EXTINF:10.427778,
480874866247177-index10144.ts
#EXTINF:10.427778,
480874866247177-index10145.ts
#EXTINF:10.427778,
480874866247177-index10146.ts
#EXTINF:10.427778,
480874866247177-index10147.ts
#EXTINF:10.427778,
480874866247177-index10148.ts
#EXTINF:10.427778,
480874866247177-index10149.ts
#EXTINF:10.427778,
480874866247177-index10150.ts
#EXTINF:10.427778,
480874866247177-index10151.ts
#EXTINF:10.427778,
480874866247177-index10152.ts
#EXTINF:10.427778,
480874866247177-index10153.ts
#EXTINF:10.427778,
480874866247177-index10154.ts
#EXTINF:10.427778,
480874866247177-index10155.ts
#EXTINF:10.427778,
480874866247177-index10156.ts
#EXTINF:10.427778,
480874866247177-index10157.ts
#EXTINF:10.427778,
480874866247177-index10158.ts
#EXTINF:10.427778,
480874866247177-index10159.ts
#EXTINF:10.427778,
480874866247177-index10160.ts
#EXTINF:10.427778,
480874866247177-index10161.ts
#EXTINF:10.427778,
480874866247177-index10162.ts
#EXTINF:10.427778,
480874866247177-index10163.ts
#EXTINF:10.427778,
480874866247177-index10164.ts
#EXTINF:10.427778,
480874866247177-index10165.ts
#EXTINF:10.427778,
480874866247177-index10166.ts
#EXTINF:10.427778,
480874866247177-index10167.ts
#EXTINF:10.427778,
480874866247177-index10168.ts
#EXTINF:10.427778,
480874866247177-index10169.ts
#EXTINF:10.427778,
480874866247177-index10170.ts
#EXTINF:10.427778,
480874866247177-index10171.ts
#EXTINF:10.427778,
480874866247177-index10172.ts
#EXTINF:10.427778,
480874866247177-index10173.ts
#EXTINF:10.427778,
480874866247177-index10174.ts
#EXTINF:10.427778,
480874866247177-index10175.ts
#EXTINF:10.427778,
480874866247177-index10176.ts
#EXTINF:10.427778,
480874866247177-index10177.ts
#EXTINF:10.427778,
480874866247177-index10178.ts
#EXTINF:10.427778,
480874866247177-index10179.ts
#EXTINF:10.427778,
480874866247177-index10180.ts
#EXTINF:10.427778,
480874866247177-index10181.ts
#EXTINF:10.427778,
480874866247177-index10182.ts
#EXTINF:10.427778,
480874866247177-index10183.ts
#EXTINF:10.427778,
480874866247177-index10184.ts
#EXTINF:10.427778,
480874866247177-index10185.ts
#EXTINF:10.427778,
480874866247177-index10186.ts
#EXTINF:10.427778,
480874866247177-index10187.ts
#EXTINF:10.427778,
480874866247177-index10188.ts
#EXTINF:10.427778,
480874866247177-index10189.ts
#EXTINF:10.427778,
480874866247177-index10190.ts
#EXTINF:10.427778,
480874866247177-index10191.ts
#EXTINF:10.427778,
480874866247177-index10192.ts
#EXTINF:10.427778,
480874866247177-index10193.ts
#EXTINF:10.427778,
480874866247177-index10194.ts
#EXTINF:10.427778,
480874866247177-index10195.ts
#EXTINF:10.427778,
480874866247177-index10196.ts
#EXTINF:10.427778,
480874866247177-index10197.ts
#EXTINF:10.427778,
480874866247177-index10198.ts
#EXTINF:10.427778,
480874866247177-index10199.ts
#EXTINF:10.427778,
480874866247177-index10200.ts
#EXTINF:10.427778,
480874866247177-index10201.ts
#EXTINF:10.427778,
480874866247177-index10202.ts
#EXTINF:10.427778,
480874866247177-index10203.ts
#EXTINF:10.427778,
480874866247177-index10204.ts
#EXTINF:10.427778,
480874866247177-index10205.ts
#EXTINF:10.427778,
480874866247177-index10206.ts
#EXTINF:10.427778,
480874866247177-index10207.ts
#EXTINF:10.427778,
480874866247177-index10208.ts
#EXTINF:10.427778,
480874866247177-index10209.ts
#EXTINF:10.427778,
480874866247177-index10210.ts
#EXTINF:10.427778,
480874866247177-index10211.ts
#EXTINF:10.427778,
480874866247177-index10212.ts
#EXTINF:10.427778,
480874866247177-index10213.ts
#EXTINF:10.427778,
480874866247177-index10214.ts
#EXTINF:10.427778,
480874866247177-index10215.ts
#EXTINF:10.427778,
480874866247177-index10216.ts
#EXTINF:10.427778,
480874866247177-index10217.ts
#EXTINF:10.427778,
480874866247177-index10218.ts
#EXTINF:10.427778,
480874866247177-index10219.ts
#EXTINF:10.427778,
480874866247177-index10220.ts
#EXTINF:10.427778,
480874866247177-index10221.ts
#EXTINF:10.427778,
480874866247177-index10222.ts
#EXTINF:10.427778,
480874866247177-index10223.ts
#EXTINF:10.427778,
480874866247177-index10224.ts
#EXTINF:10.427778,
480874866247177-index10225.ts
#EXTINF:10.427778,
480874866247177-index10226.ts
#EXTINF:10.427778,
480874866247177-index10227.ts
#EXTINF:10.427778,
480874866247177-index10228.ts
#EXTINF:10.427778,
480874866247177-index10229.ts
#EXTINF:10.427778,
480874866247177-index10230.ts
#EXTINF:10.427778,
480874866247177-index10231.ts
#EXTINF:10.427778,
480874866247177-index10232.ts
#EXTINF:10.427778,
480874866247177-index10233.ts
#EXTINF:10.427778,
480874866247177-index10234.ts
#EXTINF:10.427778,
480874866247177-index10235.ts
#EXTINF:10.427778,
480874866247177-index10236.ts
#EXTINF:10.427778,
480874866247177-index10237.ts
#EXTINF:10.427778,
480874866247177-index10238.ts
#EXTINF:8.509733,
480874866247177-index10239.ts
#EXT-X-ENDLIST
