#EXTM3U
#EXT-X-VERSION:3
#EXT-X-TARGETDURATION:10
#EXT-X-MEDIA-SEQUENCE:10001
#EXTINF:3.520000,
482199320362673-index10001.png
#EXTINF:4.480000,
482199320362673-index10002.png
#EXTINF:8.440000,
482199320362673-index10003.png
#EXTINF:5.760000,
482199320362673-index10004.png
#EXTINF:2.320000,
482199320362673-index10005.png
#EXTINF:5.440000,
482199320362673-index10006.png
#EXTINF:5.600000,
482199320362673-index10007.png
#EXTINF:7.880000,
482199320362673-index10008.png
#EXTINF:4.400000,
482199320362673-index10009.png
#EXTINF:3.080000,
482199320362673-index10010.png
#EXTINF:2.400000,
482199320362673-index10011.png
#EXTINF:1.760000,
482199320362673-index10012.png
#EXTINF:1.600000,
482199320362673-index10013.png
#EXTINF:1.480000,
482199320362673-index10014.png
#EXTINF:1.440000,
482199320362673-index10015.png
#EXTINF:1.960000,
482199320362673-index10016.png
#EXTINF:1.120000,
482199320362673-index10017.png
#EXTINF:10.000000,
482199320362673-index10018.png
#EXTINF:8.840000,
482199320362673-index10019.png
#EXTINF:6.040000,
482199320362673-index10020.png
#EXTINF:8.160000,
482199320362673-index10021.png
#EXTINF:3.440000,
482199320362673-index10022.png
#EXTINF:2.120000,
482199320362673-index10023.png
#EXTINF:3.520000,
482199320362673-index10024.png
#EXTINF:6.920000,
482199320362673-index10025.png
#EXTINF:3.280000,
482199320362673-index10026.png
#EXTINF:9.160000,
482199320362673-index10027.png
#EXTINF:2.680000,
482199320362673-index10028.png
#EXTINF:5.600000,
482199320362673-index10029.png
#EXTINF:2.120000,
482199320362673-index10030.png
#EXTINF:4.360000,
482199320362673-index10031.png
#EXTINF:1.760000,
482199320362673-index10032.png
#EXTINF:10.000000,
482199320362673-index10033.png
#EXTINF:5.920000,
482199320362673-index10034.png
#EXTINF:3.000000,
482199320362673-index10035.png
#EXTINF:4.400000,
482199320362673-index10036.png
#EXTINF:3.240000,
482199320362673-index10037.png
#EXTINF:7.080000,
482199320362673-index10038.png
#EXTINF:1.880000,
482199320362673-index10039.png
#EXTINF:1.320000,
482199320362673-index10040.png
#EXTINF:4.400000,
482199320362673-index10041.png
#EXTINF:6.840000,
482199320362673-index10042.png
#EXTINF:7.960000,
482199320362673-index10043.png
#EXTINF:8.720000,
482199320362673-index10044.png
#EXTINF:10.000000,
482199320362673-index10045.png
#EXTINF:9.680000,
482199320362673-index10046.png
#EXTINF:3.120000,
482199320362673-index10047.png
#EXTINF:3.320000,
482199320362673-index10048.png
#EXTINF:5.600000,
482199320362673-index10049.png
#EXTINF:4.960000,
482199320362673-index10050.png
#EXTINF:3.800000,
482199320362673-index10051.png
#EXTINF:8.880000,
482199320362673-index10052.png
#EXTINF:2.640000,
482199320362673-index10053.png
#EXTINF:3.760000,
482199320362673-index10054.png
#EXTINF:3.920000,
482199320362673-index10055.png
#EXTINF:6.160000,
482199320362673-index10056.png
#EXTINF:4.000000,
482199320362673-index10057.png
#EXTINF:2.520000,
482199320362673-index10058.png
#EXTINF:2.080000,
482199320362673-index10059.png
#EXT-X-ENDLIST
