#EXTM3U
#EXT-X-VERSION:3
#EXT-X-TARGETDURATION:11
#EXT-X-MEDIA-SEQUENCE:10001
#EXTINF:5.086900,
485081200384431-index10001.png
#EXTINF:5.391244,
485081200384431-index10002.png
#EXTINF:2.999967,
485081200384431-index10003.png
#EXTINF:1.260856,
485081200384431-index10004.png
#EXTINF:1.043467,
485081200384431-index10005.png
#EXTINF:4.391256,
485081200384431-index10006.png
#EXTINF:3.043444,
485081200384431-index10007.png
#EXTINF:2.217367,
485081200384431-index10008.png
#EXTINF:2.956489,
485081200384431-index10009.png
#EXTINF:6.391233,
485081200384431-index10010.png
#EXTINF:4.739078,
485081200384431-index10011.png
#EXTINF:3.739089,
485081200384431-index10012.png
#EXTINF:4.434733,
485081200384431-index10013.png
#EXTINF:10.869444,
485081200384431-index10014.png
#EXTINF:9.521633,
485081200384431-index10015.png
#EXTINF:9.956411,
485081200384431-index10016.png
#EXTINF:5.434722,
485081200384431-index10017.png
#EXTINF:1.999978,
485081200384431-index10018.png
#EXTINF:3.999956,
485081200384431-index10019.png
#EXTINF:2.260844,
485081200384431-index10020.png
#EXTINF:3.608656,
485081200384431-index10021.png
#EXTINF:8.912944,
485081200384431-index10022.png
#EXTINF:7.608611,
485081200384431-index10023.png
#EXTINF:6.652100,
485081200384431-index10024.png
#EXTINF:9.260767,
485081200384431-index10025.png
#EXTINF:5.173856,
485081200384431-index10026.png
#EXTINF:8.912944,
485081200384431-index10027.png
#EXTINF:10.782489,
485081200384431-index10028.png
#EXTINF:10.869444,
485081200384431-index10029.png
#EXTINF:2.956489,
485081200384431-index10030.png
#EXTINF:10.173800,
485081200384431-index10031.png
#EXTINF:4.565167,
485081200384431-index10032.png
#EXTINF:4.304300,
485081200384431-index10033.png
#EXTINF:4.999944,
485081200384431-index10034.png
#EXTINF:9.999889,
485081200384431-index10035.png
#EXTINF:10.130322,
485081200384431-index10036.png
#EXTINF:6.956444,
485081200384431-index10037.png
#EXTINF:6.043411,
485081200384431-index10038.png
#EXTINF:10.869444,
485081200384431-index10039.png
#EXTINF:10.869444,
485081200384431-index10040.png
#EXTINF:4.086911,
485081200384431-index10041.png
#EXTINF:10.869444,
485081200384431-index10042.png
#EXTINF:10.869444,
485081200384431-index10043.png
#EXTINF:10.869444,
485081200384431-index10044.png
#EXTINF:7.391222,
485081200384431-index10045.png
#EXTINF:4.999944,
485081200384431-index10046.png
#EXTINF:5.869500,
485081200384431-index10047.png
#EXTINF:9.912933,
485081200384431-index10048.png
#EXTINF:7.999911,
485081200384431-index10049.png
#EXTINF:10.869444,
485081200384431-index10050.png
#EXTINF:5.999933,
485081200384431-index10051.png
#EXTINF:5.652111,
485081200384431-index10052.png
#EXTINF:10.869444,
485081200384431-index10053.png
#EXTINF:7.956433,
485081200384431-index10054.png
#EXTINF:10.869444,
485081200384431-index10055.png
#EXTINF:10.869444,
485081200384431-index10056.png
#EXTINF:2.434756,
485081200384431-index10057.png
#EXTINF:10.652056,
485081200384431-index10058.png
#EXTINF:6.608622,
485081200384431-index10059.png
#EXTINF:7.173833,
485081200384431-index10060.png
#EXTINF:6.608622,
485081200384431-index10061.png
#EXTINF:3.695611,
485081200384431-index10062.png
#EXTINF:6.391233,
485081200384431-index10063.png
#EXTINF:5.391244,
485081200384431-index10064.png
#EXTINF:2.999967,
485081200384431-index10065.png
#EXTINF:7.695567,
485081200384431-index10066.png
#EXTINF:4.652122,
485081200384431-index10067.png
#EXTINF:4.999944,
485081200384431-index10068.png
#EXTINF:8.999900,
485081200384431-index10069.png
#EXTINF:3.999956,
485081200384431-index10070.png
#EXTINF:7.695567,
485081200384431-index10071.png
#EXTINF:6.782533,
485081200384431-index10072.png
#EXTINF:5.695589,
485081200384431-index10073.png
#EXTINF:8.347733,
485081200384431-index10074.png
#EXTINF:4.739078,
485081200384431-index10075.png
#EXTINF:8.217300,
485081200384431-index10076.png
#EXTINF:4.782556,
485081200384431-index10077.png
#EXTINF:10.869444,
485081200384431-index10078.png
#EXTINF:8.565122,
485081200384431-index10079.png
#EXTINF:10.869444,
485081200384431-index10080.png
#EXTINF:10.869444,
485081200384431-index10081.png
#EXTINF:4.695600,
485081200384431-index10082.png
#EXTINF:4.739078,
485081200384431-index10083.png
#EXTINF:10.869444,
485081200384431-index10084.png
#EXTINF:6.347756,
485081200384431-index10085.png
#EXTINF:6.521667,
485081200384431-index10086.png
#EXTINF:5.086900,
485081200384431-index10087.png
#EXTINF:7.652089,
485081200384431-index10088.png
#EXTINF:9.521633,
485081200384431-index10089.png
#EXTINF:4.869511,
485081200384431-index10090.png
#EXTINF:1.608678,
485081200384431-index10091.png
#EXTINF:4.956467,
485081200384431-index10092.png
#EXTINF:3.304311,
485081200384431-index10093.png
#EXTINF:2.130411,
485081200384431-index10094.png
#EXTINF:3.999956,
485081200384431-index10095.png
#EXTINF:2.652144,
485081200384431-index10096.png
#EXTINF:8.956422,
485081200384431-index10097.png
#EXTINF:6.434711,
485081200384431-index10098.png
#EXTINF:3.260833,
485081200384431-index10099.png
#EXTINF:5.912978,
485081200384431-index10100.png
#EXTINF:6.869489,
485081200384431-index10101.png
#EXTINF:7.869478,
485081200384431-index10102.png
#EXTINF:4.695600,
485081200384431-index10103.png
#EXTINF:10.608578,
485081200384431-index10104.png
#EXTINF:10.869444,
485081200384431-index10105.png
#EXTINF:10.869444,
485081200384431-index10106.png
#EXTINF:10.869444,
485081200384431-index10107.png
#EXTINF:10.869444,
485081200384431-index10108.png
#EXTINF:9.173811,
485081200384431-index10109.png
#EXT-X-ENDLIST
