#EXTM3U
#EXT-X-VERSION:3
#EXT-X-TARGETDURATION:11
#EXT-X-MEDIA-SEQUENCE:10001
#EXTINF:10.869444,
487103424552414-index10001.png
#EXTINF:4.260822,
487103424552414-index10002.png
#EXTINF:10.434667,
487103424552414-index10003.png
#EXTINF:10.869444,
487103424552414-index10004.png
#EXTINF:7.086878,
487103424552414-index10005.png
#EXTINF:10.565100,
487103424552414-index10006.png
#EXTINF:10.869444,
487103424552414-index10007.png
#EXTINF:10.869444,
487103424552414-index10008.png
#EXTINF:9.782500,
487103424552414-index10009.png
#EXTINF:6.912967,
487103424552414-index10010.png
#EXTINF:10.869444,
487103424552414-index10011.png
#EXTINF:10.869444,
487103424552414-index10012.png
#EXTINF:10.869444,
487103424552414-index10013.png
#EXTINF:10.869444,
487103424552414-index10014.png
#EXTINF:10.869444,
487103424552414-index10015.png
#EXTINF:10.695533,
487103424552414-index10016.png
#EXTINF:6.608622,
487103424552414-index10017.png
#EXTINF:10.869444,
487103424552414-index10018.png
#EXTINF:10.869444,
487103424552414-index10019.png
#EXTINF:7.304267,
487103424552414-index10020.png
#EXTINF:10.869444,
487103424552414-index10021.png
#EXTINF:10.869444,
487103424552414-index10022.png
#EXTINF:10.869444,
487103424552414-index10023.png
#EXTINF:10.869444,
487103424552414-index10024.png
#EXTINF:10.869444,
487103424552414-index10025.png
#EXTINF:10.869444,
487103424552414-index10026.png
#EXTINF:10.869444,
487103424552414-index10027.png
#EXTINF:10.869444,
487103424552414-index10028.png
#EXTINF:7.869478,
487103424552414-index10029.png
#EXTINF:10.869444,
487103424552414-index10030.png
#EXTINF:10.869444,
487103424552414-index10031.png
#EXTINF:10.869444,
487103424552414-index10032.png
#EXTINF:10.869444,
487103424552414-index10033.png
#EXTINF:10.869444,
487103424552414-index10034.png
#EXTINF:10.869444,
487103424552414-index10035.png
#EXTINF:10.869444,
487103424552414-index10036.png
#EXTINF:10.782489,
487103424552414-index10037.png
#EXTINF:10.869444,
487103424552414-index10038.png
#EXTINF:10.652056,
487103424552414-index10039.png
#EXTINF:10.869444,
487103424552414-index10040.png
#EXTINF:10.869444,
487103424552414-index10041.png
#EXTINF:10.869444,
487103424552414-index10042.png
#EXTINF:10.869444,
487103424552414-index10043.png
#EXTINF:10.869444,
487103424552414-index10044.png
#EXTINF:10.869444,
487103424552414-index10045.png
#EXTINF:10.869444,
487103424552414-index10046.png
#EXTINF:10.869444,
487103424552414-index10047.png
#EXTINF:10.869444,
487103424552414-index10048.png
#EXTINF:10.869444,
487103424552414-index10049.png
#EXTINF:10.869444,
487103424552414-index10050.png
#EXTINF:10.869444,
487103424552414-index10051.png
#EXTINF:10.869444,
487103424552414-index10052.png
#EXTINF:10.869444,
487103424552414-index10053.png
#EXTINF:10.869444,
487103424552414-index10054.png
#EXTINF:10.869444,
487103424552414-index10055.png
#EXTINF:10.869444,
487103424552414-index10056.png
#EXTINF:10.869444,
487103424552414-index10057.png
#EXTINF:10.869444,
487103424552414-index10058.png
#EXTINF:10.869444,
487103424552414-index10059.png
#EXTINF:10.869444,
487103424552414-index10060.png
#EXTINF:10.869444,
487103424552414-index10061.png
#EXTINF:10.869444,
487103424552414-index10062.png
#EXTINF:10.869444,
487103424552414-index10063.png
#EXTINF:10.869444,
487103424552414-index10064.png
#EXTINF:10.869444,
487103424552414-index10065.png
#EXTINF:10.869444,
487103424552414-index10066.png
#EXTINF:10.869444,
487103424552414-index10067.png
#EXTINF:10.869444,
487103424552414-index10068.png
#EXTINF:10.869444,
487103424552414-index10069.png
#EXTINF:10.869444,
487103424552414-index10070.png
#EXTINF:9.521633,
487103424552414-index10071.png
#EXTINF:10.869444,
487103424552414-index10072.png
#EXTINF:10.869444,
487103424552414-index10073.png
#EXTINF:10.869444,
487103424552414-index10074.png
#EXTINF:10.869444,
487103424552414-index10075.png
#EXTINF:10.869444,
487103424552414-index10076.png
#EXTINF:10.869444,
487103424552414-index10077.png
#EXTINF:10.869444,
487103424552414-index10078.png
#EXTINF:10.869444,
487103424552414-index10079.png
#EXTINF:10.869444,
487103424552414-index10080.png
#EXTINF:9.825978,
487103424552414-index10081.png
#EXTINF:10.869444,
487103424552414-index10082.png
#EXTINF:10.869444,
487103424552414-index10083.png
#EXTINF:10.869444,
487103424552414-index10084.png
#EXTINF:10.869444,
487103424552414-index10085.png
#EXTINF:10.869444,
487103424552414-index10086.png
#EXTINF:10.869444,
487103424552414-index10087.png
#EXTINF:10.869444,
487103424552414-index10088.png
#EXTINF:10.869444,
487103424552414-index10089.png
#EXTINF:10.869444,
487103424552414-index10090.png
#EXTINF:10.869444,
487103424552414-index10091.png
#EXTINF:10.869444,
487103424552414-index10092.png
#EXTINF:10.869444,
487103424552414-index10093.png
#EXTINF:10.869444,
487103424552414-index10094.png
#EXTINF:10.869444,
487103424552414-index10095.png
#EXTINF:10.869444,
487103424552414-index10096.png
#EXTINF:10.869444,
487103424552414-index10097.png
#EXTINF:9.347722,
487103424552414-index10098.png
#EXTINF:5.652111,
487103424552414-index10099.png
#EXTINF:7.173833,
487103424552414-index10100.png
#EXTINF:9.260767,
487103424552414-index10101.png
#EXTINF:9.304244,
487103424552414-index10102.png
#EXTINF:5.304289,
487103424552414-index10103.png
#EXTINF:9.608589,
487103424552414-index10104.png
#EXTINF:6.652100,
487103424552414-index10105.png
#EXTINF:10.869444,
487103424552414-index10106.png
#EXTINF:9.260767,
487103424552414-index10107.png
#EXTINF:8.391211,
487103424552414-index10108.png
#EXTINF:6.652100,
487103424552414-index10109.png
#EXTINF:10.869444,
487103424552414-index10110.png
#EXTINF:4.739078,
487103424552414-index10111.png
#EXT-X-ENDLIST
