#EXTM3U
#EXT-X-VERSION:3
#EXT-X-TARGETDURATION:11
#EXT-X-MEDIA-SEQUENCE:10001
#EXTINF:9.365244,
493492804467678-index10001.ts
#EXTINF:9.968956,
493492804467678-index10002.ts
#EXTINF:2.711222,
493492804467678-index10003.ts
#EXTINF:6.840622,
493492804467678-index10004.ts
#EXTINF:3.712289,
493492804467678-index10005.ts
#EXTINF:4.254533,
493492804467678-index10006.ts
#EXTINF:9.551844,
493492804467678-index10007.ts
#EXTINF:9.760400,
493492804467678-index10008.ts
#EXTINF:2.127267,
493492804467678-index10009.ts
#EXTINF:4.963622,
493492804467678-index10010.ts
#EXTINF:4.254533,
493492804467678-index10011.ts
#EXTINF:6.173244,
493492804467678-index10012.ts
#EXTINF:3.712289,
493492804467678-index10013.ts
#EXTINF:1.751867,
493492804467678-index10014.ts
#EXTINF:4.087689,
493492804467678-index10015.ts
#EXTINF:4.129400,
493492804467678-index10016.ts
#EXTINF:1.960422,
493492804467678-index10017.ts
#EXTINF:8.300511,
493492804467678-index10018.ts
#EXTINF:1.418178,
493492804467678-index10019.ts
#EXTINF:1.001067,
493492804467678-index10020.ts
#EXTINF:10.386067,
493492804467678-index10021.ts
#EXTINF:9.510133,
493492804467678-index10022.ts
#EXTINF:3.086622,
493492804467678-index10023.ts
#EXTINF:2.043844,
493492804467678-index10024.ts
#EXTINF:4.254533,
493492804467678-index10025.ts
#EXTINF:1.418178,
493492804467678-index10026.ts
#EXTINF:4.880200,
493492804467678-index10027.ts
#EXTINF:2.377533,
493492804467678-index10028.ts
#EXTINF:3.712289,
493492804467678-index10029.ts
#EXTINF:1.042778,
493492804467678-index10030.ts
#EXTINF:3.837422,
493492804467678-index10031.ts
#EXTINF:1.835289,
493492804467678-index10032.ts
#EXTINF:4.463089,
493492804467678-index10033.ts
#EXTINF:2.752933,
493492804467678-index10034.ts
#EXTINF:2.252400,
493492804467678-index10035.ts
#EXTINF:3.545444,
493492804467678-index10036.ts
#EXTINF:5.005333,
493492804467678-index10037.ts
#EXTINF:2.544378,
493492804467678-index10038.ts
#EXTINF:4.171111,
493492804467678-index10039.ts
#EXTINF:5.005333,
493492804467678-index10040.ts
#EXTINF:2.961489,
493492804467678-index10041.ts
#EXTINF:4.880200,
493492804467678-index10042.ts
#EXTINF:2.460956,
493492804467678-index10043.ts
#EXTINF:2.460956,
493492804467678-index10044.ts
#EXTINF:2.961489,
493492804467678-index10045.ts
#EXTINF:6.715489,
493492804467678-index10046.ts
#EXTINF:6.089822,
493492804467678-index10047.ts
#EXTINF:3.003200,
493492804467678-index10048.ts
#EXTINF:2.919778,
493492804467678-index10049.ts
#EXTINF:3.253467,
493492804467678-index10050.ts
#EXTINF:4.463089,
493492804467678-index10051.ts
#EXTINF:5.964689,
493492804467678-index10052.ts
#EXTINF:2.460956,
493492804467678-index10053.ts
#EXTINF:6.506933,
493492804467678-index10054.ts
#EXTINF:7.883400,
493492804467678-index10055.ts
#EXTINF:3.336889,
493492804467678-index10056.ts
#EXTINF:3.462022,
493492804467678-index10057.ts
#EXTINF:2.502667,
493492804467678-index10058.ts
#EXTINF:3.211756,
493492804467678-index10059.ts
#EXTINF:3.003200,
493492804467678-index10060.ts
#EXTINF:2.752933,
493492804467678-index10061.ts
#EXTINF:10.427778,
493492804467678-index10062.ts
#EXTINF:10.427778,
493492804467678-index10063.ts
#EXTINF:7.966822,
493492804467678-index10064.ts
#EXTINF:2.878067,
493492804467678-index10065.ts
#EXTINF:1.960422,
493492804467678-index10066.ts
#EXTINF:10.427778,
493492804467678-index10067.ts
#EXTINF:3.420311,
493492804467678-index10068.ts
#EXTINF:2.586089,
493492804467678-index10069.ts
#EXTINF:2.961489,
493492804467678-index10070.ts
#EXTINF:3.128333,
493492804467678-index10071.ts
#EXTINF:1.459889,
493492804467678-index10072.ts
#EXTINF:2.294111,
493492804467678-index10073.ts
#EXTINF:2.127267,
493492804467678-index10074.ts
#EXTINF:2.961489,
493492804467678-index10075.ts
#EXTINF:3.128333,
493492804467678-index10076.ts
#EXTINF:10.386067,
493492804467678-index10077.ts
#EXTINF:2.752933,
493492804467678-index10078.ts
#EXTINF:9.927244,
493492804467678-index10079.ts
#EXTINF:6.757200,
493492804467678-index10080.ts
#EXTINF:6.006400,
493492804467678-index10081.ts
#EXTINF:5.339022,
493492804467678-index10082.ts
#EXTINF:9.468422,
493492804467678-index10083.ts
#EXTINF:7.007467,
493492804467678-index10084.ts
#EXTINF:9.676978,
493492804467678-index10085.ts
#EXTINF:10.427778,
493492804467678-index10086.ts
#EXTINF:5.714422,
493492804467678-index10087.ts
#EXTINF:10.427778,
493492804467678-index10088.ts
#EXTINF:1.543311,
493492804467678-index10089.ts
#EXTINF:7.549711,
493492804467678-index10090.ts
#EXTINF:3.754000,
493492804467678-index10091.ts
#EXTINF:4.379667,
493492804467678-index10092.ts
#EXTINF:2.836356,
493492804467678-index10093.ts
#EXTINF:2.961489,
493492804467678-index10094.ts
#EXTINF:2.502667,
493492804467678-index10095.ts
#EXTINF:1.710156,
493492804467678-index10096.ts
#EXTINF:4.838489,
493492804467678-index10097.ts
#EXTINF:9.968956,
493492804467678-index10098.ts
#EXTINF:6.715489,
493492804467678-index10099.ts
#EXTINF:10.427778,
493492804467678-index10100.ts
#EXTINF:5.297311,
493492804467678-index10101.ts
#EXTINF:6.965756,
493492804467678-index10102.ts
#EXTINF:9.385000,
493492804467678-index10103.ts
#EXTINF:7.758267,
493492804467678-index10104.ts
#EXTINF:1.918711,
493492804467678-index10105.ts
#EXTINF:2.210689,
493492804467678-index10106.ts
#EXTINF:4.921911,
493492804467678-index10107.ts
#EXTINF:3.837422,
493492804467678-index10108.ts
#EXTINF:10.219222,
493492804467678-index10109.ts
#EXTINF:10.427778,
493492804467678-index10110.ts
#EXTINF:8.175378,
493492804467678-index10111.ts
#EXTINF:4.379667,
493492804467678-index10112.ts
#EXTINF:10.427778,
493492804467678-index10113.ts
#EXTINF:6.882333,
493492804467678-index10114.ts
#EXTINF:10.427778,
493492804467678-index10115.ts
#EXTINF:5.589289,
493492804467678-index10116.ts
#EXTINF:7.758267,
493492804467678-index10117.ts
#EXTINF:3.003200,
493492804467678-index10118.ts
#EXTINF:4.004267,
493492804467678-index10119.ts
#EXTINF:3.003200,
493492804467678-index10120.ts
#EXTINF:1.960422,
493492804467678-index10121.ts
#EXTINF:4.880200,
493492804467678-index10122.ts
#EXTINF:2.711222,
493492804467678-index10123.ts
#EXTINF:3.003200,
493492804467678-index10124.ts
#EXTINF:3.420311,
493492804467678-index10125.ts
#EXTINF:4.713356,
493492804467678-index10126.ts
#EXTINF:2.377533,
493492804467678-index10127.ts
#EXTINF:3.503733,
493492804467678-index10128.ts
#EXTINF:7.090889,
493492804467678-index10129.ts
#EXTINF:4.421378,
493492804467678-index10130.ts
#EXTINF:4.713356,
493492804467678-index10131.ts
#EXTINF:5.255600,
493492804467678-index10132.ts
#EXTINF:4.254533,
493492804467678-index10133.ts
#EXTINF:10.427778,
493492804467678-index10134.ts
#EXTINF:4.171111,
493492804467678-index10135.ts
#EXTINF:6.256667,
493492804467678-index10136.ts
#EXTINF:3.962556,
493492804467678-index10137.ts
#EXTINF:4.838489,
493492804467678-index10138.ts
#EXTINF:7.466289,
493492804467678-index10139.ts
#EXTINF:7.257733,
493492804467678-index10140.ts
#EXTINF:1.209622,
493492804467678-index10141.ts
#EXTINF:4.212822,
493492804467678-index10142.ts
#EXTINF:7.966822,
493492804467678-index10143.ts
#EXTINF:3.754000,
493492804467678-index10144.ts
#EXTINF:0.959356,
493492804467678-index10145.ts
#EXTINF:1.710156,
493492804467678-index10146.ts
#EXTINF:2.502667,
493492804467678-index10147.ts
#EXTINF:1.084489,
493492804467678-index10148.ts
#EXTINF:0.959356,
493492804467678-index10149.ts
#EXTINF:1.418178,
493492804467678-index10150.ts
#EXTINF:3.754000,
493492804467678-index10151.ts
#EXTINF:7.257733,
493492804467678-index10152.ts
#EXTINF:2.168978,
493492804467678-index10153.ts
#EXTINF:3.920844,
493492804467678-index10154.ts
#EXTINF:1.167911,
493492804467678-index10155.ts
#EXTINF:1.710156,
493492804467678-index10156.ts
#EXTINF:3.962556,
493492804467678-index10157.ts
#EXTINF:2.627800,
493492804467678-index10158.ts
#EXTINF:1.793578,
493492804467678-index10159.ts
#EXTINF:1.668444,
493492804467678-index10160.ts
#EXTINF:2.168978,
493492804467678-index10161.ts
#EXTINF:7.758267,
493492804467678-index10162.ts
#EXTINF:2.502667,
493492804467678-index10163.ts
#EXTINF:3.003200,
493492804467678-index10164.ts
#EXTINF:2.919778,
493492804467678-index10165.ts
#EXTINF:4.463089,
493492804467678-index10166.ts
#EXTINF:4.004267,
493492804467678-index10167.ts
#EXTINF:2.002133,
493492804467678-index10168.ts
#EXTINF:4.129400,
493492804467678-index10169.ts
#EXTINF:2.752933,
493492804467678-index10170.ts
#EXTINF:2.294111,
493492804467678-index10171.ts
#EXTINF:2.002133,
493492804467678-index10172.ts
#EXTINF:1.585022,
493492804467678-index10173.ts
#EXTINF:1.001067,
493492804467678-index10174.ts
#EXTINF:1.001067,
493492804467678-index10175.ts
#EXTINF:1.960422,
493492804467678-index10176.ts
#EXTINF:2.502667,
493492804467678-index10177.ts
#EXTINF:2.002133,
493492804467678-index10178.ts
#EXTINF:5.005333,
493492804467678-index10179.ts
#EXTINF:3.170044,
493492804467678-index10180.ts
#EXTINF:6.214956,
493492804467678-index10181.ts
#EXTINF:5.255600,
493492804467678-index10182.ts
#EXTINF:3.712289,
493492804467678-index10183.ts
#EXTINF:3.336889,
493492804467678-index10184.ts
#EXTINF:3.670578,
493492804467678-index10185.ts
#EXTINF:4.463089,
493492804467678-index10186.ts
#EXTINF:1.209622,
493492804467678-index10187.ts
#EXTINF:1.293044,
493492804467678-index10188.ts
#EXTINF:1.126200,
493492804467678-index10189.ts
#EXTINF:1.251333,
493492804467678-index10190.ts
#EXTINF:3.503733,
493492804467678-index10191.ts
#EXTINF:4.921911,
493492804467678-index10192.ts
#EXTINF:3.378600,
493492804467678-index10193.ts
#EXTINF:1.167911,
493492804467678-index10194.ts
#EXTINF:1.668444,
493492804467678-index10195.ts
#EXTINF:3.837422,
493492804467678-index10196.ts
#EXTINF:2.752933,
493492804467678-index10197.ts
#EXTINF:1.710156,
493492804467678-index10198.ts
#EXTINF:2.627800,
493492804467678-index10199.ts
#EXTINF:1.835289,
493492804467678-index10200.ts
#EXTINF:10.427778,
493492804467678-index10201.ts
#EXTINF:3.420311,
493492804467678-index10202.ts
#EXTINF:2.836356,
493492804467678-index10203.ts
#EXTINF:1.001067,
493492804467678-index10204.ts
#EXTINF:2.002133,
493492804467678-index10205.ts
#EXTINF:1.501600,
493492804467678-index10206.ts
#EXTINF:1.001067,
493492804467678-index10207.ts
#EXTINF:1.376467,
493492804467678-index10208.ts
#EXTINF:4.421378,
493492804467678-index10209.ts
#EXTINF:3.462022,
493492804467678-index10210.ts
#EXTINF:2.711222,
493492804467678-index10211.ts
#EXTINF:2.210689,
493492804467678-index10212.ts
#EXTINF:5.380733,
493492804467678-index10213.ts
#EXTINF:2.043844,
493492804467678-index10214.ts
#EXTINF:3.003200,
493492804467678-index10215.ts
#EXTINF:6.465222,
493492804467678-index10216.ts
#EXTINF:4.463089,
493492804467678-index10217.ts
#EXTINF:3.503733,
493492804467678-index10218.ts
#EXTINF:6.965756,
493492804467678-index10219.ts
#EXTINF:2.210689,
493492804467678-index10220.ts
#EXTINF:1.751867,
493492804467678-index10221.ts
#EXTINF:3.336889,
493492804467678-index10222.ts
#EXTINF:3.628867,
493492804467678-index10223.ts
#EXTINF:10.427778,
493492804467678-index10224.ts
#EXTINF:1.835289,
493492804467678-index10225.ts
#EXTINF:7.007467,
493492804467678-index10226.ts
#EXTINF:5.547578,
493492804467678-index10227.ts
#EXTINF:5.964689,
493492804467678-index10228.ts
#EXTINF:5.714422,
493492804467678-index10229.ts
#EXTINF:1.376467,
493492804467678-index10230.ts
#EXTINF:5.255600,
493492804467678-index10231.ts
#EXTINF:10.427778,
493492804467678-index10232.ts
#EXTINF:1.543311,
493492804467678-index10233.ts
#EXTINF:4.796778,
493492804467678-index10234.ts
#EXTINF:10.427778,
493492804467678-index10235.ts
#EXTINF:3.044911,
493492804467678-index10236.ts
#EXTINF:3.962556,
493492804467678-index10237.ts
#EXTINF:2.502667,
493492804467678-index10238.ts
#EXTINF:4.004267,
493492804467678-index10239.ts
#EXTINF:1.710156,
493492804467678-index10240.ts
#EXTINF:5.255600,
493492804467678-index10241.ts
#EXTINF:10.427778,
493492804467678-index10242.ts
#EXTINF:2.377533,
493492804467678-index10243.ts
#EXTINF:5.505867,
493492804467678-index10244.ts
#EXTINF:6.715489,
493492804467678-index10245.ts
#EXTINF:10.427778,
493492804467678-index10246.ts
#EXTINF:1.293044,
493492804467678-index10247.ts
#EXTINF:3.086622,
493492804467678-index10248.ts
#EXTINF:2.544378,
493492804467678-index10249.ts
#EXTINF:6.965756,
493492804467678-index10250.ts
#EXTINF:9.009600,
493492804467678-index10251.ts
#EXTINF:9.259867,
493492804467678-index10252.ts
#EXTINF:5.339022,
493492804467678-index10253.ts
#EXTINF:7.132600,
493492804467678-index10254.ts
#EXTINF:5.422444,
493492804467678-index10255.ts
#EXTINF:3.044911,
493492804467678-index10256.ts
#EXTINF:4.963622,
493492804467678-index10257.ts
#EXTINF:6.131533,
493492804467678-index10258.ts
#EXTINF:10.427778,
493492804467678-index10259.ts
#EXTINF:2.419244,
493492804467678-index10260.ts
#EXTINF:10.010667,
493492804467678-index10261.ts
#EXTINF:5.756133,
493492804467678-index10262.ts
#EXTINF:1.960422,
493492804467678-index10263.ts
#EXTINF:10.135800,
493492804467678-index10264.ts
#EXTINF:4.254533,
493492804467678-index10265.ts
#EXTINF:4.504800,
493492804467678-index10266.ts
#EXTINF:4.004267,
493492804467678-index10267.ts
#EXTINF:8.050244,
493492804467678-index10268.ts
#EXTINF:8.383933,
493492804467678-index10269.ts
#EXTINF:2.627800,
493492804467678-index10270.ts
#EXTINF:2.335822,
493492804467678-index10271.ts
#EXTINF:5.005333,
493492804467678-index10272.ts
#EXTINF:5.964689,
493492804467678-index10273.ts
#EXTINF:2.878067,
493492804467678-index10274.ts
#EXTINF:1.751867,
493492804467678-index10275.ts
#EXTINF:7.257733,
493492804467678-index10276.ts
#EXTINF:4.379667,
493492804467678-index10277.ts
#EXTINF:2.752933,
493492804467678-index10278.ts
#EXTINF:3.670578,
493492804467678-index10279.ts
#EXTINF:3.003200,
493492804467678-index10280.ts
#EXTINF:1.751867,
493492804467678-index10281.ts
#EXTINF:2.961489,
493492804467678-index10282.ts
#EXTINF:2.002133,
493492804467678-index10283.ts
#EXTINF:2.627800,
493492804467678-index10284.ts
#EXTINF:3.587156,
493492804467678-index10285.ts
#EXTINF:3.211756,
493492804467678-index10286.ts
#EXTINF:3.253467,
493492804467678-index10287.ts
#EXTINF:9.009600,
493492804467678-index10288.ts
#EXTINF:2.711222,
493492804467678-index10289.ts
#EXTINF:6.006400,
493492804467678-index10290.ts
#EXTINF:4.254533,
493492804467678-index10291.ts
#EXTINF:3.003200,
493492804467678-index10292.ts
#EXTINF:3.253467,
493492804467678-index10293.ts
#EXTINF:3.587156,
493492804467678-index10294.ts
#EXTINF:3.962556,
493492804467678-index10295.ts
#EXTINF:10.427778,
493492804467678-index10296.ts
#EXTINF:8.550778,
493492804467678-index10297.ts
#EXTINF:10.427778,
493492804467678-index10298.ts
#EXTINF:10.427778,
493492804467678-index10299.ts
#EXTINF:10.427778,
493492804467678-index10300.ts
#EXTINF:10.427778,
493492804467678-index10301.ts
#EXTINF:10.427778,
493492804467678-index10302.ts
#EXTINF:9.802111,
493492804467678-index10303.ts
#EXTINF:9.093022,
493492804467678-index10304.ts
#EXTINF:1.459889,
493492804467678-index10305.ts
#EXTINF:3.754000,
493492804467678-index10306.ts
#EXTINF:2.335822,
493492804467678-index10307.ts
#EXTINF:1.668444,
493492804467678-index10308.ts
#EXTINF:1.793578,
493492804467678-index10309.ts
#EXTINF:1.001067,
493492804467678-index10310.ts
#EXTINF:3.003200,
493492804467678-index10311.ts
#EXT-X-ENDLIST
