#EXTM3U
#EXT-X-VERSION:3
#EXT-X-TARGETDURATION:3
#EXT-X-MEDIA-SEQUENCE:10001
#EXTINF:2.000000,
499411060164372-index10001.png
#EXTINF:2.000000,
499411060164372-index10002.png
#EXTINF:2.000000,
499411060164372-index10003.png
#EXTINF:2.000000,
499411060164372-index10004.png
#EXTINF:2.000000,
499411060164372-index10005.png
#EXTINF:2.000000,
499411060164372-index10006.png
#EXTINF:2.600000,
499411060164372-index10007.png
#EXTINF:2.000000,
499411060164372-index10008.png
#EXTINF:2.000000,
499411060164372-index10009.png
#EXTINF:2.000000,
499411060164372-index10010.png
#EXTINF:2.000000,
499411060164372-index10011.png
#EXTINF:2.000000,
499411060164372-index10012.png
#EXTINF:2.000000,
499411060164372-index10013.png
#EXTINF:2.000000,
499411060164372-index10014.png
#EXTINF:2.000000,
499411060164372-index10015.png
#EXTINF:2.000000,
499411060164372-index10016.png
#EXTINF:2.000000,
499411060164372-index10017.png
#EXTINF:1.480000,
499411060164372-index10018.png
#EXTINF:2.480000,
499411060164372-index10019.png
#EXTINF:2.120000,
499411060164372-index10020.png
#EXTINF:2.000000,
499411060164372-index10021.png
#EXTINF:2.000000,
499411060164372-index10022.png
#EXTINF:1.400000,
499411060164372-index10023.png
#EXTINF:2.000000,
499411060164372-index10024.png
#EXTINF:2.000000,
499411060164372-index10025.png
#EXTINF:2.520000,
499411060164372-index10026.png
#EXTINF:2.000000,
499411060164372-index10027.png
#EXTINF:2.120000,
499411060164372-index10028.png
#EXTINF:1.400000,
499411060164372-index10029.png
#EXTINF:2.000000,
499411060164372-index10030.png
#EXTINF:2.000000,
499411060164372-index10031.png
#EXTINF:2.720000,
499411060164372-index10032.png
#EXTINF:1.840000,
499411060164372-index10033.png
#EXTINF:2.160000,
499411060164372-index10034.png
#EXTINF:1.960000,
499411060164372-index10035.png
#EXTINF:2.000000,
499411060164372-index10036.png
#EXTINF:1.320000,
499411060164372-index10037.png
#EXTINF:2.000000,
499411060164372-index10038.png
#EXTINF:2.000000,
499411060164372-index10039.png
#EXTINF:2.080000,
499411060164372-index10040.png
#EXTINF:2.000000,
499411060164372-index10041.png
#EXTINF:2.040000,
499411060164372-index10042.png
#EXTINF:1.960000,
499411060164372-index10043.png
#EXTINF:2.000000,
499411060164372-index10044.png
#EXTINF:2.480000,
499411060164372-index10045.png
#EXTINF:1.560000,
499411060164372-index10046.png
#EXTINF:2.000000,
499411060164372-index10047.png
#EXTINF:2.000000,
499411060164372-index10048.png
#EXTINF:2.000000,
499411060164372-index10049.png
#EXTINF:2.000000,
499411060164372-index10050.png
#EXTINF:2.000000,
499411060164372-index10051.png
#EXTINF:2.000000,
499411060164372-index10052.png
#EXTINF:1.960000,
499411060164372-index10053.png
#EXTINF:2.000000,
499411060164372-index10054.png
#EXTINF:2.760000,
499411060164372-index10055.png
#EXTINF:2.000000,
499411060164372-index10056.png
#EXTINF:2.000000,
499411060164372-index10057.png
#EXTINF:2.000000,
499411060164372-index10058.png
#EXTINF:2.000000,
499411060164372-index10059.png
#EXTINF:2.000000,
499411060164372-index10060.png
#EXTINF:2.000000,
499411060164372-index10061.png
#EXTINF:1.240000,
499411060164372-index10062.png
#EXTINF:1.800000,
499411060164372-index10063.png
#EXTINF:2.000000,
499411060164372-index10064.png
#EXTINF:2.280000,
499411060164372-index10065.png
#EXTINF:2.160000,
499411060164372-index10066.png
#EXTINF:2.000000,
499411060164372-index10067.png
#EXTINF:2.000000,
499411060164372-index10068.png
#EXTINF:1.840000,
499411060164372-index10069.png
#EXTINF:2.600000,
499411060164372-index10070.png
#EXTINF:1.320000,
499411060164372-index10071.png
#EXTINF:2.000000,
499411060164372-index10072.png
#EXTINF:2.080000,
499411060164372-index10073.png
#EXTINF:2.000000,
499411060164372-index10074.png
#EXTINF:2.000000,
499411060164372-index10075.png
#EXTINF:2.000000,
499411060164372-index10076.png
#EXTINF:2.000000,
499411060164372-index10077.png
#EXTINF:2.080000,
499411060164372-index10078.png
#EXTINF:2.000000,
499411060164372-index10079.png
#EXTINF:2.000000,
499411060164372-index10080.png
#EXTINF:2.000000,
499411060164372-index10081.png
#EXTINF:2.000000,
499411060164372-index10082.png
#EXTINF:2.000000,
499411060164372-index10083.png
#EXTINF:2.600000,
499411060164372-index10084.png
#EXTINF:1.760000,
499411060164372-index10085.png
#EXTINF:1.480000,
499411060164372-index10086.png
#EXTINF:2.000000,
499411060164372-index10087.png
#EXTINF:2.000000,
499411060164372-index10088.png
#EXTINF:2.000000,
499411060164372-index10089.png
#EXTINF:1.800000,
499411060164372-index10090.png
#EXTINF:2.000000,
499411060164372-index10091.png
#EXTINF:2.000000,
499411060164372-index10092.png
#EXTINF:2.000000,
499411060164372-index10093.png
#EXTINF:2.960000,
499411060164372-index10094.png
#EXTINF:2.000000,
499411060164372-index10095.png
#EXTINF:1.440000,
499411060164372-index10096.png
#EXTINF:2.000000,
499411060164372-index10097.png
#EXTINF:2.000000,
499411060164372-index10098.png
#EXTINF:2.000000,
499411060164372-index10099.png
#EXTINF:2.000000,
499411060164372-index10100.png
#EXTINF:2.000000,
499411060164372-index10101.png
#EXTINF:2.000000,
499411060164372-index10102.png
#EXTINF:2.000000,
499411060164372-index10103.png
#EXTINF:2.000000,
499411060164372-index10104.png
#EXTINF:2.000000,
499411060164372-index10105.png
#EXTINF:2.000000,
499411060164372-index10106.png
#EXTINF:2.000000,
499411060164372-index10107.png
#EXTINF:2.000000,
499411060164372-index10108.png
#EXTINF:2.000000,
499411060164372-index10109.png
#EXTINF:2.000000,
499411060164372-index10110.png
#EXTINF:2.000000,
499411060164372-index10111.png
#EXTINF:2.000000,
499411060164372-index10112.png
#EXTINF:2.000000,
499411060164372-index10113.png
#EXTINF:2.000000,
499411060164372-index10114.png
#EXTINF:2.000000,
499411060164372-index10115.png
#EXTINF:2.000000,
499411060164372-index10116.png
#EXTINF:2.160000,
499411060164372-index10117.png
#EXTINF:2.000000,
499411060164372-index10118.png
#EXTINF:1.920000,
499411060164372-index10119.png
#EXTINF:1.520000,
499411060164372-index10120.png
#EXTINF:2.000000,
499411060164372-index10121.png
#EXTINF:2.560000,
499411060164372-index10122.png
#EXTINF:2.000000,
499411060164372-index10123.png
#EXTINF:1.920000,
499411060164372-index10124.png
#EXTINF:2.000000,
499411060164372-index10125.png
#EXTINF:2.000000,
499411060164372-index10126.png
#EXTINF:1.720000,
499411060164372-index10127.png
#EXTINF:2.720000,
499411060164372-index10128.png
#EXTINF:2.000000,
499411060164372-index10129.png
#EXTINF:2.000000,
499411060164372-index10130.png
#EXTINF:2.000000,
499411060164372-index10131.png
#EXTINF:1.280000,
499411060164372-index10132.png
#EXTINF:2.000000,
499411060164372-index10133.png
#EXTINF:2.000000,
499411060164372-index10134.png
#EXTINF:2.240000,
499411060164372-index10135.png
#EXTINF:1.920000,
499411060164372-index10136.png
#EXTINF:2.000000,
499411060164372-index10137.png
#EXTINF:2.000000,
499411060164372-index10138.png
#EXTINF:2.040000,
499411060164372-index10139.png
#EXTINF:2.000000,
499411060164372-index10140.png
#EXTINF:2.000000,
499411060164372-index10141.png
#EXTINF:1.680000,
499411060164372-index10142.png
#EXTINF:2.000000,
499411060164372-index10143.png
#EXTINF:2.000000,
499411060164372-index10144.png
#EXTINF:2.000000,
499411060164372-index10145.png
#EXTINF:2.000000,
499411060164372-index10146.png
#EXTINF:2.000000,
499411060164372-index10147.png
#EXTINF:2.720000,
499411060164372-index10148.png
#EXTINF:2.000000,
499411060164372-index10149.png
#EXTINF:2.000000,
499411060164372-index10150.png
#EXTINF:1.400000,
499411060164372-index10151.png
#EXTINF:2.000000,
499411060164372-index10152.png
#EXTINF:2.200000,
499411060164372-index10153.png
#EXTINF:2.000000,
499411060164372-index10154.png
#EXTINF:2.000000,
499411060164372-index10155.png
#EXTINF:2.000000,
499411060164372-index10156.png
#EXTINF:2.160000,
499411060164372-index10157.png
#EXTINF:2.000000,
499411060164372-index10158.png
#EXTINF:2.000000,
499411060164372-index10159.png
#EXTINF:2.000000,
499411060164372-index10160.png
#EXTINF:1.640000,
499411060164372-index10161.png
#EXTINF:2.000000,
499411060164372-index10162.png
#EXTINF:2.360000,
499411060164372-index10163.png
#EXTINF:2.000000,
499411060164372-index10164.png
#EXTINF:2.000000,
499411060164372-index10165.png
#EXTINF:2.000000,
499411060164372-index10166.png
#EXTINF:2.000000,
499411060164372-index10167.png
#EXTINF:2.000000,
499411060164372-index10168.png
#EXTINF:2.320000,
499411060164372-index10169.png
#EXTINF:2.000000,
499411060164372-index10170.png
#EXTINF:2.000000,
499411060164372-index10171.png
#EXTINF:2.000000,
499411060164372-index10172.png
#EXTINF:2.000000,
499411060164372-index10173.png
#EXTINF:2.000000,
499411060164372-index10174.png
#EXTINF:2.000000,
499411060164372-index10175.png
#EXTINF:2.000000,
499411060164372-index10176.png
#EXTINF:2.000000,
499411060164372-index10177.png
#EXTINF:2.000000,
499411060164372-index10178.png
#EXTINF:2.000000,
499411060164372-index10179.png
#EXTINF:2.000000,
499411060164372-index10180.png
#EXTINF:2.000000,
499411060164372-index10181.png
#EXTINF:1.480000,
499411060164372-index10182.png
#EXTINF:2.000000,
499411060164372-index10183.png
#EXTINF:2.080000,
499411060164372-index10184.png
#EXTINF:2.280000,
499411060164372-index10185.png
#EXTINF:2.240000,
499411060164372-index10186.png
#EXTINF:2.000000,
499411060164372-index10187.png
#EXTINF:1.240000,
499411060164372-index10188.png
#EXT-X-ENDLIST
