#EXTM3U
#EXT-X-VERSION:3
#EXT-X-TARGETDURATION:11
#EXT-X-MEDIA-SEQUENCE:10001
#EXTINF:8.608600,
513338727669583-index10001.ts
#EXTINF:10.869444,
513338727669583-index10002.ts
#EXTINF:4.173867,
513338727669583-index10003.ts
#EXTINF:3.695611,
513338727669583-index10004.ts
#EXTINF:2.217367,
513338727669583-index10005.ts
#EXTINF:1.956500,
513338727669583-index10006.ts
#EXTINF:1.217378,
513338727669583-index10007.ts
#EXTINF:6.173844,
513338727669583-index10008.ts
#EXTINF:2.347800,
513338727669583-index10009.ts
#EXTINF:3.782567,
513338727669583-index10010.ts
#EXTINF:3.869522,
513338727669583-index10011.ts
#EXTINF:6.956444,
513338727669583-index10012.ts
#EXTINF:3.391267,
513338727669583-index10013.ts
#EXTINF:6.347756,
513338727669583-index10014.ts
#EXTINF:3.173878,
513338727669583-index10015.ts
#EXTINF:8.782511,
513338727669583-index10016.ts
#EXTINF:5.130378,
513338727669583-index10017.ts
#EXTINF:3.652133,
513338727669583-index10018.ts
#EXTINF:6.695578,
513338727669583-index10019.ts
#EXTINF:7.086878,
513338727669583-index10020.ts
#EXTINF:3.999956,
513338727669583-index10021.ts
#EXTINF:8.304256,
513338727669583-index10022.ts
#EXTINF:6.695578,
513338727669583-index10023.ts
#EXTINF:4.434733,
513338727669583-index10024.ts
#EXTINF:8.956422,
513338727669583-index10025.ts
#EXTINF:10.869444,
513338727669583-index10026.ts
#EXTINF:5.956456,
513338727669583-index10027.ts
#EXTINF:10.391189,
513338727669583-index10028.ts
#EXTINF:5.173856,
513338727669583-index10029.ts
#EXTINF:10.260756,
513338727669583-index10030.ts
#EXTINF:7.043400,
513338727669583-index10031.ts
#EXTINF:8.695556,
513338727669583-index10032.ts
#EXTINF:6.912967,
513338727669583-index10033.ts
#EXTINF:4.869511,
513338727669583-index10034.ts
#EXTINF:8.130344,
513338727669583-index10035.ts
#EXTINF:5.565156,
513338727669583-index10036.ts
#EXTINF:7.260789,
513338727669583-index10037.ts
#EXTINF:3.999956,
513338727669583-index10038.ts
#EXTINF:3.521700,
513338727669583-index10039.ts
#EXTINF:8.695556,
513338727669583-index10040.ts
#EXTINF:9.739022,
513338727669583-index10041.ts
#EXTINF:4.912989,
513338727669583-index10042.ts
#EXTINF:10.521622,
513338727669583-index10043.ts
#EXTINF:7.478178,
513338727669583-index10044.ts
#EXTINF:8.434689,
513338727669583-index10045.ts
#EXTINF:10.869444,
513338727669583-index10046.ts
#EXTINF:9.652067,
513338727669583-index10047.ts
#EXTINF:10.869444,
513338727669583-index10048.ts
#EXTINF:10.869444,
513338727669583-index10049.ts
#EXTINF:10.869444,
513338727669583-index10050.ts
#EXTINF:10.869444,
513338727669583-index10051.ts
#EXTINF:10.825967,
513338727669583-index10052.ts
#EXTINF:10.869444,
513338727669583-index10053.ts
#EXTINF:8.130344,
513338727669583-index10054.ts
#EXTINF:10.869444,
513338727669583-index10055.ts
#EXTINF:10.304233,
513338727669583-index10056.ts
#EXTINF:9.999889,
513338727669583-index10057.ts
#EXTINF:10.869444,
513338727669583-index10058.ts
#EXTINF:10.869444,
513338727669583-index10059.ts
#EXTINF:10.869444,
513338727669583-index10060.ts
#EXTINF:10.869444,
513338727669583-index10061.ts
#EXTINF:10.869444,
513338727669583-index10062.ts
#EXTINF:8.347733,
513338727669583-index10063.ts
#EXTINF:9.956411,
513338727669583-index10064.ts
#EXTINF:10.869444,
513338727669583-index10065.ts
#EXTINF:6.086889,
513338727669583-index10066.ts
#EXTINF:9.217289,
513338727669583-index10067.ts
#EXTINF:10.869444,
513338727669583-index10068.ts
#EXTINF:10.869444,
513338727669583-index10069.ts
#EXTINF:10.391189,
513338727669583-index10070.ts
#EXTINF:10.869444,
513338727669583-index10071.ts
#EXTINF:10.869444,
513338727669583-index10072.ts
#EXTINF:8.260778,
513338727669583-index10073.ts
#EXTINF:6.608622,
513338727669583-index10074.ts
#EXTINF:3.086922,
513338727669583-index10075.ts
#EXTINF:3.086922,
513338727669583-index10076.ts
#EXTINF:3.782567,
513338727669583-index10077.ts
#EXTINF:4.521689,
513338727669583-index10078.ts
#EXTINF:4.130389,
513338727669583-index10079.ts
#EXTINF:3.391267,
513338727669583-index10080.ts
#EXTINF:10.869444,
513338727669583-index10081.ts
#EXTINF:8.956422,
513338727669583-index10082.ts
#EXTINF:5.826022,
513338727669583-index10083.ts
#EXTINF:7.434700,
513338727669583-index10084.ts
#EXTINF:7.521656,
513338727669583-index10085.ts
#EXTINF:10.739011,
513338727669583-index10086.ts
#EXTINF:3.434744,
513338727669583-index10087.ts
#EXTINF:5.217333,
513338727669583-index10088.ts
#EXTINF:7.043400,
513338727669583-index10089.ts
#EXT-X-ENDLIST
