#EXTM3U
#EXT-X-VERSION:3
#EXT-X-TARGETDURATION:11
#EXT-X-MEDIA-SEQUENCE:10001
#EXTINF:9.434678,
513300997929440-index10001.png
#EXTINF:10.869444,
513300997929440-index10002.png
#EXTINF:10.869444,
513300997929440-index10003.png
#EXTINF:2.826056,
513300997929440-index10004.png
#EXTINF:3.826044,
513300997929440-index10005.png
#EXTINF:2.869533,
513300997929440-index10006.png
#EXTINF:8.739033,
513300997929440-index10007.png
#EXTINF:0.999989,
513300997929440-index10008.png
#EXTINF:5.260811,
513300997929440-index10009.png
#EXTINF:1.826067,
513300997929440-index10010.png
#EXTINF:4.739078,
513300997929440-index10011.png
#EXTINF:10.869444,
513300997929440-index10012.png
#EXTINF:7.304267,
513300997929440-index10013.png
#EXTINF:6.478189,
513300997929440-index10014.png
#EXTINF:5.304289,
513300997929440-index10015.png
#EXTINF:3.608656,
513300997929440-index10016.png
#EXTINF:2.565189,
513300997929440-index10017.png
#EXTINF:1.782589,
513300997929440-index10018.png
#EXTINF:2.043456,
513300997929440-index10019.png
#EXTINF:3.739089,
513300997929440-index10020.png
#EXTINF:3.782567,
513300997929440-index10021.png
#EXTINF:3.999956,
513300997929440-index10022.png
#EXTINF:4.434733,
513300997929440-index10023.png
#EXTINF:4.521689,
513300997929440-index10024.png
#EXTINF:4.478211,
513300997929440-index10025.png
#EXTINF:5.173856,
513300997929440-index10026.png
#EXTINF:6.043411,
513300997929440-index10027.png
#EXTINF:3.043444,
513300997929440-index10028.png
#EXTINF:2.999967,
513300997929440-index10029.png
#EXTINF:3.565178,
513300997929440-index10030.png
#EXTINF:5.782544,
513300997929440-index10031.png
#EXTINF:10.869444,
513300997929440-index10032.png
#EXTINF:8.782511,
513300997929440-index10033.png
#EXTINF:5.565156,
513300997929440-index10034.png
#EXTINF:3.086922,
513300997929440-index10035.png
#EXTINF:5.217333,
513300997929440-index10036.png
#EXTINF:7.652089,
513300997929440-index10037.png
#EXTINF:8.652078,
513300997929440-index10038.png
#EXTINF:4.826033,
513300997929440-index10039.png
#EXTINF:10.869444,
513300997929440-index10040.png
#EXTINF:7.912956,
513300997929440-index10041.png
#EXTINF:3.739089,
513300997929440-index10042.png
#EXTINF:6.999922,
513300997929440-index10043.png
#EXTINF:5.912978,
513300997929440-index10044.png
#EXTINF:3.217356,
513300997929440-index10045.png
#EXTINF:9.695544,
513300997929440-index10046.png
#EXTINF:6.608622,
513300997929440-index10047.png
#EXTINF:9.130333,
513300997929440-index10048.png
#EXTINF:5.608633,
513300997929440-index10049.png
#EXTINF:8.999900,
513300997929440-index10050.png
#EXTINF:7.782522,
513300997929440-index10051.png
#EXTINF:4.652122,
513300997929440-index10052.png
#EXTINF:6.434711,
513300997929440-index10053.png
#EXTINF:10.869444,
513300997929440-index10054.png
#EXTINF:10.565100,
513300997929440-index10055.png
#EXTINF:10.173800,
513300997929440-index10056.png
#EXTINF:7.782522,
513300997929440-index10057.png
#EXTINF:10.869444,
513300997929440-index10058.png
#EXTINF:9.825978,
513300997929440-index10059.png
#EXTINF:8.173822,
513300997929440-index10060.png
#EXTINF:6.217322,
513300997929440-index10061.png
#EXTINF:1.999978,
513300997929440-index10062.png
#EXTINF:8.217300,
513300997929440-index10063.png
#EXTINF:10.739011,
513300997929440-index10064.png
#EXTINF:2.739100,
513300997929440-index10065.png
#EXTINF:4.347778,
513300997929440-index10066.png
#EXTINF:5.478200,
513300997929440-index10067.png
#EXTINF:5.782544,
513300997929440-index10068.png
#EXTINF:3.130400,
513300997929440-index10069.png
#EXTINF:5.956456,
513300997929440-index10070.png
#EXTINF:6.391233,
513300997929440-index10071.png
#EXTINF:6.478189,
513300997929440-index10072.png
#EXTINF:6.999922,
513300997929440-index10073.png
#EXTINF:8.608600,
513300997929440-index10074.png
#EXTINF:10.869444,
513300997929440-index10075.png
#EXTINF:1.608678,
513300997929440-index10076.png
#EXTINF:6.956444,
513300997929440-index10077.png
#EXTINF:4.391256,
513300997929440-index10078.png
#EXTINF:10.869444,
513300997929440-index10079.png
#EXTINF:8.173822,
513300997929440-index10080.png
#EXTINF:5.608633,
513300997929440-index10081.png
#EXTINF:3.826044,
513300997929440-index10082.png
#EXTINF:6.130367,
513300997929440-index10083.png
#EXTINF:6.434711,
513300997929440-index10084.png
#EXTINF:7.217311,
513300997929440-index10085.png
#EXTINF:5.217333,
513300997929440-index10086.png
#EXTINF:2.652144,
513300997929440-index10087.png
#EXTINF:9.130333,
513300997929440-index10088.png
#EXTINF:7.608611,
513300997929440-index10089.png
#EXTINF:5.739067,
513300997929440-index10090.png
#EXTINF:10.869444,
513300997929440-index10091.png
#EXTINF:10.869444,
513300997929440-index10092.png
#EXTINF:7.391222,
513300997929440-index10093.png
#EXTINF:6.608622,
513300997929440-index10094.png
#EXTINF:6.217322,
513300997929440-index10095.png
#EXTINF:3.739089,
513300997929440-index10096.png
#EXTINF:4.521689,
513300997929440-index10097.png
#EXTINF:4.130389,
513300997929440-index10098.png
#EXTINF:10.869444,
513300997929440-index10099.png
#EXTINF:5.782544,
513300997929440-index10100.png
#EXTINF:9.260767,
513300997929440-index10101.png
#EXTINF:5.782544,
513300997929440-index10102.png
#EXTINF:10.869444,
513300997929440-index10103.png
#EXTINF:8.695556,
513300997929440-index10104.png
#EXTINF:4.043433,
513300997929440-index10105.png
#EXTINF:2.695622,
513300997929440-index10106.png
#EXTINF:3.434744,
513300997929440-index10107.png
#EXTINF:2.695622,
513300997929440-index10108.png
#EXTINF:3.347789,
513300997929440-index10109.png
#EXTINF:2.999967,
513300997929440-index10110.png
#EXT-X-ENDLIST
