#EXTM3U
#EXT-X-VERSION:3
#EXT-X-TARGETDURATION:11
#EXT-X-MEDIA-SEQUENCE:10001
#EXTINF:2.544378,
518097784784105-index10001.png
#EXTINF:3.712289,
518097784784105-index10002.png
#EXTINF:4.463089,
518097784784105-index10003.png
#EXTINF:2.961489,
518097784784105-index10004.png
#EXTINF:5.422444,
518097784784105-index10005.png
#EXTINF:6.465222,
518097784784105-index10006.png
#EXTINF:7.090889,
518097784784105-index10007.png
#EXTINF:3.628867,
518097784784105-index10008.png
#EXTINF:4.838489,
518097784784105-index10009.png
#EXTINF:10.010667,
518097784784105-index10010.png
#EXTINF:9.051311,
518097784784105-index10011.png
#EXTINF:4.963622,
518097784784105-index10012.png
#EXTINF:4.087689,
518097784784105-index10013.png
#EXTINF:10.010667,
518097784784105-index10014.png
#EXTINF:2.460956,
518097784784105-index10015.png
#EXTINF:1.585022,
518097784784105-index10016.png
#EXTINF:5.714422,
518097784784105-index10017.png
#EXTINF:2.002133,
518097784784105-index10018.png
#EXTINF:2.127267,
518097784784105-index10019.png
#EXTINF:2.294111,
518097784784105-index10020.png
#EXTINF:3.795711,
518097784784105-index10021.png
#EXTINF:4.087689,
518097784784105-index10022.png
#EXTINF:5.047044,
518097784784105-index10023.png
#EXTINF:4.963622,
518097784784105-index10024.png
#EXTINF:3.128333,
518097784784105-index10025.png
#EXTINF:7.007467,
518097784784105-index10026.png
#EXTINF:6.131533,
518097784784105-index10027.png
#EXTINF:5.380733,
518097784784105-index10028.png
#EXTINF:2.669511,
518097784784105-index10029.png
#EXTINF:1.918711,
518097784784105-index10030.png
#EXTINF:1.543311,
518097784784105-index10031.png
#EXTINF:1.334756,
518097784784105-index10032.png
#EXTINF:5.756133,
518097784784105-index10033.png
#EXTINF:1.501600,
518097784784105-index10034.png
#EXTINF:2.377533,
518097784784105-index10035.png
#EXTINF:3.378600,
518097784784105-index10036.png
#EXTINF:1.167911,
518097784784105-index10037.png
#EXTINF:3.420311,
518097784784105-index10038.png
#EXTINF:3.378600,
518097784784105-index10039.png
#EXTINF:1.126200,
518097784784105-index10040.png
#EXTINF:1.501600,
518097784784105-index10041.png
#EXTINF:2.043844,
518097784784105-index10042.png
#EXTINF:1.710156,
518097784784105-index10043.png
#EXTINF:4.129400,
518097784784105-index10044.png
#EXTINF:5.130467,
518097784784105-index10045.png
#EXTINF:3.837422,
518097784784105-index10046.png
#EXTINF:3.378600,
518097784784105-index10047.png
#EXTINF:3.211756,
518097784784105-index10048.png
#EXTINF:3.837422,
518097784784105-index10049.png
#EXTINF:5.339022,
518097784784105-index10050.png
#EXTINF:1.960422,
518097784784105-index10051.png
#EXTINF:1.585022,
518097784784105-index10052.png
#EXTINF:5.714422,
518097784784105-index10053.png
#EXTINF:3.086622,
518097784784105-index10054.png
#EXTINF:1.585022,
518097784784105-index10055.png
#EXTINF:2.127267,
518097784784105-index10056.png
#EXTINF:2.085556,
518097784784105-index10057.png
#EXTINF:5.714422,
518097784784105-index10058.png
#EXTINF:3.211756,
518097784784105-index10059.png
#EXTINF:2.085556,
518097784784105-index10060.png
#EXTINF:1.960422,
518097784784105-index10061.png
#EXTINF:10.010667,
518097784784105-index10062.png
#EXTINF:7.925111,
518097784784105-index10063.png
#EXTINF:1.710156,
518097784784105-index10064.png
#EXTINF:1.293044,
518097784784105-index10065.png
#EXTINF:3.795711,
518097784784105-index10066.png
#EXTINF:1.710156,
518097784784105-index10067.png
#EXTINF:3.086622,
518097784784105-index10068.png
#EXTINF:3.170044,
518097784784105-index10069.png
#EXTINF:1.960422,
518097784784105-index10070.png
#EXTINF:1.877000,
518097784784105-index10071.png
#EXTINF:1.251333,
518097784784105-index10072.png
#EXTINF:1.751867,
518097784784105-index10073.png
#EXTINF:4.463089,
518097784784105-index10074.png
#EXTINF:2.002133,
518097784784105-index10075.png
#EXTINF:2.043844,
518097784784105-index10076.png
#EXTINF:2.586089,
518097784784105-index10077.png
#EXTINF:1.334756,
518097784784105-index10078.png
#EXTINF:1.209622,
518097784784105-index10079.png
#EXTINF:1.835289,
518097784784105-index10080.png
#EXTINF:0.959356,
518097784784105-index10081.png
#EXTINF:2.377533,
518097784784105-index10082.png
#EXTINF:2.669511,
518097784784105-index10083.png
#EXTINF:1.209622,
518097784784105-index10084.png
#EXTINF:1.042778,
518097784784105-index10085.png
#EXTINF:2.085556,
518097784784105-index10086.png
#EXTINF:1.418178,
518097784784105-index10087.png
#EXTINF:1.626733,
518097784784105-index10088.png
#EXTINF:1.710156,
518097784784105-index10089.png
#EXTINF:2.377533,
518097784784105-index10090.png
#EXTINF:1.918711,
518097784784105-index10091.png
#EXTINF:3.712289,
518097784784105-index10092.png
#EXTINF:2.085556,
518097784784105-index10093.png
#EXTINF:1.251333,
518097784784105-index10094.png
#EXTINF:1.710156,
518097784784105-index10095.png
#EXTINF:2.127267,
518097784784105-index10096.png
#EXTINF:5.589289,
518097784784105-index10097.png
#EXTINF:10.010667,
518097784784105-index10098.png
#EXTINF:5.547578,
518097784784105-index10099.png
#EXTINF:1.459889,
518097784784105-index10100.png
#EXTINF:2.460956,
518097784784105-index10101.png
#EXTINF:4.463089,
518097784784105-index10102.png
#EXTINF:2.335822,
518097784784105-index10103.png
#EXTINF:2.586089,
518097784784105-index10104.png
#EXTINF:8.091956,
518097784784105-index10105.png
#EXTINF:9.134733,
518097784784105-index10106.png
#EXTINF:2.627800,
518097784784105-index10107.png
#EXTINF:3.336889,
518097784784105-index10108.png
#EXTINF:1.418178,
518097784784105-index10109.png
#EXTINF:6.924044,
518097784784105-index10110.png
#EXTINF:5.464156,
518097784784105-index10111.png
#EXTINF:6.548644,
518097784784105-index10112.png
#EXTINF:10.010667,
518097784784105-index10113.png
#EXTINF:4.755067,
518097784784105-index10114.png
#EXTINF:10.010667,
518097784784105-index10115.png
#EXTINF:8.801044,
518097784784105-index10116.png
#EXTINF:10.010667,
518097784784105-index10117.png
#EXTINF:7.466289,
518097784784105-index10118.png
#EXTINF:5.005333,
518097784784105-index10119.png
#EXTINF:5.714422,
518097784784105-index10120.png
#EXTINF:1.877000,
518097784784105-index10121.png
#EXTINF:2.878067,
518097784784105-index10122.png
#EXTINF:2.711222,
518097784784105-index10123.png
#EXTINF:4.755067,
518097784784105-index10124.png
#EXTINF:5.631000,
518097784784105-index10125.png
#EXTINF:3.962556,
518097784784105-index10126.png
#EXTINF:5.172178,
518097784784105-index10127.png
#EXTINF:3.211756,
518097784784105-index10128.png
#EXTINF:3.462022,
518097784784105-index10129.png
#EXTINF:2.085556,
518097784784105-index10130.png
#EXTINF:3.879133,
518097784784105-index10131.png
#EXTINF:4.755067,
518097784784105-index10132.png
#EXTINF:5.339022,
518097784784105-index10133.png
#EXTINF:10.010667,
518097784784105-index10134.png
#EXTINF:8.300511,
518097784784105-index10135.png
#EXTINF:9.259867,
518097784784105-index10136.png
#EXTINF:10.010667,
518097784784105-index10137.png
#EXTINF:10.010667,
518097784784105-index10138.png
#EXTINF:4.212822,
518097784784105-index10139.png
#EXTINF:3.754000,
518097784784105-index10140.png
#EXTINF:3.462022,
518097784784105-index10141.png
#EXTINF:7.841689,
518097784784105-index10142.png
#EXTINF:2.836356,
518097784784105-index10143.png
#EXTINF:1.334756,
518097784784105-index10144.png
#EXTINF:5.213889,
518097784784105-index10145.png
#EXTINF:5.213889,
518097784784105-index10146.png
#EXTINF:2.836356,
518097784784105-index10147.png
#EXTINF:10.010667,
518097784784105-index10148.png
#EXTINF:10.010667,
518097784784105-index10149.png
#EXTINF:3.462022,
518097784784105-index10150.png
#EXTINF:10.010667,
518097784784105-index10151.png
#EXTINF:4.796778,
518097784784105-index10152.png
#EXTINF:4.963622,
518097784784105-index10153.png
#EXTINF:10.010667,
518097784784105-index10154.png
#EXTINF:3.962556,
518097784784105-index10155.png
#EXTINF:1.835289,
518097784784105-index10156.png
#EXTINF:8.258800,
518097784784105-index10157.png
#EXTINF:6.840622,
518097784784105-index10158.png
#EXTINF:8.592489,
518097784784105-index10159.png
#EXTINF:10.010667,
518097784784105-index10160.png
#EXTINF:6.757200,
518097784784105-index10161.png
#EXTINF:10.010667,
518097784784105-index10162.png
#EXTINF:6.298378,
518097784784105-index10163.png
#EXTINF:10.010667,
518097784784105-index10164.png
#EXTINF:10.010667,
518097784784105-index10165.png
#EXTINF:0.959356,
518097784784105-index10166.png
#EXTINF:2.961489,
518097784784105-index10167.png
#EXTINF:3.211756,
518097784784105-index10168.png
#EXTINF:3.795711,
518097784784105-index10169.png
#EXTINF:1.418178,
518097784784105-index10170.png
#EXTINF:2.377533,
518097784784105-index10171.png
#EXTINF:1.084489,
518097784784105-index10172.png
#EXTINF:1.167911,
518097784784105-index10173.png
#EXTINF:10.010667,
518097784784105-index10174.png
#EXTINF:2.127267,
518097784784105-index10175.png
#EXTINF:2.168978,
518097784784105-index10176.png
#EXTINF:4.504800,
518097784784105-index10177.png
#EXTINF:6.089822,
518097784784105-index10178.png
#EXTINF:7.090889,
518097784784105-index10179.png
#EXTINF:2.210689,
518097784784105-index10180.png
#EXTINF:4.212822,
518097784784105-index10181.png
#EXTINF:3.336889,
518097784784105-index10182.png
#EXTINF:1.126200,
518097784784105-index10183.png
#EXTINF:2.377533,
518097784784105-index10184.png
#EXTINF:1.626733,
518097784784105-index10185.png
#EXTINF:7.925111,
518097784784105-index10186.png
#EXTINF:1.835289,
518097784784105-index10187.png
#EXTINF:1.835289,
518097784784105-index10188.png
#EXTINF:5.339022,
518097784784105-index10189.png
#EXTINF:3.170044,
518097784784105-index10190.png
#EXTINF:4.838489,
518097784784105-index10191.png
#EXTINF:5.756133,
518097784784105-index10192.png
#EXTINF:4.671644,
518097784784105-index10193.png
#EXTINF:10.010667,
518097784784105-index10194.png
#EXTINF:3.128333,
518097784784105-index10195.png
#EXTINF:2.460956,
518097784784105-index10196.png
#EXTINF:2.586089,
518097784784105-index10197.png
#EXTINF:9.968956,
518097784784105-index10198.png
#EXTINF:4.212822,
518097784784105-index10199.png
#EXTINF:8.175378,
518097784784105-index10200.png
#EXTINF:3.003200,
518097784784105-index10201.png
#EXTINF:8.884467,
518097784784105-index10202.png
#EXTINF:6.840622,
518097784784105-index10203.png
#EXTINF:2.127267,
518097784784105-index10204.png
#EXTINF:1.960422,
518097784784105-index10205.png
#EXTINF:1.459889,
518097784784105-index10206.png
#EXTINF:3.086622,
518097784784105-index10207.png
#EXTINF:1.793578,
518097784784105-index10208.png
#EXTINF:4.880200,
518097784784105-index10209.png
#EXTINF:7.925111,
518097784784105-index10210.png
#EXTINF:10.010667,
518097784784105-index10211.png
#EXTINF:3.503733,
518097784784105-index10212.png
#EXTINF:10.010667,
518097784784105-index10213.png
#EXTINF:5.422444,
518097784784105-index10214.png
#EXTINF:1.042778,
518097784784105-index10215.png
#EXTINF:2.460956,
518097784784105-index10216.png
#EXTINF:7.799978,
518097784784105-index10217.png
#EXTINF:4.588222,
518097784784105-index10218.png
#EXTINF:5.213889,
518097784784105-index10219.png
#EXTINF:3.295178,
518097784784105-index10220.png
#EXTINF:1.042778,
518097784784105-index10221.png
#EXTINF:1.835289,
518097784784105-index10222.png
#EXTINF:9.760400,
518097784784105-index10223.png
#EXTINF:3.462022,
518097784784105-index10224.png
#EXTINF:7.716556,
518097784784105-index10225.png
#EXTINF:2.210689,
518097784784105-index10226.png
#EXTINF:3.086622,
518097784784105-index10227.png
#EXTINF:10.010667,
518097784784105-index10228.png
#EXTINF:6.298378,
518097784784105-index10229.png
#EXTINF:5.714422,
518097784784105-index10230.png
#EXTINF:6.340089,
518097784784105-index10231.png
#EXTINF:1.459889,
518097784784105-index10232.png
#EXTINF:4.463089,
518097784784105-index10233.png
#EXTINF:6.590356,
518097784784105-index10234.png
#EXTINF:2.210689,
518097784784105-index10235.png
#EXTINF:3.754000,
518097784784105-index10236.png
#EXTINF:1.418178,
518097784784105-index10237.png
#EXTINF:4.463089,
518097784784105-index10238.png
#EXTINF:5.714422,
518097784784105-index10239.png
#EXTINF:1.334756,
518097784784105-index10240.png
#EXTINF:10.010667,
518097784784105-index10241.png
#EXTINF:9.176444,
518097784784105-index10242.png
#EXTINF:6.089822,
518097784784105-index10243.png
#EXTINF:2.961489,
518097784784105-index10244.png
#EXTINF:10.010667,
518097784784105-index10245.png
#EXTINF:7.716556,
518097784784105-index10246.png
#EXTINF:10.010667,
518097784784105-index10247.png
#EXTINF:3.545444,
518097784784105-index10248.png
#EXTINF:7.090889,
518097784784105-index10249.png
#EXTINF:7.841689,
518097784784105-index10250.png
#EXTINF:6.089822,
518097784784105-index10251.png
#EXTINF:10.010667,
518097784784105-index10252.png
#EXTINF:2.085556,
518097784784105-index10253.png
#EXTINF:2.586089,
518097784784105-index10254.png
#EXTINF:1.960422,
518097784784105-index10255.png
#EXTINF:9.343289,
518097784784105-index10256.png
#EXTINF:5.047044,
518097784784105-index10257.png
#EXTINF:10.010667,
518097784784105-index10258.png
#EXTINF:4.713356,
518097784784105-index10259.png
#EXTINF:4.588222,
518097784784105-index10260.png
#EXTINF:2.961489,
518097784784105-index10261.png
#EXTINF:1.459889,
518097784784105-index10262.png
#EXTINF:5.964689,
518097784784105-index10263.png
#EXTINF:2.961489,
518097784784105-index10264.png
#EXTINF:4.838489,
518097784784105-index10265.png
#EXTINF:7.174311,
518097784784105-index10266.png
#EXTINF:7.049178,
518097784784105-index10267.png
#EXTINF:5.464156,
518097784784105-index10268.png
#EXTINF:6.465222,
518097784784105-index10269.png
#EXTINF:6.506933,
518097784784105-index10270.png
#EXTINF:10.010667,
518097784784105-index10271.png
#EXTINF:5.172178,
518097784784105-index10272.png
#EXTINF:7.341156,
518097784784105-index10273.png
#EXTINF:10.010667,
518097784784105-index10274.png
#EXTINF:10.010667,
518097784784105-index10275.png
#EXTINF:7.424578,
518097784784105-index10276.png
#EXTINF:5.964689,
518097784784105-index10277.png
#EXTINF:1.710156,
518097784784105-index10278.png
#EXTINF:1.334756,
518097784784105-index10279.png
#EXTINF:2.168978,
518097784784105-index10280.png
#EXTINF:1.084489,
518097784784105-index10281.png
#EXTINF:1.042778,
518097784784105-index10282.png
#EXTINF:1.585022,
518097784784105-index10283.png
#EXTINF:2.836356,
518097784784105-index10284.png
#EXTINF:1.334756,
518097784784105-index10285.png
#EXTINF:1.710156,
518097784784105-index10286.png
#EXTINF:3.086622,
518097784784105-index10287.png
#EXTINF:2.377533,
518097784784105-index10288.png
#EXTINF:2.002133,
518097784784105-index10289.png
#EXTINF:2.043844,
518097784784105-index10290.png
#EXTINF:2.252400,
518097784784105-index10291.png
#EXTINF:2.669511,
518097784784105-index10292.png
#EXTINF:2.335822,
518097784784105-index10293.png
#EXTINF:2.252400,
518097784784105-index10294.png
#EXTINF:2.502667,
518097784784105-index10295.png
#EXTINF:2.460956,
518097784784105-index10296.png
#EXTINF:4.129400,
518097784784105-index10297.png
#EXTINF:6.214956,
518097784784105-index10298.png
#EXTINF:7.841689,
518097784784105-index10299.png
#EXTINF:3.211756,
518097784784105-index10300.png
#EXTINF:3.545444,
518097784784105-index10301.png
#EXTINF:7.132600,
518097784784105-index10302.png
#EXTINF:10.010667,
518097784784105-index10303.png
#EXTINF:3.712289,
518097784784105-index10304.png
#EXTINF:3.837422,
518097784784105-index10305.png
#EXTINF:1.334756,
518097784784105-index10306.png
#EXTINF:7.341156,
518097784784105-index10307.png
#EXTINF:6.924044,
518097784784105-index10308.png
#EXTINF:6.798911,
518097784784105-index10309.png
#EXTINF:3.044911,
518097784784105-index10310.png
#EXTINF:2.919778,
518097784784105-index10311.png
#EXTINF:1.626733,
518097784784105-index10312.png
#EXTINF:2.252400,
518097784784105-index10313.png
#EXTINF:1.001067,
518097784784105-index10314.png
#EXTINF:3.670578,
518097784784105-index10315.png
#EXTINF:3.462022,
518097784784105-index10316.png
#EXTINF:5.005333,
518097784784105-index10317.png
#EXT-X-ENDLIST
