#EXTM3U
#EXT-X-VERSION:3
#EXT-X-TARGETDURATION:11
#EXT-X-MEDIA-SEQUENCE:10001
#EXTINF:10.425000,
527567697481976-index10001.png
#EXTINF:3.836400,
527567697481976-index10002.png
#EXTINF:7.797900,
527567697481976-index10003.png
#EXTINF:10.383300,
527567697481976-index10004.png
#EXTINF:5.129100,
527567697481976-index10005.png
#EXTINF:3.336000,
527567697481976-index10006.png
#EXTINF:7.130700,
527567697481976-index10007.png
#EXTINF:10.425000,
527567697481976-index10008.png
#EXTINF:7.756200,
527567697481976-index10009.png
#EXTINF:9.007200,
527567697481976-index10010.png
#EXTINF:10.425000,
527567697481976-index10011.png
#EXTINF:1.709700,
527567697481976-index10012.png
#EXTINF:10.425000,
527567697481976-index10013.png
#EXTINF:8.465100,
527567697481976-index10014.png
#EXTINF:10.425000,
527567697481976-index10015.png
#EXTINF:8.548500,
527567697481976-index10016.png
#EXTINF:7.255800,
527567697481976-index10017.png
#EXTINF:10.425000,
527567697481976-index10018.png
#EXTINF:7.089000,
527567697481976-index10019.png
#EXTINF:10.216500,
527567697481976-index10020.png
#EXTINF:10.425000,
527567697481976-index10021.png
#EXTINF:8.548500,
527567697481976-index10022.png
#EXTINF:5.504400,
527567697481976-index10023.png
#EXTINF:6.797100,
527567697481976-index10024.png
#EXTINF:10.425000,
527567697481976-index10025.png
#EXTINF:7.714500,
527567697481976-index10026.png
#EXTINF:9.007200,
527567697481976-index10027.png
#EXTINF:6.505200,
527567697481976-index10028.png
#EXTINF:6.213300,
527567697481976-index10029.png
#EXTINF:9.257400,
527567697481976-index10030.png
#EXTINF:10.425000,
527567697481976-index10031.png
#EXTINF:5.045700,
527567697481976-index10032.png
#EXTINF:9.757800,
527567697481976-index10033.png
#EXTINF:6.255000,
527567697481976-index10034.png
#EXTINF:6.338400,
527567697481976-index10035.png
#EXTINF:8.256600,
527567697481976-index10036.png
#EXTINF:4.878900,
527567697481976-index10037.png
#EXTINF:3.753000,
527567697481976-index10038.png
#EXTINF:7.172400,
527567697481976-index10039.png
#EXTINF:10.425000,
527567697481976-index10040.png
#EXTINF:8.757000,
527567697481976-index10041.png
#EXTINF:5.421000,
527567697481976-index10042.png
#EXTINF:10.425000,
527567697481976-index10043.png
#EXTINF:4.378500,
527567697481976-index10044.png
#EXTINF:8.256600,
527567697481976-index10045.png
#EXTINF:10.425000,
527567697481976-index10046.png
#EXTINF:6.713700,
527567697481976-index10047.png
#EXTINF:5.087400,
527567697481976-index10048.png
#EXTINF:8.340000,
527567697481976-index10049.png
#EXTINF:10.383300,
527567697481976-index10050.png
#EXTINF:10.383300,
527567697481976-index10051.png
#EXTINF:10.425000,
527567697481976-index10052.png
#EXTINF:10.425000,
527567697481976-index10053.png
#EXTINF:10.299900,
527567697481976-index10054.png
#EXTINF:10.425000,
527567697481976-index10055.png
#EXTINF:4.962300,
527567697481976-index10056.png
#EXTINF:4.461900,
527567697481976-index10057.png
#EXTINF:5.754600,
527567697481976-index10058.png
#EXTINF:7.339200,
527567697481976-index10059.png
#EXTINF:10.425000,
527567697481976-index10060.png
#EXTINF:5.838000,
527567697481976-index10061.png
#EXTINF:6.004800,
527567697481976-index10062.png
#EXTINF:4.795500,
527567697481976-index10063.png
#EXTINF:9.382500,
527567697481976-index10064.png
#EXTINF:10.425000,
527567697481976-index10065.png
#EXTINF:10.425000,
527567697481976-index10066.png
#EXTINF:3.961500,
527567697481976-index10067.png
#EXTINF:8.131500,
527567697481976-index10068.png
#EXTINF:7.130700,
527567697481976-index10069.png
#EXTINF:3.753000,
527567697481976-index10070.png
#EXTINF:3.753000,
527567697481976-index10071.png
#EXTINF:9.174000,
527567697481976-index10072.png
#EXTINF:6.088200,
527567697481976-index10073.png
#EXTINF:5.421000,
527567697481976-index10074.png
#EXTINF:9.716100,
527567697481976-index10075.png
#EXTINF:5.129100,
527567697481976-index10076.png
#EXTINF:5.337600,
527567697481976-index10077.png
#EXTINF:2.001600,
527567697481976-index10078.png
#EXTINF:2.001600,
527567697481976-index10079.png
#EXTINF:8.006400,
527567697481976-index10080.png
#EXTINF:6.421800,
527567697481976-index10081.png
#EXTINF:4.253400,
527567697481976-index10082.png
#EXTINF:5.129100,
527567697481976-index10083.png
#EXTINF:6.255000,
527567697481976-index10084.png
#EXTINF:4.670400,
527567697481976-index10085.png
#EXTINF:8.715300,
527567697481976-index10086.png
#EXTINF:4.795500,
527567697481976-index10087.png
#EXTINF:3.502800,
527567697481976-index10088.png
#EXTINF:4.128300,
527567697481976-index10089.png
#EXTINF:2.418600,
527567697481976-index10090.png
#EXTINF:5.421000,
527567697481976-index10091.png
#EXTINF:3.377700,
527567697481976-index10092.png
#EXTINF:8.381700,
527567697481976-index10093.png
#EXTINF:5.254200,
527567697481976-index10094.png
#EXTINF:4.003200,
527567697481976-index10095.png
#EXTINF:10.425000,
527567697481976-index10096.png
#EXTINF:2.376900,
527567697481976-index10097.png
#EXTINF:10.049700,
527567697481976-index10098.png
#EXTINF:6.255000,
527567697481976-index10099.png
#EXTINF:7.464300,
527567697481976-index10100.png
#EXTINF:9.132300,
527567697481976-index10101.png
#EXTINF:5.879700,
527567697481976-index10102.png
#EXTINF:2.001600,
527567697481976-index10103.png
#EXTINF:6.255000,
527567697481976-index10104.png
#EXTINF:10.425000,
527567697481976-index10105.png
#EXTINF:7.797900,
527567697481976-index10106.png
#EXTINF:2.793900,
527567697481976-index10107.png
#EXTINF:4.086600,
527567697481976-index10108.png
#EXTINF:5.462700,
527567697481976-index10109.png
#EXTINF:4.712100,
527567697481976-index10110.png
#EXTINF:4.128300,
527567697481976-index10111.png
#EXTINF:2.752200,
527567697481976-index10112.png
#EXTINF:1.251000,
527567697481976-index10113.png
#EXTINF:4.545300,
527567697481976-index10114.png
#EXTINF:5.671200,
527567697481976-index10115.png
#EXTINF:2.793900,
527567697481976-index10116.png
#EXTINF:7.297500,
527567697481976-index10117.png
#EXTINF:8.256600,
527567697481976-index10118.png
#EXTINF:2.793900,
527567697481976-index10119.png
#EXTINF:5.546100,
527567697481976-index10120.png
#EXTINF:5.629500,
527567697481976-index10121.png
#EXTINF:6.880500,
527567697481976-index10122.png
#EXTINF:3.836400,
527567697481976-index10123.png
#EXTINF:4.170000,
527567697481976-index10124.png
#EXTINF:4.920600,
527567697481976-index10125.png
#EXT-X-ENDLIST
