#EXTM3U
#EXT-X-VERSION:3
#EXT-X-TARGETDURATION:11
#EXT-X-MEDIA-SEQUENCE:10001
#EXTINF:10.416667,
531627339207463-index10001.png
#EXTINF:10.416667,
531627339207463-index10002.png
#EXTINF:5.500000,
531627339207463-index10003.png
#EXTINF:10.416667,
531627339207463-index10004.png
#EXTINF:10.416667,
531627339207463-index10005.png
#EXTINF:8.166667,
531627339207463-index10006.png
#EXTINF:9.708333,
531627339207463-index10007.png
#EXTINF:8.916667,
531627339207463-index10008.png
#EXTINF:5.791667,
531627339207463-index10009.png
#EXTINF:8.458333,
531627339207463-index10010.png
#EXTINF:5.375000,
531627339207463-index10011.png
#EXTINF:8.208333,
531627339207463-index10012.png
#EXTINF:10.416667,
531627339207463-index10013.png
#EXTINF:10.416667,
531627339207463-index10014.png
#EXTINF:6.666667,
531627339207463-index10015.png
#EXTINF:6.541667,
531627339207463-index10016.png
#EXTINF:6.625000,
531627339207463-index10017.png
#EXTINF:6.791667,
531627339207463-index10018.png
#EXTINF:8.916667,
531627339207463-index10019.png
#EXTINF:8.916667,
531627339207463-index10020.png
#EXTINF:10.416667,
531627339207463-index10021.png
#EXTINF:10.416667,
531627339207463-index10022.png
#EXTINF:8.958333,
531627339207463-index10023.png
#EXTINF:5.708333,
531627339207463-index10024.png
#EXTINF:6.291667,
531627339207463-index10025.png
#EXTINF:6.916667,
531627339207463-index10026.png
#EXTINF:6.041667,
531627339207463-index10027.png
#EXTINF:10.416667,
531627339207463-index10028.png
#EXTINF:10.416667,
531627339207463-index10029.png
#EXTINF:10.416667,
531627339207463-index10030.png
#EXTINF:4.791667,
531627339207463-index10031.png
#EXTINF:5.166667,
531627339207463-index10032.png
#EXTINF:10.416667,
531627339207463-index10033.png
#EXTINF:10.416667,
531627339207463-index10034.png
#EXTINF:9.041667,
531627339207463-index10035.png
#EXTINF:8.083333,
531627339207463-index10036.png
#EXTINF:10.208333,
531627339207463-index10037.png
#EXTINF:10.000000,
531627339207463-index10038.png
#EXTINF:8.833333,
531627339207463-index10039.png
#EXTINF:5.500000,
531627339207463-index10040.png
#EXTINF:7.125000,
531627339207463-index10041.png
#EXTINF:10.416667,
531627339207463-index10042.png
#EXTINF:2.625000,
531627339207463-index10043.png
#EXTINF:4.333333,
531627339207463-index10044.png
#EXTINF:3.958333,
531627339207463-index10045.png
#EXTINF:2.583333,
531627339207463-index10046.png
#EXTINF:5.250000,
531627339207463-index10047.png
#EXTINF:2.166667,
531627339207463-index10048.png
#EXTINF:5.625000,
531627339207463-index10049.png
#EXTINF:4.458333,
531627339207463-index10050.png
#EXTINF:3.166667,
531627339207463-index10051.png
#EXTINF:4.750000,
531627339207463-index10052.png
#EXTINF:10.416667,
531627339207463-index10053.png
#EXTINF:8.833333,
531627339207463-index10054.png
#EXTINF:8.291667,
531627339207463-index10055.png
#EXTINF:8.083333,
531627339207463-index10056.png
#EXTINF:6.958333,
531627339207463-index10057.png
#EXTINF:10.416667,
531627339207463-index10058.png
#EXTINF:7.041667,
531627339207463-index10059.png
#EXT-X-ENDLIST
