#EXTM3U
#EXT-X-VERSION:3
#EXT-X-TARGETDURATION:10
#EXT-X-MEDIA-SEQUENCE:10001
#EXTINF:7.120000,
541268218722608-index10001.ts
#EXTINF:7.640000,
541268218722608-index10002.ts
#EXTINF:10.000000,
541268218722608-index10003.ts
#EXTINF:9.240000,
541268218722608-index10004.ts
#EXTINF:10.000000,
541268218722608-index10005.ts
#EXTINF:10.000000,
541268218722608-index10006.ts
#EXTINF:8.840000,
541268218722608-index10007.ts
#EXTINF:4.000000,
541268218722608-index10008.ts
#EXTINF:10.000000,
541268218722608-index10009.ts
#EXTINF:10.000000,
541268218722608-index10010.ts
#EXTINF:10.000000,
541268218722608-index10011.ts
#EXTINF:10.000000,
541268218722608-index10012.ts
#EXTINF:5.000000,
541268218722608-index10013.ts
#EXTINF:10.000000,
541268218722608-index10014.ts
#EXTINF:7.480000,
541268218722608-index10015.ts
#EXTINF:9.160000,
541268218722608-index10016.ts
#EXTINF:3.800000,
541268218722608-index10017.ts
#EXTINF:7.200000,
541268218722608-index10018.ts
#EXTINF:5.320000,
541268218722608-index10019.ts
#EXTINF:8.120000,
541268218722608-index10020.ts
#EXTINF:8.280000,
541268218722608-index10021.ts
#EXTINF:9.680000,
541268218722608-index10022.ts
#EXTINF:5.000000,
541268218722608-index10023.ts
#EXTINF:7.440000,
541268218722608-index10024.ts
#EXTINF:7.120000,
541268218722608-index10025.ts
#EXTINF:8.400000,
541268218722608-index10026.ts
#EXTINF:8.080000,
541268218722608-index10027.ts
#EXTINF:7.360000,
541268218722608-index10028.ts
#EXTINF:5.840000,
541268218722608-index10029.ts
#EXTINF:8.840000,
541268218722608-index10030.ts
#EXTINF:8.440000,
541268218722608-index10031.ts
#EXTINF:6.600000,
541268218722608-index10032.ts
#EXTINF:4.680000,
541268218722608-index10033.ts
#EXTINF:5.040000,
541268218722608-index10034.ts
#EXTINF:8.720000,
541268218722608-index10035.ts
#EXTINF:6.120000,
541268218722608-index10036.ts
#EXTINF:1.840000,
541268218722608-index10037.ts
#EXTINF:6.080000,
541268218722608-index10038.ts
#EXTINF:2.800000,
541268218722608-index10039.ts
#EXTINF:7.480000,
541268218722608-index10040.ts
#EXTINF:4.600000,
541268218722608-index10041.ts
#EXTINF:5.840000,
541268218722608-index10042.ts
#EXTINF:7.400000,
541268218722608-index10043.ts
#EXTINF:10.000000,
541268218722608-index10044.ts
#EXTINF:10.000000,
541268218722608-index10045.ts
#EXTINF:5.280000,
541268218722608-index10046.ts
#EXTINF:7.280000,
541268218722608-index10047.ts
#EXTINF:10.000000,
541268218722608-index10048.ts
#EXTINF:10.000000,
541268218722608-index10049.ts
#EXTINF:2.040000,
541268218722608-index10050.ts
#EXTINF:7.840000,
541268218722608-index10051.ts
#EXTINF:10.000000,
541268218722608-index10052.ts
#EXTINF:10.000000,
541268218722608-index10053.ts
#EXTINF:10.000000,
541268218722608-index10054.ts
#EXTINF:8.400000,
541268218722608-index10055.ts
#EXTINF:3.240000,
541268218722608-index10056.ts
#EXTINF:9.200000,
541268218722608-index10057.ts
#EXTINF:7.640000,
541268218722608-index10058.ts
#EXTINF:10.000000,
541268218722608-index10059.ts
#EXTINF:10.000000,
541268218722608-index10060.ts
#EXTINF:5.320000,
541268218722608-index10061.ts
#EXTINF:10.000000,
541268218722608-index10062.ts
#EXTINF:8.120000,
541268218722608-index10063.ts
#EXTINF:10.000000,
541268218722608-index10064.ts
#EXTINF:10.000000,
541268218722608-index10065.ts
#EXTINF:10.000000,
541268218722608-index10066.ts
#EXTINF:9.760000,
541268218722608-index10067.ts
#EXTINF:10.000000,
541268218722608-index10068.ts
#EXTINF:10.000000,
541268218722608-index10069.ts
#EXTINF:3.760000,
541268218722608-index10070.ts
#EXTINF:4.560000,
541268218722608-index10071.ts
#EXTINF:3.800000,
541268218722608-index10072.ts
#EXTINF:3.680000,
541268218722608-index10073.ts
#EXTINF:6.200000,
541268218722608-index10074.ts
#EXTINF:8.360000,
541268218722608-index10075.ts
#EXTINF:7.840000,
541268218722608-index10076.ts
#EXTINF:4.520000,
541268218722608-index10077.ts
#EXTINF:3.520000,
541268218722608-index10078.ts
#EXTINF:7.960000,
541268218722608-index10079.ts
#EXTINF:4.240000,
541268218722608-index10080.ts
#EXTINF:6.200000,
541268218722608-index10081.ts
#EXTINF:9.680000,
541268218722608-index10082.ts
#EXTINF:8.320000,
541268218722608-index10083.ts
#EXTINF:9.360000,
541268218722608-index10084.ts
#EXTINF:9.960000,
541268218722608-index10085.ts
#EXTINF:10.000000,
541268218722608-index10086.ts
#EXTINF:4.440000,
541268218722608-index10087.ts
#EXTINF:4.080000,
541268218722608-index10088.ts
#EXTINF:2.880000,
541268218722608-index10089.ts
#EXTINF:8.760000,
541268218722608-index10090.ts
#EXTINF:3.360000,
541268218722608-index10091.ts
#EXTINF:7.680000,
541268218722608-index10092.ts
#EXTINF:9.480000,
541268218722608-index10093.ts
#EXTINF:3.480000,
541268218722608-index10094.ts
#EXTINF:3.960000,
541268218722608-index10095.ts
#EXTINF:5.200000,
541268218722608-index10096.ts
#EXTINF:5.880000,
541268218722608-index10097.ts
#EXTINF:4.680000,
541268218722608-index10098.ts
#EXTINF:5.760000,
541268218722608-index10099.ts
#EXTINF:3.080000,
541268218722608-index10100.ts
#EXTINF:6.200000,
541268218722608-index10101.ts
#EXTINF:6.440000,
541268218722608-index10102.ts
#EXTINF:8.760000,
541268218722608-index10103.ts
#EXTINF:7.680000,
541268218722608-index10104.ts
#EXTINF:6.320000,
541268218722608-index10105.ts
#EXTINF:3.160000,
541268218722608-index10106.ts
#EXTINF:3.720000,
541268218722608-index10107.ts
#EXTINF:3.600000,
541268218722608-index10108.ts
#EXTINF:5.520000,
541268218722608-index10109.ts
#EXTINF:4.560000,
541268218722608-index10110.ts
#EXTINF:3.520000,
541268218722608-index10111.ts
#EXTINF:5.640000,
541268218722608-index10112.ts
#EXTINF:5.080000,
541268218722608-index10113.ts
#EXTINF:6.720000,
541268218722608-index10114.ts
#EXTINF:5.200000,
541268218722608-index10115.ts
#EXTINF:5.560000,
541268218722608-index10116.ts
#EXTINF:5.560000,
541268218722608-index10117.ts
#EXTINF:7.960000,
541268218722608-index10118.ts
#EXTINF:3.120000,
541268218722608-index10119.ts
#EXTINF:7.760000,
541268218722608-index10120.ts
#EXTINF:5.480000,
541268218722608-index10121.ts
#EXTINF:4.640000,
541268218722608-index10122.ts
#EXTINF:3.080000,
541268218722608-index10123.ts
#EXTINF:5.600000,
541268218722608-index10124.ts
#EXTINF:4.360000,
541268218722608-index10125.ts
#EXTINF:8.080000,
541268218722608-index10126.ts
#EXTINF:4.280000,
541268218722608-index10127.ts
#EXTINF:6.200000,
541268218722608-index10128.ts
#EXTINF:6.360000,
541268218722608-index10129.ts
#EXTINF:8.200000,
541268218722608-index10130.ts
#EXTINF:3.200000,
541268218722608-index10131.ts
#EXTINF:3.600000,
541268218722608-index10132.ts
#EXTINF:4.960000,
541268218722608-index10133.ts
#EXTINF:6.240000,
541268218722608-index10134.ts
#EXTINF:10.000000,
541268218722608-index10135.ts
#EXTINF:9.680000,
541268218722608-index10136.ts
#EXTINF:9.280000,
541268218722608-index10137.ts
#EXTINF:10.000000,
541268218722608-index10138.ts
#EXTINF:7.520000,
541268218722608-index10139.ts
#EXTINF:6.200000,
541268218722608-index10140.ts
#EXTINF:10.000000,
541268218722608-index10141.ts
#EXTINF:8.240000,
541268218722608-index10142.ts
#EXTINF:4.200000,
541268218722608-index10143.ts
#EXTINF:2.480000,
541268218722608-index10144.ts
#EXTINF:8.160000,
541268218722608-index10145.ts
#EXTINF:10.000000,
541268218722608-index10146.ts
#EXTINF:6.080000,
541268218722608-index10147.ts
#EXTINF:6.080000,
541268218722608-index10148.ts
#EXTINF:6.240000,
541268218722608-index10149.ts
#EXTINF:6.240000,
541268218722608-index10150.ts
#EXTINF:5.120000,
541268218722608-index10151.ts
#EXTINF:10.000000,
541268218722608-index10152.ts
#EXTINF:4.000000,
541268218722608-index10153.ts
#EXTINF:5.360000,
541268218722608-index10154.ts
#EXTINF:8.080000,
541268218722608-index10155.ts
#EXTINF:4.600000,
541268218722608-index10156.ts
#EXTINF:8.880000,
541268218722608-index10157.ts
#EXTINF:8.000000,
541268218722608-index10158.ts
#EXTINF:8.920000,
541268218722608-index10159.ts
#EXTINF:4.160000,
541268218722608-index10160.ts
#EXTINF:4.560000,
541268218722608-index10161.ts
#EXTINF:10.000000,
541268218722608-index10162.ts
#EXTINF:5.640000,
541268218722608-index10163.ts
#EXTINF:10.000000,
541268218722608-index10164.ts
#EXTINF:6.120000,
541268218722608-index10165.ts
#EXTINF:10.000000,
541268218722608-index10166.ts
#EXTINF:8.200000,
541268218722608-index10167.ts
#EXTINF:10.000000,
541268218722608-index10168.ts
#EXTINF:7.000000,
541268218722608-index10169.ts
#EXTINF:3.720000,
541268218722608-index10170.ts
#EXTINF:6.120000,
541268218722608-index10171.ts
#EXTINF:9.200000,
541268218722608-index10172.ts
#EXTINF:4.440000,
541268218722608-index10173.ts
#EXTINF:8.280000,
541268218722608-index10174.ts
#EXTINF:8.160000,
541268218722608-index10175.ts
#EXTINF:10.000000,
541268218722608-index10176.ts
#EXTINF:10.000000,
541268218722608-index10177.ts
#EXTINF:10.000000,
541268218722608-index10178.ts
#EXTINF:8.520000,
541268218722608-index10179.ts
#EXTINF:9.480000,
541268218722608-index10180.ts
#EXTINF:10.000000,
541268218722608-index10181.ts
#EXTINF:3.560000,
541268218722608-index10182.ts
#EXTINF:10.000000,
541268218722608-index10183.ts
#EXTINF:8.080000,
541268218722608-index10184.ts
#EXTINF:5.680000,
541268218722608-index10185.ts
#EXTINF:3.160000,
541268218722608-index10186.ts
#EXTINF:9.160000,
541268218722608-index10187.ts
#EXTINF:10.000000,
541268218722608-index10188.ts
#EXTINF:6.960000,
541268218722608-index10189.ts
#EXTINF:5.400000,
541268218722608-index10190.ts
#EXTINF:10.000000,
541268218722608-index10191.ts
#EXTINF:4.600000,
541268218722608-index10192.ts
#EXTINF:6.840000,
541268218722608-index10193.ts
#EXTINF:8.280000,
541268218722608-index10194.ts
#EXTINF:6.240000,
541268218722608-index10195.ts
#EXTINF:7.400000,
541268218722608-index10196.ts
#EXTINF:8.440000,
541268218722608-index10197.ts
#EXTINF:10.000000,
541268218722608-index10198.ts
#EXTINF:4.520000,
541268218722608-index10199.ts
#EXTINF:10.000000,
541268218722608-index10200.ts
#EXTINF:10.000000,
541268218722608-index10201.ts
#EXTINF:8.400000,
541268218722608-index10202.ts
#EXTINF:5.960000,
541268218722608-index10203.ts
#EXTINF:10.000000,
541268218722608-index10204.ts
#EXTINF:6.440000,
541268218722608-index10205.ts
#EXTINF:5.800000,
541268218722608-index10206.ts
#EXTINF:10.000000,
541268218722608-index10207.ts
#EXTINF:5.520000,
541268218722608-index10208.ts
#EXTINF:7.040000,
541268218722608-index10209.ts
#EXTINF:4.240000,
541268218722608-index10210.ts
#EXTINF:3.120000,
541268218722608-index10211.ts
#EXTINF:6.960000,
541268218722608-index10212.ts
#EXTINF:5.440000,
541268218722608-index10213.ts
#EXTINF:3.840000,
541268218722608-index10214.ts
#EXTINF:7.120000,
541268218722608-index10215.ts
#EXTINF:6.000000,
541268218722608-index10216.ts
#EXTINF:7.000000,
541268218722608-index10217.ts
#EXTINF:7.240000,
541268218722608-index10218.ts
#EXTINF:9.160000,
541268218722608-index10219.ts
#EXTINF:6.880000,
541268218722608-index10220.ts
#EXTINF:10.000000,
541268218722608-index10221.ts
#EXTINF:7.360000,
541268218722608-index10222.ts
#EXTINF:10.000000,
541268218722608-index10223.ts
#EXTINF:6.720000,
541268218722608-index10224.ts
#EXTINF:8.960000,
541268218722608-index10225.ts
#EXTINF:5.200000,
541268218722608-index10226.ts
#EXTINF:6.560000,
541268218722608-index10227.ts
#EXTINF:9.280000,
541268218722608-index10228.ts
#EXTINF:3.680000,
541268218722608-index10229.ts
#EXTINF:10.000000,
541268218722608-index10230.ts
#EXTINF:8.760000,
541268218722608-index10231.ts
#EXTINF:6.560000,
541268218722608-index10232.ts
#EXTINF:10.000000,
541268218722608-index10233.ts
#EXTINF:9.360000,
541268218722608-index10234.ts
#EXTINF:10.000000,
541268218722608-index10235.ts
#EXTINF:8.560000,
541268218722608-index10236.ts
#EXTINF:3.080000,
541268218722608-index10237.ts
#EXTINF:9.280000,
541268218722608-index10238.ts
#EXTINF:2.880000,
541268218722608-index10239.ts
#EXTINF:9.800000,
541268218722608-index10240.ts
#EXTINF:7.160000,
541268218722608-index10241.ts
#EXTINF:7.400000,
541268218722608-index10242.ts
#EXTINF:5.960000,
541268218722608-index10243.ts
#EXTINF:10.000000,
541268218722608-index10244.ts
#EXTINF:8.160000,
541268218722608-index10245.ts
#EXTINF:3.480000,
541268218722608-index10246.ts
#EXTINF:5.040000,
541268218722608-index10247.ts
#EXTINF:10.000000,
541268218722608-index10248.ts
#EXTINF:7.840000,
541268218722608-index10249.ts
#EXTINF:10.000000,
541268218722608-index10250.ts
#EXTINF:7.560000,
541268218722608-index10251.ts
#EXTINF:9.280000,
541268218722608-index10252.ts
#EXTINF:3.400000,
541268218722608-index10253.ts
#EXTINF:9.080000,
541268218722608-index10254.ts
#EXTINF:10.000000,
541268218722608-index10255.ts
#EXTINF:5.760000,
541268218722608-index10256.ts
#EXTINF:5.960000,
541268218722608-index10257.ts
#EXTINF:7.600000,
541268218722608-index10258.ts
#EXTINF:7.600000,
541268218722608-index10259.ts
#EXTINF:10.000000,
541268218722608-index10260.ts
#EXTINF:10.000000,
541268218722608-index10261.ts
#EXTINF:6.360000,
541268218722608-index10262.ts
#EXTINF:4.040000,
541268218722608-index10263.ts
#EXTINF:8.360000,
541268218722608-index10264.ts
#EXTINF:10.000000,
541268218722608-index10265.ts
#EXTINF:6.480000,
541268218722608-index10266.ts
#EXTINF:7.040000,
541268218722608-index10267.ts
#EXTINF:6.520000,
541268218722608-index10268.ts
#EXTINF:8.920000,
541268218722608-index10269.ts
#EXTINF:4.560000,
541268218722608-index10270.ts
#EXTINF:5.440000,
541268218722608-index10271.ts
#EXTINF:4.000000,
541268218722608-index10272.ts
#EXTINF:8.800000,
541268218722608-index10273.ts
#EXTINF:10.000000,
541268218722608-index10274.ts
#EXTINF:6.520000,
541268218722608-index10275.ts
#EXTINF:3.240000,
541268218722608-index10276.ts
#EXTINF:3.120000,
541268218722608-index10277.ts
#EXTINF:8.440000,
541268218722608-index10278.ts
#EXTINF:10.000000,
541268218722608-index10279.ts
#EXTINF:6.280000,
541268218722608-index10280.ts
#EXTINF:9.880000,
541268218722608-index10281.ts
#EXTINF:6.000000,
541268218722608-index10282.ts
#EXTINF:5.720000,
541268218722608-index10283.ts
#EXTINF:4.840000,
541268218722608-index10284.ts
#EXTINF:6.520000,
541268218722608-index10285.ts
#EXTINF:10.000000,
541268218722608-index10286.ts
#EXTINF:4.480000,
541268218722608-index10287.ts
#EXTINF:10.000000,
541268218722608-index10288.ts
#EXTINF:3.280000,
541268218722608-index10289.ts
#EXTINF:6.640000,
541268218722608-index10290.ts
#EXTINF:10.000000,
541268218722608-index10291.ts
#EXTINF:10.000000,
541268218722608-index10292.ts
#EXTINF:10.000000,
541268218722608-index10293.ts
#EXTINF:6.200000,
541268218722608-index10294.ts
#EXTINF:5.600000,
541268218722608-index10295.ts
#EXTINF:3.520000,
541268218722608-index10296.ts
#EXTINF:7.600000,
541268218722608-index10297.ts
#EXTINF:9.880000,
541268218722608-index10298.ts
#EXTINF:8.560000,
541268218722608-index10299.ts
#EXTINF:9.480000,
541268218722608-index10300.ts
#EXTINF:8.120000,
541268218722608-index10301.ts
#EXTINF:4.400000,
541268218722608-index10302.ts
#EXTINF:10.000000,
541268218722608-index10303.ts
#EXTINF:10.000000,
541268218722608-index10304.ts
#EXTINF:7.720000,
541268218722608-index10305.ts
#EXTINF:9.400000,
541268218722608-index10306.ts
#EXTINF:10.000000,
541268218722608-index10307.ts
#EXTINF:10.000000,
541268218722608-index10308.ts
#EXTINF:9.720000,
541268218722608-index10309.ts
#EXTINF:10.000000,
541268218722608-index10310.ts
#EXTINF:6.280000,
541268218722608-index10311.ts
#EXTINF:4.760000,
541268218722608-index10312.ts
#EXTINF:3.880000,
541268218722608-index10313.ts
#EXTINF:4.320000,
541268218722608-index10314.ts
#EXTINF:3.200000,
541268218722608-index10315.ts
#EXTINF:3.760000,
541268218722608-index10316.ts
#EXTINF:6.400000,
541268218722608-index10317.ts
#EXTINF:6.280000,
541268218722608-index10318.ts
#EXTINF:4.120000,
541268218722608-index10319.ts
#EXTINF:1.440000,
541268218722608-index10320.ts
#EXTINF:5.360000,
541268218722608-index10321.ts
#EXTINF:4.600000,
541268218722608-index10322.ts
#EXTINF:7.840000,
541268218722608-index10323.ts
#EXTINF:4.280000,
541268218722608-index10324.ts
#EXTINF:5.080000,
541268218722608-index10325.ts
#EXTINF:3.680000,
541268218722608-index10326.ts
#EXTINF:2.000000,
541268218722608-index10327.ts
#EXTINF:5.040000,
541268218722608-index10328.ts
#EXTINF:9.560000,
541268218722608-index10329.ts
#EXTINF:10.000000,
541268218722608-index10330.ts
#EXTINF:10.000000,
541268218722608-index10331.ts
#EXTINF:10.000000,
541268218722608-index10332.ts
#EXTINF:10.000000,
541268218722608-index10333.ts
#EXTINF:9.400000,
541268218722608-index10334.ts
#EXTINF:10.000000,
541268218722608-index10335.ts
#EXTINF:10.000000,
541268218722608-index10336.ts
#EXTINF:8.360000,
541268218722608-index10337.ts
#EXTINF:10.000000,
541268218722608-index10338.ts
#EXTINF:10.000000,
541268218722608-index10339.ts
#EXTINF:4.800000,
541268218722608-index10340.ts
#EXTINF:10.000000,
541268218722608-index10341.ts
#EXTINF:10.000000,
541268218722608-index10342.ts
#EXTINF:10.000000,
541268218722608-index10343.ts
#EXTINF:10.000000,
541268218722608-index10344.ts
#EXTINF:9.880000,
541268218722608-index10345.ts
#EXTINF:8.800000,
541268218722608-index10346.ts
#EXTINF:10.000000,
541268218722608-index10347.ts
#EXTINF:10.000000,
541268218722608-index10348.ts
#EXTINF:10.000000,
541268218722608-index10349.ts
#EXTINF:10.000000,
541268218722608-index10350.ts
#EXTINF:8.880000,
541268218722608-index10351.ts
#EXTINF:10.000000,
541268218722608-index10352.ts
#EXTINF:10.000000,
541268218722608-index10353.ts
#EXTINF:10.000000,
541268218722608-index10354.ts
#EXTINF:10.000000,
541268218722608-index10355.ts
#EXTINF:10.000000,
541268218722608-index10356.ts
#EXTINF:10.000000,
541268218722608-index10357.ts
#EXTINF:9.320000,
541268218722608-index10358.ts
#EXTINF:7.920000,
541268218722608-index10359.ts
#EXTINF:3.160000,
541268218722608-index10360.ts
#EXTINF:6.000000,
541268218722608-index10361.ts
#EXTINF:9.440000,
541268218722608-index10362.ts
#EXTINF:6.360000,
541268218722608-index10363.ts
#EXTINF:3.480000,
541268218722608-index10364.ts
#EXTINF:3.120000,
541268218722608-index10365.ts
#EXTINF:4.760000,
541268218722608-index10366.ts
#EXTINF:4.720000,
541268218722608-index10367.ts
#EXTINF:8.920000,
541268218722608-index10368.ts
#EXTINF:3.400000,
541268218722608-index10369.ts
#EXTINF:7.840000,
541268218722608-index10370.ts
#EXTINF:8.120000,
541268218722608-index10371.ts
#EXTINF:6.080000,
541268218722608-index10372.ts
#EXTINF:7.080000,
541268218722608-index10373.ts
#EXTINF:8.360000,
541268218722608-index10374.ts
#EXTINF:7.720000,
541268218722608-index10375.ts
#EXTINF:5.640000,
541268218722608-index10376.ts
#EXTINF:3.200000,
541268218722608-index10377.ts
#EXTINF:4.760000,
541268218722608-index10378.ts
#EXTINF:7.800000,
541268218722608-index10379.ts
#EXTINF:8.040000,
541268218722608-index10380.ts
#EXTINF:6.520000,
541268218722608-index10381.ts
#EXTINF:5.880000,
541268218722608-index10382.ts
#EXT-X-ENDLIST
