#EXTM3U
#EXT-X-VERSION:3
#EXT-X-TARGETDURATION:15
#EXT-X-MEDIA-SEQUENCE:10001
#EXTINF:7.593889,
544545630613962-index10001.ts
#EXTINF:5.800000,
544545630613962-index10002.ts
#EXTINF:8.880000,
544545630613962-index10003.ts
#EXTINF:2.280000,
544545630613962-index10004.ts
#EXTINF:8.320000,
544545630613962-index10005.ts
#EXTINF:3.920000,
544545630613962-index10006.ts
#EXTINF:5.800000,
544545630613962-index10007.ts
#EXTINF:7.600000,
544545630613962-index10008.ts
#EXTINF:4.680000,
544545630613962-index10009.ts
#EXTINF:7.400000,
544545630613962-index10010.ts
#EXTINF:8.080000,
544545630613962-index10011.ts
#EXTINF:3.800000,
544545630613962-index10012.ts
#EXTINF:6.800000,
544545630613962-index10013.ts
#EXTINF:4.040000,
544545630613962-index10014.ts
#EXTINF:6.760000,
544545630613962-index10015.ts
#EXTINF:4.960000,
544545630613962-index10016.ts
#EXTINF:7.720000,
544545630613962-index10017.ts
#EXTINF:7.400000,
544545630613962-index10018.ts
#EXTINF:4.880000,
544545630613962-index10019.ts
#EXTINF:3.720000,
544545630613962-index10020.ts
#EXTINF:10.000000,
544545630613962-index10021.ts
#EXTINF:1.680000,
544545630613962-index10022.ts
#EXTINF:10.000000,
544545630613962-index10023.ts
#EXTINF:3.360000,
544545630613962-index10024.ts
#EXTINF:10.720000,
544545630613962-index10025.ts
#EXTINF:2.600000,
544545630613962-index10026.ts
#EXTINF:9.800000,
544545630613962-index10027.ts
#EXTINF:10.000000,
544545630613962-index10028.ts
#EXTINF:10.000000,
544545630613962-index10029.ts
#EXTINF:2.080000,
544545630613962-index10030.ts
#EXTINF:1.840000,
544545630613962-index10031.ts
#EXTINF:3.480000,
544545630613962-index10032.ts
#EXTINF:6.080000,
544545630613962-index10033.ts
#EXTINF:4.440000,
544545630613962-index10034.ts
#EXTINF:4.760000,
544545630613962-index10035.ts
#EXTINF:4.880000,
544545630613962-index10036.ts
#EXTINF:9.640000,
544545630613962-index10037.ts
#EXTINF:2.440000,
544545630613962-index10038.ts
#EXTINF:8.320000,
544545630613962-index10039.ts
#EXTINF:6.040000,
544545630613962-index10040.ts
#EXTINF:4.120000,
544545630613962-index10041.ts
#EXTINF:5.720000,
544545630613962-index10042.ts
#EXTINF:7.400000,
544545630613962-index10043.ts
#EXTINF:9.400000,
544545630613962-index10044.ts
#EXTINF:4.040000,
544545630613962-index10045.ts
#EXTINF:2.880000,
544545630613962-index10046.ts
#EXTINF:10.000000,
544545630613962-index10047.ts
#EXTINF:5.080000,
544545630613962-index10048.ts
#EXTINF:3.240000,
544545630613962-index10049.ts
#EXTINF:7.240000,
544545630613962-index10050.ts
#EXTINF:7.240000,
544545630613962-index10051.ts
#EXTINF:6.760000,
544545630613962-index10052.ts
#EXTINF:7.880000,
544545630613962-index10053.ts
#EXTINF:10.000000,
544545630613962-index10054.ts
#EXTINF:7.960000,
544545630613962-index10055.ts
#EXTINF:6.640000,
544545630613962-index10056.ts
#EXTINF:8.440000,
544545630613962-index10057.ts
#EXTINF:4.880000,
544545630613962-index10058.ts
#EXTINF:1.760000,
544545630613962-index10059.ts
#EXTINF:1.280000,
544545630613962-index10060.ts
#EXTINF:2.920000,
544545630613962-index10061.ts
#EXTINF:4.880000,
544545630613962-index10062.ts
#EXTINF:7.560000,
544545630613962-index10063.ts
#EXTINF:6.600000,
544545630613962-index10064.ts
#EXTINF:3.520000,
544545630613962-index10065.ts
#EXTINF:6.040000,
544545630613962-index10066.ts
#EXTINF:9.560000,
544545630613962-index10067.ts
#EXTINF:3.800000,
544545630613962-index10068.ts
#EXTINF:6.200000,
544545630613962-index10069.ts
#EXTINF:4.960000,
544545630613962-index10070.ts
#EXTINF:8.040000,
544545630613962-index10071.ts
#EXTINF:3.400000,
544545630613962-index10072.ts
#EXTINF:7.160000,
544545630613962-index10073.ts
#EXTINF:9.440000,
544545630613962-index10074.ts
#EXTINF:2.440000,
544545630613962-index10075.ts
#EXTINF:6.160000,
544545630613962-index10076.ts
#EXTINF:6.520000,
544545630613962-index10077.ts
#EXTINF:8.680000,
544545630613962-index10078.ts
#EXTINF:1.600000,
544545630613962-index10079.ts
#EXTINF:9.040000,
544545630613962-index10080.ts
#EXTINF:6.480000,
544545630613962-index10081.ts
#EXTINF:3.800000,
544545630613962-index10082.ts
#EXTINF:6.240000,
544545630613962-index10083.ts
#EXTINF:5.880000,
544545630613962-index10084.ts
#EXTINF:7.960000,
544545630613962-index10085.ts
#EXTINF:10.000000,
544545630613962-index10086.ts
#EXTINF:5.760000,
544545630613962-index10087.ts
#EXTINF:3.600000,
544545630613962-index10088.ts
#EXTINF:7.040000,
544545630613962-index10089.ts
#EXTINF:6.000000,
544545630613962-index10090.ts
#EXTINF:2.160000,
544545630613962-index10091.ts
#EXTINF:4.160000,
544545630613962-index10092.ts
#EXTINF:6.360000,
544545630613962-index10093.ts
#EXTINF:8.040000,
544545630613962-index10094.ts
#EXTINF:5.960000,
544545630613962-index10095.ts
#EXTINF:10.000000,
544545630613962-index10096.ts
#EXTINF:5.720000,
544545630613962-index10097.ts
#EXTINF:5.800000,
544545630613962-index10098.ts
#EXTINF:4.400000,
544545630613962-index10099.ts
#EXTINF:3.000000,
544545630613962-index10100.ts
#EXTINF:6.320000,
544545630613962-index10101.ts
#EXTINF:6.800000,
544545630613962-index10102.ts
#EXTINF:5.760000,
544545630613962-index10103.ts
#EXTINF:12.480000,
544545630613962-index10104.ts
#EXTINF:1.120000,
544545630613962-index10105.ts
#EXTINF:4.120000,
544545630613962-index10106.ts
#EXTINF:5.160000,
544545630613962-index10107.ts
#EXTINF:6.440000,
544545630613962-index10108.ts
#EXTINF:6.920000,
544545630613962-index10109.ts
#EXTINF:4.040000,
544545630613962-index10110.ts
#EXTINF:6.520000,
544545630613962-index10111.ts
#EXTINF:9.240000,
544545630613962-index10112.ts
#EXTINF:2.440000,
544545630613962-index10113.ts
#EXTINF:6.840000,
544545630613962-index10114.ts
#EXTINF:5.280000,
544545630613962-index10115.ts
#EXTINF:6.160000,
544545630613962-index10116.ts
#EXTINF:5.640000,
544545630613962-index10117.ts
#EXTINF:10.000000,
544545630613962-index10118.ts
#EXTINF:7.480000,
544545630613962-index10119.ts
#EXTINF:5.880000,
544545630613962-index10120.ts
#EXTINF:5.080000,
544545630613962-index10121.ts
#EXTINF:2.040000,
544545630613962-index10122.ts
#EXTINF:7.840000,
544545630613962-index10123.ts
#EXTINF:3.040000,
544545630613962-index10124.ts
#EXTINF:9.240000,
544545630613962-index10125.ts
#EXTINF:8.120000,
544545630613962-index10126.ts
#EXTINF:2.880000,
544545630613962-index10127.ts
#EXTINF:5.080000,
544545630613962-index10128.ts
#EXTINF:13.160000,
544545630613962-index10129.ts
#EXTINF:6.320000,
544545630613962-index10130.ts
#EXTINF:2.720000,
544545630613962-index10131.ts
#EXTINF:3.640000,
544545630613962-index10132.ts
#EXTINF:2.800000,
544545630613962-index10133.ts
#EXTINF:8.400000,
544545630613962-index10134.ts
#EXTINF:7.160000,
544545630613962-index10135.ts
#EXTINF:7.520000,
544545630613962-index10136.ts
#EXTINF:8.560000,
544545630613962-index10137.ts
#EXTINF:2.160000,
544545630613962-index10138.ts
#EXTINF:7.640000,
544545630613962-index10139.ts
#EXTINF:5.440000,
544545630613962-index10140.ts
#EXTINF:2.920000,
544545630613962-index10141.ts
#EXTINF:5.120000,
544545630613962-index10142.ts
#EXTINF:7.560000,
544545630613962-index10143.ts
#EXTINF:4.720000,
544545630613962-index10144.ts
#EXTINF:5.640000,
544545630613962-index10145.ts
#EXTINF:6.800000,
544545630613962-index10146.ts
#EXTINF:6.800000,
544545630613962-index10147.ts
#EXTINF:3.920000,
544545630613962-index10148.ts
#EXTINF:6.840000,
544545630613962-index10149.ts
#EXTINF:6.120000,
544545630613962-index10150.ts
#EXTINF:10.480000,
544545630613962-index10151.ts
#EXTINF:10.000000,
544545630613962-index10152.ts
#EXTINF:8.240000,
544545630613962-index10153.ts
#EXTINF:4.400000,
544545630613962-index10154.ts
#EXTINF:4.120000,
544545630613962-index10155.ts
#EXTINF:2.560000,
544545630613962-index10156.ts
#EXTINF:2.640000,
544545630613962-index10157.ts
#EXTINF:7.000000,
544545630613962-index10158.ts
#EXTINF:3.280000,
544545630613962-index10159.ts
#EXTINF:7.640000,
544545630613962-index10160.ts
#EXTINF:4.920000,
544545630613962-index10161.ts
#EXTINF:6.480000,
544545630613962-index10162.ts
#EXTINF:6.320000,
544545630613962-index10163.ts
#EXTINF:4.720000,
544545630613962-index10164.ts
#EXTINF:6.280000,
544545630613962-index10165.ts
#EXTINF:6.200000,
544545630613962-index10166.ts
#EXTINF:9.880000,
544545630613962-index10167.ts
#EXTINF:5.400000,
544545630613962-index10168.ts
#EXTINF:10.000000,
544545630613962-index10169.ts
#EXTINF:1.240000,
544545630613962-index10170.ts
#EXTINF:10.000000,
544545630613962-index10171.ts
#EXTINF:2.480000,
544545630613962-index10172.ts
#EXTINF:5.200000,
544545630613962-index10173.ts
#EXTINF:5.080000,
544545630613962-index10174.ts
#EXTINF:5.560000,
544545630613962-index10175.ts
#EXTINF:8.560000,
544545630613962-index10176.ts
#EXTINF:2.200000,
544545630613962-index10177.ts
#EXTINF:6.520000,
544545630613962-index10178.ts
#EXTINF:6.280000,
544545630613962-index10179.ts
#EXTINF:14.560000,
544545630613962-index10180.ts
#EXTINF:1.680000,
544545630613962-index10181.ts
#EXTINF:2.560000,
544545630613962-index10182.ts
#EXTINF:4.600000,
544545630613962-index10183.ts
#EXTINF:5.600000,
544545630613962-index10184.ts
#EXTINF:6.280000,
544545630613962-index10185.ts
#EXTINF:10.480000,
544545630613962-index10186.ts
#EXTINF:4.200000,
544545630613962-index10187.ts
#EXTINF:4.760000,
544545630613962-index10188.ts
#EXTINF:5.040000,
544545630613962-index10189.ts
#EXTINF:6.040000,
544545630613962-index10190.ts
#EXTINF:10.000000,
544545630613962-index10191.ts
#EXTINF:2.680000,
544545630613962-index10192.ts
#EXTINF:12.360000,
544545630613962-index10193.ts
#EXTINF:7.920000,
544545630613962-index10194.ts
#EXTINF:4.760000,
544545630613962-index10195.ts
#EXTINF:2.160000,
544545630613962-index10196.ts
#EXTINF:1.640000,
544545630613962-index10197.ts
#EXTINF:6.360000,
544545630613962-index10198.ts
#EXTINF:10.000000,
544545630613962-index10199.ts
#EXTINF:9.320000,
544545630613962-index10200.ts
#EXTINF:2.240000,
544545630613962-index10201.ts
#EXTINF:2.560000,
544545630613962-index10202.ts
#EXTINF:10.000000,
544545630613962-index10203.ts
#EXTINF:1.320000,
544545630613962-index10204.ts
#EXTINF:10.000000,
544545630613962-index10205.ts
#EXTINF:8.320000,
544545630613962-index10206.ts
#EXTINF:2.640000,
544545630613962-index10207.ts
#EXTINF:4.720000,
544545630613962-index10208.ts
#EXTINF:5.480000,
544545630613962-index10209.ts
#EXTINF:6.760000,
544545630613962-index10210.ts
#EXTINF:5.160000,
544545630613962-index10211.ts
#EXTINF:6.320000,
544545630613962-index10212.ts
#EXTINF:9.600000,
544545630613962-index10213.ts
#EXTINF:2.440000,
544545630613962-index10214.ts
#EXTINF:6.480000,
544545630613962-index10215.ts
#EXTINF:6.120000,
544545630613962-index10216.ts
#EXTINF:7.000000,
544545630613962-index10217.ts
#EXTINF:6.360000,
544545630613962-index10218.ts
#EXTINF:5.400000,
544545630613962-index10219.ts
#EXTINF:6.080000,
544545630613962-index10220.ts
#EXTINF:9.840000,
544545630613962-index10221.ts
#EXTINF:6.440000,
544545630613962-index10222.ts
#EXTINF:7.640000,
544545630613962-index10223.ts
#EXTINF:4.240000,
544545630613962-index10224.ts
#EXTINF:2.840000,
544545630613962-index10225.ts
#EXTINF:10.000000,
544545630613962-index10226.ts
#EXTINF:8.120000,
544545630613962-index10227.ts
#EXTINF:10.000000,
544545630613962-index10228.ts
#EXTINF:5.200000,
544545630613962-index10229.ts
#EXTINF:10.000000,
544545630613962-index10230.ts
#EXTINF:1.640000,
544545630613962-index10231.ts
#EXTINF:5.760000,
544545630613962-index10232.ts
#EXTINF:3.280000,
544545630613962-index10233.ts
#EXTINF:2.320000,
544545630613962-index10234.ts
#EXTINF:6.760000,
544545630613962-index10235.ts
#EXTINF:5.360000,
544545630613962-index10236.ts
#EXTINF:2.080000,
544545630613962-index10237.ts
#EXTINF:3.840000,
544545630613962-index10238.ts
#EXTINF:11.160000,
544545630613962-index10239.ts
#EXTINF:3.160000,
544545630613962-index10240.ts
#EXTINF:4.960000,
544545630613962-index10241.ts
#EXTINF:5.560000,
544545630613962-index10242.ts
#EXTINF:8.880000,
544545630613962-index10243.ts
#EXTINF:3.920000,
544545630613962-index10244.ts
#EXTINF:7.800000,
544545630613962-index10245.ts
#EXTINF:2.640000,
544545630613962-index10246.ts
#EXTINF:5.680000,
544545630613962-index10247.ts
#EXTINF:6.440000,
544545630613962-index10248.ts
#EXTINF:7.360000,
544545630613962-index10249.ts
#EXTINF:5.360000,
544545630613962-index10250.ts
#EXTINF:5.840000,
544545630613962-index10251.ts
#EXTINF:5.160000,
544545630613962-index10252.ts
#EXTINF:8.440000,
544545630613962-index10253.ts
#EXTINF:6.000000,
544545630613962-index10254.ts
#EXTINF:5.360000,
544545630613962-index10255.ts
#EXTINF:4.000000,
544545630613962-index10256.ts
#EXTINF:7.520000,
544545630613962-index10257.ts
#EXTINF:6.240000,
544545630613962-index10258.ts
#EXTINF:7.200000,
544545630613962-index10259.ts
#EXTINF:5.400000,
544545630613962-index10260.ts
#EXTINF:3.760000,
544545630613962-index10261.ts
#EXTINF:5.800000,
544545630613962-index10262.ts
#EXTINF:7.440000,
544545630613962-index10263.ts
#EXTINF:11.160000,
544545630613962-index10264.ts
#EXTINF:1.200000,
544545630613962-index10265.ts
#EXTINF:7.920000,
544545630613962-index10266.ts
#EXTINF:3.880000,
544545630613962-index10267.ts
#EXTINF:6.320000,
544545630613962-index10268.ts
#EXTINF:9.560000,
544545630613962-index10269.ts
#EXTINF:4.520000,
544545630613962-index10270.ts
#EXTINF:4.880000,
544545630613962-index10271.ts
#EXTINF:5.760000,
544545630613962-index10272.ts
#EXTINF:4.240000,
544545630613962-index10273.ts
#EXTINF:5.800000,
544545630613962-index10274.ts
#EXTINF:6.280000,
544545630613962-index10275.ts
#EXTINF:11.000000,
544545630613962-index10276.ts
#EXTINF:2.560000,
544545630613962-index10277.ts
#EXTINF:5.160000,
544545630613962-index10278.ts
#EXTINF:5.920000,
544545630613962-index10279.ts
#EXTINF:5.120000,
544545630613962-index10280.ts
#EXTINF:5.520000,
544545630613962-index10281.ts
#EXTINF:7.800000,
544545630613962-index10282.ts
#EXTINF:8.760000,
544545630613962-index10283.ts
#EXTINF:3.040000,
544545630613962-index10284.ts
#EXTINF:6.640000,
544545630613962-index10285.ts
#EXTINF:4.560000,
544545630613962-index10286.ts
#EXTINF:10.040000,
544545630613962-index10287.ts
#EXTINF:2.520000,
544545630613962-index10288.ts
#EXTINF:6.280000,
544545630613962-index10289.ts
#EXTINF:4.480000,
544545630613962-index10290.ts
#EXTINF:10.000000,
544545630613962-index10291.ts
#EXTINF:4.400000,
544545630613962-index10292.ts
#EXTINF:4.400000,
544545630613962-index10293.ts
#EXTINF:4.840000,
544545630613962-index10294.ts
#EXTINF:6.200000,
544545630613962-index10295.ts
#EXTINF:6.440000,
544545630613962-index10296.ts
#EXTINF:6.440000,
544545630613962-index10297.ts
#EXTINF:6.840000,
544545630613962-index10298.ts
#EXTINF:4.440000,
544545630613962-index10299.ts
#EXTINF:7.960000,
544545630613962-index10300.ts
#EXTINF:6.720000,
544545630613962-index10301.ts
#EXTINF:4.760000,
544545630613962-index10302.ts
#EXTINF:6.640000,
544545630613962-index10303.ts
#EXTINF:5.240000,
544545630613962-index10304.ts
#EXTINF:5.000000,
544545630613962-index10305.ts
#EXTINF:9.360000,
544545630613962-index10306.ts
#EXTINF:5.320000,
544545630613962-index10307.ts
#EXTINF:6.000000,
544545630613962-index10308.ts
#EXTINF:4.480000,
544545630613962-index10309.ts
#EXTINF:5.840000,
544545630613962-index10310.ts
#EXTINF:7.360000,
544545630613962-index10311.ts
#EXTINF:4.120000,
544545630613962-index10312.ts
#EXTINF:5.440000,
544545630613962-index10313.ts
#EXTINF:6.920000,
544545630613962-index10314.ts
#EXTINF:6.600000,
544545630613962-index10315.ts
#EXTINF:5.800000,
544545630613962-index10316.ts
#EXTINF:4.800000,
544545630613962-index10317.ts
#EXTINF:10.680000,
544545630613962-index10318.ts
#EXTINF:1.640000,
544545630613962-index10319.ts
#EXTINF:6.160000,
544545630613962-index10320.ts
#EXTINF:5.880000,
544545630613962-index10321.ts
#EXTINF:6.880000,
544545630613962-index10322.ts
#EXTINF:5.920000,
544545630613962-index10323.ts
#EXTINF:4.200000,
544545630613962-index10324.ts
#EXTINF:9.120000,
544545630613962-index10325.ts
#EXTINF:3.800000,
544545630613962-index10326.ts
#EXTINF:5.840000,
544545630613962-index10327.ts
#EXTINF:10.000000,
544545630613962-index10328.ts
#EXTINF:7.080000,
544545630613962-index10329.ts
#EXTINF:4.760000,
544545630613962-index10330.ts
#EXTINF:2.040000,
544545630613962-index10331.ts
#EXTINF:10.000000,
544545630613962-index10332.ts
#EXTINF:3.680000,
544545630613962-index10333.ts
#EXTINF:6.960000,
544545630613962-index10334.ts
#EXTINF:4.800000,
544545630613962-index10335.ts
#EXTINF:4.000000,
544545630613962-index10336.ts
#EXTINF:7.560000,
544545630613962-index10337.ts
#EXTINF:8.960000,
544545630613962-index10338.ts
#EXTINF:6.800000,
544545630613962-index10339.ts
#EXTINF:2.440000,
544545630613962-index10340.ts
#EXTINF:7.280000,
544545630613962-index10341.ts
#EXTINF:5.200000,
544545630613962-index10342.ts
#EXTINF:4.640000,
544545630613962-index10343.ts
#EXTINF:7.280000,
544545630613962-index10344.ts
#EXTINF:9.640000,
544545630613962-index10345.ts
#EXTINF:4.880000,
544545630613962-index10346.ts
#EXTINF:2.480000,
544545630613962-index10347.ts
#EXTINF:6.400000,
544545630613962-index10348.ts
#EXTINF:7.880000,
544545630613962-index10349.ts
#EXTINF:2.760000,
544545630613962-index10350.ts
#EXTINF:6.480000,
544545630613962-index10351.ts
#EXTINF:10.480000,
544545630613962-index10352.ts
#EXTINF:1.960000,
544545630613962-index10353.ts
#EXTINF:9.080000,
544545630613962-index10354.ts
#EXTINF:5.200000,
544545630613962-index10355.ts
#EXTINF:10.000000,
544545630613962-index10356.ts
#EXTINF:2.040000,
544545630613962-index10357.ts
#EXTINF:3.800000,
544545630613962-index10358.ts
#EXTINF:4.720000,
544545630613962-index10359.ts
#EXTINF:6.520000,
544545630613962-index10360.ts
#EXTINF:10.000000,
544545630613962-index10361.ts
#EXTINF:9.000000,
544545630613962-index10362.ts
#EXTINF:10.000000,
544545630613962-index10363.ts
#EXTINF:5.840000,
544545630613962-index10364.ts
#EXTINF:10.000000,
544545630613962-index10365.ts
#EXTINF:1.040000,
544545630613962-index10366.ts
#EXTINF:4.760000,
544545630613962-index10367.ts
#EXTINF:4.720000,
544545630613962-index10368.ts
#EXTINF:10.000000,
544545630613962-index10369.ts
#EXTINF:1.680000,
544545630613962-index10370.ts
#EXTINF:6.000000,
544545630613962-index10371.ts
#EXTINF:3.880000,
544545630613962-index10372.ts
#EXTINF:6.440000,
544545630613962-index10373.ts
#EXTINF:2.760000,
544545630613962-index10374.ts
#EXTINF:8.040000,
544545630613962-index10375.ts
#EXTINF:4.920000,
544545630613962-index10376.ts
#EXTINF:3.120000,
544545630613962-index10377.ts
#EXTINF:8.520000,
544545630613962-index10378.ts
#EXTINF:7.000000,
544545630613962-index10379.ts
#EXTINF:5.000000,
544545630613962-index10380.ts
#EXTINF:4.040000,
544545630613962-index10381.ts
#EXTINF:10.000000,
544545630613962-index10382.ts
#EXTINF:1.400000,
544545630613962-index10383.ts
#EXTINF:6.520000,
544545630613962-index10384.ts
#EXTINF:4.680000,
544545630613962-index10385.ts
#EXTINF:6.880000,
544545630613962-index10386.ts
#EXTINF:5.840000,
544545630613962-index10387.ts
#EXTINF:6.440000,
544545630613962-index10388.ts
#EXTINF:4.920000,
544545630613962-index10389.ts
#EXTINF:6.760000,
544545630613962-index10390.ts
#EXTINF:6.360000,
544545630613962-index10391.ts
#EXTINF:9.560000,
544545630613962-index10392.ts
#EXTINF:6.040000,
544545630613962-index10393.ts
#EXTINF:7.560000,
544545630613962-index10394.ts
#EXTINF:5.480000,
544545630613962-index10395.ts
#EXTINF:2.400000,
544545630613962-index10396.ts
#EXTINF:4.840000,
544545630613962-index10397.ts
#EXTINF:7.720000,
544545630613962-index10398.ts
#EXTINF:5.000000,
544545630613962-index10399.ts
#EXTINF:6.880000,
544545630613962-index10400.ts
#EXTINF:3.880000,
544545630613962-index10401.ts
#EXTINF:5.640000,
544545630613962-index10402.ts
#EXTINF:10.160000,
544545630613962-index10403.ts
#EXTINF:3.600000,
544545630613962-index10404.ts
#EXTINF:4.920000,
544545630613962-index10405.ts
#EXTINF:5.160000,
544545630613962-index10406.ts
#EXTINF:7.280000,
544545630613962-index10407.ts
#EXTINF:8.800000,
544545630613962-index10408.ts
#EXTINF:10.000000,
544545630613962-index10409.ts
#EXTINF:3.680000,
544545630613962-index10410.ts
#EXTINF:10.000000,
544545630613962-index10411.ts
#EXTINF:1.360000,
544545630613962-index10412.ts
#EXTINF:1.880000,
544545630613962-index10413.ts
#EXTINF:7.680000,
544545630613962-index10414.ts
#EXTINF:4.360000,
544545630613962-index10415.ts
#EXTINF:6.640000,
544545630613962-index10416.ts
#EXTINF:4.760000,
544545630613962-index10417.ts
#EXTINF:7.600000,
544545630613962-index10418.ts
#EXTINF:5.520000,
544545630613962-index10419.ts
#EXTINF:4.960000,
544545630613962-index10420.ts
#EXTINF:10.160000,
544545630613962-index10421.ts
#EXTINF:3.360000,
544545630613962-index10422.ts
#EXTINF:10.000000,
544545630613962-index10423.ts
#EXTINF:4.160000,
544545630613962-index10424.ts
#EXTINF:5.720000,
544545630613962-index10425.ts
#EXTINF:8.000000,
544545630613962-index10426.ts
#EXTINF:4.640000,
544545630613962-index10427.ts
#EXTINF:2.600000,
544545630613962-index10428.ts
#EXTINF:8.080000,
544545630613962-index10429.ts
#EXTINF:3.920000,
544545630613962-index10430.ts
#EXTINF:6.840000,
544545630613962-index10431.ts
#EXTINF:4.000000,
544545630613962-index10432.ts
#EXTINF:13.760000,
544545630613962-index10433.ts
#EXTINF:10.000000,
544545630613962-index10434.ts
#EXTINF:6.240000,
544545630613962-index10435.ts
#EXTINF:2.120000,
544545630613962-index10436.ts
#EXTINF:4.040000,
544545630613962-index10437.ts
#EXTINF:3.960000,
544545630613962-index10438.ts
#EXT-X-ENDLIST
