#EXTM3U
#EXT-X-VERSION:3
#EXT-X-TARGETDURATION:11
#EXT-X-MEDIA-SEQUENCE:10001
#EXTINF:10.869444,
546475393076737-index10001.png
#EXTINF:10.869444,
546475393076737-index10002.png
#EXTINF:5.869500,
546475393076737-index10003.png
#EXTINF:3.913000,
546475393076737-index10004.png
#EXTINF:1.391289,
546475393076737-index10005.png
#EXTINF:1.999978,
546475393076737-index10006.png
#EXTINF:3.217356,
546475393076737-index10007.png
#EXTINF:5.130378,
546475393076737-index10008.png
#EXTINF:3.782567,
546475393076737-index10009.png
#EXTINF:8.739033,
546475393076737-index10010.png
#EXTINF:8.173822,
546475393076737-index10011.png
#EXTINF:6.347756,
546475393076737-index10012.png
#EXTINF:9.086856,
546475393076737-index10013.png
#EXTINF:10.869444,
546475393076737-index10014.png
#EXTINF:7.565133,
546475393076737-index10015.png
#EXTINF:8.956422,
546475393076737-index10016.png
#EXTINF:8.391211,
546475393076737-index10017.png
#EXTINF:6.173844,
546475393076737-index10018.png
#EXTINF:6.826011,
546475393076737-index10019.png
#EXTINF:10.695533,
546475393076737-index10020.png
#EXTINF:7.739044,
546475393076737-index10021.png
#EXTINF:3.956478,
546475393076737-index10022.png
#EXTINF:5.869500,
546475393076737-index10023.png
#EXTINF:8.739033,
546475393076737-index10024.png
#EXTINF:7.086878,
546475393076737-index10025.png
#EXTINF:8.825989,
546475393076737-index10026.png
#EXTINF:10.869444,
546475393076737-index10027.png
#EXTINF:7.826000,
546475393076737-index10028.png
#EXTINF:5.608633,
546475393076737-index10029.png
#EXTINF:9.956411,
546475393076737-index10030.png
#EXTINF:5.478200,
546475393076737-index10031.png
#EXTINF:6.565144,
546475393076737-index10032.png
#EXTINF:9.956411,
546475393076737-index10033.png
#EXTINF:10.869444,
546475393076737-index10034.png
#EXTINF:7.086878,
546475393076737-index10035.png
#EXTINF:6.869489,
546475393076737-index10036.png
#EXTINF:8.347733,
546475393076737-index10037.png
#EXTINF:10.869444,
546475393076737-index10038.png
#EXTINF:10.869444,
546475393076737-index10039.png
#EXTINF:7.521656,
546475393076737-index10040.png
#EXTINF:10.869444,
546475393076737-index10041.png
#EXTINF:7.304267,
546475393076737-index10042.png
#EXTINF:10.869444,
546475393076737-index10043.png
#EXTINF:10.869444,
546475393076737-index10044.png
#EXTINF:4.826033,
546475393076737-index10045.png
#EXTINF:9.652067,
546475393076737-index10046.png
#EXTINF:7.521656,
546475393076737-index10047.png
#EXTINF:8.825989,
546475393076737-index10048.png
#EXTINF:10.869444,
546475393076737-index10049.png
#EXTINF:10.695533,
546475393076737-index10050.png
#EXTINF:3.347789,
546475393076737-index10051.png
#EXTINF:5.173856,
546475393076737-index10052.png
#EXTINF:6.782533,
546475393076737-index10053.png
#EXTINF:4.826033,
546475393076737-index10054.png
#EXTINF:9.347722,
546475393076737-index10055.png
#EXTINF:10.260756,
546475393076737-index10056.png
#EXTINF:10.869444,
546475393076737-index10057.png
#EXTINF:10.869444,
546475393076737-index10058.png
#EXTINF:8.565122,
546475393076737-index10059.png
#EXTINF:7.695567,
546475393076737-index10060.png
#EXTINF:10.869444,
546475393076737-index10061.png
#EXTINF:6.043411,
546475393076737-index10062.png
#EXTINF:10.608578,
546475393076737-index10063.png
#EXTINF:6.434711,
546475393076737-index10064.png
#EXTINF:7.391222,
546475393076737-index10065.png
#EXTINF:10.869444,
546475393076737-index10066.png
#EXTINF:8.130344,
546475393076737-index10067.png
#EXTINF:3.130400,
546475393076737-index10068.png
#EXTINF:10.869444,
546475393076737-index10069.png
#EXTINF:10.869444,
546475393076737-index10070.png
#EXTINF:10.869444,
546475393076737-index10071.png
#EXTINF:10.869444,
546475393076737-index10072.png
#EXTINF:6.173844,
546475393076737-index10073.png
#EXTINF:10.043367,
546475393076737-index10074.png
#EXTINF:10.391189,
546475393076737-index10075.png
#EXT-X-ENDLIST
