#EXTM3U
#EXT-X-VERSION:3
#EXT-X-TARGETDURATION:11
#EXT-X-MEDIA-SEQUENCE:10001
#EXTINF:10.869444,
552013919171359-index10001.png
#EXTINF:4.608644,
552013919171359-index10002.png
#EXTINF:3.043444,
552013919171359-index10003.png
#EXTINF:2.913011,
552013919171359-index10004.png
#EXTINF:6.173844,
552013919171359-index10005.png
#EXTINF:1.391289,
552013919171359-index10006.png
#EXTINF:4.956467,
552013919171359-index10007.png
#EXTINF:5.652111,
552013919171359-index10008.png
#EXTINF:9.217289,
552013919171359-index10009.png
#EXTINF:7.912956,
552013919171359-index10010.png
#EXTINF:8.999900,
552013919171359-index10011.png
#EXTINF:10.869444,
552013919171359-index10012.png
#EXTINF:10.260756,
552013919171359-index10013.png
#EXTINF:7.173833,
552013919171359-index10014.png
#EXTINF:10.869444,
552013919171359-index10015.png
#EXTINF:6.826011,
552013919171359-index10016.png
#EXTINF:7.260789,
552013919171359-index10017.png
#EXTINF:10.869444,
552013919171359-index10018.png
#EXTINF:2.913011,
552013919171359-index10019.png
#EXTINF:7.826000,
552013919171359-index10020.png
#EXTINF:4.956467,
552013919171359-index10021.png
#EXTINF:5.478200,
552013919171359-index10022.png
#EXTINF:3.130400,
552013919171359-index10023.png
#EXTINF:3.565178,
552013919171359-index10024.png
#EXTINF:10.869444,
552013919171359-index10025.png
#EXTINF:4.695600,
552013919171359-index10026.png
#EXTINF:5.782544,
552013919171359-index10027.png
#EXTINF:1.913022,
552013919171359-index10028.png
#EXTINF:4.652122,
552013919171359-index10029.png
#EXTINF:10.869444,
552013919171359-index10030.png
#EXTINF:5.043422,
552013919171359-index10031.png
#EXTINF:7.695567,
552013919171359-index10032.png
#EXTINF:3.999956,
552013919171359-index10033.png
#EXTINF:2.782578,
552013919171359-index10034.png
#EXTINF:10.869444,
552013919171359-index10035.png
#EXTINF:10.869444,
552013919171359-index10036.png
#EXTINF:10.869444,
552013919171359-index10037.png
#EXTINF:10.869444,
552013919171359-index10038.png
#EXTINF:10.869444,
552013919171359-index10039.png
#EXTINF:9.260767,
552013919171359-index10040.png
#EXTINF:10.869444,
552013919171359-index10041.png
#EXTINF:10.869444,
552013919171359-index10042.png
#EXTINF:10.869444,
552013919171359-index10043.png
#EXTINF:10.869444,
552013919171359-index10044.png
#EXTINF:6.826011,
552013919171359-index10045.png
#EXTINF:4.956467,
552013919171359-index10046.png
#EXTINF:7.043400,
552013919171359-index10047.png
#EXTINF:10.652056,
552013919171359-index10048.png
#EXTINF:6.695578,
552013919171359-index10049.png
#EXTINF:5.869500,
552013919171359-index10050.png
#EXTINF:2.999967,
552013919171359-index10051.png
#EXTINF:10.869444,
552013919171359-index10052.png
#EXTINF:2.217367,
552013919171359-index10053.png
#EXTINF:7.347744,
552013919171359-index10054.png
#EXTINF:3.304311,
552013919171359-index10055.png
#EXTINF:8.912944,
552013919171359-index10056.png
#EXTINF:5.869500,
552013919171359-index10057.png
#EXTINF:8.086867,
552013919171359-index10058.png
#EXTINF:6.130367,
552013919171359-index10059.png
#EXTINF:10.869444,
552013919171359-index10060.png
#EXTINF:5.260811,
552013919171359-index10061.png
#EXTINF:2.086933,
552013919171359-index10062.png
#EXTINF:6.347756,
552013919171359-index10063.png
#EXTINF:7.999911,
552013919171359-index10064.png
#EXTINF:2.434756,
552013919171359-index10065.png
#EXTINF:3.956478,
552013919171359-index10066.png
#EXTINF:3.347789,
552013919171359-index10067.png
#EXTINF:1.130422,
552013919171359-index10068.png
#EXTINF:4.956467,
552013919171359-index10069.png
#EXTINF:2.565189,
552013919171359-index10070.png
#EXTINF:5.043422,
552013919171359-index10071.png
#EXTINF:1.652156,
552013919171359-index10072.png
#EXTINF:10.869444,
552013919171359-index10073.png
#EXTINF:8.173822,
552013919171359-index10074.png
#EXTINF:10.782489,
552013919171359-index10075.png
#EXTINF:7.173833,
552013919171359-index10076.png
#EXTINF:9.652067,
552013919171359-index10077.png
#EXTINF:4.652122,
552013919171359-index10078.png
#EXTINF:3.565178,
552013919171359-index10079.png
#EXTINF:4.695600,
552013919171359-index10080.png
#EXTINF:1.347811,
552013919171359-index10081.png
#EXTINF:4.695600,
552013919171359-index10082.png
#EXTINF:3.913000,
552013919171359-index10083.png
#EXTINF:5.869500,
552013919171359-index10084.png
#EXTINF:7.260789,
552013919171359-index10085.png
#EXTINF:6.521667,
552013919171359-index10086.png
#EXTINF:10.739011,
552013919171359-index10087.png
#EXTINF:2.999967,
552013919171359-index10088.png
#EXTINF:2.826056,
552013919171359-index10089.png
#EXTINF:4.434733,
552013919171359-index10090.png
#EXTINF:10.869444,
552013919171359-index10091.png
#EXTINF:6.086889,
552013919171359-index10092.png
#EXTINF:4.217344,
552013919171359-index10093.png
#EXTINF:3.565178,
552013919171359-index10094.png
#EXTINF:5.608633,
552013919171359-index10095.png
#EXTINF:6.608622,
552013919171359-index10096.png
#EXTINF:1.826067,
552013919171359-index10097.png
#EXTINF:4.869511,
552013919171359-index10098.png
#EXTINF:2.913011,
552013919171359-index10099.png
#EXTINF:9.782500,
552013919171359-index10100.png
#EXTINF:6.086889,
552013919171359-index10101.png
#EXTINF:9.130333,
552013919171359-index10102.png
#EXTINF:3.434744,
552013919171359-index10103.png
#EXTINF:1.782589,
552013919171359-index10104.png
#EXTINF:8.347733,
552013919171359-index10105.png
#EXTINF:2.347800,
552013919171359-index10106.png
#EXTINF:8.869467,
552013919171359-index10107.png
#EXTINF:3.739089,
552013919171359-index10108.png
#EXTINF:6.652100,
552013919171359-index10109.png
#EXTINF:3.782567,
552013919171359-index10110.png
#EXTINF:9.825978,
552013919171359-index10111.png
#EXTINF:5.130378,
552013919171359-index10112.png
#EXTINF:8.347733,
552013919171359-index10113.png
#EXTINF:5.043422,
552013919171359-index10114.png
#EXTINF:8.173822,
552013919171359-index10115.png
#EXTINF:3.652133,
552013919171359-index10116.png
#EXTINF:5.434722,
552013919171359-index10117.png
#EXTINF:4.478211,
552013919171359-index10118.png
#EXTINF:1.739111,
552013919171359-index10119.png
#EXTINF:1.347811,
552013919171359-index10120.png
#EXTINF:3.739089,
552013919171359-index10121.png
#EXTINF:3.652133,
552013919171359-index10122.png
#EXTINF:3.652133,
552013919171359-index10123.png
#EXTINF:4.826033,
552013919171359-index10124.png
#EXTINF:3.869522,
552013919171359-index10125.png
#EXTINF:3.999956,
552013919171359-index10126.png
#EXTINF:2.869533,
552013919171359-index10127.png
#EXTINF:2.304322,
552013919171359-index10128.png
#EXTINF:10.521622,
552013919171359-index10129.png
#EXTINF:3.913000,
552013919171359-index10130.png
#EXTINF:8.260778,
552013919171359-index10131.png
#EXTINF:10.869444,
552013919171359-index10132.png
#EXTINF:10.869444,
552013919171359-index10133.png
#EXTINF:10.869444,
552013919171359-index10134.png
#EXTINF:10.869444,
552013919171359-index10135.png
#EXTINF:10.869444,
552013919171359-index10136.png
#EXTINF:10.869444,
552013919171359-index10137.png
#EXTINF:10.869444,
552013919171359-index10138.png
#EXTINF:10.869444,
552013919171359-index10139.png
#EXTINF:7.391222,
552013919171359-index10140.png
#EXTINF:9.217289,
552013919171359-index10141.png
#EXTINF:5.391244,
552013919171359-index10142.png
#EXTINF:6.260800,
552013919171359-index10143.png
#EXT-X-ENDLIST
