#EXTM3U
#EXT-X-VERSION:3
#EXT-X-TARGETDURATION:11
#EXT-X-MEDIA-SEQUENCE:10001
#EXTINF:10.869444,
553418847007883-index10001.png
#EXTINF:1.826067,
553418847007883-index10002.png
#EXTINF:1.608678,
553418847007883-index10003.png
#EXTINF:2.869533,
553418847007883-index10004.png
#EXTINF:1.869544,
553418847007883-index10005.png
#EXTINF:3.869522,
553418847007883-index10006.png
#EXTINF:1.260856,
553418847007883-index10007.png
#EXTINF:1.130422,
553418847007883-index10008.png
#EXTINF:1.130422,
553418847007883-index10009.png
#EXTINF:1.478244,
553418847007883-index10010.png
#EXTINF:2.260844,
553418847007883-index10011.png
#EXTINF:1.608678,
553418847007883-index10012.png
#EXTINF:4.869511,
553418847007883-index10013.png
#EXTINF:2.739100,
553418847007883-index10014.png
#EXTINF:2.826056,
553418847007883-index10015.png
#EXTINF:3.217356,
553418847007883-index10016.png
#EXTINF:2.782578,
553418847007883-index10017.png
#EXTINF:4.086911,
553418847007883-index10018.png
#EXTINF:2.086933,
553418847007883-index10019.png
#EXTINF:2.999967,
553418847007883-index10020.png
#EXTINF:1.173900,
553418847007883-index10021.png
#EXTINF:4.608644,
553418847007883-index10022.png
#EXTINF:5.695589,
553418847007883-index10023.png
#EXTINF:5.217333,
553418847007883-index10024.png
#EXTINF:5.912978,
553418847007883-index10025.png
#EXTINF:6.173844,
553418847007883-index10026.png
#EXTINF:10.869444,
553418847007883-index10027.png
#EXTINF:7.739044,
553418847007883-index10028.png
#EXTINF:2.043456,
553418847007883-index10029.png
#EXTINF:3.521700,
553418847007883-index10030.png
#EXTINF:6.260800,
553418847007883-index10031.png
#EXTINF:6.130367,
553418847007883-index10032.png
#EXTINF:6.391233,
553418847007883-index10033.png
#EXTINF:4.478211,
553418847007883-index10034.png
#EXTINF:5.086900,
553418847007883-index10035.png
#EXTINF:8.608600,
553418847007883-index10036.png
#EXTINF:8.956422,
553418847007883-index10037.png
#EXTINF:5.478200,
553418847007883-index10038.png
#EXTINF:1.608678,
553418847007883-index10039.png
#EXTINF:3.826044,
553418847007883-index10040.png
#EXTINF:4.434733,
553418847007883-index10041.png
#EXTINF:10.869444,
553418847007883-index10042.png
#EXTINF:2.434756,
553418847007883-index10043.png
#EXTINF:7.565133,
553418847007883-index10044.png
#EXTINF:7.043400,
553418847007883-index10045.png
#EXTINF:2.695622,
553418847007883-index10046.png
#EXTINF:4.999944,
553418847007883-index10047.png
#EXTINF:8.086867,
553418847007883-index10048.png
#EXTINF:6.173844,
553418847007883-index10049.png
#EXTINF:5.217333,
553418847007883-index10050.png
#EXTINF:7.260789,
553418847007883-index10051.png
#EXTINF:7.391222,
553418847007883-index10052.png
#EXTINF:10.173800,
553418847007883-index10053.png
#EXTINF:2.782578,
553418847007883-index10054.png
#EXTINF:2.347800,
553418847007883-index10055.png
#EXTINF:7.434700,
553418847007883-index10056.png
#EXTINF:2.652144,
553418847007883-index10057.png
#EXTINF:10.825967,
553418847007883-index10058.png
#EXTINF:10.173800,
553418847007883-index10059.png
#EXTINF:7.173833,
553418847007883-index10060.png
#EXTINF:5.086900,
553418847007883-index10061.png
#EXTINF:4.391256,
553418847007883-index10062.png
#EXTINF:4.608644,
553418847007883-index10063.png
#EXTINF:6.739056,
553418847007883-index10064.png
#EXTINF:10.869444,
553418847007883-index10065.png
#EXTINF:7.695567,
553418847007883-index10066.png
#EXTINF:5.869500,
553418847007883-index10067.png
#EXTINF:4.130389,
553418847007883-index10068.png
#EXTINF:8.782511,
553418847007883-index10069.png
#EXTINF:6.391233,
553418847007883-index10070.png
#EXTINF:4.695600,
553418847007883-index10071.png
#EXTINF:3.304311,
553418847007883-index10072.png
#EXTINF:10.478144,
553418847007883-index10073.png
#EXTINF:1.869544,
553418847007883-index10074.png
#EXTINF:7.912956,
553418847007883-index10075.png
#EXTINF:8.652078,
553418847007883-index10076.png
#EXTINF:8.043389,
553418847007883-index10077.png
#EXTINF:3.869522,
553418847007883-index10078.png
#EXTINF:9.260767,
553418847007883-index10079.png
#EXTINF:4.391256,
553418847007883-index10080.png
#EXTINF:3.478222,
553418847007883-index10081.png
#EXTINF:5.956456,
553418847007883-index10082.png
#EXTINF:3.869522,
553418847007883-index10083.png
#EXTINF:5.217333,
553418847007883-index10084.png
#EXTINF:4.695600,
553418847007883-index10085.png
#EXTINF:4.478211,
553418847007883-index10086.png
#EXTINF:5.217333,
553418847007883-index10087.png
#EXTINF:10.869444,
553418847007883-index10088.png
#EXTINF:8.782511,
553418847007883-index10089.png
#EXTINF:8.652078,
553418847007883-index10090.png
#EXTINF:10.869444,
553418847007883-index10091.png
#EXTINF:10.869444,
553418847007883-index10092.png
#EXTINF:10.869444,
553418847007883-index10093.png
#EXTINF:10.869444,
553418847007883-index10094.png
#EXTINF:10.869444,
553418847007883-index10095.png
#EXTINF:10.869444,
553418847007883-index10096.png
#EXTINF:10.869444,
553418847007883-index10097.png
#EXTINF:8.782511,
553418847007883-index10098.png
#EXT-X-ENDLIST
