#EXTM3U
#EXT-X-VERSION:3
#EXT-X-TARGETDURATION:11
#EXT-X-MEDIA-SEQUENCE:10001
#EXTINF:8.652078,
565339640610747-index10001.png
#EXTINF:10.869444,
565339640610747-index10002.png
#EXTINF:6.956444,
565339640610747-index10003.png
#EXTINF:6.043411,
565339640610747-index10004.png
#EXTINF:2.608667,
565339640610747-index10005.png
#EXTINF:3.521700,
565339640610747-index10006.png
#EXTINF:3.173878,
565339640610747-index10007.png
#EXTINF:4.608644,
565339640610747-index10008.png
#EXTINF:3.608656,
565339640610747-index10009.png
#EXTINF:1.043467,
565339640610747-index10010.png
#EXTINF:2.999967,
565339640610747-index10011.png
#EXTINF:1.043467,
565339640610747-index10012.png
#EXTINF:1.434767,
565339640610747-index10013.png
#EXTINF:2.478233,
565339640610747-index10014.png
#EXTINF:7.304267,
565339640610747-index10015.png
#EXTINF:7.608611,
565339640610747-index10016.png
#EXTINF:3.521700,
565339640610747-index10017.png
#EXTINF:4.260822,
565339640610747-index10018.png
#EXTINF:3.260833,
565339640610747-index10019.png
#EXTINF:4.826033,
565339640610747-index10020.png
#EXTINF:3.956478,
565339640610747-index10021.png
#EXTINF:5.652111,
565339640610747-index10022.png
#EXTINF:5.434722,
565339640610747-index10023.png
#EXTINF:4.434733,
565339640610747-index10024.png
#EXTINF:3.217356,
565339640610747-index10025.png
#EXTINF:8.260778,
565339640610747-index10026.png
#EXTINF:3.652133,
565339640610747-index10027.png
#EXTINF:4.652122,
565339640610747-index10028.png
#EXTINF:3.826044,
565339640610747-index10029.png
#EXTINF:6.608622,
565339640610747-index10030.png
#EXTINF:10.869444,
565339640610747-index10031.png
#EXTINF:8.565122,
565339640610747-index10032.png
#EXTINF:4.434733,
565339640610747-index10033.png
#EXTINF:5.521678,
565339640610747-index10034.png
#EXTINF:7.478178,
565339640610747-index10035.png
#EXTINF:5.086900,
565339640610747-index10036.png
#EXTINF:10.391189,
565339640610747-index10037.png
#EXTINF:8.173822,
565339640610747-index10038.png
#EXTINF:9.173811,
565339640610747-index10039.png
#EXTINF:3.521700,
565339640610747-index10040.png
#EXTINF:9.086856,
565339640610747-index10041.png
#EXTINF:7.304267,
565339640610747-index10042.png
#EXTINF:7.912956,
565339640610747-index10043.png
#EXTINF:3.826044,
565339640610747-index10044.png
#EXTINF:7.217311,
565339640610747-index10045.png
#EXTINF:5.912978,
565339640610747-index10046.png
#EXTINF:10.869444,
565339640610747-index10047.png
#EXTINF:6.608622,
565339640610747-index10048.png
#EXTINF:3.739089,
565339640610747-index10049.png
#EXTINF:3.782567,
565339640610747-index10050.png
#EXTINF:4.912989,
565339640610747-index10051.png
#EXTINF:9.043378,
565339640610747-index10052.png
#EXTINF:6.521667,
565339640610747-index10053.png
#EXTINF:5.478200,
565339640610747-index10054.png
#EXTINF:6.217322,
565339640610747-index10055.png
#EXTINF:8.825989,
565339640610747-index10056.png
#EXTINF:5.739067,
565339640610747-index10057.png
#EXTINF:8.999900,
565339640610747-index10058.png
#EXTINF:10.869444,
565339640610747-index10059.png
#EXTINF:10.869444,
565339640610747-index10060.png
#EXTINF:9.782500,
565339640610747-index10061.png
#EXTINF:10.434667,
565339640610747-index10062.png
#EXTINF:9.956411,
565339640610747-index10063.png
#EXTINF:5.521678,
565339640610747-index10064.png
#EXTINF:10.869444,
565339640610747-index10065.png
#EXTINF:7.173833,
565339640610747-index10066.png
#EXTINF:2.347800,
565339640610747-index10067.png
#EXTINF:10.869444,
565339640610747-index10068.png
#EXTINF:10.869444,
565339640610747-index10069.png
#EXTINF:10.869444,
565339640610747-index10070.png
#EXTINF:10.869444,
565339640610747-index10071.png
#EXTINF:8.391211,
565339640610747-index10072.png
#EXTINF:9.304244,
565339640610747-index10073.png
#EXTINF:10.825967,
565339640610747-index10074.png
#EXTINF:3.999956,
565339640610747-index10075.png
#EXTINF:7.434700,
565339640610747-index10076.png
#EXTINF:10.869444,
565339640610747-index10077.png
#EXTINF:5.043422,
565339640610747-index10078.png
#EXTINF:8.173822,
565339640610747-index10079.png
#EXTINF:2.304322,
565339640610747-index10080.png
#EXTINF:7.217311,
565339640610747-index10081.png
#EXTINF:5.434722,
565339640610747-index10082.png
#EXTINF:5.391244,
565339640610747-index10083.png
#EXTINF:1.086944,
565339640610747-index10084.png
#EXTINF:4.260822,
565339640610747-index10085.png
#EXTINF:5.521678,
565339640610747-index10086.png
#EXTINF:5.565156,
565339640610747-index10087.png
#EXTINF:5.956456,
565339640610747-index10088.png
#EXTINF:10.869444,
565339640610747-index10089.png
#EXTINF:9.304244,
565339640610747-index10090.png
#EXTINF:6.565144,
565339640610747-index10091.png
#EXTINF:1.217378,
565339640610747-index10092.png
#EXTINF:7.652089,
565339640610747-index10093.png
#EXTINF:10.869444,
565339640610747-index10094.png
#EXTINF:9.086856,
565339640610747-index10095.png
#EXTINF:5.826022,
565339640610747-index10096.png
#EXTINF:7.434700,
565339640610747-index10097.png
#EXTINF:7.478178,
565339640610747-index10098.png
#EXTINF:10.782489,
565339640610747-index10099.png
#EXTINF:3.434744,
565339640610747-index10100.png
#EXTINF:5.173856,
565339640610747-index10101.png
#EXTINF:2.173889,
565339640610747-index10102.png
#EXT-X-ENDLIST
