#EXTM3U
#EXT-X-VERSION:3
#EXT-X-TARGETDURATION:7
#EXT-X-MEDIA-SEQUENCE:10001
#EXTINF:6.194678,
566592366745074-index10001.png
#EXTINF:5.000000,
566592366745074-index10002.png
#EXTINF:5.000000,
566592366745074-index10003.png
#EXTINF:5.000000,
566592366745074-index10004.png
#EXTINF:5.000000,
566592366745074-index10005.png
#EXTINF:5.000000,
566592366745074-index10006.png
#EXTINF:5.000000,
566592366745074-index10007.png
#EXTINF:5.000000,
566592366745074-index10008.png
#EXTINF:5.000000,
566592366745074-index10009.png
#EXTINF:5.000000,
566592366745074-index10010.png
#EXTINF:5.000000,
566592366745074-index10011.png
#EXTINF:5.000000,
566592366745074-index10012.png
#EXTINF:5.000000,
566592366745074-index10013.png
#EXTINF:5.000000,
566592366745074-index10014.png
#EXTINF:5.000000,
566592366745074-index10015.png
#EXTINF:5.000000,
566592366745074-index10016.png
#EXTINF:5.000000,
566592366745074-index10017.png
#EXTINF:5.000000,
566592366745074-index10018.png
#EXTINF:5.000000,
566592366745074-index10019.png
#EXTINF:5.000000,
566592366745074-index10020.png
#EXTINF:5.000000,
566592366745074-index10021.png
#EXTINF:5.000000,
566592366745074-index10022.png
#EXTINF:5.000000,
566592366745074-index10023.png
#EXTINF:5.000000,
566592366745074-index10024.png
#EXTINF:5.000000,
566592366745074-index10025.png
#EXTINF:5.000000,
566592366745074-index10026.png
#EXTINF:5.000000,
566592366745074-index10027.png
#EXTINF:5.000000,
566592366745074-index10028.png
#EXTINF:5.000000,
566592366745074-index10029.png
#EXTINF:5.000000,
566592366745074-index10030.png
#EXTINF:5.000000,
566592366745074-index10031.png
#EXTINF:5.000000,
566592366745074-index10032.png
#EXTINF:5.000000,
566592366745074-index10033.png
#EXTINF:5.000000,
566592366745074-index10034.png
#EXTINF:5.000000,
566592366745074-index10035.png
#EXTINF:5.000000,
566592366745074-index10036.png
#EXTINF:5.000000,
566592366745074-index10037.png
#EXTINF:5.000000,
566592366745074-index10038.png
#EXTINF:5.000000,
566592366745074-index10039.png
#EXTINF:5.000000,
566592366745074-index10040.png
#EXTINF:5.000000,
566592366745074-index10041.png
#EXTINF:5.000000,
566592366745074-index10042.png
#EXTINF:5.000000,
566592366745074-index10043.png
#EXTINF:5.000000,
566592366745074-index10044.png
#EXTINF:5.000000,
566592366745074-index10045.png
#EXTINF:5.000000,
566592366745074-index10046.png
#EXTINF:5.000000,
566592366745074-index10047.png
#EXTINF:5.000000,
566592366745074-index10048.png
#EXTINF:5.000000,
566592366745074-index10049.png
#EXTINF:5.000000,
566592366745074-index10050.png
#EXTINF:5.000000,
566592366745074-index10051.png
#EXTINF:5.000000,
566592366745074-index10052.png
#EXTINF:5.000000,
566592366745074-index10053.png
#EXTINF:5.000000,
566592366745074-index10054.png
#EXTINF:5.000000,
566592366745074-index10055.png
#EXTINF:5.000000,
566592366745074-index10056.png
#EXTINF:5.000000,
566592366745074-index10057.png
#EXTINF:5.000000,
566592366745074-index10058.png
#EXTINF:5.000000,
566592366745074-index10059.png
#EXTINF:5.000000,
566592366745074-index10060.png
#EXTINF:5.000000,
566592366745074-index10061.png
#EXTINF:5.000000,
566592366745074-index10062.png
#EXTINF:5.000000,
566592366745074-index10063.png
#EXTINF:5.000000,
566592366745074-index10064.png
#EXTINF:5.000000,
566592366745074-index10065.png
#EXTINF:5.000000,
566592366745074-index10066.png
#EXTINF:5.000000,
566592366745074-index10067.png
#EXTINF:5.000000,
566592366745074-index10068.png
#EXTINF:5.000000,
566592366745074-index10069.png
#EXTINF:5.000000,
566592366745074-index10070.png
#EXTINF:5.000000,
566592366745074-index10071.png
#EXTINF:5.000000,
566592366745074-index10072.png
#EXTINF:5.000000,
566592366745074-index10073.png
#EXTINF:5.000000,
566592366745074-index10074.png
#EXTINF:5.000000,
566592366745074-index10075.png
#EXTINF:5.000000,
566592366745074-index10076.png
#EXTINF:5.000000,
566592366745074-index10077.png
#EXTINF:5.000000,
566592366745074-index10078.png
#EXTINF:5.000000,
566592366745074-index10079.png
#EXTINF:5.000000,
566592366745074-index10080.png
#EXTINF:5.000000,
566592366745074-index10081.png
#EXTINF:5.000000,
566592366745074-index10082.png
#EXTINF:5.000000,
566592366745074-index10083.png
#EXTINF:5.000000,
566592366745074-index10084.png
#EXTINF:5.000000,
566592366745074-index10085.png
#EXTINF:4.040000,
566592366745074-index10086.png
#EXT-X-ENDLIST
