#EXTM3U
#EXT-X-VERSION:3
#EXT-X-TARGETDURATION:10
#EXT-X-MEDIA-SEQUENCE:10001
#EXTINF:10.000000,
569429717130131-index10001.png
#EXTINF:10.000000,
569429717130131-index10002.png
#EXTINF:10.000000,
569429717130131-index10003.png
#EXTINF:10.000000,
569429717130131-index10004.png
#EXTINF:10.000000,
569429717130131-index10005.png
#EXTINF:10.000000,
569429717130131-index10006.png
#EXTINF:10.000000,
569429717130131-index10007.png
#EXTINF:10.000000,
569429717130131-index10008.png
#EXTINF:10.000000,
569429717130131-index10009.png
#EXTINF:10.000000,
569429717130131-index10010.png
#EXTINF:10.000000,
569429717130131-index10011.png
#EXTINF:10.000000,
569429717130131-index10012.png
#EXTINF:10.000000,
569429717130131-index10013.png
#EXTINF:10.000000,
569429717130131-index10014.png
#EXTINF:10.000000,
569429717130131-index10015.png
#EXTINF:10.000000,
569429717130131-index10016.png
#EXTINF:10.000000,
569429717130131-index10017.png
#EXTINF:10.000000,
569429717130131-index10018.png
#EXTINF:10.000000,
569429717130131-index10019.png
#EXTINF:10.000000,
569429717130131-index10020.png
#EXTINF:10.000000,
569429717130131-index10021.png
#EXTINF:10.000000,
569429717130131-index10022.png
#EXTINF:10.000000,
569429717130131-index10023.png
#EXTINF:10.000000,
569429717130131-index10024.png
#EXTINF:10.000000,
569429717130131-index10025.png
#EXTINF:10.000000,
569429717130131-index10026.png
#EXTINF:10.000000,
569429717130131-index10027.png
#EXTINF:10.000000,
569429717130131-index10028.png
#EXTINF:10.000000,
569429717130131-index10029.png
#EXTINF:10.000000,
569429717130131-index10030.png
#EXTINF:10.000000,
569429717130131-index10031.png
#EXTINF:10.000000,
569429717130131-index10032.png
#EXTINF:10.000000,
569429717130131-index10033.png
#EXTINF:10.000000,
569429717130131-index10034.png
#EXTINF:10.000000,
569429717130131-index10035.png
#EXTINF:10.000000,
569429717130131-index10036.png
#EXTINF:10.000000,
569429717130131-index10037.png
#EXTINF:10.000000,
569429717130131-index10038.png
#EXTINF:10.000000,
569429717130131-index10039.png
#EXTINF:10.000000,
569429717130131-index10040.png
#EXTINF:10.000000,
569429717130131-index10041.png
#EXTINF:10.000000,
569429717130131-index10042.png
#EXTINF:10.000000,
569429717130131-index10043.png
#EXTINF:10.000000,
569429717130131-index10044.png
#EXTINF:10.000000,
569429717130131-index10045.png
#EXTINF:10.000000,
569429717130131-index10046.png
#EXTINF:10.000000,
569429717130131-index10047.png
#EXTINF:10.000000,
569429717130131-index10048.png
#EXTINF:10.000000,
569429717130131-index10049.png
#EXTINF:10.000000,
569429717130131-index10050.png
#EXTINF:10.000000,
569429717130131-index10051.png
#EXTINF:10.000000,
569429717130131-index10052.png
#EXTINF:10.000000,
569429717130131-index10053.png
#EXTINF:10.000000,
569429717130131-index10054.png
#EXTINF:10.000000,
569429717130131-index10055.png
#EXTINF:10.000000,
569429717130131-index10056.png
#EXTINF:10.000000,
569429717130131-index10057.png
#EXTINF:10.000000,
569429717130131-index10058.png
#EXTINF:10.000000,
569429717130131-index10059.png
#EXTINF:10.000000,
569429717130131-index10060.png
#EXTINF:10.000000,
569429717130131-index10061.png
#EXTINF:10.000000,
569429717130131-index10062.png
#EXTINF:10.000000,
569429717130131-index10063.png
#EXTINF:10.000000,
569429717130131-index10064.png
#EXTINF:10.000000,
569429717130131-index10065.png
#EXTINF:10.000000,
569429717130131-index10066.png
#EXTINF:10.000000,
569429717130131-index10067.png
#EXTINF:10.000000,
569429717130131-index10068.png
#EXTINF:10.000000,
569429717130131-index10069.png
#EXTINF:10.000000,
569429717130131-index10070.png
#EXTINF:10.000000,
569429717130131-index10071.png
#EXTINF:10.000000,
569429717130131-index10072.png
#EXTINF:3.720000,
569429717130131-index10073.png
#EXT-X-ENDLIST
