#EXTM3U
#EXT-X-VERSION:3
#EXT-X-TARGETDURATION:11
#EXT-X-MEDIA-SEQUENCE:10001
#EXTINF:7.260789,
570976024700535-index10001.png
#EXTINF:10.869444,
570976024700535-index10002.png
#EXTINF:10.825967,
570976024700535-index10003.png
#EXTINF:5.739067,
570976024700535-index10004.png
#EXTINF:6.043411,
570976024700535-index10005.png
#EXTINF:2.043456,
570976024700535-index10006.png
#EXTINF:1.260856,
570976024700535-index10007.png
#EXTINF:2.565189,
570976024700535-index10008.png
#EXTINF:7.521656,
570976024700535-index10009.png
#EXTINF:10.434667,
570976024700535-index10010.png
#EXTINF:10.869444,
570976024700535-index10011.png
#EXTINF:10.608578,
570976024700535-index10012.png
#EXTINF:10.869444,
570976024700535-index10013.png
#EXTINF:8.347733,
570976024700535-index10014.png
#EXTINF:10.869444,
570976024700535-index10015.png
#EXTINF:10.869444,
570976024700535-index10016.png
#EXTINF:10.869444,
570976024700535-index10017.png
#EXTINF:5.999933,
570976024700535-index10018.png
#EXTINF:5.999933,
570976024700535-index10019.png
#EXTINF:5.217333,
570976024700535-index10020.png
#EXTINF:3.999956,
570976024700535-index10021.png
#EXTINF:10.869444,
570976024700535-index10022.png
#EXTINF:10.608578,
570976024700535-index10023.png
#EXTINF:10.869444,
570976024700535-index10024.png
#EXTINF:10.869444,
570976024700535-index10025.png
#EXTINF:10.347711,
570976024700535-index10026.png
#EXTINF:10.869444,
570976024700535-index10027.png
#EXTINF:10.608578,
570976024700535-index10028.png
#EXTINF:6.782533,
570976024700535-index10029.png
#EXTINF:6.695578,
570976024700535-index10030.png
#EXTINF:8.260778,
570976024700535-index10031.png
#EXTINF:10.869444,
570976024700535-index10032.png
#EXTINF:6.347756,
570976024700535-index10033.png
#EXTINF:10.869444,
570976024700535-index10034.png
#EXTINF:9.695544,
570976024700535-index10035.png
#EXTINF:10.434667,
570976024700535-index10036.png
#EXTINF:8.434689,
570976024700535-index10037.png
#EXTINF:10.869444,
570976024700535-index10038.png
#EXTINF:10.869444,
570976024700535-index10039.png
#EXTINF:8.608600,
570976024700535-index10040.png
#EXTINF:9.608589,
570976024700535-index10041.png
#EXTINF:7.565133,
570976024700535-index10042.png
#EXTINF:9.086856,
570976024700535-index10043.png
#EXTINF:10.869444,
570976024700535-index10044.png
#EXTINF:4.608644,
570976024700535-index10045.png
#EXTINF:9.999889,
570976024700535-index10046.png
#EXTINF:10.869444,
570976024700535-index10047.png
#EXTINF:9.130333,
570976024700535-index10048.png
#EXTINF:10.869444,
570976024700535-index10049.png
#EXTINF:10.869444,
570976024700535-index10050.png
#EXTINF:10.565100,
570976024700535-index10051.png
#EXTINF:10.869444,
570976024700535-index10052.png
#EXTINF:10.869444,
570976024700535-index10053.png
#EXTINF:8.652078,
570976024700535-index10054.png
#EXTINF:8.782511,
570976024700535-index10055.png
#EXTINF:1.999978,
570976024700535-index10056.png
#EXTINF:2.913011,
570976024700535-index10057.png
#EXTINF:4.130389,
570976024700535-index10058.png
#EXTINF:4.391256,
570976024700535-index10059.png
#EXTINF:3.652133,
570976024700535-index10060.png
#EXTINF:3.043444,
570976024700535-index10061.png
#EXTINF:6.347756,
570976024700535-index10062.png
#EXTINF:4.565167,
570976024700535-index10063.png
#EXTINF:5.565156,
570976024700535-index10064.png
#EXTINF:4.826033,
570976024700535-index10065.png
#EXTINF:10.086844,
570976024700535-index10066.png
#EXTINF:6.869489,
570976024700535-index10067.png
#EXTINF:7.826000,
570976024700535-index10068.png
#EXTINF:8.825989,
570976024700535-index10069.png
#EXTINF:4.695600,
570976024700535-index10070.png
#EXTINF:4.956467,
570976024700535-index10071.png
#EXTINF:4.912989,
570976024700535-index10072.png
#EXTINF:10.217278,
570976024700535-index10073.png
#EXTINF:9.173811,
570976024700535-index10074.png
#EXTINF:6.782533,
570976024700535-index10075.png
#EXTINF:8.521644,
570976024700535-index10076.png
#EXTINF:5.999933,
570976024700535-index10077.png
#EXTINF:9.130333,
570976024700535-index10078.png
#EXTINF:4.434733,
570976024700535-index10079.png
#EXTINF:5.999933,
570976024700535-index10080.png
#EXTINF:8.999900,
570976024700535-index10081.png
#EXTINF:10.869444,
570976024700535-index10082.png
#EXTINF:4.521689,
570976024700535-index10083.png
#EXTINF:10.869444,
570976024700535-index10084.png
#EXTINF:7.173833,
570976024700535-index10085.png
#EXTINF:8.999900,
570976024700535-index10086.png
#EXTINF:6.956444,
570976024700535-index10087.png
#EXTINF:9.260767,
570976024700535-index10088.png
#EXTINF:6.999922,
570976024700535-index10089.png
#EXTINF:6.956444,
570976024700535-index10090.png
#EXTINF:3.999956,
570976024700535-index10091.png
#EXTINF:10.869444,
570976024700535-index10092.png
#EXTINF:6.695578,
570976024700535-index10093.png
#EXTINF:7.304267,
570976024700535-index10094.png
#EXTINF:9.956411,
570976024700535-index10095.png
#EXTINF:10.217278,
570976024700535-index10096.png
#EXTINF:10.869444,
570976024700535-index10097.png
#EXTINF:3.217356,
570976024700535-index10098.png
#EXTINF:10.869444,
570976024700535-index10099.png
#EXTINF:6.608622,
570976024700535-index10100.png
#EXTINF:10.173800,
570976024700535-index10101.png
#EXTINF:7.217311,
570976024700535-index10102.png
#EXTINF:7.478178,
570976024700535-index10103.png
#EXTINF:4.478211,
570976024700535-index10104.png
#EXTINF:7.086878,
570976024700535-index10105.png
#EXTINF:10.869444,
570976024700535-index10106.png
#EXTINF:10.869444,
570976024700535-index10107.png
#EXTINF:5.434722,
570976024700535-index10108.png
#EXTINF:5.565156,
570976024700535-index10109.png
#EXTINF:8.130344,
570976024700535-index10110.png
#EXTINF:6.217322,
570976024700535-index10111.png
#EXTINF:7.217311,
570976024700535-index10112.png
#EXTINF:6.434711,
570976024700535-index10113.png
#EXTINF:6.739056,
570976024700535-index10114.png
#EXTINF:10.869444,
570976024700535-index10115.png
#EXTINF:10.521622,
570976024700535-index10116.png
#EXTINF:10.869444,
570976024700535-index10117.png
#EXTINF:7.130356,
570976024700535-index10118.png
#EXTINF:10.869444,
570976024700535-index10119.png
#EXTINF:6.999922,
570976024700535-index10120.png
#EXTINF:5.912978,
570976024700535-index10121.png
#EXTINF:8.999900,
570976024700535-index10122.png
#EXTINF:10.565100,
570976024700535-index10123.png
#EXTINF:10.869444,
570976024700535-index10124.png
#EXTINF:6.869489,
570976024700535-index10125.png
#EXTINF:8.565122,
570976024700535-index10126.png
#EXTINF:10.869444,
570976024700535-index10127.png
#EXTINF:4.130389,
570976024700535-index10128.png
#EXTINF:6.391233,
570976024700535-index10129.png
#EXTINF:5.608633,
570976024700535-index10130.png
#EXTINF:10.869444,
570976024700535-index10131.png
#EXTINF:10.869444,
570976024700535-index10132.png
#EXTINF:10.869444,
570976024700535-index10133.png
#EXTINF:9.869456,
570976024700535-index10134.png
#EXTINF:10.869444,
570976024700535-index10135.png
#EXTINF:10.869444,
570976024700535-index10136.png
#EXTINF:10.869444,
570976024700535-index10137.png
#EXTINF:10.869444,
570976024700535-index10138.png
#EXTINF:7.912956,
570976024700535-index10139.png
#EXTINF:10.869444,
570976024700535-index10140.png
#EXTINF:8.521644,
570976024700535-index10141.png
#EXTINF:10.869444,
570976024700535-index10142.png
#EXTINF:10.869444,
570976024700535-index10143.png
#EXTINF:10.869444,
570976024700535-index10144.png
#EXTINF:10.869444,
570976024700535-index10145.png
#EXTINF:10.869444,
570976024700535-index10146.png
#EXTINF:10.869444,
570976024700535-index10147.png
#EXTINF:10.869444,
570976024700535-index10148.png
#EXTINF:3.217356,
570976024700535-index10149.png
#EXTINF:4.695600,
570976024700535-index10150.png
#EXTINF:10.869444,
570976024700535-index10151.png
#EXTINF:6.956444,
570976024700535-index10152.png
#EXTINF:10.869444,
570976024700535-index10153.png
#EXTINF:6.217322,
570976024700535-index10154.png
#EXT-X-ENDLIST
