#EXTM3U
#EXT-X-VERSION:3
#EXT-X-TARGETDURATION:3
#EXT-X-MEDIA-SEQUENCE:10001
#EXTINF:2.502000,
586555232604344-index10001.ts
#EXTINF:2.502000,
586555232604344-index10002.ts
#EXTINF:2.502000,
586555232604344-index10003.ts
#EXTINF:2.502000,
586555232604344-index10004.ts
#EXTINF:2.502000,
586555232604344-index10005.ts
#EXTINF:2.502000,
586555232604344-index10006.ts
#EXTINF:0.333600,
586555232604344-index10007.ts
#EXTINF:2.502000,
586555232604344-index10008.ts
#EXTINF:2.502000,
586555232604344-index10009.ts
#EXTINF:2.460300,
586555232604344-index10010.ts
#EXTINF:2.460300,
586555232604344-index10011.ts
#EXTINF:2.001600,
586555232604344-index10012.ts
#EXTINF:1.793100,
586555232604344-index10013.ts
#EXTINF:1.626300,
586555232604344-index10014.ts
#EXTINF:2.502000,
586555232604344-index10015.ts
#EXTINF:2.502000,
586555232604344-index10016.ts
#EXTINF:2.502000,
586555232604344-index10017.ts
#EXTINF:2.251800,
586555232604344-index10018.ts
#EXTINF:1.542900,
586555232604344-index10019.ts
#EXTINF:2.502000,
586555232604344-index10020.ts
#EXTINF:1.542900,
586555232604344-index10021.ts
#EXTINF:2.502000,
586555232604344-index10022.ts
#EXTINF:2.502000,
586555232604344-index10023.ts
#EXTINF:2.335200,
586555232604344-index10024.ts
#EXTINF:2.502000,
586555232604344-index10025.ts
#EXTINF:2.251800,
586555232604344-index10026.ts
#EXTINF:2.502000,
586555232604344-index10027.ts
#EXTINF:0.750600,
586555232604344-index10028.ts
#EXTINF:2.502000,
586555232604344-index10029.ts
#EXTINF:2.502000,
586555232604344-index10030.ts
#EXTINF:2.502000,
586555232604344-index10031.ts
#EXTINF:2.502000,
586555232604344-index10032.ts
#EXTINF:2.502000,
586555232604344-index10033.ts
#EXTINF:2.502000,
586555232604344-index10034.ts
#EXTINF:0.333600,
586555232604344-index10035.ts
#EXTINF:2.502000,
586555232604344-index10036.ts
#EXTINF:2.251800,
586555232604344-index10037.ts
#EXTINF:2.376900,
586555232604344-index10038.ts
#EXTINF:2.502000,
586555232604344-index10039.ts
#EXTINF:2.168400,
586555232604344-index10040.ts
#EXTINF:2.502000,
586555232604344-index10041.ts
#EXTINF:1.042500,
586555232604344-index10042.ts
#EXTINF:2.502000,
586555232604344-index10043.ts
#EXTINF:2.502000,
586555232604344-index10044.ts
#EXTINF:2.502000,
586555232604344-index10045.ts
#EXTINF:1.626300,
586555232604344-index10046.ts
#EXTINF:2.502000,
586555232604344-index10047.ts
#EXTINF:2.502000,
586555232604344-index10048.ts
#EXTINF:1.209300,
586555232604344-index10049.ts
#EXTINF:2.210100,
586555232604344-index10050.ts
#EXTINF:2.502000,
586555232604344-index10051.ts
#EXTINF:2.502000,
586555232604344-index10052.ts
#EXTINF:2.001600,
586555232604344-index10053.ts
#EXTINF:2.502000,
586555232604344-index10054.ts
#EXTINF:1.626300,
586555232604344-index10055.ts
#EXTINF:2.001600,
586555232604344-index10056.ts
#EXTINF:2.502000,
586555232604344-index10057.ts
#EXTINF:2.502000,
586555232604344-index10058.ts
#EXTINF:2.502000,
586555232604344-index10059.ts
#EXTINF:2.502000,
586555232604344-index10060.ts
#EXTINF:2.418600,
586555232604344-index10061.ts
#EXTINF:2.210100,
586555232604344-index10062.ts
#EXTINF:0.708900,
586555232604344-index10063.ts
#EXTINF:2.502000,
586555232604344-index10064.ts
#EXTINF:2.502000,
586555232604344-index10065.ts
#EXTINF:2.502000,
586555232604344-index10066.ts
#EXTINF:2.502000,
586555232604344-index10067.ts
#EXTINF:2.502000,
586555232604344-index10068.ts
#EXTINF:2.210100,
586555232604344-index10069.ts
#EXTINF:0.625500,
586555232604344-index10070.ts
#EXTINF:2.502000,
586555232604344-index10071.ts
#EXTINF:2.502000,
586555232604344-index10072.ts
#EXTINF:2.502000,
586555232604344-index10073.ts
#EXTINF:2.502000,
586555232604344-index10074.ts
#EXTINF:2.502000,
586555232604344-index10075.ts
#EXTINF:2.502000,
586555232604344-index10076.ts
#EXTINF:0.333600,
586555232604344-index10077.ts
#EXTINF:2.502000,
586555232604344-index10078.ts
#EXTINF:1.918200,
586555232604344-index10079.ts
#EXTINF:2.502000,
586555232604344-index10080.ts
#EXTINF:1.542900,
586555232604344-index10081.ts
#EXTINF:2.502000,
586555232604344-index10082.ts
#EXTINF:2.126700,
586555232604344-index10083.ts
#EXTINF:1.626300,
586555232604344-index10084.ts
#EXTINF:0.625500,
586555232604344-index10085.ts
#EXTINF:2.502000,
586555232604344-index10086.ts
#EXTINF:2.502000,
586555232604344-index10087.ts
#EXTINF:2.502000,
586555232604344-index10088.ts
#EXTINF:2.502000,
586555232604344-index10089.ts
#EXTINF:2.502000,
586555232604344-index10090.ts
#EXTINF:2.502000,
586555232604344-index10091.ts
#EXTINF:0.333600,
586555232604344-index10092.ts
#EXTINF:2.502000,
586555232604344-index10093.ts
#EXTINF:1.292700,
586555232604344-index10094.ts
#EXTINF:2.502000,
586555232604344-index10095.ts
#EXTINF:2.502000,
586555232604344-index10096.ts
#EXTINF:2.502000,
586555232604344-index10097.ts
#EXTINF:2.502000,
586555232604344-index10098.ts
#EXTINF:1.542900,
586555232604344-index10099.ts
#EXTINF:2.502000,
586555232604344-index10100.ts
#EXTINF:2.502000,
586555232604344-index10101.ts
#EXTINF:2.502000,
586555232604344-index10102.ts
#EXTINF:2.502000,
586555232604344-index10103.ts
#EXTINF:2.502000,
586555232604344-index10104.ts
#EXTINF:2.502000,
586555232604344-index10105.ts
#EXTINF:0.333600,
586555232604344-index10106.ts
#EXTINF:2.502000,
586555232604344-index10107.ts
#EXTINF:2.502000,
586555232604344-index10108.ts
#EXTINF:2.502000,
586555232604344-index10109.ts
#EXTINF:2.502000,
586555232604344-index10110.ts
#EXTINF:2.126700,
586555232604344-index10111.ts
#EXTINF:2.502000,
586555232604344-index10112.ts
#EXTINF:0.708900,
586555232604344-index10113.ts
#EXTINF:2.502000,
586555232604344-index10114.ts
#EXTINF:2.502000,
586555232604344-index10115.ts
#EXTINF:2.502000,
586555232604344-index10116.ts
#EXTINF:2.502000,
586555232604344-index10117.ts
#EXTINF:2.502000,
586555232604344-index10118.ts
#EXTINF:2.502000,
586555232604344-index10119.ts
#EXTINF:0.333600,
586555232604344-index10120.ts
#EXTINF:2.502000,
586555232604344-index10121.ts
#EXTINF:2.502000,
586555232604344-index10122.ts
#EXTINF:1.209300,
586555232604344-index10123.ts
#EXTINF:2.502000,
586555232604344-index10124.ts
#EXTINF:2.502000,
586555232604344-index10125.ts
#EXTINF:2.502000,
586555232604344-index10126.ts
#EXTINF:1.626300,
586555232604344-index10127.ts
#EXTINF:2.502000,
586555232604344-index10128.ts
#EXTINF:2.502000,
586555232604344-index10129.ts
#EXTINF:2.502000,
586555232604344-index10130.ts
#EXTINF:2.502000,
586555232604344-index10131.ts
#EXTINF:2.001600,
586555232604344-index10132.ts
#EXTINF:2.502000,
586555232604344-index10133.ts
#EXTINF:0.834000,
586555232604344-index10134.ts
#EXTINF:2.502000,
586555232604344-index10135.ts
#EXTINF:2.502000,
586555232604344-index10136.ts
#EXTINF:2.502000,
586555232604344-index10137.ts
#EXTINF:2.502000,
586555232604344-index10138.ts
#EXTINF:2.502000,
586555232604344-index10139.ts
#EXTINF:2.502000,
586555232604344-index10140.ts
#EXTINF:0.333600,
586555232604344-index10141.ts
#EXTINF:2.502000,
586555232604344-index10142.ts
#EXTINF:2.502000,
586555232604344-index10143.ts
#EXTINF:2.502000,
586555232604344-index10144.ts
#EXTINF:2.502000,
586555232604344-index10145.ts
#EXTINF:2.502000,
586555232604344-index10146.ts
#EXTINF:2.502000,
586555232604344-index10147.ts
#EXTINF:0.333600,
586555232604344-index10148.ts
#EXTINF:2.502000,
586555232604344-index10149.ts
#EXTINF:1.417800,
586555232604344-index10150.ts
#EXTINF:2.251800,
586555232604344-index10151.ts
#EXTINF:2.502000,
586555232604344-index10152.ts
#EXTINF:1.959900,
586555232604344-index10153.ts
#EXTINF:2.460300,
586555232604344-index10154.ts
#EXTINF:2.251800,
586555232604344-index10155.ts
#EXTINF:2.502000,
586555232604344-index10156.ts
#EXTINF:1.709700,
586555232604344-index10157.ts
#EXTINF:2.502000,
586555232604344-index10158.ts
#EXTINF:2.502000,
586555232604344-index10159.ts
#EXTINF:2.502000,
586555232604344-index10160.ts
#EXTINF:2.502000,
586555232604344-index10161.ts
#EXTINF:1.125900,
586555232604344-index10162.ts
#EXTINF:2.502000,
586555232604344-index10163.ts
#EXTINF:2.502000,
586555232604344-index10164.ts
#EXTINF:2.502000,
586555232604344-index10165.ts
#EXTINF:2.502000,
586555232604344-index10166.ts
#EXTINF:2.502000,
586555232604344-index10167.ts
#EXTINF:1.793100,
586555232604344-index10168.ts
#EXTINF:1.042500,
586555232604344-index10169.ts
#EXTINF:2.168400,
586555232604344-index10170.ts
#EXTINF:2.502000,
586555232604344-index10171.ts
#EXTINF:2.502000,
586555232604344-index10172.ts
#EXTINF:2.502000,
586555232604344-index10173.ts
#EXTINF:2.502000,
586555232604344-index10174.ts
#EXTINF:2.502000,
586555232604344-index10175.ts
#EXTINF:0.667200,
586555232604344-index10176.ts
#EXTINF:2.502000,
586555232604344-index10177.ts
#EXTINF:2.502000,
586555232604344-index10178.ts
#EXTINF:2.502000,
586555232604344-index10179.ts
#EXTINF:1.918200,
586555232604344-index10180.ts
#EXTINF:2.502000,
586555232604344-index10181.ts
#EXTINF:2.502000,
586555232604344-index10182.ts
#EXTINF:0.917400,
586555232604344-index10183.ts
#EXTINF:1.376100,
586555232604344-index10184.ts
#EXTINF:1.793100,
586555232604344-index10185.ts
#EXTINF:2.502000,
586555232604344-index10186.ts
#EXTINF:2.502000,
586555232604344-index10187.ts
#EXTINF:2.376900,
586555232604344-index10188.ts
#EXTINF:2.502000,
586555232604344-index10189.ts
#EXTINF:2.293500,
586555232604344-index10190.ts
#EXTINF:2.502000,
586555232604344-index10191.ts
#EXTINF:2.502000,
586555232604344-index10192.ts
#EXTINF:2.502000,
586555232604344-index10193.ts
#EXTINF:2.502000,
586555232604344-index10194.ts
#EXTINF:2.502000,
586555232604344-index10195.ts
#EXTINF:2.502000,
586555232604344-index10196.ts
#EXTINF:0.333600,
586555232604344-index10197.ts
#EXTINF:2.502000,
586555232604344-index10198.ts
#EXTINF:2.502000,
586555232604344-index10199.ts
#EXTINF:2.251800,
586555232604344-index10200.ts
#EXTINF:2.502000,
586555232604344-index10201.ts
#EXTINF:2.502000,
586555232604344-index10202.ts
#EXTINF:2.502000,
586555232604344-index10203.ts
#EXTINF:0.583800,
586555232604344-index10204.ts
#EXTINF:2.502000,
586555232604344-index10205.ts
#EXTINF:2.502000,
586555232604344-index10206.ts
#EXTINF:2.502000,
586555232604344-index10207.ts
#EXTINF:1.417800,
586555232604344-index10208.ts
#EXTINF:2.502000,
586555232604344-index10209.ts
#EXTINF:2.502000,
586555232604344-index10210.ts
#EXTINF:1.417800,
586555232604344-index10211.ts
#EXTINF:2.502000,
586555232604344-index10212.ts
#EXTINF:2.502000,
586555232604344-index10213.ts
#EXTINF:2.502000,
586555232604344-index10214.ts
#EXTINF:2.502000,
586555232604344-index10215.ts
#EXTINF:2.502000,
586555232604344-index10216.ts
#EXTINF:2.502000,
586555232604344-index10217.ts
#EXTINF:0.333600,
586555232604344-index10218.ts
#EXTINF:2.502000,
586555232604344-index10219.ts
#EXTINF:2.502000,
586555232604344-index10220.ts
#EXTINF:2.502000,
586555232604344-index10221.ts
#EXTINF:2.502000,
586555232604344-index10222.ts
#EXTINF:2.502000,
586555232604344-index10223.ts
#EXTINF:2.502000,
586555232604344-index10224.ts
#EXTINF:0.333600,
586555232604344-index10225.ts
#EXTINF:2.502000,
586555232604344-index10226.ts
#EXTINF:2.502000,
586555232604344-index10227.ts
#EXTINF:2.502000,
586555232604344-index10228.ts
#EXTINF:2.502000,
586555232604344-index10229.ts
#EXTINF:2.502000,
586555232604344-index10230.ts
#EXTINF:1.459500,
586555232604344-index10231.ts
#EXTINF:1.376100,
586555232604344-index10232.ts
#EXTINF:2.502000,
586555232604344-index10233.ts
#EXTINF:2.502000,
586555232604344-index10234.ts
#EXTINF:2.502000,
586555232604344-index10235.ts
#EXTINF:1.793100,
586555232604344-index10236.ts
#EXTINF:2.210100,
586555232604344-index10237.ts
#EXTINF:2.502000,
586555232604344-index10238.ts
#EXTINF:1.334400,
586555232604344-index10239.ts
#EXTINF:2.502000,
586555232604344-index10240.ts
#EXTINF:2.502000,
586555232604344-index10241.ts
#EXTINF:2.502000,
586555232604344-index10242.ts
#EXTINF:2.502000,
586555232604344-index10243.ts
#EXTINF:2.502000,
586555232604344-index10244.ts
#EXTINF:2.502000,
586555232604344-index10245.ts
#EXTINF:0.333600,
586555232604344-index10246.ts
#EXTINF:2.502000,
586555232604344-index10247.ts
#EXTINF:2.502000,
586555232604344-index10248.ts
#EXTINF:2.335200,
586555232604344-index10249.ts
#EXTINF:2.502000,
586555232604344-index10250.ts
#EXTINF:2.502000,
586555232604344-index10251.ts
#EXTINF:2.502000,
586555232604344-index10252.ts
#EXTINF:0.500400,
586555232604344-index10253.ts
#EXTINF:2.502000,
586555232604344-index10254.ts
#EXTINF:2.502000,
586555232604344-index10255.ts
#EXTINF:1.626300,
586555232604344-index10256.ts
#EXTINF:1.209300,
586555232604344-index10257.ts
#EXTINF:1.459500,
586555232604344-index10258.ts
#EXTINF:2.502000,
586555232604344-index10259.ts
#EXTINF:2.502000,
586555232604344-index10260.ts
#EXTINF:1.042500,
586555232604344-index10261.ts
#EXTINF:2.502000,
586555232604344-index10262.ts
#EXTINF:2.502000,
586555232604344-index10263.ts
#EXTINF:2.502000,
586555232604344-index10264.ts
#EXTINF:2.502000,
586555232604344-index10265.ts
#EXTINF:2.502000,
586555232604344-index10266.ts
#EXTINF:2.502000,
586555232604344-index10267.ts
#EXTINF:0.333600,
586555232604344-index10268.ts
#EXTINF:2.418600,
586555232604344-index10269.ts
#EXTINF:2.502000,
586555232604344-index10270.ts
#EXTINF:2.502000,
586555232604344-index10271.ts
#EXTINF:2.502000,
586555232604344-index10272.ts
#EXTINF:2.502000,
586555232604344-index10273.ts
#EXTINF:2.043300,
586555232604344-index10274.ts
#EXTINF:0.875700,
586555232604344-index10275.ts
#EXTINF:2.502000,
586555232604344-index10276.ts
#EXTINF:2.502000,
586555232604344-index10277.ts
#EXTINF:2.251800,
586555232604344-index10278.ts
#EXTINF:2.502000,
586555232604344-index10279.ts
#EXTINF:2.502000,
586555232604344-index10280.ts
#EXTINF:2.502000,
586555232604344-index10281.ts
#EXTINF:0.583800,
586555232604344-index10282.ts
#EXTINF:2.502000,
586555232604344-index10283.ts
#EXTINF:2.502000,
586555232604344-index10284.ts
#EXTINF:2.418600,
586555232604344-index10285.ts
#EXTINF:1.834800,
586555232604344-index10286.ts
#EXTINF:1.125900,
586555232604344-index10287.ts
#EXTINF:2.502000,
586555232604344-index10288.ts
#EXTINF:2.126700,
586555232604344-index10289.ts
#EXTINF:0.333600,
586555232604344-index10290.ts
#EXTINF:2.502000,
586555232604344-index10291.ts
#EXTINF:1.959900,
586555232604344-index10292.ts
#EXTINF:2.502000,
586555232604344-index10293.ts
#EXTINF:1.793100,
586555232604344-index10294.ts
#EXTINF:1.501200,
586555232604344-index10295.ts
#EXTINF:1.501200,
586555232604344-index10296.ts
#EXTINF:2.168400,
586555232604344-index10297.ts
#EXTINF:1.417800,
586555232604344-index10298.ts
#EXTINF:2.502000,
586555232604344-index10299.ts
#EXTINF:2.502000,
586555232604344-index10300.ts
#EXTINF:2.502000,
586555232604344-index10301.ts
#EXTINF:2.502000,
586555232604344-index10302.ts
#EXTINF:1.668000,
586555232604344-index10303.ts
#EXTINF:2.502000,
586555232604344-index10304.ts
#EXTINF:1.167600,
586555232604344-index10305.ts
#EXTINF:2.502000,
586555232604344-index10306.ts
#EXTINF:1.709700,
586555232604344-index10307.ts
#EXTINF:2.502000,
586555232604344-index10308.ts
#EXTINF:2.502000,
586555232604344-index10309.ts
#EXTINF:2.502000,
586555232604344-index10310.ts
#EXTINF:2.502000,
586555232604344-index10311.ts
#EXTINF:1.125900,
586555232604344-index10312.ts
#EXTINF:2.502000,
586555232604344-index10313.ts
#EXTINF:2.502000,
586555232604344-index10314.ts
#EXTINF:2.502000,
586555232604344-index10315.ts
#EXTINF:2.502000,
586555232604344-index10316.ts
#EXTINF:2.502000,
586555232604344-index10317.ts
#EXTINF:2.502000,
586555232604344-index10318.ts
#EXTINF:0.333600,
586555232604344-index10319.ts
#EXTINF:1.709700,
586555232604344-index10320.ts
#EXTINF:2.502000,
586555232604344-index10321.ts
#EXTINF:2.502000,
586555232604344-index10322.ts
#EXTINF:2.502000,
586555232604344-index10323.ts
#EXTINF:2.502000,
586555232604344-index10324.ts
#EXTINF:2.502000,
586555232604344-index10325.ts
#EXTINF:1.125900,
586555232604344-index10326.ts
#EXTINF:2.126700,
586555232604344-index10327.ts
#EXTINF:1.876500,
586555232604344-index10328.ts
#EXTINF:2.502000,
586555232604344-index10329.ts
#EXTINF:2.502000,
586555232604344-index10330.ts
#EXTINF:1.751400,
586555232604344-index10331.ts
#EXTINF:2.168400,
586555232604344-index10332.ts
#EXTINF:2.418600,
586555232604344-index10333.ts
#EXTINF:2.502000,
586555232604344-index10334.ts
#EXTINF:1.668000,
586555232604344-index10335.ts
#EXTINF:1.834800,
586555232604344-index10336.ts
#EXTINF:2.502000,
586555232604344-index10337.ts
#EXTINF:2.502000,
586555232604344-index10338.ts
#EXTINF:2.502000,
586555232604344-index10339.ts
#EXTINF:1.834800,
586555232604344-index10340.ts
#EXTINF:2.502000,
586555232604344-index10341.ts
#EXTINF:2.502000,
586555232604344-index10342.ts
#EXTINF:2.502000,
586555232604344-index10343.ts
#EXTINF:2.502000,
586555232604344-index10344.ts
#EXTINF:2.502000,
586555232604344-index10345.ts
#EXTINF:2.502000,
586555232604344-index10346.ts
#EXTINF:0.333600,
586555232604344-index10347.ts
#EXTINF:2.502000,
586555232604344-index10348.ts
#EXTINF:1.876500,
586555232604344-index10349.ts
#EXTINF:2.502000,
586555232604344-index10350.ts
#EXTINF:2.502000,
586555232604344-index10351.ts
#EXTINF:2.502000,
586555232604344-index10352.ts
#EXTINF:2.085000,
586555232604344-index10353.ts
#EXTINF:1.376100,
586555232604344-index10354.ts
#EXTINF:2.502000,
586555232604344-index10355.ts
#EXTINF:2.502000,
586555232604344-index10356.ts
#EXTINF:2.502000,
586555232604344-index10357.ts
#EXTINF:2.502000,
586555232604344-index10358.ts
#EXTINF:2.502000,
586555232604344-index10359.ts
#EXTINF:2.502000,
586555232604344-index10360.ts
#EXTINF:0.333600,
586555232604344-index10361.ts
#EXTINF:2.502000,
586555232604344-index10362.ts
#EXTINF:2.502000,
586555232604344-index10363.ts
#EXTINF:2.502000,
586555232604344-index10364.ts
#EXTINF:2.502000,
586555232604344-index10365.ts
#EXTINF:2.502000,
586555232604344-index10366.ts
#EXTINF:2.502000,
586555232604344-index10367.ts
#EXTINF:0.333600,
586555232604344-index10368.ts
#EXTINF:2.502000,
586555232604344-index10369.ts
#EXTINF:2.502000,
586555232604344-index10370.ts
#EXTINF:2.502000,
586555232604344-index10371.ts
#EXTINF:2.502000,
586555232604344-index10372.ts
#EXTINF:2.502000,
586555232604344-index10373.ts
#EXTINF:2.502000,
586555232604344-index10374.ts
#EXTINF:0.333600,
586555232604344-index10375.ts
#EXTINF:2.502000,
586555232604344-index10376.ts
#EXTINF:2.502000,
586555232604344-index10377.ts
#EXTINF:1.209300,
586555232604344-index10378.ts
#EXTINF:2.502000,
586555232604344-index10379.ts
#EXTINF:2.502000,
586555232604344-index10380.ts
#EXTINF:2.502000,
586555232604344-index10381.ts
#EXTINF:1.626300,
586555232604344-index10382.ts
#EXTINF:2.502000,
586555232604344-index10383.ts
#EXTINF:2.502000,
586555232604344-index10384.ts
#EXTINF:2.502000,
586555232604344-index10385.ts
#EXTINF:2.502000,
586555232604344-index10386.ts
#EXTINF:2.502000,
586555232604344-index10387.ts
#EXTINF:2.502000,
586555232604344-index10388.ts
#EXTINF:0.333600,
586555232604344-index10389.ts
#EXTINF:2.502000,
586555232604344-index10390.ts
#EXTINF:2.502000,
586555232604344-index10391.ts
#EXTINF:2.502000,
586555232604344-index10392.ts
#EXTINF:2.502000,
586555232604344-index10393.ts
#EXTINF:2.502000,
586555232604344-index10394.ts
#EXTINF:1.167600,
586555232604344-index10395.ts
#EXTINF:1.668000,
586555232604344-index10396.ts
#EXTINF:1.959900,
586555232604344-index10397.ts
#EXTINF:2.502000,
586555232604344-index10398.ts
#EXTINF:2.502000,
586555232604344-index10399.ts
#EXTINF:2.502000,
586555232604344-index10400.ts
#EXTINF:2.502000,
586555232604344-index10401.ts
#EXTINF:2.502000,
586555232604344-index10402.ts
#EXTINF:0.875700,
586555232604344-index10403.ts
#EXTINF:2.210100,
586555232604344-index10404.ts
#EXTINF:2.502000,
586555232604344-index10405.ts
#EXTINF:2.502000,
586555232604344-index10406.ts
#EXTINF:2.502000,
586555232604344-index10407.ts
#EXTINF:2.502000,
586555232604344-index10408.ts
#EXTINF:2.502000,
586555232604344-index10409.ts
#EXTINF:0.625500,
586555232604344-index10410.ts
#EXTINF:2.502000,
586555232604344-index10411.ts
#EXTINF:2.502000,
586555232604344-index10412.ts
#EXTINF:2.502000,
586555232604344-index10413.ts
#EXTINF:2.418600,
586555232604344-index10414.ts
#EXTINF:2.502000,
586555232604344-index10415.ts
#EXTINF:2.502000,
586555232604344-index10416.ts
#EXTINF:0.417000,
586555232604344-index10417.ts
#EXTINF:2.502000,
586555232604344-index10418.ts
#EXTINF:2.502000,
586555232604344-index10419.ts
#EXTINF:2.502000,
586555232604344-index10420.ts
#EXTINF:2.502000,
586555232604344-index10421.ts
#EXTINF:2.502000,
586555232604344-index10422.ts
#EXTINF:2.502000,
586555232604344-index10423.ts
#EXTINF:0.333600,
586555232604344-index10424.ts
#EXTINF:2.502000,
586555232604344-index10425.ts
#EXTINF:1.125900,
586555232604344-index10426.ts
#EXTINF:2.502000,
586555232604344-index10427.ts
#EXTINF:2.210100,
586555232604344-index10428.ts
#EXTINF:1.668000,
586555232604344-index10429.ts
#EXTINF:1.501200,
586555232604344-index10430.ts
#EXTINF:1.376100,
586555232604344-index10431.ts
#EXTINF:2.460300,
586555232604344-index10432.ts
#EXTINF:2.502000,
586555232604344-index10433.ts
#EXTINF:2.502000,
586555232604344-index10434.ts
#EXTINF:2.502000,
586555232604344-index10435.ts
#EXTINF:2.502000,
586555232604344-index10436.ts
#EXTINF:2.502000,
586555232604344-index10437.ts
#EXTINF:2.502000,
586555232604344-index10438.ts
#EXTINF:0.333600,
586555232604344-index10439.ts
#EXTINF:2.502000,
586555232604344-index10440.ts
#EXTINF:2.502000,
586555232604344-index10441.ts
#EXTINF:2.418600,
586555232604344-index10442.ts
#EXTINF:2.502000,
586555232604344-index10443.ts
#EXTINF:2.502000,
586555232604344-index10444.ts
#EXTINF:2.502000,
586555232604344-index10445.ts
#EXTINF:0.417000,
586555232604344-index10446.ts
#EXTINF:2.502000,
586555232604344-index10447.ts
#EXTINF:2.502000,
586555232604344-index10448.ts
#EXTINF:2.502000,
586555232604344-index10449.ts
#EXTINF:2.502000,
586555232604344-index10450.ts
#EXTINF:2.502000,
586555232604344-index10451.ts
#EXTINF:2.502000,
586555232604344-index10452.ts
#EXTINF:0.333600,
586555232604344-index10453.ts
#EXTINF:2.502000,
586555232604344-index10454.ts
#EXTINF:2.293500,
586555232604344-index10455.ts
#EXTINF:2.502000,
586555232604344-index10456.ts
#EXTINF:2.502000,
586555232604344-index10457.ts
#EXTINF:2.502000,
586555232604344-index10458.ts
#EXTINF:2.502000,
586555232604344-index10459.ts
#EXTINF:0.542100,
586555232604344-index10460.ts
#EXTINF:2.502000,
586555232604344-index10461.ts
#EXTINF:2.502000,
586555232604344-index10462.ts
#EXTINF:2.502000,
586555232604344-index10463.ts
#EXTINF:2.502000,
586555232604344-index10464.ts
#EXTINF:2.502000,
586555232604344-index10465.ts
#EXTINF:2.502000,
586555232604344-index10466.ts
#EXTINF:0.333600,
586555232604344-index10467.ts
#EXTINF:2.376900,
586555232604344-index10468.ts
#EXTINF:2.502000,
586555232604344-index10469.ts
#EXTINF:2.502000,
586555232604344-index10470.ts
#EXTINF:2.502000,
586555232604344-index10471.ts
#EXTINF:2.502000,
586555232604344-index10472.ts
#EXTINF:2.502000,
586555232604344-index10473.ts
#EXTINF:0.458700,
586555232604344-index10474.ts
#EXTINF:2.502000,
586555232604344-index10475.ts
#EXTINF:2.502000,
586555232604344-index10476.ts
#EXTINF:2.502000,
586555232604344-index10477.ts
#EXTINF:2.502000,
586555232604344-index10478.ts
#EXTINF:2.502000,
586555232604344-index10479.ts
#EXTINF:2.502000,
586555232604344-index10480.ts
#EXTINF:0.333600,
586555232604344-index10481.ts
#EXTINF:2.502000,
586555232604344-index10482.ts
#EXTINF:2.502000,
586555232604344-index10483.ts
#EXTINF:2.502000,
586555232604344-index10484.ts
#EXTINF:2.418600,
586555232604344-index10485.ts
#EXTINF:2.502000,
586555232604344-index10486.ts
#EXTINF:1.834800,
586555232604344-index10487.ts
#EXTINF:1.084200,
586555232604344-index10488.ts
#EXTINF:2.502000,
586555232604344-index10489.ts
#EXTINF:2.502000,
586555232604344-index10490.ts
#EXTINF:2.502000,
586555232604344-index10491.ts
#EXTINF:1.334400,
586555232604344-index10492.ts
#EXTINF:2.502000,
586555232604344-index10493.ts
#EXTINF:2.502000,
586555232604344-index10494.ts
#EXTINF:1.501200,
586555232604344-index10495.ts
#EXTINF:1.376100,
586555232604344-index10496.ts
#EXTINF:2.502000,
586555232604344-index10497.ts
#EXTINF:2.502000,
586555232604344-index10498.ts
#EXTINF:2.502000,
586555232604344-index10499.ts
#EXTINF:2.502000,
586555232604344-index10500.ts
#EXTINF:2.502000,
586555232604344-index10501.ts
#EXTINF:1.459500,
586555232604344-index10502.ts
#EXTINF:2.502000,
586555232604344-index10503.ts
#EXTINF:2.502000,
586555232604344-index10504.ts
#EXTINF:2.502000,
586555232604344-index10505.ts
#EXTINF:2.502000,
586555232604344-index10506.ts
#EXTINF:2.293500,
586555232604344-index10507.ts
#EXTINF:2.293500,
586555232604344-index10508.ts
#EXTINF:0.750600,
586555232604344-index10509.ts
#EXTINF:2.335200,
586555232604344-index10510.ts
#EXTINF:1.251000,
586555232604344-index10511.ts
#EXTINF:2.502000,
586555232604344-index10512.ts
#EXTINF:2.502000,
586555232604344-index10513.ts
#EXTINF:2.502000,
586555232604344-index10514.ts
#EXTINF:2.502000,
586555232604344-index10515.ts
#EXTINF:1.751400,
586555232604344-index10516.ts
#EXTINF:2.502000,
586555232604344-index10517.ts
#EXTINF:2.502000,
586555232604344-index10518.ts
#EXTINF:2.460300,
586555232604344-index10519.ts
#EXTINF:2.502000,
586555232604344-index10520.ts
#EXTINF:2.502000,
586555232604344-index10521.ts
#EXTINF:2.502000,
586555232604344-index10522.ts
#EXTINF:0.375300,
586555232604344-index10523.ts
#EXTINF:2.376900,
586555232604344-index10524.ts
#EXTINF:2.502000,
586555232604344-index10525.ts
#EXTINF:2.502000,
586555232604344-index10526.ts
#EXTINF:1.668000,
586555232604344-index10527.ts
#EXTINF:1.668000,
586555232604344-index10528.ts
#EXTINF:1.751400,
586555232604344-index10529.ts
#EXTINF:2.335200,
586555232604344-index10530.ts
#EXTINF:0.542100,
586555232604344-index10531.ts
#EXTINF:2.502000,
586555232604344-index10532.ts
#EXTINF:1.751400,
586555232604344-index10533.ts
#EXTINF:2.502000,
586555232604344-index10534.ts
#EXTINF:1.334400,
586555232604344-index10535.ts
#EXTINF:2.502000,
586555232604344-index10536.ts
#EXTINF:2.502000,
586555232604344-index10537.ts
#EXTINF:1.793100,
586555232604344-index10538.ts
#EXTINF:0.458700,
586555232604344-index10539.ts
#EXTINF:1.834800,
586555232604344-index10540.ts
#EXTINF:2.502000,
586555232604344-index10541.ts
#EXTINF:1.709700,
586555232604344-index10542.ts
#EXTINF:1.501200,
586555232604344-index10543.ts
#EXTINF:1.584600,
586555232604344-index10544.ts
#EXTINF:1.334400,
586555232604344-index10545.ts
#EXTINF:2.502000,
586555232604344-index10546.ts
#EXTINF:2.376900,
586555232604344-index10547.ts
#EXTINF:2.502000,
586555232604344-index10548.ts
#EXTINF:2.502000,
586555232604344-index10549.ts
#EXTINF:1.292700,
586555232604344-index10550.ts
#EXTINF:2.502000,
586555232604344-index10551.ts
#EXTINF:2.335200,
586555232604344-index10552.ts
#EXTINF:2.418600,
586555232604344-index10553.ts
#EXTINF:1.709700,
586555232604344-index10554.ts
#EXTINF:0.083400,
586555232604344-index10555.ts
#EXTINF:1.668000,
586555232604344-index10556.ts
#EXTINF:2.502000,
586555232604344-index10557.ts
#EXTINF:1.125900,
586555232604344-index10558.ts
#EXTINF:1.125900,
586555232604344-index10559.ts
#EXTINF:2.502000,
586555232604344-index10560.ts
#EXTINF:2.418600,
586555232604344-index10561.ts
#EXTINF:2.502000,
586555232604344-index10562.ts
#EXTINF:1.501200,
586555232604344-index10563.ts
#EXTINF:2.502000,
586555232604344-index10564.ts
#EXTINF:2.502000,
586555232604344-index10565.ts
#EXTINF:1.334400,
586555232604344-index10566.ts
#EXTINF:1.501200,
586555232604344-index10567.ts
#EXTINF:2.001600,
586555232604344-index10568.ts
#EXTINF:1.334400,
586555232604344-index10569.ts
#EXTINF:2.085000,
586555232604344-index10570.ts
#EXTINF:1.251000,
586555232604344-index10571.ts
#EXTINF:0.834000,
586555232604344-index10572.ts
#EXTINF:2.502000,
586555232604344-index10573.ts
#EXTINF:2.502000,
586555232604344-index10574.ts
#EXTINF:2.502000,
586555232604344-index10575.ts
#EXTINF:2.502000,
586555232604344-index10576.ts
#EXTINF:2.502000,
586555232604344-index10577.ts
#EXTINF:2.502000,
586555232604344-index10578.ts
#EXTINF:0.333600,
586555232604344-index10579.ts
#EXTINF:2.502000,
586555232604344-index10580.ts
#EXTINF:2.460300,
586555232604344-index10581.ts
#EXTINF:2.502000,
586555232604344-index10582.ts
#EXTINF:2.502000,
586555232604344-index10583.ts
#EXTINF:2.502000,
586555232604344-index10584.ts
#EXTINF:2.502000,
586555232604344-index10585.ts
#EXTINF:0.375300,
586555232604344-index10586.ts
#EXTINF:2.502000,
586555232604344-index10587.ts
#EXTINF:2.502000,
586555232604344-index10588.ts
#EXTINF:2.502000,
586555232604344-index10589.ts
#EXTINF:2.335200,
586555232604344-index10590.ts
#EXTINF:2.502000,
586555232604344-index10591.ts
#EXTINF:2.502000,
586555232604344-index10592.ts
#EXTINF:0.500400,
586555232604344-index10593.ts
#EXTINF:2.502000,
586555232604344-index10594.ts
#EXTINF:2.001600,
586555232604344-index10595.ts
#EXTINF:2.502000,
586555232604344-index10596.ts
#EXTINF:2.502000,
586555232604344-index10597.ts
#EXTINF:2.502000,
586555232604344-index10598.ts
#EXTINF:2.502000,
586555232604344-index10599.ts
#EXTINF:0.834000,
586555232604344-index10600.ts
#EXTINF:2.502000,
586555232604344-index10601.ts
#EXTINF:2.502000,
586555232604344-index10602.ts
#EXTINF:1.251000,
586555232604344-index10603.ts
#EXTINF:1.042500,
586555232604344-index10604.ts
#EXTINF:2.502000,
586555232604344-index10605.ts
#EXTINF:2.502000,
586555232604344-index10606.ts
#EXTINF:1.334400,
586555232604344-index10607.ts
#EXTINF:1.709700,
586555232604344-index10608.ts
#EXTINF:2.502000,
586555232604344-index10609.ts
#EXTINF:2.335200,
586555232604344-index10610.ts
#EXTINF:2.502000,
586555232604344-index10611.ts
#EXTINF:1.959900,
586555232604344-index10612.ts
#EXTINF:2.502000,
586555232604344-index10613.ts
#EXTINF:2.502000,
586555232604344-index10614.ts
#EXTINF:1.042500,
586555232604344-index10615.ts
#EXTINF:2.502000,
586555232604344-index10616.ts
#EXTINF:2.210100,
586555232604344-index10617.ts
#EXTINF:1.959900,
586555232604344-index10618.ts
#EXTINF:2.502000,
586555232604344-index10619.ts
#EXTINF:2.335200,
586555232604344-index10620.ts
#EXTINF:1.834800,
586555232604344-index10621.ts
#EXTINF:2.001600,
586555232604344-index10622.ts
#EXTINF:1.876500,
586555232604344-index10623.ts
#EXTINF:2.502000,
586555232604344-index10624.ts
#EXTINF:2.502000,
586555232604344-index10625.ts
#EXTINF:2.251800,
586555232604344-index10626.ts
#EXTINF:2.502000,
586555232604344-index10627.ts
#EXTINF:2.418600,
586555232604344-index10628.ts
#EXTINF:1.292700,
586555232604344-index10629.ts
#EXTINF:2.502000,
586555232604344-index10630.ts
#EXTINF:2.502000,
586555232604344-index10631.ts
#EXTINF:2.502000,
586555232604344-index10632.ts
#EXTINF:2.502000,
586555232604344-index10633.ts
#EXTINF:2.502000,
586555232604344-index10634.ts
#EXTINF:1.459500,
586555232604344-index10635.ts
#EXTINF:1.376100,
586555232604344-index10636.ts
#EXTINF:2.502000,
586555232604344-index10637.ts
#EXTINF:2.502000,
586555232604344-index10638.ts
#EXTINF:2.502000,
586555232604344-index10639.ts
#EXTINF:2.502000,
586555232604344-index10640.ts
#EXTINF:2.502000,
586555232604344-index10641.ts
#EXTINF:2.502000,
586555232604344-index10642.ts
#EXTINF:0.333600,
586555232604344-index10643.ts
#EXTINF:2.502000,
586555232604344-index10644.ts
#EXTINF:2.502000,
586555232604344-index10645.ts
#EXTINF:2.502000,
586555232604344-index10646.ts
#EXTINF:2.502000,
586555232604344-index10647.ts
#EXTINF:2.502000,
586555232604344-index10648.ts
#EXTINF:1.542900,
586555232604344-index10649.ts
#EXTINF:1.292700,
586555232604344-index10650.ts
#EXTINF:2.460300,
586555232604344-index10651.ts
#EXTINF:2.502000,
586555232604344-index10652.ts
#EXTINF:2.502000,
586555232604344-index10653.ts
#EXTINF:2.502000,
586555232604344-index10654.ts
#EXTINF:1.125900,
586555232604344-index10655.ts
#EXTINF:2.502000,
586555232604344-index10656.ts
#EXTINF:1.751400,
586555232604344-index10657.ts
#EXTINF:2.502000,
586555232604344-index10658.ts
#EXTINF:2.502000,
586555232604344-index10659.ts
#EXTINF:2.293500,
586555232604344-index10660.ts
#EXTINF:1.959900,
586555232604344-index10661.ts
#EXTINF:2.502000,
586555232604344-index10662.ts
#EXTINF:2.502000,
586555232604344-index10663.ts
#EXTINF:1.084200,
586555232604344-index10664.ts
#EXTINF:2.502000,
586555232604344-index10665.ts
#EXTINF:2.502000,
586555232604344-index10666.ts
#EXTINF:2.502000,
586555232604344-index10667.ts
#EXTINF:2.001600,
586555232604344-index10668.ts
#EXTINF:2.502000,
586555232604344-index10669.ts
#EXTINF:2.502000,
586555232604344-index10670.ts
#EXTINF:0.834000,
586555232604344-index10671.ts
#EXTINF:2.502000,
586555232604344-index10672.ts
#EXTINF:1.709700,
586555232604344-index10673.ts
#EXTINF:2.168400,
586555232604344-index10674.ts
#EXTINF:1.876500,
586555232604344-index10675.ts
#EXTINF:2.502000,
586555232604344-index10676.ts
#EXTINF:2.168400,
586555232604344-index10677.ts
#EXTINF:2.418600,
586555232604344-index10678.ts
#EXTINF:2.502000,
586555232604344-index10679.ts
#EXTINF:2.502000,
586555232604344-index10680.ts
#EXTINF:2.502000,
586555232604344-index10681.ts
#EXTINF:2.502000,
586555232604344-index10682.ts
#EXTINF:2.502000,
586555232604344-index10683.ts
#EXTINF:2.502000,
586555232604344-index10684.ts
#EXTINF:0.333600,
586555232604344-index10685.ts
#EXTINF:2.502000,
586555232604344-index10686.ts
#EXTINF:2.502000,
586555232604344-index10687.ts
#EXTINF:2.502000,
586555232604344-index10688.ts
#EXTINF:2.210100,
586555232604344-index10689.ts
#EXTINF:2.502000,
586555232604344-index10690.ts
#EXTINF:2.502000,
586555232604344-index10691.ts
#EXTINF:0.625500,
586555232604344-index10692.ts
#EXTINF:2.502000,
586555232604344-index10693.ts
#EXTINF:2.502000,
586555232604344-index10694.ts
#EXTINF:2.502000,
586555232604344-index10695.ts
#EXTINF:2.502000,
586555232604344-index10696.ts
#EXTINF:2.502000,
586555232604344-index10697.ts
#EXTINF:1.376100,
586555232604344-index10698.ts
#EXTINF:1.459500,
586555232604344-index10699.ts
#EXTINF:1.626300,
586555232604344-index10700.ts
#EXTINF:2.502000,
586555232604344-index10701.ts
#EXTINF:2.502000,
586555232604344-index10702.ts
#EXTINF:2.210100,
586555232604344-index10703.ts
#EXTINF:2.210100,
586555232604344-index10704.ts
#EXTINF:2.502000,
586555232604344-index10705.ts
#EXTINF:1.793100,
586555232604344-index10706.ts
#EXTINF:2.502000,
586555232604344-index10707.ts
#EXTINF:2.502000,
586555232604344-index10708.ts
#EXTINF:2.502000,
586555232604344-index10709.ts
#EXTINF:2.502000,
586555232604344-index10710.ts
#EXTINF:2.502000,
586555232604344-index10711.ts
#EXTINF:2.502000,
586555232604344-index10712.ts
#EXTINF:0.333600,
586555232604344-index10713.ts
#EXTINF:2.502000,
586555232604344-index10714.ts
#EXTINF:2.502000,
586555232604344-index10715.ts
#EXTINF:2.502000,
586555232604344-index10716.ts
#EXTINF:1.793100,
586555232604344-index10717.ts
#EXTINF:2.502000,
586555232604344-index10718.ts
#EXTINF:2.502000,
586555232604344-index10719.ts
#EXTINF:1.042500,
586555232604344-index10720.ts
#EXTINF:2.502000,
586555232604344-index10721.ts
#EXTINF:2.502000,
586555232604344-index10722.ts
#EXTINF:2.502000,
586555232604344-index10723.ts
#EXTINF:1.876500,
586555232604344-index10724.ts
#EXTINF:2.502000,
586555232604344-index10725.ts
#EXTINF:2.502000,
586555232604344-index10726.ts
#EXTINF:0.959100,
586555232604344-index10727.ts
#EXTINF:2.502000,
586555232604344-index10728.ts
#EXTINF:2.001600,
586555232604344-index10729.ts
#EXTINF:2.502000,
586555232604344-index10730.ts
#EXTINF:2.502000,
586555232604344-index10731.ts
#EXTINF:2.502000,
586555232604344-index10732.ts
#EXTINF:2.502000,
586555232604344-index10733.ts
#EXTINF:0.834000,
586555232604344-index10734.ts
#EXTINF:2.502000,
586555232604344-index10735.ts
#EXTINF:2.502000,
586555232604344-index10736.ts
#EXTINF:2.251800,
586555232604344-index10737.ts
#EXTINF:2.502000,
586555232604344-index10738.ts
#EXTINF:2.502000,
586555232604344-index10739.ts
#EXTINF:1.334400,
586555232604344-index10740.ts
#EXTINF:1.668000,
586555232604344-index10741.ts
#EXTINF:0.083400,
586555232604344-index10742.ts
#EXTINF:1.459500,
586555232604344-index10743.ts
#EXTINF:2.502000,
586555232604344-index10744.ts
#EXTINF:2.502000,
586555232604344-index10745.ts
#EXTINF:2.376900,
586555232604344-index10746.ts
#EXTINF:2.502000,
586555232604344-index10747.ts
#EXTINF:2.502000,
586555232604344-index10748.ts
#EXTINF:1.501200,
586555232604344-index10749.ts
#EXTINF:2.335200,
586555232604344-index10750.ts
#EXTINF:2.376900,
586555232604344-index10751.ts
#EXTINF:2.502000,
586555232604344-index10752.ts
#EXTINF:2.502000,
586555232604344-index10753.ts
#EXTINF:2.502000,
586555232604344-index10754.ts
#EXTINF:2.502000,
586555232604344-index10755.ts
#EXTINF:0.625500,
586555232604344-index10756.ts
#EXTINF:2.502000,
586555232604344-index10757.ts
#EXTINF:2.460300,
586555232604344-index10758.ts
#EXTINF:2.502000,
586555232604344-index10759.ts
#EXTINF:2.502000,
586555232604344-index10760.ts
#EXTINF:2.502000,
586555232604344-index10761.ts
#EXTINF:2.502000,
586555232604344-index10762.ts
#EXTINF:0.375300,
586555232604344-index10763.ts
#EXTINF:2.502000,
586555232604344-index10764.ts
#EXTINF:2.502000,
586555232604344-index10765.ts
#EXTINF:2.502000,
586555232604344-index10766.ts
#EXTINF:1.793100,
586555232604344-index10767.ts
#EXTINF:1.376100,
586555232604344-index10768.ts
#EXTINF:1.542900,
586555232604344-index10769.ts
#EXTINF:2.502000,
586555232604344-index10770.ts
#EXTINF:0.625500,
586555232604344-index10771.ts
#EXTINF:2.502000,
586555232604344-index10772.ts
#EXTINF:2.502000,
586555232604344-index10773.ts
#EXTINF:1.668000,
586555232604344-index10774.ts
#EXTINF:2.335200,
586555232604344-index10775.ts
#EXTINF:2.502000,
586555232604344-index10776.ts
#EXTINF:2.502000,
586555232604344-index10777.ts
#EXTINF:1.334400,
586555232604344-index10778.ts
#EXTINF:2.502000,
586555232604344-index10779.ts
#EXTINF:2.001600,
586555232604344-index10780.ts
#EXTINF:2.502000,
586555232604344-index10781.ts
#EXTINF:2.502000,
586555232604344-index10782.ts
#EXTINF:2.502000,
586555232604344-index10783.ts
#EXTINF:2.502000,
586555232604344-index10784.ts
#EXTINF:0.834000,
586555232604344-index10785.ts
#EXTINF:2.502000,
586555232604344-index10786.ts
#EXTINF:2.293500,
586555232604344-index10787.ts
#EXTINF:2.502000,
586555232604344-index10788.ts
#EXTINF:2.502000,
586555232604344-index10789.ts
#EXTINF:1.292700,
586555232604344-index10790.ts
#EXTINF:2.502000,
586555232604344-index10791.ts
#EXTINF:1.751400,
586555232604344-index10792.ts
#EXTINF:2.502000,
586555232604344-index10793.ts
#EXTINF:2.502000,
586555232604344-index10794.ts
#EXTINF:2.251800,
586555232604344-index10795.ts
#EXTINF:2.502000,
586555232604344-index10796.ts
#EXTINF:2.376900,
586555232604344-index10797.ts
#EXTINF:2.335200,
586555232604344-index10798.ts
#EXTINF:0.875700,
586555232604344-index10799.ts
#EXTINF:2.502000,
586555232604344-index10800.ts
#EXTINF:1.584600,
586555232604344-index10801.ts
#EXTINF:1.626300,
586555232604344-index10802.ts
#EXTINF:2.502000,
586555232604344-index10803.ts
#EXTINF:1.042500,
586555232604344-index10804.ts
#EXTINF:2.376900,
586555232604344-index10805.ts
#EXTINF:2.502000,
586555232604344-index10806.ts
#EXTINF:1.209300,
586555232604344-index10807.ts
#EXTINF:1.751400,
586555232604344-index10808.ts
#EXTINF:2.502000,
586555232604344-index10809.ts
#EXTINF:2.502000,
586555232604344-index10810.ts
#EXTINF:1.417800,
586555232604344-index10811.ts
#EXTINF:1.959900,
586555232604344-index10812.ts
#EXTINF:1.793100,
586555232604344-index10813.ts
#EXTINF:2.502000,
586555232604344-index10814.ts
#EXTINF:0.917400,
586555232604344-index10815.ts
#EXTINF:1.376100,
586555232604344-index10816.ts
#EXTINF:2.502000,
586555232604344-index10817.ts
#EXTINF:2.502000,
586555232604344-index10818.ts
#EXTINF:2.502000,
586555232604344-index10819.ts
#EXTINF:2.502000,
586555232604344-index10820.ts
#EXTINF:1.626300,
586555232604344-index10821.ts
#EXTINF:2.335200,
586555232604344-index10822.ts
#EXTINF:2.001600,
586555232604344-index10823.ts
#EXTINF:2.502000,
586555232604344-index10824.ts
#EXTINF:2.502000,
586555232604344-index10825.ts
#EXTINF:1.542900,
586555232604344-index10826.ts
#EXTINF:2.502000,
586555232604344-index10827.ts
#EXTINF:2.502000,
586555232604344-index10828.ts
#EXTINF:1.793100,
586555232604344-index10829.ts
#EXTINF:2.502000,
586555232604344-index10830.ts
#EXTINF:2.502000,
586555232604344-index10831.ts
#EXTINF:2.502000,
586555232604344-index10832.ts
#EXTINF:2.502000,
586555232604344-index10833.ts
#EXTINF:2.502000,
586555232604344-index10834.ts
#EXTINF:2.460300,
586555232604344-index10835.ts
#EXTINF:0.375300,
586555232604344-index10836.ts
#EXTINF:2.502000,
586555232604344-index10837.ts
#EXTINF:2.502000,
586555232604344-index10838.ts
#EXTINF:2.502000,
586555232604344-index10839.ts
#EXTINF:2.502000,
586555232604344-index10840.ts
#EXTINF:2.502000,
586555232604344-index10841.ts
#EXTINF:2.502000,
586555232604344-index10842.ts
#EXTINF:0.333600,
586555232604344-index10843.ts
#EXTINF:2.502000,
586555232604344-index10844.ts
#EXTINF:2.376900,
586555232604344-index10845.ts
#EXTINF:2.502000,
586555232604344-index10846.ts
#EXTINF:2.502000,
586555232604344-index10847.ts
#EXTINF:2.502000,
586555232604344-index10848.ts
#EXTINF:2.502000,
586555232604344-index10849.ts
#EXTINF:0.458700,
586555232604344-index10850.ts
#EXTINF:1.167600,
586555232604344-index10851.ts
#EXTINF:2.001600,
586555232604344-index10852.ts
#EXTINF:1.668000,
586555232604344-index10853.ts
#EXTINF:2.502000,
586555232604344-index10854.ts
#EXTINF:1.918200,
586555232604344-index10855.ts
#EXTINF:1.501200,
586555232604344-index10856.ts
#EXTINF:1.876500,
586555232604344-index10857.ts
#EXTINF:1.251000,
586555232604344-index10858.ts
#EXTINF:1.459500,
586555232604344-index10859.ts
#EXTINF:2.502000,
586555232604344-index10860.ts
#EXTINF:1.709700,
586555232604344-index10861.ts
#EXTINF:2.043300,
586555232604344-index10862.ts
#EXTINF:2.502000,
586555232604344-index10863.ts
#EXTINF:1.417800,
586555232604344-index10864.ts
#EXTINF:1.876500,
586555232604344-index10865.ts
#EXTINF:1.542900,
586555232604344-index10866.ts
#EXTINF:1.042500,
586555232604344-index10867.ts
#EXTINF:0.708900,
586555232604344-index10868.ts
#EXTINF:1.376100,
586555232604344-index10869.ts
#EXTINF:2.502000,
586555232604344-index10870.ts
#EXTINF:2.502000,
586555232604344-index10871.ts
#EXTINF:1.376100,
586555232604344-index10872.ts
#EXTINF:1.042500,
586555232604344-index10873.ts
#EXTINF:1.834800,
586555232604344-index10874.ts
#EXTINF:2.502000,
586555232604344-index10875.ts
#EXTINF:2.210100,
586555232604344-index10876.ts
#EXTINF:2.001600,
586555232604344-index10877.ts
#EXTINF:2.502000,
586555232604344-index10878.ts
#EXTINF:1.793100,
586555232604344-index10879.ts
#EXTINF:2.502000,
586555232604344-index10880.ts
#EXTINF:2.502000,
586555232604344-index10881.ts
#EXTINF:2.502000,
586555232604344-index10882.ts
#EXTINF:1.417800,
586555232604344-index10883.ts
#EXTINF:0.125100,
586555232604344-index10884.ts
#EXTINF:2.502000,
586555232604344-index10885.ts
#EXTINF:2.502000,
586555232604344-index10886.ts
#EXTINF:1.584600,
586555232604344-index10887.ts
#EXTINF:2.001600,
586555232604344-index10888.ts
#EXTINF:2.502000,
586555232604344-index10889.ts
#EXTINF:2.502000,
586555232604344-index10890.ts
#EXTINF:1.751400,
586555232604344-index10891.ts
#EXTINF:2.502000,
586555232604344-index10892.ts
#EXTINF:2.502000,
586555232604344-index10893.ts
#EXTINF:2.168400,
586555232604344-index10894.ts
#EXTINF:1.251000,
586555232604344-index10895.ts
#EXTINF:2.210100,
586555232604344-index10896.ts
#EXTINF:2.502000,
586555232604344-index10897.ts
#EXTINF:2.210100,
586555232604344-index10898.ts
#EXTINF:2.460300,
586555232604344-index10899.ts
#EXTINF:2.502000,
586555232604344-index10900.ts
#EXTINF:2.502000,
586555232604344-index10901.ts
#EXTINF:2.502000,
586555232604344-index10902.ts
#EXTINF:1.584600,
586555232604344-index10903.ts
#EXTINF:2.502000,
586555232604344-index10904.ts
#EXTINF:1.292700,
586555232604344-index10905.ts
#EXTINF:2.502000,
586555232604344-index10906.ts
#EXTINF:1.626300,
586555232604344-index10907.ts
#EXTINF:2.502000,
586555232604344-index10908.ts
#EXTINF:2.502000,
586555232604344-index10909.ts
#EXTINF:2.502000,
586555232604344-index10910.ts
#EXTINF:1.334400,
586555232604344-index10911.ts
#EXTINF:2.376900,
586555232604344-index10912.ts
#EXTINF:2.502000,
586555232604344-index10913.ts
#EXTINF:2.502000,
586555232604344-index10914.ts
#EXTINF:2.502000,
586555232604344-index10915.ts
#EXTINF:2.502000,
586555232604344-index10916.ts
#EXTINF:2.502000,
586555232604344-index10917.ts
#EXTINF:2.502000,
586555232604344-index10918.ts
#EXTINF:0.333600,
586555232604344-index10919.ts
#EXTINF:1.626300,
586555232604344-index10920.ts
#EXTINF:2.460300,
586555232604344-index10921.ts
#EXTINF:1.876500,
586555232604344-index10922.ts
#EXTINF:2.502000,
586555232604344-index10923.ts
#EXTINF:2.502000,
586555232604344-index10924.ts
#EXTINF:2.502000,
586555232604344-index10925.ts
#EXTINF:1.876500,
586555232604344-index10926.ts
#EXTINF:2.502000,
586555232604344-index10927.ts
#EXTINF:2.502000,
586555232604344-index10928.ts
#EXTINF:2.335200,
586555232604344-index10929.ts
#EXTINF:2.502000,
586555232604344-index10930.ts
#EXTINF:2.502000,
586555232604344-index10931.ts
#EXTINF:2.502000,
586555232604344-index10932.ts
#EXTINF:0.500400,
586555232604344-index10933.ts
#EXTINF:2.502000,
586555232604344-index10934.ts
#EXTINF:2.502000,
586555232604344-index10935.ts
#EXTINF:2.502000,
586555232604344-index10936.ts
#EXTINF:2.502000,
586555232604344-index10937.ts
#EXTINF:2.502000,
586555232604344-index10938.ts
#EXTINF:2.502000,
586555232604344-index10939.ts
#EXTINF:0.333600,
586555232604344-index10940.ts
#EXTINF:2.502000,
586555232604344-index10941.ts
#EXTINF:1.918200,
586555232604344-index10942.ts
#EXTINF:2.001600,
586555232604344-index10943.ts
#EXTINF:2.502000,
586555232604344-index10944.ts
#EXTINF:2.502000,
586555232604344-index10945.ts
#EXTINF:2.502000,
586555232604344-index10946.ts
#EXTINF:1.417800,
586555232604344-index10947.ts
#EXTINF:2.502000,
586555232604344-index10948.ts
#EXTINF:2.502000,
586555232604344-index10949.ts
#EXTINF:2.502000,
586555232604344-index10950.ts
#EXTINF:2.502000,
586555232604344-index10951.ts
#EXTINF:2.502000,
586555232604344-index10952.ts
#EXTINF:2.502000,
586555232604344-index10953.ts
#EXTINF:0.333600,
586555232604344-index10954.ts
#EXTINF:2.502000,
586555232604344-index10955.ts
#EXTINF:2.502000,
586555232604344-index10956.ts
#EXTINF:2.502000,
586555232604344-index10957.ts
#EXTINF:2.502000,
586555232604344-index10958.ts
#EXTINF:2.502000,
586555232604344-index10959.ts
#EXTINF:2.502000,
586555232604344-index10960.ts
#EXTINF:0.333600,
586555232604344-index10961.ts
#EXTINF:1.251000,
586555232604344-index10962.ts
#EXTINF:2.502000,
586555232604344-index10963.ts
#EXTINF:2.502000,
586555232604344-index10964.ts
#EXTINF:2.502000,
586555232604344-index10965.ts
#EXTINF:2.502000,
586555232604344-index10966.ts
#EXTINF:2.502000,
586555232604344-index10967.ts
#EXTINF:1.584600,
586555232604344-index10968.ts
#EXTINF:2.502000,
586555232604344-index10969.ts
#EXTINF:2.502000,
586555232604344-index10970.ts
#EXTINF:2.502000,
586555232604344-index10971.ts
#EXTINF:2.502000,
586555232604344-index10972.ts
#EXTINF:2.502000,
586555232604344-index10973.ts
#EXTINF:2.502000,
586555232604344-index10974.ts
#EXTINF:0.333600,
586555232604344-index10975.ts
#EXTINF:2.502000,
586555232604344-index10976.ts
#EXTINF:2.502000,
586555232604344-index10977.ts
#EXTINF:2.502000,
586555232604344-index10978.ts
#EXTINF:1.501200,
586555232604344-index10979.ts
#EXTINF:2.502000,
586555232604344-index10980.ts
#EXTINF:2.502000,
586555232604344-index10981.ts
#EXTINF:1.084200,
586555232604344-index10982.ts
#EXTINF:0.250200,
586555232604344-index10983.ts
#EXTINF:2.502000,
586555232604344-index10984.ts
#EXTINF:2.502000,
586555232604344-index10985.ts
#EXTINF:2.251800,
586555232604344-index10986.ts
#EXTINF:1.709700,
586555232604344-index10987.ts
#EXTINF:1.584600,
586555232604344-index10988.ts
#EXTINF:2.502000,
586555232604344-index10989.ts
#EXTINF:2.293500,
586555232604344-index10990.ts
#EXTINF:2.502000,
586555232604344-index10991.ts
#EXTINF:2.502000,
586555232604344-index10992.ts
#EXTINF:2.502000,
586555232604344-index10993.ts
#EXTINF:2.502000,
586555232604344-index10994.ts
#EXTINF:2.502000,
586555232604344-index10995.ts
#EXTINF:2.502000,
586555232604344-index10996.ts
#EXTINF:0.333600,
586555232604344-index10997.ts
#EXTINF:2.502000,
586555232604344-index10998.ts
#EXTINF:2.502000,
586555232604344-index10999.ts
#EXTINF:2.502000,
586555232604344-index11000.ts
#EXTINF:2.502000,
586555232604344-index11001.ts
#EXTINF:2.502000,
586555232604344-index11002.ts
#EXTINF:2.502000,
586555232604344-index11003.ts
#EXTINF:0.333600,
586555232604344-index11004.ts
#EXTINF:2.502000,
586555232604344-index11005.ts
#EXTINF:2.502000,
586555232604344-index11006.ts
#EXTINF:2.502000,
586555232604344-index11007.ts
#EXTINF:2.502000,
586555232604344-index11008.ts
#EXTINF:2.502000,
586555232604344-index11009.ts
#EXTINF:2.502000,
586555232604344-index11010.ts
#EXTINF:0.333600,
586555232604344-index11011.ts
#EXTINF:2.502000,
586555232604344-index11012.ts
#EXTINF:2.502000,
586555232604344-index11013.ts
#EXTINF:2.502000,
586555232604344-index11014.ts
#EXTINF:2.502000,
586555232604344-index11015.ts
#EXTINF:2.502000,
586555232604344-index11016.ts
#EXTINF:2.502000,
586555232604344-index11017.ts
#EXTINF:0.333600,
586555232604344-index11018.ts
#EXTINF:2.502000,
586555232604344-index11019.ts
#EXTINF:2.502000,
586555232604344-index11020.ts
#EXTINF:2.502000,
586555232604344-index11021.ts
#EXTINF:2.502000,
586555232604344-index11022.ts
#EXTINF:2.502000,
586555232604344-index11023.ts
#EXTINF:2.502000,
586555232604344-index11024.ts
#EXTINF:0.333600,
586555232604344-index11025.ts
#EXTINF:2.502000,
586555232604344-index11026.ts
#EXTINF:2.502000,
586555232604344-index11027.ts
#EXTINF:2.502000,
586555232604344-index11028.ts
#EXTINF:2.502000,
586555232604344-index11029.ts
#EXTINF:2.502000,
586555232604344-index11030.ts
#EXTINF:2.502000,
586555232604344-index11031.ts
#EXTINF:0.333600,
586555232604344-index11032.ts
#EXTINF:2.502000,
586555232604344-index11033.ts
#EXTINF:2.502000,
586555232604344-index11034.ts
#EXTINF:2.502000,
586555232604344-index11035.ts
#EXTINF:2.502000,
586555232604344-index11036.ts
#EXTINF:2.126700,
586555232604344-index11037.ts
#EXTINF:2.502000,
586555232604344-index11038.ts
#EXTINF:0.708900,
586555232604344-index11039.ts
#EXTINF:2.502000,
586555232604344-index11040.ts
#EXTINF:2.502000,
586555232604344-index11041.ts
#EXTINF:2.502000,
586555232604344-index11042.ts
#EXTINF:2.502000,
586555232604344-index11043.ts
#EXTINF:2.502000,
586555232604344-index11044.ts
#EXTINF:2.502000,
586555232604344-index11045.ts
#EXTINF:0.333600,
586555232604344-index11046.ts
#EXTINF:2.502000,
586555232604344-index11047.ts
#EXTINF:2.502000,
586555232604344-index11048.ts
#EXTINF:2.502000,
586555232604344-index11049.ts
#EXTINF:2.502000,
586555232604344-index11050.ts
#EXTINF:2.502000,
586555232604344-index11051.ts
#EXTINF:2.502000,
586555232604344-index11052.ts
#EXTINF:0.333600,
586555232604344-index11053.ts
#EXTINF:1.834800,
586555232604344-index11054.ts
#EXTINF:2.502000,
586555232604344-index11055.ts
#EXTINF:2.502000,
586555232604344-index11056.ts
#EXTINF:2.502000,
586555232604344-index11057.ts
#EXTINF:2.502000,
586555232604344-index11058.ts
#EXTINF:2.502000,
586555232604344-index11059.ts
#EXTINF:1.000800,
586555232604344-index11060.ts
#EXTINF:2.502000,
586555232604344-index11061.ts
#EXTINF:2.502000,
586555232604344-index11062.ts
#EXTINF:2.502000,
586555232604344-index11063.ts
#EXTINF:2.502000,
586555232604344-index11064.ts
#EXTINF:2.502000,
586555232604344-index11065.ts
#EXTINF:2.502000,
586555232604344-index11066.ts
#EXTINF:0.333600,
586555232604344-index11067.ts
#EXTINF:2.502000,
586555232604344-index11068.ts
#EXTINF:2.210100,
586555232604344-index11069.ts
#EXTINF:2.502000,
586555232604344-index11070.ts
#EXTINF:2.502000,
586555232604344-index11071.ts
#EXTINF:2.502000,
586555232604344-index11072.ts
#EXTINF:2.502000,
586555232604344-index11073.ts
#EXTINF:0.625500,
586555232604344-index11074.ts
#EXTINF:2.001600,
586555232604344-index11075.ts
#EXTINF:1.042500,
586555232604344-index11076.ts
#EXTINF:2.502000,
586555232604344-index11077.ts
#EXTINF:2.502000,
586555232604344-index11078.ts
#EXTINF:2.502000,
586555232604344-index11079.ts
#EXTINF:2.502000,
586555232604344-index11080.ts
#EXTINF:2.293500,
586555232604344-index11081.ts
#EXTINF:1.834800,
586555232604344-index11082.ts
#EXTINF:2.502000,
586555232604344-index11083.ts
#EXTINF:2.502000,
586555232604344-index11084.ts
#EXTINF:2.502000,
586555232604344-index11085.ts
#EXTINF:2.502000,
586555232604344-index11086.ts
#EXTINF:2.502000,
586555232604344-index11087.ts
#EXTINF:1.000800,
586555232604344-index11088.ts
#EXTINF:2.502000,
586555232604344-index11089.ts
#EXTINF:2.502000,
586555232604344-index11090.ts
#EXTINF:2.502000,
586555232604344-index11091.ts
#EXTINF:2.502000,
586555232604344-index11092.ts
#EXTINF:2.502000,
586555232604344-index11093.ts
#EXTINF:2.502000,
586555232604344-index11094.ts
#EXTINF:0.333600,
586555232604344-index11095.ts
#EXTINF:2.502000,
586555232604344-index11096.ts
#EXTINF:2.502000,
586555232604344-index11097.ts
#EXTINF:2.502000,
586555232604344-index11098.ts
#EXTINF:2.502000,
586555232604344-index11099.ts
#EXTINF:2.502000,
586555232604344-index11100.ts
#EXTINF:2.502000,
586555232604344-index11101.ts
#EXTINF:0.333600,
586555232604344-index11102.ts
#EXTINF:2.502000,
586555232604344-index11103.ts
#EXTINF:2.502000,
586555232604344-index11104.ts
#EXTINF:2.168400,
586555232604344-index11105.ts
#EXTINF:2.502000,
586555232604344-index11106.ts
#EXTINF:1.668000,
586555232604344-index11107.ts
#EXTINF:2.502000,
586555232604344-index11108.ts
#EXTINF:1.501200,
586555232604344-index11109.ts
#EXTINF:1.918200,
586555232604344-index11110.ts
#EXTINF:2.502000,
586555232604344-index11111.ts
#EXTINF:2.502000,
586555232604344-index11112.ts
#EXTINF:2.502000,
586555232604344-index11113.ts
#EXTINF:2.502000,
586555232604344-index11114.ts
#EXTINF:2.502000,
586555232604344-index11115.ts
#EXTINF:0.917400,
586555232604344-index11116.ts
#EXTINF:2.043300,
586555232604344-index11117.ts
#EXTINF:2.502000,
586555232604344-index11118.ts
#EXTINF:1.834800,
586555232604344-index11119.ts
#EXTINF:2.502000,
586555232604344-index11120.ts
#EXTINF:2.502000,
586555232604344-index11121.ts
#EXTINF:2.502000,
586555232604344-index11122.ts
#EXTINF:1.459500,
586555232604344-index11123.ts
#EXTINF:2.502000,
586555232604344-index11124.ts
#EXTINF:2.502000,
586555232604344-index11125.ts
#EXTINF:2.502000,
586555232604344-index11126.ts
#EXTINF:2.502000,
586555232604344-index11127.ts
#EXTINF:2.502000,
586555232604344-index11128.ts
#EXTINF:2.502000,
586555232604344-index11129.ts
#EXTINF:0.333600,
586555232604344-index11130.ts
#EXTINF:2.502000,
586555232604344-index11131.ts
#EXTINF:2.460300,
586555232604344-index11132.ts
#EXTINF:1.751400,
586555232604344-index11133.ts
#EXTINF:1.459500,
586555232604344-index11134.ts
#EXTINF:2.502000,
586555232604344-index11135.ts
#EXTINF:1.542900,
586555232604344-index11136.ts
#EXT-X-ENDLIST
