#EXTM3U
#EXT-X-VERSION:3
#EXT-X-TARGETDURATION:6
#EXT-X-MEDIA-SEQUENCE:10001
#EXTINF:5.073422,
591868338899479-index10001.png
#EXTINF:5.073422,
591868338899479-index10002.png
#EXTINF:5.073422,
591868338899479-index10003.png
#EXTINF:5.073422,
591868338899479-index10004.png
#EXTINF:5.073422,
591868338899479-index10005.png
#EXTINF:5.073422,
591868338899479-index10006.png
#EXTINF:5.073422,
591868338899479-index10007.png
#EXTINF:5.073422,
591868338899479-index10008.png
#EXTINF:5.073422,
591868338899479-index10009.png
#EXTINF:5.073422,
591868338899479-index10010.png
#EXTINF:5.073422,
591868338899479-index10011.png
#EXTINF:5.073422,
591868338899479-index10012.png
#EXTINF:5.073422,
591868338899479-index10013.png
#EXTINF:5.073422,
591868338899479-index10014.png
#EXTINF:5.073422,
591868338899479-index10015.png
#EXTINF:5.073422,
591868338899479-index10016.png
#EXTINF:5.073422,
591868338899479-index10017.png
#EXTINF:5.073422,
591868338899479-index10018.png
#EXTINF:5.073422,
591868338899479-index10019.png
#EXTINF:5.073422,
591868338899479-index10020.png
#EXTINF:5.073422,
591868338899479-index10021.png
#EXTINF:5.073422,
591868338899479-index10022.png
#EXTINF:5.073422,
591868338899479-index10023.png
#EXTINF:5.073422,
591868338899479-index10024.png
#EXTINF:5.073422,
591868338899479-index10025.png
#EXTINF:5.073422,
591868338899479-index10026.png
#EXTINF:5.073422,
591868338899479-index10027.png
#EXTINF:5.073422,
591868338899479-index10028.png
#EXTINF:5.073422,
591868338899479-index10029.png
#EXTINF:5.073422,
591868338899479-index10030.png
#EXTINF:5.073422,
591868338899479-index10031.png
#EXTINF:5.073422,
591868338899479-index10032.png
#EXTINF:5.073422,
591868338899479-index10033.png
#EXTINF:5.073422,
591868338899479-index10034.png
#EXTINF:5.073422,
591868338899479-index10035.png
#EXTINF:5.073422,
591868338899479-index10036.png
#EXTINF:5.073422,
591868338899479-index10037.png
#EXTINF:5.073422,
591868338899479-index10038.png
#EXTINF:5.073422,
591868338899479-index10039.png
#EXTINF:5.907867,
591868338899479-index10040.png
#EXT-X-ENDLIST
