#EXTM3U
#EXT-X-VERSION:3
#EXT-X-TARGETDURATION:5
#EXT-X-MEDIA-SEQUENCE:10001
#EXTINF:3.200000,
605024641172753-index10001.png
#EXTINF:5.000000,
605024641172753-index10002.png
#EXTINF:4.566667,
605024641172753-index10003.png
#EXTINF:3.566667,
605024641172753-index10004.png
#EXTINF:0.566667,
605024641172753-index10005.png
#EXTINF:3.533333,
605024641172753-index10006.png
#EXTINF:3.200000,
605024641172753-index10007.png
#EXTINF:3.000000,
605024641172753-index10008.png
#EXTINF:1.433333,
605024641172753-index10009.png
#EXTINF:4.500000,
605024641172753-index10010.png
#EXTINF:3.666667,
605024641172753-index10011.png
#EXTINF:3.466667,
605024641172753-index10012.png
#EXTINF:3.833333,
605024641172753-index10013.png
#EXTINF:5.000000,
605024641172753-index10014.png
#EXTINF:3.300000,
605024641172753-index10015.png
#EXTINF:1.433333,
605024641172753-index10016.png
#EXTINF:2.900000,
605024641172753-index10017.png
#EXTINF:5.000000,
605024641172753-index10018.png
#EXTINF:4.500000,
605024641172753-index10019.png
#EXTINF:2.066667,
605024641172753-index10020.png
#EXTINF:2.433333,
605024641172753-index10021.png
#EXTINF:1.266667,
605024641172753-index10022.png
#EXTINF:2.366667,
605024641172753-index10023.png
#EXTINF:2.300000,
605024641172753-index10024.png
#EXTINF:2.466667,
605024641172753-index10025.png
#EXTINF:3.833333,
605024641172753-index10026.png
#EXTINF:5.000000,
605024641172753-index10027.png
#EXTINF:4.266667,
605024641172753-index10028.png
#EXTINF:2.033333,
605024641172753-index10029.png
#EXTINF:1.600000,
605024641172753-index10030.png
#EXTINF:1.766667,
605024641172753-index10031.png
#EXTINF:1.433333,
605024641172753-index10032.png
#EXTINF:5.000000,
605024641172753-index10033.png
#EXTINF:2.466667,
605024641172753-index10034.png
#EXTINF:2.133333,
605024641172753-index10035.png
#EXTINF:2.000000,
605024641172753-index10036.png
#EXTINF:1.033333,
605024641172753-index10037.png
#EXTINF:1.433333,
605024641172753-index10038.png
#EXTINF:0.533333,
605024641172753-index10039.png
#EXTINF:0.666667,
605024641172753-index10040.png
#EXTINF:1.066667,
605024641172753-index10041.png
#EXTINF:1.933333,
605024641172753-index10042.png
#EXTINF:5.000000,
605024641172753-index10043.png
#EXTINF:1.200000,
605024641172753-index10044.png
#EXTINF:5.000000,
605024641172753-index10045.png
#EXTINF:2.266667,
605024641172753-index10046.png
#EXTINF:2.333333,
605024641172753-index10047.png
#EXTINF:2.766667,
605024641172753-index10048.png
#EXTINF:2.366667,
605024641172753-index10049.png
#EXTINF:0.833333,
605024641172753-index10050.png
#EXTINF:0.833333,
605024641172753-index10051.png
#EXTINF:5.000000,
605024641172753-index10052.png
#EXTINF:5.000000,
605024641172753-index10053.png
#EXTINF:5.000000,
605024641172753-index10054.png
#EXTINF:4.200000,
605024641172753-index10055.png
#EXTINF:3.000000,
605024641172753-index10056.png
#EXTINF:3.866667,
605024641172753-index10057.png
#EXTINF:2.566667,
605024641172753-index10058.png
#EXTINF:3.733333,
605024641172753-index10059.png
#EXTINF:2.833333,
605024641172753-index10060.png
#EXTINF:4.600000,
605024641172753-index10061.png
#EXTINF:5.000000,
605024641172753-index10062.png
#EXTINF:3.733333,
605024641172753-index10063.png
#EXTINF:5.000000,
605024641172753-index10064.png
#EXTINF:5.000000,
605024641172753-index10065.png
#EXTINF:1.033333,
605024641172753-index10066.png
#EXTINF:1.933333,
605024641172753-index10067.png
#EXTINF:5.000000,
605024641172753-index10068.png
#EXTINF:5.000000,
605024641172753-index10069.png
#EXTINF:0.933333,
605024641172753-index10070.png
#EXTINF:3.033333,
605024641172753-index10071.png
#EXTINF:5.000000,
605024641172753-index10072.png
#EXTINF:4.533333,
605024641172753-index10073.png
#EXTINF:4.466667,
605024641172753-index10074.png
#EXTINF:3.566667,
605024641172753-index10075.png
#EXTINF:2.866667,
605024641172753-index10076.png
#EXTINF:4.233333,
605024641172753-index10077.png
#EXTINF:3.700000,
605024641172753-index10078.png
#EXTINF:3.100000,
605024641172753-index10079.png
#EXTINF:0.733333,
605024641172753-index10080.png
#EXTINF:2.066667,
605024641172753-index10081.png
#EXTINF:1.333333,
605024641172753-index10082.png
#EXTINF:5.000000,
605024641172753-index10083.png
#EXTINF:3.766667,
605024641172753-index10084.png
#EXTINF:4.666667,
605024641172753-index10085.png
#EXTINF:0.900000,
605024641172753-index10086.png
#EXTINF:2.333333,
605024641172753-index10087.png
#EXTINF:3.200000,
605024641172753-index10088.png
#EXTINF:2.500000,
605024641172753-index10089.png
#EXTINF:2.533333,
605024641172753-index10090.png
#EXTINF:2.200000,
605024641172753-index10091.png
#EXTINF:4.100000,
605024641172753-index10092.png
#EXTINF:2.300000,
605024641172753-index10093.png
#EXTINF:3.800000,
605024641172753-index10094.png
#EXTINF:5.000000,
605024641172753-index10095.png
#EXTINF:2.200000,
605024641172753-index10096.png
#EXTINF:5.000000,
605024641172753-index10097.png
#EXTINF:2.733333,
605024641172753-index10098.png
#EXTINF:5.000000,
605024641172753-index10099.png
#EXTINF:5.000000,
605024641172753-index10100.png
#EXTINF:4.133333,
605024641172753-index10101.png
#EXTINF:1.600000,
605024641172753-index10102.png
#EXTINF:4.900000,
605024641172753-index10103.png
#EXTINF:3.966667,
605024641172753-index10104.png
#EXTINF:5.000000,
605024641172753-index10105.png
#EXTINF:3.566667,
605024641172753-index10106.png
#EXTINF:1.400000,
605024641172753-index10107.png
#EXTINF:5.000000,
605024641172753-index10108.png
#EXTINF:5.000000,
605024641172753-index10109.png
#EXTINF:0.766667,
605024641172753-index10110.png
#EXTINF:2.433333,
605024641172753-index10111.png
#EXTINF:2.366667,
605024641172753-index10112.png
#EXTINF:1.466667,
605024641172753-index10113.png
#EXTINF:2.133333,
605024641172753-index10114.png
#EXTINF:4.466667,
605024641172753-index10115.png
#EXTINF:1.966667,
605024641172753-index10116.png
#EXTINF:5.000000,
605024641172753-index10117.png
#EXTINF:5.000000,
605024641172753-index10118.png
#EXTINF:5.000000,
605024641172753-index10119.png
#EXTINF:2.933333,
605024641172753-index10120.png
#EXTINF:4.966667,
605024641172753-index10121.png
#EXTINF:5.000000,
605024641172753-index10122.png
#EXTINF:5.000000,
605024641172753-index10123.png
#EXTINF:1.966667,
605024641172753-index10124.png
#EXTINF:5.000000,
605024641172753-index10125.png
#EXTINF:5.000000,
605024641172753-index10126.png
#EXTINF:5.000000,
605024641172753-index10127.png
#EXTINF:0.966667,
605024641172753-index10128.png
#EXTINF:5.000000,
605024641172753-index10129.png
#EXTINF:2.300000,
605024641172753-index10130.png
#EXTINF:5.000000,
605024641172753-index10131.png
#EXTINF:5.000000,
605024641172753-index10132.png
#EXTINF:2.466667,
605024641172753-index10133.png
#EXTINF:3.200000,
605024641172753-index10134.png
#EXTINF:1.000000,
605024641172753-index10135.png
#EXTINF:2.266667,
605024641172753-index10136.png
#EXTINF:2.600000,
605024641172753-index10137.png
#EXTINF:3.733333,
605024641172753-index10138.png
#EXTINF:1.933333,
605024641172753-index10139.png
#EXTINF:4.333333,
605024641172753-index10140.png
#EXTINF:3.533333,
605024641172753-index10141.png
#EXTINF:5.000000,
605024641172753-index10142.png
#EXTINF:5.000000,
605024641172753-index10143.png
#EXTINF:4.200000,
605024641172753-index10144.png
#EXTINF:2.600000,
605024641172753-index10145.png
#EXTINF:2.800000,
605024641172753-index10146.png
#EXTINF:4.433333,
605024641172753-index10147.png
#EXTINF:2.133333,
605024641172753-index10148.png
#EXTINF:2.933333,
605024641172753-index10149.png
#EXTINF:1.566667,
605024641172753-index10150.png
#EXTINF:2.533333,
605024641172753-index10151.png
#EXTINF:2.300000,
605024641172753-index10152.png
#EXTINF:1.266667,
605024641172753-index10153.png
#EXTINF:2.300000,
605024641172753-index10154.png
#EXTINF:1.933333,
605024641172753-index10155.png
#EXTINF:2.933333,
605024641172753-index10156.png
#EXTINF:2.333333,
605024641172753-index10157.png
#EXTINF:3.433333,
605024641172753-index10158.png
#EXTINF:2.466667,
605024641172753-index10159.png
#EXTINF:4.400000,
605024641172753-index10160.png
#EXTINF:1.566667,
605024641172753-index10161.png
#EXTINF:1.600000,
605024641172753-index10162.png
#EXTINF:3.933333,
605024641172753-index10163.png
#EXTINF:4.566667,
605024641172753-index10164.png
#EXTINF:1.166667,
605024641172753-index10165.png
#EXTINF:2.666667,
605024641172753-index10166.png
#EXTINF:1.633333,
605024641172753-index10167.png
#EXTINF:5.000000,
605024641172753-index10168.png
#EXTINF:4.033333,
605024641172753-index10169.png
#EXTINF:1.600000,
605024641172753-index10170.png
#EXTINF:2.700000,
605024641172753-index10171.png
#EXTINF:4.933333,
605024641172753-index10172.png
#EXTINF:1.400000,
605024641172753-index10173.png
#EXTINF:2.100000,
605024641172753-index10174.png
#EXTINF:1.966667,
605024641172753-index10175.png
#EXTINF:1.566667,
605024641172753-index10176.png
#EXTINF:5.000000,
605024641172753-index10177.png
#EXTINF:2.300000,
605024641172753-index10178.png
#EXTINF:2.633333,
605024641172753-index10179.png
#EXTINF:0.966667,
605024641172753-index10180.png
#EXTINF:3.633333,
605024641172753-index10181.png
#EXTINF:3.066667,
605024641172753-index10182.png
#EXTINF:3.433333,
605024641172753-index10183.png
#EXTINF:1.966667,
605024641172753-index10184.png
#EXTINF:2.300000,
605024641172753-index10185.png
#EXTINF:5.000000,
605024641172753-index10186.png
#EXTINF:1.533333,
605024641172753-index10187.png
#EXTINF:0.833333,
605024641172753-index10188.png
#EXTINF:1.200000,
605024641172753-index10189.png
#EXTINF:1.000000,
605024641172753-index10190.png
#EXTINF:2.800000,
605024641172753-index10191.png
#EXTINF:3.166667,
605024641172753-index10192.png
#EXTINF:1.466667,
605024641172753-index10193.png
#EXTINF:2.800000,
605024641172753-index10194.png
#EXTINF:2.066667,
605024641172753-index10195.png
#EXTINF:3.433333,
605024641172753-index10196.png
#EXTINF:3.866667,
605024641172753-index10197.png
#EXTINF:1.333333,
605024641172753-index10198.png
#EXTINF:1.200000,
605024641172753-index10199.png
#EXTINF:1.600000,
605024641172753-index10200.png
#EXTINF:1.233333,
605024641172753-index10201.png
#EXTINF:0.833333,
605024641172753-index10202.png
#EXTINF:0.500000,
605024641172753-index10203.png
#EXTINF:0.633333,
605024641172753-index10204.png
#EXTINF:0.566667,
605024641172753-index10205.png
#EXTINF:0.533333,
605024641172753-index10206.png
#EXTINF:0.533333,
605024641172753-index10207.png
#EXTINF:4.966667,
605024641172753-index10208.png
#EXTINF:0.500000,
605024641172753-index10209.png
#EXTINF:1.166667,
605024641172753-index10210.png
#EXTINF:0.900000,
605024641172753-index10211.png
#EXTINF:0.566667,
605024641172753-index10212.png
#EXTINF:1.566667,
605024641172753-index10213.png
#EXTINF:1.100000,
605024641172753-index10214.png
#EXTINF:2.900000,
605024641172753-index10215.png
#EXTINF:3.800000,
605024641172753-index10216.png
#EXTINF:1.433333,
605024641172753-index10217.png
#EXTINF:1.800000,
605024641172753-index10218.png
#EXTINF:1.000000,
605024641172753-index10219.png
#EXTINF:1.966667,
605024641172753-index10220.png
#EXTINF:1.766667,
605024641172753-index10221.png
#EXTINF:3.766667,
605024641172753-index10222.png
#EXTINF:4.766667,
605024641172753-index10223.png
#EXTINF:4.400000,
605024641172753-index10224.png
#EXTINF:1.066667,
605024641172753-index10225.png
#EXTINF:0.866667,
605024641172753-index10226.png
#EXTINF:1.200000,
605024641172753-index10227.png
#EXTINF:2.200000,
605024641172753-index10228.png
#EXTINF:1.833333,
605024641172753-index10229.png
#EXTINF:2.166667,
605024641172753-index10230.png
#EXTINF:1.766667,
605024641172753-index10231.png
#EXTINF:1.333333,
605024641172753-index10232.png
#EXTINF:0.800000,
605024641172753-index10233.png
#EXTINF:2.166667,
605024641172753-index10234.png
#EXTINF:3.233333,
605024641172753-index10235.png
#EXTINF:1.000000,
605024641172753-index10236.png
#EXTINF:1.200000,
605024641172753-index10237.png
#EXTINF:0.566667,
605024641172753-index10238.png
#EXTINF:0.700000,
605024641172753-index10239.png
#EXTINF:0.833333,
605024641172753-index10240.png
#EXTINF:1.500000,
605024641172753-index10241.png
#EXTINF:0.566667,
605024641172753-index10242.png
#EXTINF:1.700000,
605024641172753-index10243.png
#EXTINF:2.133333,
605024641172753-index10244.png
#EXTINF:1.600000,
605024641172753-index10245.png
#EXTINF:0.633333,
605024641172753-index10246.png
#EXTINF:0.666667,
605024641172753-index10247.png
#EXTINF:1.633333,
605024641172753-index10248.png
#EXTINF:1.833333,
605024641172753-index10249.png
#EXTINF:1.266667,
605024641172753-index10250.png
#EXTINF:0.866667,
605024641172753-index10251.png
#EXTINF:1.833333,
605024641172753-index10252.png
#EXTINF:0.966667,
605024641172753-index10253.png
#EXTINF:0.666667,
605024641172753-index10254.png
#EXTINF:0.533333,
605024641172753-index10255.png
#EXTINF:2.366667,
605024641172753-index10256.png
#EXTINF:5.000000,
605024641172753-index10257.png
#EXTINF:2.833333,
605024641172753-index10258.png
#EXTINF:3.633333,
605024641172753-index10259.png
#EXTINF:3.600000,
605024641172753-index10260.png
#EXTINF:5.000000,
605024641172753-index10261.png
#EXTINF:1.666667,
605024641172753-index10262.png
#EXTINF:0.800000,
605024641172753-index10263.png
#EXTINF:0.533333,
605024641172753-index10264.png
#EXTINF:2.233333,
605024641172753-index10265.png
#EXTINF:1.700000,
605024641172753-index10266.png
#EXTINF:2.500000,
605024641172753-index10267.png
#EXTINF:4.866667,
605024641172753-index10268.png
#EXTINF:1.766667,
605024641172753-index10269.png
#EXTINF:1.533333,
605024641172753-index10270.png
#EXTINF:2.466667,
605024641172753-index10271.png
#EXTINF:4.900000,
605024641172753-index10272.png
#EXTINF:1.566667,
605024641172753-index10273.png
#EXTINF:4.900000,
605024641172753-index10274.png
#EXTINF:5.000000,
605024641172753-index10275.png
#EXTINF:3.400000,
605024641172753-index10276.png
#EXTINF:2.400000,
605024641172753-index10277.png
#EXTINF:4.133333,
605024641172753-index10278.png
#EXTINF:3.066667,
605024641172753-index10279.png
#EXTINF:5.000000,
605024641172753-index10280.png
#EXTINF:3.633333,
605024641172753-index10281.png
#EXTINF:5.000000,
605024641172753-index10282.png
#EXTINF:5.000000,
605024641172753-index10283.png
#EXTINF:0.966667,
605024641172753-index10284.png
#EXTINF:4.766667,
605024641172753-index10285.png
#EXTINF:3.366667,
605024641172753-index10286.png
#EXTINF:3.833333,
605024641172753-index10287.png
#EXTINF:1.700000,
605024641172753-index10288.png
#EXTINF:5.000000,
605024641172753-index10289.png
#EXTINF:5.000000,
605024641172753-index10290.png
#EXTINF:0.733333,
605024641172753-index10291.png
#EXTINF:1.700000,
605024641172753-index10292.png
#EXTINF:1.300000,
605024641172753-index10293.png
#EXTINF:0.666667,
605024641172753-index10294.png
#EXTINF:4.966667,
605024641172753-index10295.png
#EXTINF:1.166667,
605024641172753-index10296.png
#EXTINF:5.000000,
605024641172753-index10297.png
#EXTINF:5.000000,
605024641172753-index10298.png
#EXTINF:5.000000,
605024641172753-index10299.png
#EXTINF:0.500000,
605024641172753-index10300.png
#EXTINF:5.000000,
605024641172753-index10301.png
#EXTINF:0.600000,
605024641172753-index10302.png
#EXTINF:5.000000,
605024641172753-index10303.png
#EXTINF:5.000000,
605024641172753-index10304.png
#EXTINF:2.700000,
605024641172753-index10305.png
#EXTINF:4.600000,
605024641172753-index10306.png
#EXTINF:2.566667,
605024641172753-index10307.png
#EXTINF:1.866667,
605024641172753-index10308.png
#EXTINF:0.733333,
605024641172753-index10309.png
#EXTINF:1.633333,
605024641172753-index10310.png
#EXTINF:0.966667,
605024641172753-index10311.png
#EXTINF:0.866667,
605024641172753-index10312.png
#EXTINF:0.766667,
605024641172753-index10313.png
#EXTINF:0.733333,
605024641172753-index10314.png
#EXTINF:0.900000,
605024641172753-index10315.png
#EXTINF:1.566667,
605024641172753-index10316.png
#EXTINF:2.200000,
605024641172753-index10317.png
#EXTINF:1.000000,
605024641172753-index10318.png
#EXTINF:1.166667,
605024641172753-index10319.png
#EXTINF:1.600000,
605024641172753-index10320.png
#EXTINF:1.233333,
605024641172753-index10321.png
#EXTINF:2.533333,
605024641172753-index10322.png
#EXTINF:1.366667,
605024641172753-index10323.png
#EXTINF:3.033333,
605024641172753-index10324.png
#EXTINF:2.533333,
605024641172753-index10325.png
#EXTINF:5.000000,
605024641172753-index10326.png
#EXTINF:3.333333,
605024641172753-index10327.png
#EXTINF:5.000000,
605024641172753-index10328.png
#EXTINF:5.000000,
605024641172753-index10329.png
#EXTINF:2.833333,
605024641172753-index10330.png
#EXTINF:1.233333,
605024641172753-index10331.png
#EXTINF:3.166667,
605024641172753-index10332.png
#EXTINF:3.466667,
605024641172753-index10333.png
#EXTINF:3.400000,
605024641172753-index10334.png
#EXTINF:5.000000,
605024641172753-index10335.png
#EXTINF:3.600000,
605024641172753-index10336.png
#EXTINF:2.400000,
605024641172753-index10337.png
#EXTINF:1.566667,
605024641172753-index10338.png
#EXTINF:2.233333,
605024641172753-index10339.png
#EXTINF:1.300000,
605024641172753-index10340.png
#EXTINF:1.333333,
605024641172753-index10341.png
#EXTINF:3.366667,
605024641172753-index10342.png
#EXTINF:1.433333,
605024641172753-index10343.png
#EXTINF:0.800000,
605024641172753-index10344.png
#EXTINF:2.200000,
605024641172753-index10345.png
#EXTINF:3.333333,
605024641172753-index10346.png
#EXTINF:1.166667,
605024641172753-index10347.png
#EXTINF:1.600000,
605024641172753-index10348.png
#EXTINF:2.033333,
605024641172753-index10349.png
#EXTINF:3.200000,
605024641172753-index10350.png
#EXTINF:3.333333,
605024641172753-index10351.png
#EXTINF:5.000000,
605024641172753-index10352.png
#EXTINF:1.933333,
605024641172753-index10353.png
#EXTINF:4.733333,
605024641172753-index10354.png
#EXTINF:3.833333,
605024641172753-index10355.png
#EXTINF:5.000000,
605024641172753-index10356.png
#EXTINF:4.900000,
605024641172753-index10357.png
#EXTINF:3.833333,
605024641172753-index10358.png
#EXTINF:1.166667,
605024641172753-index10359.png
#EXTINF:2.766667,
605024641172753-index10360.png
#EXTINF:0.833333,
605024641172753-index10361.png
#EXTINF:1.700000,
605024641172753-index10362.png
#EXTINF:0.700000,
605024641172753-index10363.png
#EXTINF:0.800000,
605024641172753-index10364.png
#EXTINF:0.500000,
605024641172753-index10365.png
#EXTINF:0.566667,
605024641172753-index10366.png
#EXTINF:0.966667,
605024641172753-index10367.png
#EXTINF:1.133333,
605024641172753-index10368.png
#EXTINF:3.566667,
605024641172753-index10369.png
#EXTINF:1.633333,
605024641172753-index10370.png
#EXTINF:5.000000,
605024641172753-index10371.png
#EXTINF:4.966667,
605024641172753-index10372.png
#EXTINF:5.000000,
605024641172753-index10373.png
#EXTINF:2.733333,
605024641172753-index10374.png
#EXTINF:1.866667,
605024641172753-index10375.png
#EXTINF:3.066667,
605024641172753-index10376.png
#EXTINF:1.333333,
605024641172753-index10377.png
#EXTINF:2.600000,
605024641172753-index10378.png
#EXTINF:3.100000,
605024641172753-index10379.png
#EXTINF:2.666667,
605024641172753-index10380.png
#EXTINF:0.900000,
605024641172753-index10381.png
#EXTINF:1.600000,
605024641172753-index10382.png
#EXTINF:3.166667,
605024641172753-index10383.png
#EXTINF:3.966667,
605024641172753-index10384.png
#EXTINF:5.000000,
605024641172753-index10385.png
#EXTINF:4.366667,
605024641172753-index10386.png
#EXTINF:0.833333,
605024641172753-index10387.png
#EXTINF:5.000000,
605024641172753-index10388.png
#EXTINF:3.866667,
605024641172753-index10389.png
#EXTINF:2.433333,
605024641172753-index10390.png
#EXTINF:3.800000,
605024641172753-index10391.png
#EXTINF:3.100000,
605024641172753-index10392.png
#EXTINF:3.333333,
605024641172753-index10393.png
#EXTINF:2.400000,
605024641172753-index10394.png
#EXTINF:1.900000,
605024641172753-index10395.png
#EXTINF:1.633333,
605024641172753-index10396.png
#EXTINF:4.433333,
605024641172753-index10397.png
#EXTINF:4.000000,
605024641172753-index10398.png
#EXTINF:5.000000,
605024641172753-index10399.png
#EXTINF:0.633333,
605024641172753-index10400.png
#EXTINF:4.400000,
605024641172753-index10401.png
#EXTINF:5.000000,
605024641172753-index10402.png
#EXTINF:1.766667,
605024641172753-index10403.png
#EXTINF:2.533333,
605024641172753-index10404.png
#EXTINF:5.000000,
605024641172753-index10405.png
#EXTINF:3.333333,
605024641172753-index10406.png
#EXTINF:5.000000,
605024641172753-index10407.png
#EXTINF:1.933333,
605024641172753-index10408.png
#EXTINF:4.600000,
605024641172753-index10409.png
#EXTINF:5.000000,
605024641172753-index10410.png
#EXTINF:0.666667,
605024641172753-index10411.png
#EXTINF:5.000000,
605024641172753-index10412.png
#EXTINF:0.700000,
605024641172753-index10413.png
#EXTINF:4.566667,
605024641172753-index10414.png
#EXTINF:4.300000,
605024641172753-index10415.png
#EXTINF:3.233333,
605024641172753-index10416.png
#EXTINF:4.166667,
605024641172753-index10417.png
#EXTINF:5.000000,
605024641172753-index10418.png
#EXTINF:3.600000,
605024641172753-index10419.png
#EXTINF:3.133333,
605024641172753-index10420.png
#EXTINF:1.833333,
605024641172753-index10421.png
#EXTINF:5.000000,
605024641172753-index10422.png
#EXTINF:0.500000,
605024641172753-index10423.png
#EXTINF:5.000000,
605024641172753-index10424.png
#EXTINF:2.366667,
605024641172753-index10425.png
#EXTINF:5.000000,
605024641172753-index10426.png
#EXTINF:3.633333,
605024641172753-index10427.png
#EXTINF:2.166667,
605024641172753-index10428.png
#EXTINF:2.533333,
605024641172753-index10429.png
#EXTINF:3.766667,
605024641172753-index10430.png
#EXTINF:5.000000,
605024641172753-index10431.png
#EXTINF:2.866667,
605024641172753-index10432.png
#EXTINF:4.433333,
605024641172753-index10433.png
#EXTINF:3.033333,
605024641172753-index10434.png
#EXTINF:1.400000,
605024641172753-index10435.png
#EXTINF:3.600000,
605024641172753-index10436.png
#EXTINF:4.633333,
605024641172753-index10437.png
#EXTINF:5.000000,
605024641172753-index10438.png
#EXTINF:0.900000,
605024641172753-index10439.png
#EXTINF:2.633333,
605024641172753-index10440.png
#EXTINF:1.233333,
605024641172753-index10441.png
#EXTINF:3.433333,
605024641172753-index10442.png
#EXTINF:2.700000,
605024641172753-index10443.png
#EXTINF:4.900000,
605024641172753-index10444.png
#EXTINF:5.000000,
605024641172753-index10445.png
#EXTINF:3.100000,
605024641172753-index10446.png
#EXTINF:2.433333,
605024641172753-index10447.png
#EXTINF:1.500000,
605024641172753-index10448.png
#EXTINF:3.366667,
605024641172753-index10449.png
#EXTINF:1.933333,
605024641172753-index10450.png
#EXTINF:1.900000,
605024641172753-index10451.png
#EXTINF:1.866667,
605024641172753-index10452.png
#EXTINF:3.933333,
605024641172753-index10453.png
#EXTINF:2.133333,
605024641172753-index10454.png
#EXTINF:4.400000,
605024641172753-index10455.png
#EXTINF:3.666667,
605024641172753-index10456.png
#EXTINF:3.266667,
605024641172753-index10457.png
#EXTINF:2.433333,
605024641172753-index10458.png
#EXTINF:3.033333,
605024641172753-index10459.png
#EXTINF:2.433333,
605024641172753-index10460.png
#EXTINF:1.933333,
605024641172753-index10461.png
#EXTINF:1.800000,
605024641172753-index10462.png
#EXTINF:2.633333,
605024641172753-index10463.png
#EXTINF:1.966667,
605024641172753-index10464.png
#EXTINF:4.100000,
605024641172753-index10465.png
#EXTINF:5.000000,
605024641172753-index10466.png
#EXTINF:5.000000,
605024641172753-index10467.png
#EXTINF:5.000000,
605024641172753-index10468.png
#EXTINF:5.000000,
605024641172753-index10469.png
#EXTINF:0.833333,
605024641172753-index10470.png
#EXTINF:2.666667,
605024641172753-index10471.png
#EXTINF:0.600000,
605024641172753-index10472.png
#EXTINF:1.900000,
605024641172753-index10473.png
#EXTINF:5.000000,
605024641172753-index10474.png
#EXTINF:1.233333,
605024641172753-index10475.png
#EXTINF:0.966667,
605024641172753-index10476.png
#EXTINF:2.066667,
605024641172753-index10477.png
#EXTINF:5.000000,
605024641172753-index10478.png
#EXTINF:1.366667,
605024641172753-index10479.png
#EXTINF:1.466667,
605024641172753-index10480.png
#EXTINF:1.100000,
605024641172753-index10481.png
#EXTINF:2.133333,
605024641172753-index10482.png
#EXTINF:2.566667,
605024641172753-index10483.png
#EXTINF:3.633333,
605024641172753-index10484.png
#EXTINF:2.300000,
605024641172753-index10485.png
#EXTINF:4.966667,
605024641172753-index10486.png
#EXTINF:2.866667,
605024641172753-index10487.png
#EXTINF:3.766667,
605024641172753-index10488.png
#EXTINF:4.100000,
605024641172753-index10489.png
#EXTINF:0.900000,
605024641172753-index10490.png
#EXTINF:4.966667,
605024641172753-index10491.png
#EXTINF:4.133333,
605024641172753-index10492.png
#EXTINF:4.600000,
605024641172753-index10493.png
#EXTINF:1.433333,
605024641172753-index10494.png
#EXTINF:0.533333,
605024641172753-index10495.png
#EXTINF:3.666667,
605024641172753-index10496.png
#EXTINF:3.300000,
605024641172753-index10497.png
#EXTINF:2.900000,
605024641172753-index10498.png
#EXTINF:1.966667,
605024641172753-index10499.png
#EXTINF:2.600000,
605024641172753-index10500.png
#EXTINF:1.166667,
605024641172753-index10501.png
#EXTINF:0.766667,
605024641172753-index10502.png
#EXTINF:5.000000,
605024641172753-index10503.png
#EXTINF:2.466667,
605024641172753-index10504.png
#EXTINF:1.866667,
605024641172753-index10505.png
#EXTINF:3.733333,
605024641172753-index10506.png
#EXTINF:2.500000,
605024641172753-index10507.png
#EXTINF:3.300000,
605024641172753-index10508.png
#EXTINF:1.500000,
605024641172753-index10509.png
#EXTINF:1.833333,
605024641172753-index10510.png
#EXTINF:1.533333,
605024641172753-index10511.png
#EXTINF:2.333333,
605024641172753-index10512.png
#EXTINF:1.800000,
605024641172753-index10513.png
#EXTINF:3.000000,
605024641172753-index10514.png
#EXTINF:0.766667,
605024641172753-index10515.png
#EXTINF:2.766667,
605024641172753-index10516.png
#EXTINF:4.700000,
605024641172753-index10517.png
#EXTINF:3.433333,
605024641172753-index10518.png
#EXTINF:5.000000,
605024641172753-index10519.png
#EXTINF:1.433333,
605024641172753-index10520.png
#EXTINF:0.933333,
605024641172753-index10521.png
#EXTINF:3.400000,
605024641172753-index10522.png
#EXTINF:3.366667,
605024641172753-index10523.png
#EXTINF:4.266667,
605024641172753-index10524.png
#EXTINF:2.800000,
605024641172753-index10525.png
#EXTINF:2.766667,
605024641172753-index10526.png
#EXTINF:3.033333,
605024641172753-index10527.png
#EXTINF:1.066667,
605024641172753-index10528.png
#EXTINF:1.066667,
605024641172753-index10529.png
#EXTINF:5.000000,
605024641172753-index10530.png
#EXTINF:1.266667,
605024641172753-index10531.png
#EXTINF:1.166667,
605024641172753-index10532.png
#EXTINF:5.000000,
605024641172753-index10533.png
#EXTINF:2.233333,
605024641172753-index10534.png
#EXTINF:3.333333,
605024641172753-index10535.png
#EXTINF:2.166667,
605024641172753-index10536.png
#EXTINF:3.366667,
605024641172753-index10537.png
#EXTINF:0.900000,
605024641172753-index10538.png
#EXTINF:3.133333,
605024641172753-index10539.png
#EXTINF:0.500000,
605024641172753-index10540.png
#EXTINF:5.000000,
605024641172753-index10541.png
#EXTINF:5.000000,
605024641172753-index10542.png
#EXTINF:1.233333,
605024641172753-index10543.png
#EXTINF:2.366667,
605024641172753-index10544.png
#EXTINF:4.033333,
605024641172753-index10545.png
#EXTINF:5.000000,
605024641172753-index10546.png
#EXTINF:5.000000,
605024641172753-index10547.png
#EXTINF:5.000000,
605024641172753-index10548.png
#EXTINF:5.000000,
605024641172753-index10549.png
#EXTINF:2.866667,
605024641172753-index10550.png
#EXTINF:2.533333,
605024641172753-index10551.png
#EXTINF:4.700000,
605024641172753-index10552.png
#EXTINF:4.133333,
605024641172753-index10553.png
#EXTINF:1.566667,
605024641172753-index10554.png
#EXTINF:1.566667,
605024641172753-index10555.png
#EXTINF:4.933333,
605024641172753-index10556.png
#EXTINF:4.100000,
605024641172753-index10557.png
#EXTINF:5.000000,
605024641172753-index10558.png
#EXTINF:3.066667,
605024641172753-index10559.png
#EXTINF:2.333333,
605024641172753-index10560.png
#EXTINF:4.133333,
605024641172753-index10561.png
#EXTINF:5.000000,
605024641172753-index10562.png
#EXTINF:4.966667,
605024641172753-index10563.png
#EXTINF:4.866667,
605024641172753-index10564.png
#EXTINF:5.000000,
605024641172753-index10565.png
#EXTINF:2.133333,
605024641172753-index10566.png
#EXTINF:2.800000,
605024641172753-index10567.png
#EXTINF:3.000000,
605024641172753-index10568.png
#EXTINF:0.833333,
605024641172753-index10569.png
#EXTINF:1.100000,
605024641172753-index10570.png
#EXTINF:0.866667,
605024641172753-index10571.png
#EXTINF:3.766667,
605024641172753-index10572.png
#EXTINF:1.666667,
605024641172753-index10573.png
#EXTINF:1.700000,
605024641172753-index10574.png
#EXTINF:3.633333,
605024641172753-index10575.png
#EXTINF:4.233333,
605024641172753-index10576.png
#EXTINF:1.900000,
605024641172753-index10577.png
#EXTINF:1.766667,
605024641172753-index10578.png
#EXTINF:4.000000,
605024641172753-index10579.png
#EXTINF:3.133333,
605024641172753-index10580.png
#EXTINF:1.633333,
605024641172753-index10581.png
#EXTINF:5.000000,
605024641172753-index10582.png
#EXTINF:1.633333,
605024641172753-index10583.png
#EXTINF:5.000000,
605024641172753-index10584.png
#EXTINF:5.000000,
605024641172753-index10585.png
#EXTINF:5.000000,
605024641172753-index10586.png
#EXTINF:3.266667,
605024641172753-index10587.png
#EXTINF:3.133333,
605024641172753-index10588.png
#EXTINF:3.433333,
605024641172753-index10589.png
#EXTINF:5.000000,
605024641172753-index10590.png
#EXTINF:1.666667,
605024641172753-index10591.png
#EXTINF:1.500000,
605024641172753-index10592.png
#EXTINF:4.233333,
605024641172753-index10593.png
#EXTINF:3.933333,
605024641172753-index10594.png
#EXTINF:3.833333,
605024641172753-index10595.png
#EXTINF:3.900000,
605024641172753-index10596.png
#EXTINF:2.133333,
605024641172753-index10597.png
#EXTINF:1.433333,
605024641172753-index10598.png
#EXTINF:5.000000,
605024641172753-index10599.png
#EXTINF:2.100000,
605024641172753-index10600.png
#EXTINF:3.066667,
605024641172753-index10601.png
#EXTINF:2.333333,
605024641172753-index10602.png
#EXTINF:4.833333,
605024641172753-index10603.png
#EXTINF:2.066667,
605024641172753-index10604.png
#EXTINF:1.733333,
605024641172753-index10605.png
#EXTINF:3.066667,
605024641172753-index10606.png
#EXTINF:3.500000,
605024641172753-index10607.png
#EXTINF:2.500000,
605024641172753-index10608.png
#EXTINF:2.366667,
605024641172753-index10609.png
#EXTINF:3.133333,
605024641172753-index10610.png
#EXTINF:2.966667,
605024641172753-index10611.png
#EXTINF:3.466667,
605024641172753-index10612.png
#EXTINF:4.733333,
605024641172753-index10613.png
#EXTINF:3.866667,
605024641172753-index10614.png
#EXTINF:4.633333,
605024641172753-index10615.png
#EXTINF:5.000000,
605024641172753-index10616.png
#EXTINF:5.000000,
605024641172753-index10617.png
#EXTINF:5.000000,
605024641172753-index10618.png
#EXTINF:3.900000,
605024641172753-index10619.png
#EXTINF:5.000000,
605024641172753-index10620.png
#EXTINF:5.000000,
605024641172753-index10621.png
#EXTINF:2.866667,
605024641172753-index10622.png
#EXTINF:2.233333,
605024641172753-index10623.png
#EXTINF:3.500000,
605024641172753-index10624.png
#EXTINF:1.266667,
605024641172753-index10625.png
#EXTINF:3.366667,
605024641172753-index10626.png
#EXTINF:1.000000,
605024641172753-index10627.png
#EXTINF:3.200000,
605024641172753-index10628.png
#EXTINF:2.866667,
605024641172753-index10629.png
#EXTINF:5.000000,
605024641172753-index10630.png
#EXTINF:5.000000,
605024641172753-index10631.png
#EXTINF:3.433333,
605024641172753-index10632.png
#EXTINF:1.066667,
605024641172753-index10633.png
#EXTINF:2.366667,
605024641172753-index10634.png
#EXTINF:5.000000,
605024641172753-index10635.png
#EXTINF:3.266667,
605024641172753-index10636.png
#EXTINF:1.900000,
605024641172753-index10637.png
#EXTINF:3.566667,
605024641172753-index10638.png
#EXTINF:2.600000,
605024641172753-index10639.png
#EXTINF:4.900000,
605024641172753-index10640.png
#EXTINF:5.000000,
605024641172753-index10641.png
#EXTINF:5.000000,
605024641172753-index10642.png
#EXTINF:5.000000,
605024641172753-index10643.png
#EXTINF:4.866667,
605024641172753-index10644.png
#EXTINF:1.333333,
605024641172753-index10645.png
#EXTINF:0.600000,
605024641172753-index10646.png
#EXTINF:2.133333,
605024641172753-index10647.png
#EXTINF:3.200000,
605024641172753-index10648.png
#EXTINF:1.300000,
605024641172753-index10649.png
#EXTINF:3.366667,
605024641172753-index10650.png
#EXTINF:5.000000,
605024641172753-index10651.png
#EXTINF:5.000000,
605024641172753-index10652.png
#EXTINF:1.900000,
605024641172753-index10653.png
#EXTINF:1.966667,
605024641172753-index10654.png
#EXTINF:5.000000,
605024641172753-index10655.png
#EXTINF:5.000000,
605024641172753-index10656.png
#EXTINF:5.000000,
605024641172753-index10657.png
#EXTINF:2.900000,
605024641172753-index10658.png
#EXTINF:4.833333,
605024641172753-index10659.png
#EXTINF:2.900000,
605024641172753-index10660.png
#EXTINF:3.733333,
605024641172753-index10661.png
#EXTINF:3.533333,
605024641172753-index10662.png
#EXTINF:5.000000,
605024641172753-index10663.png
#EXTINF:1.700000,
605024641172753-index10664.png
#EXTINF:3.800000,
605024641172753-index10665.png
#EXTINF:3.433333,
605024641172753-index10666.png
#EXTINF:4.866667,
605024641172753-index10667.png
#EXTINF:2.766667,
605024641172753-index10668.png
#EXTINF:3.666667,
605024641172753-index10669.png
#EXTINF:3.633333,
605024641172753-index10670.png
#EXTINF:1.500000,
605024641172753-index10671.png
#EXTINF:2.600000,
605024641172753-index10672.png
#EXTINF:1.600000,
605024641172753-index10673.png
#EXTINF:3.766667,
605024641172753-index10674.png
#EXTINF:3.000000,
605024641172753-index10675.png
#EXTINF:4.466667,
605024641172753-index10676.png
#EXTINF:1.833333,
605024641172753-index10677.png
#EXTINF:2.633333,
605024641172753-index10678.png
#EXTINF:2.266667,
605024641172753-index10679.png
#EXTINF:1.033333,
605024641172753-index10680.png
#EXTINF:2.433333,
605024641172753-index10681.png
#EXTINF:4.033333,
605024641172753-index10682.png
#EXTINF:5.000000,
605024641172753-index10683.png
#EXTINF:3.200000,
605024641172753-index10684.png
#EXTINF:2.700000,
605024641172753-index10685.png
#EXTINF:4.233333,
605024641172753-index10686.png
#EXTINF:1.133333,
605024641172753-index10687.png
#EXTINF:2.700000,
605024641172753-index10688.png
#EXTINF:1.300000,
605024641172753-index10689.png
#EXTINF:1.933333,
605024641172753-index10690.png
#EXTINF:0.666667,
605024641172753-index10691.png
#EXTINF:2.133333,
605024641172753-index10692.png
#EXTINF:0.966667,
605024641172753-index10693.png
#EXTINF:1.700000,
605024641172753-index10694.png
#EXTINF:1.866667,
605024641172753-index10695.png
#EXTINF:2.466667,
605024641172753-index10696.png
#EXTINF:1.266667,
605024641172753-index10697.png
#EXTINF:5.000000,
605024641172753-index10698.png
#EXTINF:1.866667,
605024641172753-index10699.png
#EXTINF:3.833333,
605024641172753-index10700.png
#EXTINF:4.833333,
605024641172753-index10701.png
#EXTINF:0.733333,
605024641172753-index10702.png
#EXTINF:5.000000,
605024641172753-index10703.png
#EXTINF:3.500000,
605024641172753-index10704.png
#EXTINF:3.766667,
605024641172753-index10705.png
#EXTINF:3.666667,
605024641172753-index10706.png
#EXTINF:1.500000,
605024641172753-index10707.png
#EXTINF:2.733333,
605024641172753-index10708.png
#EXTINF:1.700000,
605024641172753-index10709.png
#EXTINF:0.733333,
605024641172753-index10710.png
#EXTINF:0.633333,
605024641172753-index10711.png
#EXTINF:2.733333,
605024641172753-index10712.png
#EXTINF:4.400000,
605024641172753-index10713.png
#EXTINF:3.200000,
605024641172753-index10714.png
#EXTINF:0.666667,
605024641172753-index10715.png
#EXTINF:1.100000,
605024641172753-index10716.png
#EXTINF:3.466667,
605024641172753-index10717.png
#EXTINF:3.166667,
605024641172753-index10718.png
#EXTINF:3.566667,
605024641172753-index10719.png
#EXTINF:2.333333,
605024641172753-index10720.png
#EXTINF:1.833333,
605024641172753-index10721.png
#EXTINF:2.333333,
605024641172753-index10722.png
#EXTINF:5.000000,
605024641172753-index10723.png
#EXTINF:3.066667,
605024641172753-index10724.png
#EXTINF:5.000000,
605024641172753-index10725.png
#EXTINF:5.000000,
605024641172753-index10726.png
#EXTINF:1.433333,
605024641172753-index10727.png
#EXTINF:4.800000,
605024641172753-index10728.png
#EXTINF:0.900000,
605024641172753-index10729.png
#EXTINF:3.500000,
605024641172753-index10730.png
#EXTINF:4.966667,
605024641172753-index10731.png
#EXTINF:0.766667,
605024641172753-index10732.png
#EXTINF:4.700000,
605024641172753-index10733.png
#EXTINF:1.133333,
605024641172753-index10734.png
#EXTINF:2.200000,
605024641172753-index10735.png
#EXTINF:3.000000,
605024641172753-index10736.png
#EXTINF:3.800000,
605024641172753-index10737.png
#EXTINF:3.466667,
605024641172753-index10738.png
#EXTINF:1.766667,
605024641172753-index10739.png
#EXTINF:5.000000,
605024641172753-index10740.png
#EXTINF:3.866667,
605024641172753-index10741.png
#EXTINF:3.133333,
605024641172753-index10742.png
#EXTINF:5.000000,
605024641172753-index10743.png
#EXTINF:5.000000,
605024641172753-index10744.png
#EXTINF:0.733333,
605024641172753-index10745.png
#EXTINF:3.000000,
605024641172753-index10746.png
#EXTINF:2.166667,
605024641172753-index10747.png
#EXTINF:0.633333,
605024641172753-index10748.png
#EXTINF:5.000000,
605024641172753-index10749.png
#EXTINF:3.666667,
605024641172753-index10750.png
#EXTINF:5.000000,
605024641172753-index10751.png
#EXTINF:2.133333,
605024641172753-index10752.png
#EXTINF:2.266667,
605024641172753-index10753.png
#EXTINF:4.000000,
605024641172753-index10754.png
#EXTINF:2.166667,
605024641172753-index10755.png
#EXTINF:4.400000,
605024641172753-index10756.png
#EXTINF:3.066667,
605024641172753-index10757.png
#EXTINF:5.000000,
605024641172753-index10758.png
#EXTINF:4.966667,
605024641172753-index10759.png
#EXTINF:1.566667,
605024641172753-index10760.png
#EXTINF:1.900000,
605024641172753-index10761.png
#EXTINF:5.000000,
605024641172753-index10762.png
#EXTINF:5.000000,
605024641172753-index10763.png
#EXTINF:1.233333,
605024641172753-index10764.png
#EXTINF:5.000000,
605024641172753-index10765.png
#EXTINF:3.766667,
605024641172753-index10766.png
#EXTINF:2.533333,
605024641172753-index10767.png
#EXTINF:5.000000,
605024641172753-index10768.png
#EXTINF:1.966667,
605024641172753-index10769.png
#EXTINF:5.000000,
605024641172753-index10770.png
#EXTINF:2.966667,
605024641172753-index10771.png
#EXTINF:1.966667,
605024641172753-index10772.png
#EXTINF:1.033333,
605024641172753-index10773.png
#EXTINF:2.900000,
605024641172753-index10774.png
#EXTINF:4.533333,
605024641172753-index10775.png
#EXTINF:3.066667,
605024641172753-index10776.png
#EXTINF:5.000000,
605024641172753-index10777.png
#EXTINF:5.000000,
605024641172753-index10778.png
#EXTINF:1.366667,
605024641172753-index10779.png
#EXTINF:5.000000,
605024641172753-index10780.png
#EXTINF:3.866667,
605024641172753-index10781.png
#EXTINF:2.700000,
605024641172753-index10782.png
#EXTINF:2.633333,
605024641172753-index10783.png
#EXTINF:5.000000,
605024641172753-index10784.png
#EXTINF:5.000000,
605024641172753-index10785.png
#EXTINF:2.366667,
605024641172753-index10786.png
#EXTINF:3.500000,
605024641172753-index10787.png
#EXTINF:5.000000,
605024641172753-index10788.png
#EXTINF:0.900000,
605024641172753-index10789.png
#EXTINF:5.000000,
605024641172753-index10790.png
#EXTINF:5.000000,
605024641172753-index10791.png
#EXTINF:1.500000,
605024641172753-index10792.png
#EXTINF:3.233333,
605024641172753-index10793.png
#EXTINF:2.300000,
605024641172753-index10794.png
#EXTINF:4.900000,
605024641172753-index10795.png
#EXTINF:5.000000,
605024641172753-index10796.png
#EXTINF:5.000000,
605024641172753-index10797.png
#EXTINF:5.000000,
605024641172753-index10798.png
#EXTINF:0.800000,
605024641172753-index10799.png
#EXTINF:3.366667,
605024641172753-index10800.png
#EXTINF:5.000000,
605024641172753-index10801.png
#EXTINF:2.033333,
605024641172753-index10802.png
#EXTINF:5.000000,
605024641172753-index10803.png
#EXTINF:5.000000,
605024641172753-index10804.png
#EXTINF:5.000000,
605024641172753-index10805.png
#EXTINF:3.266667,
605024641172753-index10806.png
#EXTINF:1.833333,
605024641172753-index10807.png
#EXTINF:5.000000,
605024641172753-index10808.png
#EXTINF:2.666667,
605024641172753-index10809.png
#EXTINF:4.600000,
605024641172753-index10810.png
#EXTINF:2.000000,
605024641172753-index10811.png
#EXTINF:0.566667,
605024641172753-index10812.png
#EXTINF:1.400000,
605024641172753-index10813.png
#EXTINF:2.333333,
605024641172753-index10814.png
#EXTINF:2.700000,
605024641172753-index10815.png
#EXTINF:2.633333,
605024641172753-index10816.png
#EXTINF:1.466667,
605024641172753-index10817.png
#EXTINF:1.200000,
605024641172753-index10818.png
#EXTINF:1.033333,
605024641172753-index10819.png
#EXTINF:3.200000,
605024641172753-index10820.png
#EXTINF:5.000000,
605024641172753-index10821.png
#EXTINF:5.000000,
605024641172753-index10822.png
#EXTINF:2.833333,
605024641172753-index10823.png
#EXTINF:5.000000,
605024641172753-index10824.png
#EXTINF:5.000000,
605024641172753-index10825.png
#EXTINF:5.000000,
605024641172753-index10826.png
#EXTINF:4.433333,
605024641172753-index10827.png
#EXTINF:5.000000,
605024641172753-index10828.png
#EXTINF:2.900000,
605024641172753-index10829.png
#EXTINF:5.000000,
605024641172753-index10830.png
#EXTINF:3.133333,
605024641172753-index10831.png
#EXTINF:3.466667,
605024641172753-index10832.png
#EXTINF:2.033333,
605024641172753-index10833.png
#EXTINF:2.200000,
605024641172753-index10834.png
#EXTINF:5.000000,
605024641172753-index10835.png
#EXTINF:0.900000,
605024641172753-index10836.png
#EXTINF:3.200000,
605024641172753-index10837.png
#EXTINF:1.666667,
605024641172753-index10838.png
#EXTINF:2.133333,
605024641172753-index10839.png
#EXTINF:3.800000,
605024641172753-index10840.png
#EXTINF:1.600000,
605024641172753-index10841.png
#EXTINF:5.000000,
605024641172753-index10842.png
#EXTINF:1.666667,
605024641172753-index10843.png
#EXTINF:5.000000,
605024641172753-index10844.png
#EXTINF:2.233333,
605024641172753-index10845.png
#EXTINF:1.266667,
605024641172753-index10846.png
#EXTINF:5.000000,
605024641172753-index10847.png
#EXTINF:0.500000,
605024641172753-index10848.png
#EXTINF:1.666667,
605024641172753-index10849.png
#EXTINF:3.466667,
605024641172753-index10850.png
#EXTINF:3.300000,
605024641172753-index10851.png
#EXTINF:1.566667,
605024641172753-index10852.png
#EXTINF:2.500000,
605024641172753-index10853.png
#EXTINF:4.633333,
605024641172753-index10854.png
#EXTINF:1.433333,
605024641172753-index10855.png
#EXTINF:4.100000,
605024641172753-index10856.png
#EXTINF:4.766667,
605024641172753-index10857.png
#EXTINF:2.700000,
605024641172753-index10858.png
#EXTINF:4.433333,
605024641172753-index10859.png
#EXTINF:2.000000,
605024641172753-index10860.png
#EXTINF:3.600000,
605024641172753-index10861.png
#EXTINF:2.533333,
605024641172753-index10862.png
#EXTINF:4.766667,
605024641172753-index10863.png
#EXTINF:4.600000,
605024641172753-index10864.png
#EXTINF:5.000000,
605024641172753-index10865.png
#EXTINF:2.566667,
605024641172753-index10866.png
#EXTINF:1.166667,
605024641172753-index10867.png
#EXTINF:3.133333,
605024641172753-index10868.png
#EXTINF:2.300000,
605024641172753-index10869.png
#EXTINF:2.366667,
605024641172753-index10870.png
#EXTINF:5.000000,
605024641172753-index10871.png
#EXTINF:1.933333,
605024641172753-index10872.png
#EXTINF:5.000000,
605024641172753-index10873.png
#EXTINF:4.366667,
605024641172753-index10874.png
#EXTINF:3.633333,
605024641172753-index10875.png
#EXTINF:2.633333,
605024641172753-index10876.png
#EXTINF:5.000000,
605024641172753-index10877.png
#EXTINF:1.733333,
605024641172753-index10878.png
#EXTINF:4.166667,
605024641172753-index10879.png
#EXTINF:0.933333,
605024641172753-index10880.png
#EXTINF:5.000000,
605024641172753-index10881.png
#EXTINF:3.466667,
605024641172753-index10882.png
#EXTINF:1.400000,
605024641172753-index10883.png
#EXTINF:0.900000,
605024641172753-index10884.png
#EXTINF:1.066667,
605024641172753-index10885.png
#EXTINF:1.333333,
605024641172753-index10886.png
#EXTINF:5.000000,
605024641172753-index10887.png
#EXTINF:0.533333,
605024641172753-index10888.png
#EXTINF:1.666667,
605024641172753-index10889.png
#EXTINF:1.233333,
605024641172753-index10890.png
#EXTINF:1.300000,
605024641172753-index10891.png
#EXTINF:2.000000,
605024641172753-index10892.png
#EXTINF:2.466667,
605024641172753-index10893.png
#EXTINF:1.066667,
605024641172753-index10894.png
#EXTINF:0.600000,
605024641172753-index10895.png
#EXTINF:0.833333,
605024641172753-index10896.png
#EXTINF:5.000000,
605024641172753-index10897.png
#EXTINF:2.833333,
605024641172753-index10898.png
#EXTINF:2.500000,
605024641172753-index10899.png
#EXTINF:3.366667,
605024641172753-index10900.png
#EXTINF:0.600000,
605024641172753-index10901.png
#EXTINF:1.866667,
605024641172753-index10902.png
#EXTINF:1.966667,
605024641172753-index10903.png
#EXTINF:2.466667,
605024641172753-index10904.png
#EXTINF:1.000000,
605024641172753-index10905.png
#EXTINF:2.000000,
605024641172753-index10906.png
#EXTINF:4.966667,
605024641172753-index10907.png
#EXTINF:5.000000,
605024641172753-index10908.png
#EXTINF:5.000000,
605024641172753-index10909.png
#EXTINF:5.000000,
605024641172753-index10910.png
#EXTINF:5.000000,
605024641172753-index10911.png
#EXTINF:5.000000,
605024641172753-index10912.png
#EXTINF:5.000000,
605024641172753-index10913.png
#EXTINF:5.000000,
605024641172753-index10914.png
#EXTINF:2.433333,
605024641172753-index10915.png
#EXTINF:5.000000,
605024641172753-index10916.png
#EXTINF:1.333333,
605024641172753-index10917.png
#EXTINF:0.633333,
605024641172753-index10918.png
#EXTINF:5.000000,
605024641172753-index10919.png
#EXTINF:3.566667,
605024641172753-index10920.png
#EXTINF:0.733333,
605024641172753-index10921.png
#EXTINF:1.133333,
605024641172753-index10922.png
#EXTINF:0.933333,
605024641172753-index10923.png
#EXTINF:1.800000,
605024641172753-index10924.png
#EXTINF:1.900000,
605024641172753-index10925.png
#EXTINF:1.500000,
605024641172753-index10926.png
#EXTINF:1.366667,
605024641172753-index10927.png
#EXTINF:1.333333,
605024641172753-index10928.png
#EXTINF:1.933333,
605024641172753-index10929.png
#EXTINF:1.133333,
605024641172753-index10930.png
#EXTINF:1.400000,
605024641172753-index10931.png
#EXTINF:1.066667,
605024641172753-index10932.png
#EXTINF:0.833333,
605024641172753-index10933.png
#EXTINF:0.733333,
605024641172753-index10934.png
#EXTINF:4.333333,
605024641172753-index10935.png
#EXTINF:0.600000,
605024641172753-index10936.png
#EXTINF:5.000000,
605024641172753-index10937.png
#EXTINF:3.233333,
605024641172753-index10938.png
#EXTINF:2.366667,
605024641172753-index10939.png
#EXTINF:0.833333,
605024641172753-index10940.png
#EXTINF:2.700000,
605024641172753-index10941.png
#EXTINF:1.000000,
605024641172753-index10942.png
#EXTINF:0.866667,
605024641172753-index10943.png
#EXTINF:0.833333,
605024641172753-index10944.png
#EXTINF:3.366667,
605024641172753-index10945.png
#EXTINF:2.100000,
605024641172753-index10946.png
#EXTINF:1.733333,
605024641172753-index10947.png
#EXTINF:2.366667,
605024641172753-index10948.png
#EXTINF:2.633333,
605024641172753-index10949.png
#EXTINF:0.833333,
605024641172753-index10950.png
#EXTINF:0.533333,
605024641172753-index10951.png
#EXTINF:1.900000,
605024641172753-index10952.png
#EXTINF:2.800000,
605024641172753-index10953.png
#EXTINF:2.133333,
605024641172753-index10954.png
#EXTINF:1.066667,
605024641172753-index10955.png
#EXTINF:4.766667,
605024641172753-index10956.png
#EXTINF:0.866667,
605024641172753-index10957.png
#EXTINF:1.433333,
605024641172753-index10958.png
#EXTINF:1.233333,
605024641172753-index10959.png
#EXTINF:2.400000,
605024641172753-index10960.png
#EXTINF:1.300000,
605024641172753-index10961.png
#EXTINF:0.900000,
605024641172753-index10962.png
#EXTINF:0.766667,
605024641172753-index10963.png
#EXTINF:0.500000,
605024641172753-index10964.png
#EXTINF:1.133333,
605024641172753-index10965.png
#EXTINF:2.066667,
605024641172753-index10966.png
#EXTINF:1.966667,
605024641172753-index10967.png
#EXTINF:1.633333,
605024641172753-index10968.png
#EXTINF:2.566667,
605024641172753-index10969.png
#EXTINF:5.000000,
605024641172753-index10970.png
#EXTINF:0.666667,
605024641172753-index10971.png
#EXTINF:0.966667,
605024641172753-index10972.png
#EXTINF:2.200000,
605024641172753-index10973.png
#EXTINF:1.566667,
605024641172753-index10974.png
#EXTINF:1.966667,
605024641172753-index10975.png
#EXTINF:1.366667,
605024641172753-index10976.png
#EXTINF:1.966667,
605024641172753-index10977.png
#EXTINF:5.000000,
605024641172753-index10978.png
#EXTINF:0.700000,
605024641172753-index10979.png
#EXTINF:3.366667,
605024641172753-index10980.png
#EXTINF:3.633333,
605024641172753-index10981.png
#EXTINF:0.566667,
605024641172753-index10982.png
#EXTINF:0.533333,
605024641172753-index10983.png
#EXTINF:2.666667,
605024641172753-index10984.png
#EXTINF:0.733333,
605024641172753-index10985.png
#EXTINF:0.566667,
605024641172753-index10986.png
#EXTINF:1.200000,
605024641172753-index10987.png
#EXTINF:0.600000,
605024641172753-index10988.png
#EXTINF:3.200000,
605024641172753-index10989.png
#EXTINF:1.666667,
605024641172753-index10990.png
#EXTINF:5.000000,
605024641172753-index10991.png
#EXTINF:1.933333,
605024641172753-index10992.png
#EXTINF:5.000000,
605024641172753-index10993.png
#EXTINF:5.000000,
605024641172753-index10994.png
#EXTINF:5.000000,
605024641172753-index10995.png
#EXTINF:2.833333,
605024641172753-index10996.png
#EXTINF:0.766667,
605024641172753-index10997.png
#EXTINF:4.966667,
605024641172753-index10998.png
#EXTINF:5.000000,
605024641172753-index10999.png
#EXTINF:2.966667,
605024641172753-index11000.png
#EXTINF:1.200000,
605024641172753-index11001.png
#EXTINF:4.200000,
605024641172753-index11002.png
#EXTINF:0.733333,
605024641172753-index11003.png
#EXTINF:1.333333,
605024641172753-index11004.png
#EXTINF:2.833333,
605024641172753-index11005.png
#EXTINF:2.033333,
605024641172753-index11006.png
#EXTINF:2.866667,
605024641172753-index11007.png
#EXTINF:4.433333,
605024641172753-index11008.png
#EXTINF:1.866667,
605024641172753-index11009.png
#EXTINF:5.000000,
605024641172753-index11010.png
#EXTINF:5.000000,
605024641172753-index11011.png
#EXTINF:5.000000,
605024641172753-index11012.png
#EXTINF:0.700000,
605024641172753-index11013.png
#EXTINF:4.866667,
605024641172753-index11014.png
#EXTINF:1.733333,
605024641172753-index11015.png
#EXTINF:3.633333,
605024641172753-index11016.png
#EXTINF:0.700000,
605024641172753-index11017.png
#EXTINF:2.733333,
605024641172753-index11018.png
#EXTINF:4.066667,
605024641172753-index11019.png
#EXTINF:1.400000,
605024641172753-index11020.png
#EXTINF:1.966667,
605024641172753-index11021.png
#EXTINF:2.633333,
605024641172753-index11022.png
#EXTINF:1.633333,
605024641172753-index11023.png
#EXTINF:0.766667,
605024641172753-index11024.png
#EXTINF:5.000000,
605024641172753-index11025.png
#EXTINF:2.900000,
605024641172753-index11026.png
#EXTINF:1.100000,
605024641172753-index11027.png
#EXTINF:4.433333,
605024641172753-index11028.png
#EXTINF:5.000000,
605024641172753-index11029.png
#EXTINF:2.566667,
605024641172753-index11030.png
#EXTINF:1.500000,
605024641172753-index11031.png
#EXTINF:5.000000,
605024641172753-index11032.png
#EXTINF:5.000000,
605024641172753-index11033.png
#EXTINF:5.000000,
605024641172753-index11034.png
#EXTINF:2.933333,
605024641172753-index11035.png
#EXTINF:3.966667,
605024641172753-index11036.png
#EXTINF:5.000000,
605024641172753-index11037.png
#EXTINF:5.000000,
605024641172753-index11038.png
#EXTINF:1.500000,
605024641172753-index11039.png
#EXTINF:2.766667,
605024641172753-index11040.png
#EXTINF:5.000000,
605024641172753-index11041.png
#EXTINF:3.566667,
605024641172753-index11042.png
#EXTINF:4.133333,
605024641172753-index11043.png
#EXTINF:2.366667,
605024641172753-index11044.png
#EXTINF:2.733333,
605024641172753-index11045.png
#EXTINF:5.000000,
605024641172753-index11046.png
#EXTINF:3.633333,
605024641172753-index11047.png
#EXTINF:3.466667,
605024641172753-index11048.png
#EXTINF:1.633333,
605024641172753-index11049.png
#EXTINF:5.000000,
605024641172753-index11050.png
#EXTINF:5.000000,
605024641172753-index11051.png
#EXTINF:4.333333,
605024641172753-index11052.png
#EXTINF:5.000000,
605024641172753-index11053.png
#EXTINF:4.966667,
605024641172753-index11054.png
#EXTINF:0.766667,
605024641172753-index11055.png
#EXTINF:0.833333,
605024641172753-index11056.png
#EXTINF:1.233333,
605024641172753-index11057.png
#EXTINF:1.633333,
605024641172753-index11058.png
#EXTINF:3.166667,
605024641172753-index11059.png
#EXTINF:1.600000,
605024641172753-index11060.png
#EXTINF:2.000000,
605024641172753-index11061.png
#EXTINF:1.333333,
605024641172753-index11062.png
#EXTINF:0.933333,
605024641172753-index11063.png
#EXTINF:3.166667,
605024641172753-index11064.png
#EXTINF:1.266667,
605024641172753-index11065.png
#EXTINF:3.700000,
605024641172753-index11066.png
#EXTINF:4.400000,
605024641172753-index11067.png
#EXTINF:2.866667,
605024641172753-index11068.png
#EXTINF:2.600000,
605024641172753-index11069.png
#EXTINF:2.366667,
605024641172753-index11070.png
#EXTINF:4.666667,
605024641172753-index11071.png
#EXTINF:4.000000,
605024641172753-index11072.png
#EXTINF:2.833333,
605024641172753-index11073.png
#EXTINF:3.366667,
605024641172753-index11074.png
#EXTINF:2.033333,
605024641172753-index11075.png
#EXTINF:2.266667,
605024641172753-index11076.png
#EXTINF:4.966667,
605024641172753-index11077.png
#EXTINF:1.800000,
605024641172753-index11078.png
#EXTINF:0.933333,
605024641172753-index11079.png
#EXTINF:3.533333,
605024641172753-index11080.png
#EXTINF:1.366667,
605024641172753-index11081.png
#EXTINF:1.766667,
605024641172753-index11082.png
#EXTINF:4.300000,
605024641172753-index11083.png
#EXTINF:3.766667,
605024641172753-index11084.png
#EXTINF:2.800000,
605024641172753-index11085.png
#EXTINF:3.566667,
605024641172753-index11086.png
#EXTINF:5.000000,
605024641172753-index11087.png
#EXTINF:5.000000,
605024641172753-index11088.png
#EXTINF:4.833333,
605024641172753-index11089.png
#EXTINF:1.133333,
605024641172753-index11090.png
#EXTINF:1.233333,
605024641172753-index11091.png
#EXTINF:2.966667,
605024641172753-index11092.png
#EXTINF:2.300000,
605024641172753-index11093.png
#EXTINF:1.900000,
605024641172753-index11094.png
#EXTINF:1.000000,
605024641172753-index11095.png
#EXTINF:1.600000,
605024641172753-index11096.png
#EXTINF:1.633333,
605024641172753-index11097.png
#EXTINF:3.200000,
605024641172753-index11098.png
#EXTINF:2.100000,
605024641172753-index11099.png
#EXTINF:2.800000,
605024641172753-index11100.png
#EXTINF:5.000000,
605024641172753-index11101.png
#EXTINF:2.333333,
605024641172753-index11102.png
#EXTINF:1.533333,
605024641172753-index11103.png
#EXTINF:2.466667,
605024641172753-index11104.png
#EXTINF:5.000000,
605024641172753-index11105.png
#EXTINF:1.366667,
605024641172753-index11106.png
#EXTINF:1.200000,
605024641172753-index11107.png
#EXTINF:1.700000,
605024641172753-index11108.png
#EXTINF:1.966667,
605024641172753-index11109.png
#EXTINF:4.933333,
605024641172753-index11110.png
#EXTINF:4.933333,
605024641172753-index11111.png
#EXTINF:5.000000,
605024641172753-index11112.png
#EXTINF:2.600000,
605024641172753-index11113.png
#EXTINF:3.133333,
605024641172753-index11114.png
#EXTINF:3.533333,
605024641172753-index11115.png
#EXTINF:3.433333,
605024641172753-index11116.png
#EXTINF:5.000000,
605024641172753-index11117.png
#EXTINF:5.000000,
605024641172753-index11118.png
#EXTINF:5.000000,
605024641172753-index11119.png
#EXTINF:5.000000,
605024641172753-index11120.png
#EXTINF:1.300000,
605024641172753-index11121.png
#EXTINF:2.200000,
605024641172753-index11122.png
#EXTINF:1.966667,
605024641172753-index11123.png
#EXTINF:5.000000,
605024641172753-index11124.png
#EXTINF:1.766667,
605024641172753-index11125.png
#EXTINF:0.800000,
605024641172753-index11126.png
#EXTINF:0.933333,
605024641172753-index11127.png
#EXTINF:4.800000,
605024641172753-index11128.png
#EXTINF:4.833333,
605024641172753-index11129.png
#EXTINF:1.233333,
605024641172753-index11130.png
#EXTINF:1.433333,
605024641172753-index11131.png
#EXTINF:4.066667,
605024641172753-index11132.png
#EXTINF:2.733333,
605024641172753-index11133.png
#EXTINF:1.366667,
605024641172753-index11134.png
#EXTINF:0.733333,
605024641172753-index11135.png
#EXTINF:2.100000,
605024641172753-index11136.png
#EXTINF:1.266667,
605024641172753-index11137.png
#EXTINF:1.400000,
605024641172753-index11138.png
#EXTINF:1.933333,
605024641172753-index11139.png
#EXTINF:1.500000,
605024641172753-index11140.png
#EXTINF:3.066667,
605024641172753-index11141.png
#EXTINF:5.000000,
605024641172753-index11142.png
#EXTINF:5.000000,
605024641172753-index11143.png
#EXTINF:5.000000,
605024641172753-index11144.png
#EXTINF:4.900000,
605024641172753-index11145.png
#EXTINF:5.000000,
605024641172753-index11146.png
#EXTINF:5.000000,
605024641172753-index11147.png
#EXTINF:5.000000,
605024641172753-index11148.png
#EXTINF:5.000000,
605024641172753-index11149.png
#EXTINF:5.000000,
605024641172753-index11150.png
#EXTINF:5.000000,
605024641172753-index11151.png
#EXTINF:5.000000,
605024641172753-index11152.png
#EXTINF:1.600000,
605024641172753-index11153.png
#EXTINF:5.000000,
605024641172753-index11154.png
#EXTINF:2.833333,
605024641172753-index11155.png
#EXTINF:2.333333,
605024641172753-index11156.png
#EXTINF:3.200000,
605024641172753-index11157.png
#EXTINF:3.033333,
605024641172753-index11158.png
#EXTINF:4.766667,
605024641172753-index11159.png
#EXTINF:1.333333,
605024641172753-index11160.png
#EXTINF:2.400000,
605024641172753-index11161.png
#EXTINF:3.200000,
605024641172753-index11162.png
#EXTINF:4.400000,
605024641172753-index11163.png
#EXTINF:5.000000,
605024641172753-index11164.png
#EXTINF:2.666667,
605024641172753-index11165.png
#EXTINF:2.466667,
605024641172753-index11166.png
#EXTINF:2.266667,
605024641172753-index11167.png
#EXTINF:1.600000,
605024641172753-index11168.png
#EXTINF:0.733333,
605024641172753-index11169.png
#EXTINF:1.700000,
605024641172753-index11170.png
#EXTINF:1.566667,
605024641172753-index11171.png
#EXTINF:2.000000,
605024641172753-index11172.png
#EXTINF:1.466667,
605024641172753-index11173.png
#EXTINF:0.833333,
605024641172753-index11174.png
#EXTINF:4.033333,
605024641172753-index11175.png
#EXTINF:2.133333,
605024641172753-index11176.png
#EXTINF:1.533333,
605024641172753-index11177.png
#EXTINF:5.000000,
605024641172753-index11178.png
#EXTINF:3.500000,
605024641172753-index11179.png
#EXTINF:4.466667,
605024641172753-index11180.png
#EXTINF:0.966667,
605024641172753-index11181.png
#EXTINF:2.066667,
605024641172753-index11182.png
#EXTINF:1.200000,
605024641172753-index11183.png
#EXTINF:0.600000,
605024641172753-index11184.png
#EXTINF:0.600000,
605024641172753-index11185.png
#EXTINF:0.533333,
605024641172753-index11186.png
#EXTINF:1.333333,
605024641172753-index11187.png
#EXTINF:4.366667,
605024641172753-index11188.png
#EXTINF:2.300000,
605024641172753-index11189.png
#EXTINF:1.133333,
605024641172753-index11190.png
#EXTINF:5.000000,
605024641172753-index11191.png
#EXTINF:5.000000,
605024641172753-index11192.png
#EXTINF:3.200000,
605024641172753-index11193.png
#EXTINF:3.433333,
605024641172753-index11194.png
#EXTINF:3.700000,
605024641172753-index11195.png
#EXTINF:1.600000,
605024641172753-index11196.png
#EXTINF:0.900000,
605024641172753-index11197.png
#EXTINF:2.133333,
605024641172753-index11198.png
#EXTINF:1.700000,
605024641172753-index11199.png
#EXTINF:2.800000,
605024641172753-index11200.png
#EXTINF:3.566667,
605024641172753-index11201.png
#EXTINF:2.566667,
605024641172753-index11202.png
#EXTINF:3.633333,
605024641172753-index11203.png
#EXTINF:3.366667,
605024641172753-index11204.png
#EXTINF:3.633333,
605024641172753-index11205.png
#EXTINF:2.666667,
605024641172753-index11206.png
#EXTINF:1.033333,
605024641172753-index11207.png
#EXTINF:0.600000,
605024641172753-index11208.png
#EXTINF:0.533333,
605024641172753-index11209.png
#EXTINF:1.033333,
605024641172753-index11210.png
#EXTINF:4.066667,
605024641172753-index11211.png
#EXTINF:1.466667,
605024641172753-index11212.png
#EXTINF:0.733333,
605024641172753-index11213.png
#EXTINF:1.800000,
605024641172753-index11214.png
#EXTINF:0.666667,
605024641172753-index11215.png
#EXTINF:1.466667,
605024641172753-index11216.png
#EXTINF:2.033333,
605024641172753-index11217.png
#EXTINF:1.766667,
605024641172753-index11218.png
#EXTINF:3.033333,
605024641172753-index11219.png
#EXTINF:4.833333,
605024641172753-index11220.png
#EXTINF:4.533333,
605024641172753-index11221.png
#EXTINF:1.500000,
605024641172753-index11222.png
#EXTINF:0.733333,
605024641172753-index11223.png
#EXTINF:1.366667,
605024641172753-index11224.png
#EXTINF:0.833333,
605024641172753-index11225.png
#EXTINF:0.666667,
605024641172753-index11226.png
#EXTINF:0.900000,
605024641172753-index11227.png
#EXTINF:0.933333,
605024641172753-index11228.png
#EXTINF:0.833333,
605024641172753-index11229.png
#EXTINF:0.500000,
605024641172753-index11230.png
#EXTINF:0.866667,
605024641172753-index11231.png
#EXTINF:0.733333,
605024641172753-index11232.png
#EXTINF:0.533333,
605024641172753-index11233.png
#EXTINF:0.933333,
605024641172753-index11234.png
#EXTINF:0.600000,
605024641172753-index11235.png
#EXTINF:0.566667,
605024641172753-index11236.png
#EXTINF:0.833333,
605024641172753-index11237.png
#EXTINF:0.533333,
605024641172753-index11238.png
#EXTINF:0.633333,
605024641172753-index11239.png
#EXTINF:1.266667,
605024641172753-index11240.png
#EXTINF:2.333333,
605024641172753-index11241.png
#EXTINF:2.800000,
605024641172753-index11242.png
#EXTINF:0.900000,
605024641172753-index11243.png
#EXTINF:1.966667,
605024641172753-index11244.png
#EXTINF:3.700000,
605024641172753-index11245.png
#EXTINF:2.966667,
605024641172753-index11246.png
#EXTINF:4.366667,
605024641172753-index11247.png
#EXTINF:3.466667,
605024641172753-index11248.png
#EXTINF:3.266667,
605024641172753-index11249.png
#EXTINF:1.933333,
605024641172753-index11250.png
#EXTINF:3.300000,
605024641172753-index11251.png
#EXTINF:4.300000,
605024641172753-index11252.png
#EXTINF:2.166667,
605024641172753-index11253.png
#EXTINF:3.100000,
605024641172753-index11254.png
#EXTINF:4.666667,
605024641172753-index11255.png
#EXTINF:5.000000,
605024641172753-index11256.png
#EXTINF:0.766667,
605024641172753-index11257.png
#EXTINF:5.000000,
605024641172753-index11258.png
#EXTINF:4.266667,
605024641172753-index11259.png
#EXTINF:2.600000,
605024641172753-index11260.png
#EXTINF:3.933333,
605024641172753-index11261.png
#EXTINF:3.933333,
605024641172753-index11262.png
#EXTINF:4.633333,
605024641172753-index11263.png
#EXTINF:3.533333,
605024641172753-index11264.png
#EXTINF:3.466667,
605024641172753-index11265.png
#EXTINF:3.100000,
605024641172753-index11266.png
#EXTINF:4.900000,
605024641172753-index11267.png
#EXTINF:2.966667,
605024641172753-index11268.png
#EXTINF:3.833333,
605024641172753-index11269.png
#EXTINF:2.433333,
605024641172753-index11270.png
#EXTINF:3.966667,
605024641172753-index11271.png
#EXTINF:4.866667,
605024641172753-index11272.png
#EXTINF:0.966667,
605024641172753-index11273.png
#EXTINF:3.166667,
605024641172753-index11274.png
#EXTINF:3.533333,
605024641172753-index11275.png
#EXTINF:4.233333,
605024641172753-index11276.png
#EXTINF:4.733333,
605024641172753-index11277.png
#EXTINF:5.000000,
605024641172753-index11278.png
#EXTINF:0.666667,
605024641172753-index11279.png
#EXTINF:5.000000,
605024641172753-index11280.png
#EXTINF:4.500000,
605024641172753-index11281.png
#EXTINF:5.000000,
605024641172753-index11282.png
#EXTINF:1.433333,
605024641172753-index11283.png
#EXTINF:4.600000,
605024641172753-index11284.png
#EXTINF:2.366667,
605024641172753-index11285.png
#EXTINF:4.700000,
605024641172753-index11286.png
#EXTINF:4.833333,
605024641172753-index11287.png
#EXTINF:2.800000,
605024641172753-index11288.png
#EXTINF:1.633333,
605024641172753-index11289.png
#EXTINF:2.433333,
605024641172753-index11290.png
#EXTINF:1.166667,
605024641172753-index11291.png
#EXTINF:3.466667,
605024641172753-index11292.png
#EXTINF:4.333333,
605024641172753-index11293.png
#EXTINF:1.633333,
605024641172753-index11294.png
#EXTINF:3.633333,
605024641172753-index11295.png
#EXTINF:2.366667,
605024641172753-index11296.png
#EXTINF:5.000000,
605024641172753-index11297.png
#EXTINF:4.600000,
605024641172753-index11298.png
#EXTINF:0.933333,
605024641172753-index11299.png
#EXTINF:3.666667,
605024641172753-index11300.png
#EXTINF:2.500000,
605024641172753-index11301.png
#EXTINF:1.600000,
605024641172753-index11302.png
#EXTINF:2.333333,
605024641172753-index11303.png
#EXTINF:3.000000,
605024641172753-index11304.png
#EXTINF:2.766667,
605024641172753-index11305.png
#EXTINF:3.000000,
605024641172753-index11306.png
#EXTINF:1.466667,
605024641172753-index11307.png
#EXTINF:2.733333,
605024641172753-index11308.png
#EXTINF:2.300000,
605024641172753-index11309.png
#EXTINF:1.500000,
605024641172753-index11310.png
#EXTINF:1.366667,
605024641172753-index11311.png
#EXTINF:5.000000,
605024641172753-index11312.png
#EXTINF:2.866667,
605024641172753-index11313.png
#EXTINF:1.466667,
605024641172753-index11314.png
#EXTINF:1.000000,
605024641172753-index11315.png
#EXTINF:3.266667,
605024641172753-index11316.png
#EXTINF:0.800000,
605024641172753-index11317.png
#EXTINF:0.866667,
605024641172753-index11318.png
#EXTINF:4.600000,
605024641172753-index11319.png
#EXTINF:4.266667,
605024641172753-index11320.png
#EXTINF:0.633333,
605024641172753-index11321.png
#EXTINF:1.666667,
605024641172753-index11322.png
#EXTINF:2.800000,
605024641172753-index11323.png
#EXTINF:2.266667,
605024641172753-index11324.png
#EXTINF:2.400000,
605024641172753-index11325.png
#EXTINF:1.900000,
605024641172753-index11326.png
#EXTINF:5.000000,
605024641172753-index11327.png
#EXTINF:0.766667,
605024641172753-index11328.png
#EXTINF:1.966667,
605024641172753-index11329.png
#EXTINF:4.600000,
605024641172753-index11330.png
#EXTINF:1.966667,
605024641172753-index11331.png
#EXTINF:4.266667,
605024641172753-index11332.png
#EXTINF:1.766667,
605024641172753-index11333.png
#EXTINF:1.700000,
605024641172753-index11334.png
#EXTINF:1.933333,
605024641172753-index11335.png
#EXTINF:2.466667,
605024641172753-index11336.png
#EXTINF:5.000000,
605024641172753-index11337.png
#EXTINF:2.200000,
605024641172753-index11338.png
#EXTINF:2.333333,
605024641172753-index11339.png
#EXTINF:2.700000,
605024641172753-index11340.png
#EXTINF:2.233333,
605024641172753-index11341.png
#EXTINF:2.200000,
605024641172753-index11342.png
#EXTINF:5.000000,
605024641172753-index11343.png
#EXTINF:1.966667,
605024641172753-index11344.png
#EXTINF:1.833333,
605024641172753-index11345.png
#EXTINF:2.166667,
605024641172753-index11346.png
#EXTINF:1.766667,
605024641172753-index11347.png
#EXTINF:5.000000,
605024641172753-index11348.png
#EXTINF:5.000000,
605024641172753-index11349.png
#EXTINF:5.000000,
605024641172753-index11350.png
#EXTINF:5.000000,
605024641172753-index11351.png
#EXTINF:5.000000,
605024641172753-index11352.png
#EXTINF:5.000000,
605024641172753-index11353.png
#EXTINF:5.000000,
605024641172753-index11354.png
#EXTINF:5.000000,
605024641172753-index11355.png
#EXTINF:4.666667,
605024641172753-index11356.png
#EXT-X-ENDLIST
