#EXTM3U
#EXT-X-VERSION:3
#EXT-X-TARGETDURATION:11
#EXT-X-MEDIA-SEQUENCE:10001
#EXTINF:2.391278,
612476103007793-index10001.png
#EXTINF:2.173889,
612476103007793-index10002.png
#EXTINF:3.347789,
612476103007793-index10003.png
#EXTINF:10.869444,
612476103007793-index10004.png
#EXTINF:3.521700,
612476103007793-index10005.png
#EXTINF:0.999989,
612476103007793-index10006.png
#EXTINF:10.869444,
612476103007793-index10007.png
#EXTINF:10.869444,
612476103007793-index10008.png
#EXTINF:5.130378,
612476103007793-index10009.png
#EXTINF:3.956478,
612476103007793-index10010.png
#EXTINF:1.652156,
612476103007793-index10011.png
#EXTINF:1.956500,
612476103007793-index10012.png
#EXTINF:6.956444,
612476103007793-index10013.png
#EXTINF:8.217300,
612476103007793-index10014.png
#EXTINF:5.782544,
612476103007793-index10015.png
#EXTINF:7.956433,
612476103007793-index10016.png
#EXTINF:2.434756,
612476103007793-index10017.png
#EXTINF:6.782533,
612476103007793-index10018.png
#EXTINF:8.652078,
612476103007793-index10019.png
#EXTINF:10.869444,
612476103007793-index10020.png
#EXTINF:10.869444,
612476103007793-index10021.png
#EXTINF:10.869444,
612476103007793-index10022.png
#EXTINF:5.739067,
612476103007793-index10023.png
#EXTINF:10.869444,
612476103007793-index10024.png
#EXTINF:1.130422,
612476103007793-index10025.png
#EXTINF:6.391233,
612476103007793-index10026.png
#EXTINF:5.608633,
612476103007793-index10027.png
#EXTINF:5.521678,
612476103007793-index10028.png
#EXTINF:6.826011,
612476103007793-index10029.png
#EXTINF:3.695611,
612476103007793-index10030.png
#EXTINF:2.260844,
612476103007793-index10031.png
#EXTINF:10.782489,
612476103007793-index10032.png
#EXTINF:2.304322,
612476103007793-index10033.png
#EXTINF:1.739111,
612476103007793-index10034.png
#EXTINF:6.173844,
612476103007793-index10035.png
#EXTINF:4.260822,
612476103007793-index10036.png
#EXTINF:4.782556,
612476103007793-index10037.png
#EXTINF:2.739100,
612476103007793-index10038.png
#EXTINF:4.869511,
612476103007793-index10039.png
#EXTINF:5.565156,
612476103007793-index10040.png
#EXTINF:8.043389,
612476103007793-index10041.png
#EXTINF:3.565178,
612476103007793-index10042.png
#EXTINF:7.260789,
612476103007793-index10043.png
#EXTINF:4.912989,
612476103007793-index10044.png
#EXTINF:3.217356,
612476103007793-index10045.png
#EXTINF:10.869444,
612476103007793-index10046.png
#EXTINF:7.739044,
612476103007793-index10047.png
#EXTINF:3.217356,
612476103007793-index10048.png
#EXTINF:2.999967,
612476103007793-index10049.png
#EXTINF:10.869444,
612476103007793-index10050.png
#EXTINF:10.869444,
612476103007793-index10051.png
#EXTINF:5.347767,
612476103007793-index10052.png
#EXTINF:9.434678,
612476103007793-index10053.png
#EXTINF:8.217300,
612476103007793-index10054.png
#EXTINF:10.869444,
612476103007793-index10055.png
#EXTINF:10.869444,
612476103007793-index10056.png
#EXTINF:8.782511,
612476103007793-index10057.png
#EXTINF:6.608622,
612476103007793-index10058.png
#EXTINF:5.608633,
612476103007793-index10059.png
#EXTINF:5.043422,
612476103007793-index10060.png
#EXTINF:3.521700,
612476103007793-index10061.png
#EXTINF:10.869444,
612476103007793-index10062.png
#EXTINF:3.913000,
612476103007793-index10063.png
#EXTINF:3.304311,
612476103007793-index10064.png
#EXTINF:1.999978,
612476103007793-index10065.png
#EXTINF:5.739067,
612476103007793-index10066.png
#EXTINF:5.173856,
612476103007793-index10067.png
#EXTINF:6.521667,
612476103007793-index10068.png
#EXTINF:7.391222,
612476103007793-index10069.png
#EXTINF:6.391233,
612476103007793-index10070.png
#EXTINF:5.521678,
612476103007793-index10071.png
#EXTINF:3.565178,
612476103007793-index10072.png
#EXTINF:6.478189,
612476103007793-index10073.png
#EXTINF:4.608644,
612476103007793-index10074.png
#EXTINF:4.869511,
612476103007793-index10075.png
#EXTINF:7.608611,
612476103007793-index10076.png
#EXTINF:3.608656,
612476103007793-index10077.png
#EXTINF:8.565122,
612476103007793-index10078.png
#EXTINF:5.739067,
612476103007793-index10079.png
#EXTINF:7.652089,
612476103007793-index10080.png
#EXTINF:8.565122,
612476103007793-index10081.png
#EXTINF:9.869456,
612476103007793-index10082.png
#EXTINF:4.043433,
612476103007793-index10083.png
#EXTINF:5.260811,
612476103007793-index10084.png
#EXTINF:5.260811,
612476103007793-index10085.png
#EXTINF:9.521633,
612476103007793-index10086.png
#EXTINF:8.130344,
612476103007793-index10087.png
#EXTINF:6.086889,
612476103007793-index10088.png
#EXTINF:4.434733,
612476103007793-index10089.png
#EXTINF:3.173878,
612476103007793-index10090.png
#EXTINF:2.565189,
612476103007793-index10091.png
#EXTINF:9.130333,
612476103007793-index10092.png
#EXTINF:7.956433,
612476103007793-index10093.png
#EXTINF:9.043378,
612476103007793-index10094.png
#EXTINF:2.434756,
612476103007793-index10095.png
#EXTINF:4.782556,
612476103007793-index10096.png
#EXTINF:5.608633,
612476103007793-index10097.png
#EXTINF:6.999922,
612476103007793-index10098.png
#EXTINF:4.391256,
612476103007793-index10099.png
#EXTINF:9.130333,
612476103007793-index10100.png
#EXTINF:3.173878,
612476103007793-index10101.png
#EXTINF:9.086856,
612476103007793-index10102.png
#EXTINF:8.130344,
612476103007793-index10103.png
#EXTINF:8.521644,
612476103007793-index10104.png
#EXTINF:5.912978,
612476103007793-index10105.png
#EXTINF:10.869444,
612476103007793-index10106.png
#EXTINF:7.782522,
612476103007793-index10107.png
#EXTINF:10.869444,
612476103007793-index10108.png
#EXTINF:6.391233,
612476103007793-index10109.png
#EXTINF:10.869444,
612476103007793-index10110.png
#EXTINF:7.521656,
612476103007793-index10111.png
#EXTINF:8.086867,
612476103007793-index10112.png
#EXTINF:8.782511,
612476103007793-index10113.png
#EXTINF:6.434711,
612476103007793-index10114.png
#EXTINF:3.652133,
612476103007793-index10115.png
#EXTINF:7.782522,
612476103007793-index10116.png
#EXTINF:5.217333,
612476103007793-index10117.png
#EXTINF:2.260844,
612476103007793-index10118.png
#EXTINF:10.869444,
612476103007793-index10119.png
#EXTINF:7.739044,
612476103007793-index10120.png
#EXTINF:6.478189,
612476103007793-index10121.png
#EXTINF:8.695556,
612476103007793-index10122.png
#EXTINF:3.826044,
612476103007793-index10123.png
#EXTINF:7.652089,
612476103007793-index10124.png
#EXTINF:8.912944,
612476103007793-index10125.png
#EXTINF:5.478200,
612476103007793-index10126.png
#EXTINF:7.304267,
612476103007793-index10127.png
#EXTINF:7.565133,
612476103007793-index10128.png
#EXTINF:6.347756,
612476103007793-index10129.png
#EXTINF:3.086922,
612476103007793-index10130.png
#EXTINF:10.652056,
612476103007793-index10131.png
#EXTINF:3.304311,
612476103007793-index10132.png
#EXTINF:9.652067,
612476103007793-index10133.png
#EXTINF:2.913011,
612476103007793-index10134.png
#EXTINF:7.739044,
612476103007793-index10135.png
#EXTINF:7.956433,
612476103007793-index10136.png
#EXTINF:5.869500,
612476103007793-index10137.png
#EXTINF:10.869444,
612476103007793-index10138.png
#EXTINF:4.999944,
612476103007793-index10139.png
#EXTINF:8.217300,
612476103007793-index10140.png
#EXTINF:6.826011,
612476103007793-index10141.png
#EXTINF:2.826056,
612476103007793-index10142.png
#EXTINF:10.304233,
612476103007793-index10143.png
#EXTINF:2.956489,
612476103007793-index10144.png
#EXTINF:10.869444,
612476103007793-index10145.png
#EXTINF:5.695589,
612476103007793-index10146.png
#EXTINF:10.869444,
612476103007793-index10147.png
#EXTINF:6.304278,
612476103007793-index10148.png
#EXTINF:7.999911,
612476103007793-index10149.png
#EXTINF:6.304278,
612476103007793-index10150.png
#EXTINF:6.043411,
612476103007793-index10151.png
#EXTINF:4.521689,
612476103007793-index10152.png
#EXTINF:6.260800,
612476103007793-index10153.png
#EXTINF:4.869511,
612476103007793-index10154.png
#EXTINF:3.043444,
612476103007793-index10155.png
#EXTINF:4.434733,
612476103007793-index10156.png
#EXTINF:10.869444,
612476103007793-index10157.png
#EXTINF:6.695578,
612476103007793-index10158.png
#EXTINF:5.130378,
612476103007793-index10159.png
#EXTINF:8.521644,
612476103007793-index10160.png
#EXTINF:6.608622,
612476103007793-index10161.png
#EXTINF:3.999956,
612476103007793-index10162.png
#EXTINF:6.782533,
612476103007793-index10163.png
#EXTINF:7.347744,
612476103007793-index10164.png
#EXTINF:10.869444,
612476103007793-index10165.png
#EXTINF:10.869444,
612476103007793-index10166.png
#EXTINF:10.217278,
612476103007793-index10167.png
#EXTINF:10.869444,
612476103007793-index10168.png
#EXTINF:3.826044,
612476103007793-index10169.png
#EXTINF:8.347733,
612476103007793-index10170.png
#EXTINF:5.217333,
612476103007793-index10171.png
#EXTINF:10.869444,
612476103007793-index10172.png
#EXTINF:8.912944,
612476103007793-index10173.png
#EXTINF:4.956467,
612476103007793-index10174.png
#EXTINF:6.478189,
612476103007793-index10175.png
#EXTINF:3.999956,
612476103007793-index10176.png
#EXTINF:8.260778,
612476103007793-index10177.png
#EXTINF:7.173833,
612476103007793-index10178.png
#EXTINF:7.478178,
612476103007793-index10179.png
#EXTINF:7.782522,
612476103007793-index10180.png
#EXTINF:10.391189,
612476103007793-index10181.png
#EXTINF:2.913011,
612476103007793-index10182.png
#EXTINF:8.217300,
612476103007793-index10183.png
#EXTINF:7.782522,
612476103007793-index10184.png
#EXTINF:4.826033,
612476103007793-index10185.png
#EXTINF:8.782511,
612476103007793-index10186.png
#EXTINF:9.304244,
612476103007793-index10187.png
#EXTINF:8.782511,
612476103007793-index10188.png
#EXTINF:10.869444,
612476103007793-index10189.png
#EXTINF:8.260778,
612476103007793-index10190.png
#EXTINF:4.043433,
612476103007793-index10191.png
#EXTINF:10.869444,
612476103007793-index10192.png
#EXTINF:10.869444,
612476103007793-index10193.png
#EXTINF:6.565144,
612476103007793-index10194.png
#EXTINF:7.260789,
612476103007793-index10195.png
#EXTINF:9.391200,
612476103007793-index10196.png
#EXTINF:10.652056,
612476103007793-index10197.png
#EXTINF:9.869456,
612476103007793-index10198.png
#EXTINF:9.086856,
612476103007793-index10199.png
#EXTINF:10.869444,
612476103007793-index10200.png
#EXTINF:1.826067,
612476103007793-index10201.png
#EXTINF:1.304333,
612476103007793-index10202.png
#EXTINF:5.086900,
612476103007793-index10203.png
#EXTINF:9.695544,
612476103007793-index10204.png
#EXTINF:10.869444,
612476103007793-index10205.png
#EXTINF:10.869444,
612476103007793-index10206.png
#EXTINF:6.869489,
612476103007793-index10207.png
#EXTINF:4.391256,
612476103007793-index10208.png
#EXTINF:5.826022,
612476103007793-index10209.png
#EXTINF:10.869444,
612476103007793-index10210.png
#EXTINF:10.869444,
612476103007793-index10211.png
#EXTINF:10.869444,
612476103007793-index10212.png
#EXTINF:10.869444,
612476103007793-index10213.png
#EXTINF:4.826033,
612476103007793-index10214.png
#EXTINF:10.869444,
612476103007793-index10215.png
#EXTINF:10.869444,
612476103007793-index10216.png
#EXTINF:10.869444,
612476103007793-index10217.png
#EXTINF:10.869444,
612476103007793-index10218.png
#EXTINF:10.869444,
612476103007793-index10219.png
#EXTINF:8.999900,
612476103007793-index10220.png
#EXTINF:4.304300,
612476103007793-index10221.png
#EXTINF:3.608656,
612476103007793-index10222.png
#EXTINF:6.130367,
612476103007793-index10223.png
#EXTINF:3.695611,
612476103007793-index10224.png
#EXTINF:10.869444,
612476103007793-index10225.png
#EXTINF:2.130411,
612476103007793-index10226.png
#EXT-X-ENDLIST
