#EXTM3U
#EXT-X-VERSION:3
#EXT-X-TARGETDURATION:11
#EXT-X-MEDIA-SEQUENCE:10001
#EXTINF:6.086889,
614471310542689-index10001.png
#EXTINF:7.043400,
614471310542689-index10002.png
#EXTINF:3.434744,
614471310542689-index10003.png
#EXTINF:6.173844,
614471310542689-index10004.png
#EXTINF:4.391256,
614471310542689-index10005.png
#EXTINF:4.739078,
614471310542689-index10006.png
#EXTINF:3.956478,
614471310542689-index10007.png
#EXTINF:9.347722,
614471310542689-index10008.png
#EXTINF:5.347767,
614471310542689-index10009.png
#EXTINF:1.608678,
614471310542689-index10010.png
#EXTINF:4.956467,
614471310542689-index10011.png
#EXTINF:9.043378,
614471310542689-index10012.png
#EXTINF:3.869522,
614471310542689-index10013.png
#EXTINF:5.478200,
614471310542689-index10014.png
#EXTINF:9.565111,
614471310542689-index10015.png
#EXTINF:4.304300,
614471310542689-index10016.png
#EXTINF:3.565178,
614471310542689-index10017.png
#EXTINF:2.913011,
614471310542689-index10018.png
#EXTINF:5.304289,
614471310542689-index10019.png
#EXTINF:10.869444,
614471310542689-index10020.png
#EXTINF:10.869444,
614471310542689-index10021.png
#EXTINF:10.869444,
614471310542689-index10022.png
#EXTINF:10.869444,
614471310542689-index10023.png
#EXTINF:10.869444,
614471310542689-index10024.png
#EXTINF:10.869444,
614471310542689-index10025.png
#EXTINF:10.869444,
614471310542689-index10026.png
#EXTINF:10.869444,
614471310542689-index10027.png
#EXTINF:10.869444,
614471310542689-index10028.png
#EXTINF:10.869444,
614471310542689-index10029.png
#EXTINF:10.869444,
614471310542689-index10030.png
#EXTINF:10.869444,
614471310542689-index10031.png
#EXTINF:10.869444,
614471310542689-index10032.png
#EXTINF:10.869444,
614471310542689-index10033.png
#EXTINF:10.869444,
614471310542689-index10034.png
#EXTINF:10.739011,
614471310542689-index10035.png
#EXTINF:10.869444,
614471310542689-index10036.png
#EXTINF:9.999889,
614471310542689-index10037.png
#EXTINF:10.869444,
614471310542689-index10038.png
#EXTINF:6.478189,
614471310542689-index10039.png
#EXTINF:10.869444,
614471310542689-index10040.png
#EXTINF:10.869444,
614471310542689-index10041.png
#EXTINF:10.869444,
614471310542689-index10042.png
#EXTINF:10.869444,
614471310542689-index10043.png
#EXTINF:10.869444,
614471310542689-index10044.png
#EXTINF:10.869444,
614471310542689-index10045.png
#EXTINF:10.869444,
614471310542689-index10046.png
#EXTINF:10.869444,
614471310542689-index10047.png
#EXTINF:10.652056,
614471310542689-index10048.png
#EXTINF:10.869444,
614471310542689-index10049.png
#EXTINF:4.086911,
614471310542689-index10050.png
#EXTINF:7.695567,
614471310542689-index10051.png
#EXTINF:10.652056,
614471310542689-index10052.png
#EXTINF:10.869444,
614471310542689-index10053.png
#EXTINF:6.912967,
614471310542689-index10054.png
#EXTINF:3.695611,
614471310542689-index10055.png
#EXTINF:6.260800,
614471310542689-index10056.png
#EXTINF:10.869444,
614471310542689-index10057.png
#EXTINF:10.478144,
614471310542689-index10058.png
#EXTINF:10.869444,
614471310542689-index10059.png
#EXTINF:4.565167,
614471310542689-index10060.png
#EXTINF:9.260767,
614471310542689-index10061.png
#EXTINF:10.869444,
614471310542689-index10062.png
#EXTINF:10.869444,
614471310542689-index10063.png
#EXTINF:10.869444,
614471310542689-index10064.png
#EXTINF:10.695533,
614471310542689-index10065.png
#EXTINF:10.869444,
614471310542689-index10066.png
#EXTINF:10.869444,
614471310542689-index10067.png
#EXTINF:10.869444,
614471310542689-index10068.png
#EXTINF:9.825978,
614471310542689-index10069.png
#EXTINF:8.043389,
614471310542689-index10070.png
#EXTINF:8.695556,
614471310542689-index10071.png
#EXTINF:6.565144,
614471310542689-index10072.png
#EXTINF:9.217289,
614471310542689-index10073.png
#EXTINF:10.869444,
614471310542689-index10074.png
#EXTINF:10.043367,
614471310542689-index10075.png
#EXTINF:10.608578,
614471310542689-index10076.png
#EXTINF:10.521622,
614471310542689-index10077.png
#EXTINF:10.869444,
614471310542689-index10078.png
#EXTINF:10.869444,
614471310542689-index10079.png
#EXTINF:10.869444,
614471310542689-index10080.png
#EXTINF:10.869444,
614471310542689-index10081.png
#EXTINF:10.825967,
614471310542689-index10082.png
#EXTINF:1.826067,
614471310542689-index10083.png
#EXTINF:7.173833,
614471310542689-index10084.png
#EXTINF:2.695622,
614471310542689-index10085.png
#EXTINF:10.086844,
614471310542689-index10086.png
#EXTINF:6.043411,
614471310542689-index10087.png
#EXTINF:10.869444,
614471310542689-index10088.png
#EXTINF:5.826022,
614471310542689-index10089.png
#EXTINF:2.913011,
614471310542689-index10090.png
#EXTINF:6.304278,
614471310542689-index10091.png
#EXTINF:9.999889,
614471310542689-index10092.png
#EXTINF:9.304244,
614471310542689-index10093.png
#EXTINF:10.869444,
614471310542689-index10094.png
#EXTINF:10.869444,
614471310542689-index10095.png
#EXTINF:7.521656,
614471310542689-index10096.png
#EXT-X-ENDLIST
