#EXTM3U
#EXT-X-VERSION:3
#EXT-X-TARGETDURATION:10
#EXT-X-MEDIA-SEQUENCE:10001
#EXTINF:3.782567,
618854135688808-index10001.png
#EXTINF:9.999889,
618854135688808-index10002.png
#EXTINF:1.478244,
618854135688808-index10003.png
#EXTINF:1.652156,
618854135688808-index10004.png
#EXTINF:2.869533,
618854135688808-index10005.png
#EXTINF:1.826067,
618854135688808-index10006.png
#EXTINF:5.130378,
618854135688808-index10007.png
#EXTINF:1.173900,
618854135688808-index10008.png
#EXTINF:1.130422,
618854135688808-index10009.png
#EXTINF:1.434767,
618854135688808-index10010.png
#EXTINF:3.913000,
618854135688808-index10011.png
#EXTINF:1.999978,
618854135688808-index10012.png
#EXTINF:2.826056,
618854135688808-index10013.png
#EXTINF:2.782578,
618854135688808-index10014.png
#EXTINF:2.826056,
618854135688808-index10015.png
#EXTINF:3.217356,
618854135688808-index10016.png
#EXTINF:2.782578,
618854135688808-index10017.png
#EXTINF:4.086911,
618854135688808-index10018.png
#EXTINF:2.086933,
618854135688808-index10019.png
#EXTINF:2.999967,
618854135688808-index10020.png
#EXTINF:4.130389,
618854135688808-index10021.png
#EXTINF:4.608644,
618854135688808-index10022.png
#EXTINF:4.434733,
618854135688808-index10023.png
#EXTINF:3.478222,
618854135688808-index10024.png
#EXTINF:5.912978,
618854135688808-index10025.png
#EXTINF:3.826044,
618854135688808-index10026.png
#EXTINF:3.695611,
618854135688808-index10027.png
#EXTINF:9.999889,
618854135688808-index10028.png
#EXTINF:9.869456,
618854135688808-index10029.png
#EXTINF:3.043444,
618854135688808-index10030.png
#EXTINF:3.260833,
618854135688808-index10031.png
#EXTINF:9.999889,
618854135688808-index10032.png
#EXTINF:9.999889,
618854135688808-index10033.png
#EXTINF:8.130344,
618854135688808-index10034.png
#EXTINF:5.652111,
618854135688808-index10035.png
#EXTINF:3.347789,
618854135688808-index10036.png
#EXTINF:2.782578,
618854135688808-index10037.png
#EXTINF:4.608644,
618854135688808-index10038.png
#EXTINF:5.521678,
618854135688808-index10039.png
#EXTINF:6.434711,
618854135688808-index10040.png
#EXTINF:2.478233,
618854135688808-index10041.png
#EXTINF:2.043456,
618854135688808-index10042.png
#EXTINF:6.043411,
618854135688808-index10043.png
#EXTINF:1.782589,
618854135688808-index10044.png
#EXTINF:5.912978,
618854135688808-index10045.png
#EXTINF:4.347778,
618854135688808-index10046.png
#EXTINF:3.913000,
618854135688808-index10047.png
#EXTINF:9.260767,
618854135688808-index10048.png
#EXTINF:2.913011,
618854135688808-index10049.png
#EXTINF:4.565167,
618854135688808-index10050.png
#EXTINF:3.173878,
618854135688808-index10051.png
#EXTINF:1.999978,
618854135688808-index10052.png
#EXTINF:2.782578,
618854135688808-index10053.png
#EXTINF:5.782544,
618854135688808-index10054.png
#EXTINF:5.521678,
618854135688808-index10055.png
#EXTINF:2.391278,
618854135688808-index10056.png
#EXTINF:2.521711,
618854135688808-index10057.png
#EXTINF:9.999889,
618854135688808-index10058.png
#EXTINF:3.608656,
618854135688808-index10059.png
#EXTINF:4.086911,
618854135688808-index10060.png
#EXTINF:4.434733,
618854135688808-index10061.png
#EXTINF:2.565189,
618854135688808-index10062.png
#EXTINF:2.652144,
618854135688808-index10063.png
#EXTINF:0.999989,
618854135688808-index10064.png
#EXTINF:4.739078,
618854135688808-index10065.png
#EXTINF:9.130333,
618854135688808-index10066.png
#EXTINF:9.391200,
618854135688808-index10067.png
#EXTINF:9.043378,
618854135688808-index10068.png
#EXTINF:9.043378,
618854135688808-index10069.png
#EXTINF:5.304289,
618854135688808-index10070.png
#EXTINF:5.999933,
618854135688808-index10071.png
#EXTINF:5.434722,
618854135688808-index10072.png
#EXTINF:3.304311,
618854135688808-index10073.png
#EXTINF:6.347756,
618854135688808-index10074.png
#EXTINF:7.217311,
618854135688808-index10075.png
#EXTINF:2.869533,
618854135688808-index10076.png
#EXTINF:9.304244,
618854135688808-index10077.png
#EXTINF:9.999889,
618854135688808-index10078.png
#EXTINF:3.608656,
618854135688808-index10079.png
#EXTINF:5.956456,
618854135688808-index10080.png
#EXTINF:9.999889,
618854135688808-index10081.png
#EXTINF:4.912989,
618854135688808-index10082.png
#EXTINF:6.130367,
618854135688808-index10083.png
#EXTINF:8.478167,
618854135688808-index10084.png
#EXTINF:4.086911,
618854135688808-index10085.png
#EXTINF:3.521700,
618854135688808-index10086.png
#EXTINF:6.521667,
618854135688808-index10087.png
#EXTINF:4.739078,
618854135688808-index10088.png
#EXTINF:8.347733,
618854135688808-index10089.png
#EXTINF:7.217311,
618854135688808-index10090.png
#EXTINF:5.956456,
618854135688808-index10091.png
#EXTINF:5.260811,
618854135688808-index10092.png
#EXTINF:6.652100,
618854135688808-index10093.png
#EXTINF:7.130356,
618854135688808-index10094.png
#EXTINF:9.999889,
618854135688808-index10095.png
#EXTINF:9.999889,
618854135688808-index10096.png
#EXTINF:9.999889,
618854135688808-index10097.png
#EXTINF:9.999889,
618854135688808-index10098.png
#EXTINF:9.999889,
618854135688808-index10099.png
#EXTINF:9.999889,
618854135688808-index10100.png
#EXTINF:9.999889,
618854135688808-index10101.png
#EXTINF:9.999889,
618854135688808-index10102.png
#EXTINF:4.869511,
618854135688808-index10103.png
#EXT-X-ENDLIST
