#EXTM3U
#EXT-X-VERSION:3
#EXT-X-TARGETDURATION:10
#EXT-X-MEDIA-SEQUENCE:10001
#EXTINF:7.120000,
619013515611489-index10001.png
#EXTINF:6.080000,
619013515611489-index10002.png
#EXTINF:10.000000,
619013515611489-index10003.png
#EXTINF:10.000000,
619013515611489-index10004.png
#EXTINF:3.680000,
619013515611489-index10005.png
#EXTINF:10.000000,
619013515611489-index10006.png
#EXTINF:5.920000,
619013515611489-index10007.png
#EXTINF:8.800000,
619013515611489-index10008.png
#EXTINF:10.000000,
619013515611489-index10009.png
#EXTINF:2.840000,
619013515611489-index10010.png
#EXTINF:4.520000,
619013515611489-index10011.png
#EXTINF:10.000000,
619013515611489-index10012.png
#EXTINF:8.160000,
619013515611489-index10013.png
#EXTINF:10.000000,
619013515611489-index10014.png
#EXTINF:8.480000,
619013515611489-index10015.png
#EXTINF:9.160000,
619013515611489-index10016.png
#EXTINF:10.000000,
619013515611489-index10017.png
#EXTINF:9.160000,
619013515611489-index10018.png
#EXTINF:8.280000,
619013515611489-index10019.png
#EXTINF:8.920000,
619013515611489-index10020.png
#EXTINF:5.960000,
619013515611489-index10021.png
#EXTINF:6.000000,
619013515611489-index10022.png
#EXTINF:7.200000,
619013515611489-index10023.png
#EXTINF:8.520000,
619013515611489-index10024.png
#EXTINF:10.000000,
619013515611489-index10025.png
#EXTINF:5.480000,
619013515611489-index10026.png
#EXTINF:10.000000,
619013515611489-index10027.png
#EXTINF:10.000000,
619013515611489-index10028.png
#EXTINF:4.080000,
619013515611489-index10029.png
#EXTINF:10.000000,
619013515611489-index10030.png
#EXTINF:10.000000,
619013515611489-index10031.png
#EXTINF:10.000000,
619013515611489-index10032.png
#EXTINF:10.000000,
619013515611489-index10033.png
#EXTINF:10.000000,
619013515611489-index10034.png
#EXTINF:10.000000,
619013515611489-index10035.png
#EXTINF:10.000000,
619013515611489-index10036.png
#EXTINF:6.520000,
619013515611489-index10037.png
#EXTINF:10.000000,
619013515611489-index10038.png
#EXTINF:5.680000,
619013515611489-index10039.png
#EXTINF:9.600000,
619013515611489-index10040.png
#EXTINF:8.600000,
619013515611489-index10041.png
#EXTINF:10.000000,
619013515611489-index10042.png
#EXTINF:10.000000,
619013515611489-index10043.png
#EXTINF:8.760000,
619013515611489-index10044.png
#EXTINF:10.000000,
619013515611489-index10045.png
#EXTINF:6.840000,
619013515611489-index10046.png
#EXTINF:3.560000,
619013515611489-index10047.png
#EXTINF:10.000000,
619013515611489-index10048.png
#EXTINF:3.160000,
619013515611489-index10049.png
#EXTINF:10.000000,
619013515611489-index10050.png
#EXTINF:8.760000,
619013515611489-index10051.png
#EXTINF:8.560000,
619013515611489-index10052.png
#EXTINF:6.800000,
619013515611489-index10053.png
#EXTINF:5.600000,
619013515611489-index10054.png
#EXTINF:7.160000,
619013515611489-index10055.png
#EXTINF:6.400000,
619013515611489-index10056.png
#EXTINF:10.000000,
619013515611489-index10057.png
#EXTINF:10.000000,
619013515611489-index10058.png
#EXTINF:10.000000,
619013515611489-index10059.png
#EXTINF:10.000000,
619013515611489-index10060.png
#EXTINF:5.920000,
619013515611489-index10061.png
#EXTINF:6.200000,
619013515611489-index10062.png
#EXTINF:10.000000,
619013515611489-index10063.png
#EXTINF:8.160000,
619013515611489-index10064.png
#EXTINF:7.480000,
619013515611489-index10065.png
#EXTINF:7.400000,
619013515611489-index10066.png
#EXTINF:5.600000,
619013515611489-index10067.png
#EXTINF:9.600000,
619013515611489-index10068.png
#EXTINF:8.200000,
619013515611489-index10069.png
#EXTINF:10.000000,
619013515611489-index10070.png
#EXTINF:7.000000,
619013515611489-index10071.png
#EXTINF:4.880000,
619013515611489-index10072.png
#EXTINF:10.000000,
619013515611489-index10073.png
#EXTINF:10.000000,
619013515611489-index10074.png
#EXTINF:9.720000,
619013515611489-index10075.png
#EXTINF:7.200000,
619013515611489-index10076.png
#EXTINF:10.000000,
619013515611489-index10077.png
#EXTINF:4.600000,
619013515611489-index10078.png
#EXTINF:5.520000,
619013515611489-index10079.png
#EXTINF:10.000000,
619013515611489-index10080.png
#EXTINF:5.400000,
619013515611489-index10081.png
#EXTINF:9.160000,
619013515611489-index10082.png
#EXTINF:10.000000,
619013515611489-index10083.png
#EXTINF:10.000000,
619013515611489-index10084.png
#EXTINF:10.000000,
619013515611489-index10085.png
#EXTINF:5.160000,
619013515611489-index10086.png
#EXTINF:10.000000,
619013515611489-index10087.png
#EXTINF:10.000000,
619013515611489-index10088.png
#EXTINF:10.000000,
619013515611489-index10089.png
#EXTINF:3.760000,
619013515611489-index10090.png
#EXTINF:4.520000,
619013515611489-index10091.png
#EXTINF:5.160000,
619013515611489-index10092.png
#EXTINF:7.560000,
619013515611489-index10093.png
#EXTINF:9.200000,
619013515611489-index10094.png
#EXTINF:6.920000,
619013515611489-index10095.png
#EXTINF:10.000000,
619013515611489-index10096.png
#EXTINF:7.040000,
619013515611489-index10097.png
#EXTINF:2.720000,
619013515611489-index10098.png
#EXTINF:9.040000,
619013515611489-index10099.png
#EXTINF:6.440000,
619013515611489-index10100.png
#EXTINF:10.000000,
619013515611489-index10101.png
#EXTINF:10.000000,
619013515611489-index10102.png
#EXTINF:10.000000,
619013515611489-index10103.png
#EXTINF:10.000000,
619013515611489-index10104.png
#EXTINF:10.000000,
619013515611489-index10105.png
#EXTINF:5.160000,
619013515611489-index10106.png
#EXTINF:7.000000,
619013515611489-index10107.png
#EXTINF:6.560000,
619013515611489-index10108.png
#EXTINF:3.360000,
619013515611489-index10109.png
#EXTINF:10.000000,
619013515611489-index10110.png
#EXTINF:10.000000,
619013515611489-index10111.png
#EXTINF:7.440000,
619013515611489-index10112.png
#EXTINF:10.000000,
619013515611489-index10113.png
#EXTINF:7.320000,
619013515611489-index10114.png
#EXTINF:8.480000,
619013515611489-index10115.png
#EXTINF:6.520000,
619013515611489-index10116.png
#EXTINF:5.240000,
619013515611489-index10117.png
#EXTINF:8.440000,
619013515611489-index10118.png
#EXTINF:8.400000,
619013515611489-index10119.png
#EXTINF:9.960000,
619013515611489-index10120.png
#EXTINF:3.760000,
619013515611489-index10121.png
#EXTINF:10.000000,
619013515611489-index10122.png
#EXTINF:8.880000,
619013515611489-index10123.png
#EXTINF:9.200000,
619013515611489-index10124.png
#EXTINF:9.640000,
619013515611489-index10125.png
#EXTINF:9.080000,
619013515611489-index10126.png
#EXTINF:10.000000,
619013515611489-index10127.png
#EXTINF:9.360000,
619013515611489-index10128.png
#EXTINF:2.400000,
619013515611489-index10129.png
#EXTINF:6.320000,
619013515611489-index10130.png
#EXTINF:10.000000,
619013515611489-index10131.png
#EXTINF:7.360000,
619013515611489-index10132.png
#EXTINF:10.000000,
619013515611489-index10133.png
#EXTINF:5.120000,
619013515611489-index10134.png
#EXTINF:6.520000,
619013515611489-index10135.png
#EXTINF:7.520000,
619013515611489-index10136.png
#EXTINF:8.120000,
619013515611489-index10137.png
#EXTINF:6.360000,
619013515611489-index10138.png
#EXTINF:6.640000,
619013515611489-index10139.png
#EXTINF:10.000000,
619013515611489-index10140.png
#EXTINF:10.000000,
619013515611489-index10141.png
#EXTINF:5.280000,
619013515611489-index10142.png
#EXTINF:9.000000,
619013515611489-index10143.png
#EXTINF:10.000000,
619013515611489-index10144.png
#EXTINF:8.440000,
619013515611489-index10145.png
#EXTINF:4.960000,
619013515611489-index10146.png
#EXTINF:6.240000,
619013515611489-index10147.png
#EXTINF:10.000000,
619013515611489-index10148.png
#EXTINF:10.000000,
619013515611489-index10149.png
#EXTINF:7.200000,
619013515611489-index10150.png
#EXTINF:5.880000,
619013515611489-index10151.png
#EXTINF:7.400000,
619013515611489-index10152.png
#EXTINF:9.000000,
619013515611489-index10153.png
#EXTINF:8.960000,
619013515611489-index10154.png
#EXTINF:6.240000,
619013515611489-index10155.png
#EXTINF:8.920000,
619013515611489-index10156.png
#EXTINF:10.000000,
619013515611489-index10157.png
#EXTINF:8.680000,
619013515611489-index10158.png
#EXTINF:9.080000,
619013515611489-index10159.png
#EXTINF:8.080000,
619013515611489-index10160.png
#EXTINF:3.960000,
619013515611489-index10161.png
#EXTINF:6.840000,
619013515611489-index10162.png
#EXTINF:8.800000,
619013515611489-index10163.png
#EXTINF:10.000000,
619013515611489-index10164.png
#EXTINF:8.080000,
619013515611489-index10165.png
#EXTINF:7.040000,
619013515611489-index10166.png
#EXTINF:3.440000,
619013515611489-index10167.png
#EXTINF:10.000000,
619013515611489-index10168.png
#EXTINF:7.920000,
619013515611489-index10169.png
#EXTINF:4.840000,
619013515611489-index10170.png
#EXTINF:5.160000,
619013515611489-index10171.png
#EXTINF:5.160000,
619013515611489-index10172.png
#EXTINF:7.680000,
619013515611489-index10173.png
#EXTINF:7.000000,
619013515611489-index10174.png
#EXTINF:8.880000,
619013515611489-index10175.png
#EXTINF:8.920000,
619013515611489-index10176.png
#EXTINF:4.280000,
619013515611489-index10177.png
#EXTINF:5.480000,
619013515611489-index10178.png
#EXTINF:4.240000,
619013515611489-index10179.png
#EXTINF:4.600000,
619013515611489-index10180.png
#EXTINF:10.000000,
619013515611489-index10181.png
#EXTINF:10.000000,
619013515611489-index10182.png
#EXTINF:8.680000,
619013515611489-index10183.png
#EXTINF:8.480000,
619013515611489-index10184.png
#EXTINF:10.000000,
619013515611489-index10185.png
#EXTINF:4.720000,
619013515611489-index10186.png
#EXTINF:5.320000,
619013515611489-index10187.png
#EXTINF:5.800000,
619013515611489-index10188.png
#EXTINF:6.400000,
619013515611489-index10189.png
#EXTINF:6.720000,
619013515611489-index10190.png
#EXTINF:9.200000,
619013515611489-index10191.png
#EXTINF:6.360000,
619013515611489-index10192.png
#EXTINF:5.040000,
619013515611489-index10193.png
#EXTINF:10.000000,
619013515611489-index10194.png
#EXTINF:10.000000,
619013515611489-index10195.png
#EXTINF:1.720000,
619013515611489-index10196.png
#EXTINF:6.240000,
619013515611489-index10197.png
#EXTINF:10.000000,
619013515611489-index10198.png
#EXTINF:10.000000,
619013515611489-index10199.png
#EXTINF:10.000000,
619013515611489-index10200.png
#EXTINF:10.000000,
619013515611489-index10201.png
#EXTINF:10.000000,
619013515611489-index10202.png
#EXTINF:9.400000,
619013515611489-index10203.png
#EXTINF:8.280000,
619013515611489-index10204.png
#EXTINF:10.000000,
619013515611489-index10205.png
#EXTINF:10.000000,
619013515611489-index10206.png
#EXTINF:10.000000,
619013515611489-index10207.png
#EXTINF:10.000000,
619013515611489-index10208.png
#EXTINF:5.240000,
619013515611489-index10209.png
#EXTINF:8.680000,
619013515611489-index10210.png
#EXTINF:6.280000,
619013515611489-index10211.png
#EXTINF:8.960000,
619013515611489-index10212.png
#EXTINF:10.000000,
619013515611489-index10213.png
#EXTINF:10.000000,
619013515611489-index10214.png
#EXTINF:10.000000,
619013515611489-index10215.png
#EXTINF:9.440000,
619013515611489-index10216.png
#EXTINF:10.000000,
619013515611489-index10217.png
#EXTINF:10.000000,
619013515611489-index10218.png
#EXTINF:10.000000,
619013515611489-index10219.png
#EXTINF:10.000000,
619013515611489-index10220.png
#EXTINF:10.000000,
619013515611489-index10221.png
#EXTINF:10.000000,
619013515611489-index10222.png
#EXTINF:9.560000,
619013515611489-index10223.png
#EXTINF:8.360000,
619013515611489-index10224.png
#EXTINF:10.000000,
619013515611489-index10225.png
#EXTINF:10.000000,
619013515611489-index10226.png
#EXTINF:10.000000,
619013515611489-index10227.png
#EXTINF:10.000000,
619013515611489-index10228.png
#EXTINF:10.000000,
619013515611489-index10229.png
#EXTINF:4.920000,
619013515611489-index10230.png
#EXTINF:10.000000,
619013515611489-index10231.png
#EXTINF:10.000000,
619013515611489-index10232.png
#EXTINF:10.000000,
619013515611489-index10233.png
#EXTINF:10.000000,
619013515611489-index10234.png
#EXTINF:10.000000,
619013515611489-index10235.png
#EXTINF:10.000000,
619013515611489-index10236.png
#EXTINF:6.200000,
619013515611489-index10237.png
#EXTINF:8.040000,
619013515611489-index10238.png
#EXTINF:9.560000,
619013515611489-index10239.png
#EXTINF:8.760000,
619013515611489-index10240.png
#EXTINF:9.160000,
619013515611489-index10241.png
#EXTINF:8.440000,
619013515611489-index10242.png
#EXTINF:10.000000,
619013515611489-index10243.png
#EXTINF:10.000000,
619013515611489-index10244.png
#EXTINF:10.000000,
619013515611489-index10245.png
#EXTINF:10.000000,
619013515611489-index10246.png
#EXTINF:10.000000,
619013515611489-index10247.png
#EXTINF:10.000000,
619013515611489-index10248.png
#EXTINF:10.000000,
619013515611489-index10249.png
#EXTINF:10.000000,
619013515611489-index10250.png
#EXTINF:10.000000,
619013515611489-index10251.png
#EXTINF:10.000000,
619013515611489-index10252.png
#EXTINF:10.000000,
619013515611489-index10253.png
#EXTINF:10.000000,
619013515611489-index10254.png
#EXTINF:7.240000,
619013515611489-index10255.png
#EXTINF:10.000000,
619013515611489-index10256.png
#EXTINF:10.000000,
619013515611489-index10257.png
#EXTINF:10.000000,
619013515611489-index10258.png
#EXTINF:10.000000,
619013515611489-index10259.png
#EXTINF:10.000000,
619013515611489-index10260.png
#EXTINF:10.000000,
619013515611489-index10261.png
#EXTINF:10.000000,
619013515611489-index10262.png
#EXTINF:10.000000,
619013515611489-index10263.png
#EXTINF:10.000000,
619013515611489-index10264.png
#EXTINF:10.000000,
619013515611489-index10265.png
#EXTINF:10.000000,
619013515611489-index10266.png
#EXTINF:8.960000,
619013515611489-index10267.png
#EXTINF:6.200000,
619013515611489-index10268.png
#EXTINF:8.480000,
619013515611489-index10269.png
#EXTINF:8.320000,
619013515611489-index10270.png
#EXTINF:9.360000,
619013515611489-index10271.png
#EXTINF:10.000000,
619013515611489-index10272.png
#EXTINF:8.000000,
619013515611489-index10273.png
#EXTINF:7.960000,
619013515611489-index10274.png
#EXTINF:5.800000,
619013515611489-index10275.png
#EXTINF:6.840000,
619013515611489-index10276.png
#EXTINF:7.280000,
619013515611489-index10277.png
#EXTINF:5.240000,
619013515611489-index10278.png
#EXTINF:7.640000,
619013515611489-index10279.png
#EXTINF:8.600000,
619013515611489-index10280.png
#EXTINF:10.000000,
619013515611489-index10281.png
#EXTINF:6.440000,
619013515611489-index10282.png
#EXTINF:7.960000,
619013515611489-index10283.png
#EXTINF:5.520000,
619013515611489-index10284.png
#EXTINF:6.560000,
619013515611489-index10285.png
#EXTINF:4.040000,
619013515611489-index10286.png
#EXTINF:4.400000,
619013515611489-index10287.png
#EXTINF:10.000000,
619013515611489-index10288.png
#EXTINF:10.000000,
619013515611489-index10289.png
#EXTINF:9.480000,
619013515611489-index10290.png
#EXTINF:9.680000,
619013515611489-index10291.png
#EXTINF:10.000000,
619013515611489-index10292.png
#EXTINF:10.000000,
619013515611489-index10293.png
#EXTINF:10.000000,
619013515611489-index10294.png
#EXTINF:10.000000,
619013515611489-index10295.png
#EXTINF:10.000000,
619013515611489-index10296.png
#EXTINF:10.000000,
619013515611489-index10297.png
#EXTINF:10.000000,
619013515611489-index10298.png
#EXTINF:10.000000,
619013515611489-index10299.png
#EXTINF:10.000000,
619013515611489-index10300.png
#EXTINF:5.920000,
619013515611489-index10301.png
#EXTINF:6.000000,
619013515611489-index10302.png
#EXTINF:10.000000,
619013515611489-index10303.png
#EXTINF:8.600000,
619013515611489-index10304.png
#EXTINF:10.000000,
619013515611489-index10305.png
#EXTINF:8.240000,
619013515611489-index10306.png
#EXTINF:9.360000,
619013515611489-index10307.png
#EXTINF:10.000000,
619013515611489-index10308.png
#EXTINF:7.600000,
619013515611489-index10309.png
#EXTINF:10.000000,
619013515611489-index10310.png
#EXTINF:9.240000,
619013515611489-index10311.png
#EXTINF:10.000000,
619013515611489-index10312.png
#EXTINF:7.640000,
619013515611489-index10313.png
#EXTINF:9.160000,
619013515611489-index10314.png
#EXTINF:6.840000,
619013515611489-index10315.png
#EXTINF:2.440000,
619013515611489-index10316.png
#EXTINF:4.040000,
619013515611489-index10317.png
#EXTINF:6.920000,
619013515611489-index10318.png
#EXTINF:9.160000,
619013515611489-index10319.png
#EXTINF:8.120000,
619013515611489-index10320.png
#EXTINF:4.760000,
619013515611489-index10321.png
#EXTINF:10.000000,
619013515611489-index10322.png
#EXTINF:8.640000,
619013515611489-index10323.png
#EXTINF:6.840000,
619013515611489-index10324.png
#EXTINF:5.320000,
619013515611489-index10325.png
#EXTINF:5.520000,
619013515611489-index10326.png
#EXTINF:9.400000,
619013515611489-index10327.png
#EXTINF:10.000000,
619013515611489-index10328.png
#EXTINF:10.000000,
619013515611489-index10329.png
#EXTINF:3.040000,
619013515611489-index10330.png
#EXT-X-ENDLIST
