#EXTM3U
#EXT-X-VERSION:3
#EXT-X-TARGETDURATION:9
#EXT-X-MEDIA-SEQUENCE:10001
#EXTINF:8.333333,
630334619846608-index10001.png
#EXTINF:6.566667,
630334619846608-index10002.png
#EXTINF:7.800000,
630334619846608-index10003.png
#EXTINF:1.433333,
630334619846608-index10004.png
#EXTINF:4.466667,
630334619846608-index10005.png
#EXTINF:1.600000,
630334619846608-index10006.png
#EXTINF:3.900000,
630334619846608-index10007.png
#EXTINF:7.900000,
630334619846608-index10008.png
#EXTINF:6.466667,
630334619846608-index10009.png
#EXTINF:0.866667,
630334619846608-index10010.png
#EXTINF:2.966667,
630334619846608-index10011.png
#EXTINF:3.833333,
630334619846608-index10012.png
#EXTINF:4.666667,
630334619846608-index10013.png
#EXTINF:3.533333,
630334619846608-index10014.png
#EXTINF:2.300000,
630334619846608-index10015.png
#EXTINF:1.966667,
630334619846608-index10016.png
#EXTINF:6.666667,
630334619846608-index10017.png
#EXTINF:4.500000,
630334619846608-index10018.png
#EXTINF:4.766667,
630334619846608-index10019.png
#EXTINF:1.533333,
630334619846608-index10020.png
#EXTINF:8.166667,
630334619846608-index10021.png
#EXTINF:2.400000,
630334619846608-index10022.png
#EXTINF:6.666667,
630334619846608-index10023.png
#EXTINF:0.900000,
630334619846608-index10024.png
#EXTINF:1.133333,
630334619846608-index10025.png
#EXTINF:1.300000,
630334619846608-index10026.png
#EXTINF:2.066667,
630334619846608-index10027.png
#EXTINF:0.966667,
630334619846608-index10028.png
#EXTINF:1.833333,
630334619846608-index10029.png
#EXTINF:1.000000,
630334619846608-index10030.png
#EXTINF:1.966667,
630334619846608-index10031.png
#EXTINF:0.966667,
630334619846608-index10032.png
#EXTINF:1.000000,
630334619846608-index10033.png
#EXTINF:1.666667,
630334619846608-index10034.png
#EXTINF:0.933333,
630334619846608-index10035.png
#EXTINF:1.400000,
630334619846608-index10036.png
#EXTINF:1.766667,
630334619846608-index10037.png
#EXTINF:0.900000,
630334619846608-index10038.png
#EXTINF:1.000000,
630334619846608-index10039.png
#EXTINF:0.833333,
630334619846608-index10040.png
#EXTINF:0.833333,
630334619846608-index10041.png
#EXTINF:2.233333,
630334619846608-index10042.png
#EXTINF:1.633333,
630334619846608-index10043.png
#EXTINF:1.200000,
630334619846608-index10044.png
#EXTINF:2.000000,
630334619846608-index10045.png
#EXTINF:1.233333,
630334619846608-index10046.png
#EXTINF:1.100000,
630334619846608-index10047.png
#EXTINF:1.300000,
630334619846608-index10048.png
#EXTINF:1.366667,
630334619846608-index10049.png
#EXTINF:1.100000,
630334619846608-index10050.png
#EXTINF:1.166667,
630334619846608-index10051.png
#EXTINF:0.933333,
630334619846608-index10052.png
#EXTINF:1.300000,
630334619846608-index10053.png
#EXTINF:2.100000,
630334619846608-index10054.png
#EXTINF:1.100000,
630334619846608-index10055.png
#EXTINF:0.966667,
630334619846608-index10056.png
#EXTINF:1.300000,
630334619846608-index10057.png
#EXTINF:1.200000,
630334619846608-index10058.png
#EXTINF:0.933333,
630334619846608-index10059.png
#EXTINF:0.933333,
630334619846608-index10060.png
#EXTINF:3.300000,
630334619846608-index10061.png
#EXTINF:1.400000,
630334619846608-index10062.png
#EXTINF:8.333333,
630334619846608-index10063.png
#EXTINF:3.366667,
630334619846608-index10064.png
#EXTINF:4.300000,
630334619846608-index10065.png
#EXTINF:5.733333,
630334619846608-index10066.png
#EXTINF:7.866667,
630334619846608-index10067.png
#EXTINF:4.300000,
630334619846608-index10068.png
#EXTINF:8.333333,
630334619846608-index10069.png
#EXTINF:2.166667,
630334619846608-index10070.png
#EXTINF:3.800000,
630334619846608-index10071.png
#EXTINF:1.333333,
630334619846608-index10072.png
#EXTINF:1.566667,
630334619846608-index10073.png
#EXTINF:4.500000,
630334619846608-index10074.png
#EXTINF:4.166667,
630334619846608-index10075.png
#EXTINF:3.466667,
630334619846608-index10076.png
#EXTINF:4.466667,
630334619846608-index10077.png
#EXTINF:1.733333,
630334619846608-index10078.png
#EXTINF:2.766667,
630334619846608-index10079.png
#EXTINF:3.033333,
630334619846608-index10080.png
#EXTINF:5.500000,
630334619846608-index10081.png
#EXTINF:5.366667,
630334619846608-index10082.png
#EXTINF:5.400000,
630334619846608-index10083.png
#EXTINF:5.166667,
630334619846608-index10084.png
#EXTINF:5.100000,
630334619846608-index10085.png
#EXTINF:7.366667,
630334619846608-index10086.png
#EXTINF:2.000000,
630334619846608-index10087.png
#EXTINF:6.766667,
630334619846608-index10088.png
#EXTINF:2.600000,
630334619846608-index10089.png
#EXTINF:6.433333,
630334619846608-index10090.png
#EXTINF:7.866667,
630334619846608-index10091.png
#EXTINF:8.333333,
630334619846608-index10092.png
#EXTINF:7.666667,
630334619846608-index10093.png
#EXTINF:1.900000,
630334619846608-index10094.png
#EXTINF:8.333333,
630334619846608-index10095.png
#EXTINF:3.833333,
630334619846608-index10096.png
#EXTINF:4.466667,
630334619846608-index10097.png
#EXTINF:1.100000,
630334619846608-index10098.png
#EXTINF:6.800000,
630334619846608-index10099.png
#EXTINF:1.766667,
630334619846608-index10100.png
#EXTINF:4.433333,
630334619846608-index10101.png
#EXTINF:8.333333,
630334619846608-index10102.png
#EXTINF:2.166667,
630334619846608-index10103.png
#EXTINF:4.433333,
630334619846608-index10104.png
#EXTINF:6.733333,
630334619846608-index10105.png
#EXTINF:7.333333,
630334619846608-index10106.png
#EXTINF:3.800000,
630334619846608-index10107.png
#EXTINF:4.766667,
630334619846608-index10108.png
#EXTINF:4.833333,
630334619846608-index10109.png
#EXTINF:6.766667,
630334619846608-index10110.png
#EXTINF:5.033333,
630334619846608-index10111.png
#EXTINF:2.000000,
630334619846608-index10112.png
#EXTINF:4.233333,
630334619846608-index10113.png
#EXTINF:2.500000,
630334619846608-index10114.png
#EXTINF:2.300000,
630334619846608-index10115.png
#EXTINF:4.200000,
630334619846608-index10116.png
#EXTINF:3.266667,
630334619846608-index10117.png
#EXTINF:1.866667,
630334619846608-index10118.png
#EXTINF:2.733333,
630334619846608-index10119.png
#EXTINF:4.300000,
630334619846608-index10120.png
#EXTINF:4.400000,
630334619846608-index10121.png
#EXTINF:8.333333,
630334619846608-index10122.png
#EXTINF:3.466667,
630334619846608-index10123.png
#EXTINF:2.133333,
630334619846608-index10124.png
#EXTINF:4.133333,
630334619846608-index10125.png
#EXTINF:2.266667,
630334619846608-index10126.png
#EXTINF:4.400000,
630334619846608-index10127.png
#EXTINF:3.400000,
630334619846608-index10128.png
#EXTINF:2.733333,
630334619846608-index10129.png
#EXTINF:3.933333,
630334619846608-index10130.png
#EXTINF:4.466667,
630334619846608-index10131.png
#EXTINF:8.333333,
630334619846608-index10132.png
#EXTINF:2.300000,
630334619846608-index10133.png
#EXTINF:1.333333,
630334619846608-index10134.png
#EXTINF:2.133333,
630334619846608-index10135.png
#EXTINF:1.400000,
630334619846608-index10136.png
#EXTINF:4.700000,
630334619846608-index10137.png
#EXTINF:2.166667,
630334619846608-index10138.png
#EXTINF:8.000000,
630334619846608-index10139.png
#EXTINF:8.333333,
630334619846608-index10140.png
#EXTINF:6.000000,
630334619846608-index10141.png
#EXTINF:5.833333,
630334619846608-index10142.png
#EXTINF:2.033333,
630334619846608-index10143.png
#EXTINF:3.866667,
630334619846608-index10144.png
#EXTINF:3.066667,
630334619846608-index10145.png
#EXTINF:8.133333,
630334619846608-index10146.png
#EXTINF:4.566667,
630334619846608-index10147.png
#EXTINF:2.333333,
630334619846608-index10148.png
#EXTINF:1.666667,
630334619846608-index10149.png
#EXTINF:4.000000,
630334619846608-index10150.png
#EXTINF:8.233333,
630334619846608-index10151.png
#EXTINF:1.566667,
630334619846608-index10152.png
#EXTINF:2.600000,
630334619846608-index10153.png
#EXTINF:6.533333,
630334619846608-index10154.png
#EXTINF:3.233333,
630334619846608-index10155.png
#EXTINF:4.000000,
630334619846608-index10156.png
#EXTINF:2.666667,
630334619846608-index10157.png
#EXTINF:2.900000,
630334619846608-index10158.png
#EXTINF:8.333333,
630334619846608-index10159.png
#EXTINF:7.633333,
630334619846608-index10160.png
#EXTINF:3.433333,
630334619846608-index10161.png
#EXTINF:2.466667,
630334619846608-index10162.png
#EXTINF:8.333333,
630334619846608-index10163.png
#EXTINF:6.533333,
630334619846608-index10164.png
#EXTINF:1.533333,
630334619846608-index10165.png
#EXTINF:2.966667,
630334619846608-index10166.png
#EXTINF:4.333333,
630334619846608-index10167.png
#EXTINF:2.033333,
630334619846608-index10168.png
#EXTINF:6.866667,
630334619846608-index10169.png
#EXTINF:2.133333,
630334619846608-index10170.png
#EXTINF:3.633333,
630334619846608-index10171.png
#EXTINF:2.933333,
630334619846608-index10172.png
#EXTINF:3.700000,
630334619846608-index10173.png
#EXTINF:6.433333,
630334619846608-index10174.png
#EXTINF:1.900000,
630334619846608-index10175.png
#EXTINF:1.900000,
630334619846608-index10176.png
#EXTINF:4.200000,
630334619846608-index10177.png
#EXTINF:2.800000,
630334619846608-index10178.png
#EXTINF:3.100000,
630334619846608-index10179.png
#EXTINF:3.733333,
630334619846608-index10180.png
#EXTINF:2.266667,
630334619846608-index10181.png
#EXTINF:1.166667,
630334619846608-index10182.png
#EXTINF:1.266667,
630334619846608-index10183.png
#EXTINF:1.233333,
630334619846608-index10184.png
#EXTINF:1.400000,
630334619846608-index10185.png
#EXTINF:3.933333,
630334619846608-index10186.png
#EXTINF:1.866667,
630334619846608-index10187.png
#EXTINF:5.566667,
630334619846608-index10188.png
#EXTINF:4.100000,
630334619846608-index10189.png
#EXTINF:6.100000,
630334619846608-index10190.png
#EXTINF:2.500000,
630334619846608-index10191.png
#EXTINF:2.366667,
630334619846608-index10192.png
#EXTINF:4.700000,
630334619846608-index10193.png
#EXTINF:1.800000,
630334619846608-index10194.png
#EXTINF:1.600000,
630334619846608-index10195.png
#EXTINF:2.500000,
630334619846608-index10196.png
#EXTINF:3.800000,
630334619846608-index10197.png
#EXTINF:1.933333,
630334619846608-index10198.png
#EXTINF:5.933333,
630334619846608-index10199.png
#EXTINF:2.800000,
630334619846608-index10200.png
#EXTINF:1.566667,
630334619846608-index10201.png
#EXTINF:6.233333,
630334619846608-index10202.png
#EXTINF:4.033333,
630334619846608-index10203.png
#EXTINF:2.533333,
630334619846608-index10204.png
#EXTINF:1.766667,
630334619846608-index10205.png
#EXTINF:2.366667,
630334619846608-index10206.png
#EXTINF:2.000000,
630334619846608-index10207.png
#EXTINF:1.666667,
630334619846608-index10208.png
#EXTINF:2.166667,
630334619846608-index10209.png
#EXTINF:3.633333,
630334619846608-index10210.png
#EXTINF:3.200000,
630334619846608-index10211.png
#EXTINF:3.100000,
630334619846608-index10212.png
#EXTINF:1.533333,
630334619846608-index10213.png
#EXTINF:2.866667,
630334619846608-index10214.png
#EXTINF:4.733333,
630334619846608-index10215.png
#EXTINF:2.400000,
630334619846608-index10216.png
#EXTINF:4.033333,
630334619846608-index10217.png
#EXTINF:1.833333,
630334619846608-index10218.png
#EXTINF:1.666667,
630334619846608-index10219.png
#EXTINF:5.000000,
630334619846608-index10220.png
#EXTINF:2.233333,
630334619846608-index10221.png
#EXTINF:4.100000,
630334619846608-index10222.png
#EXTINF:2.833333,
630334619846608-index10223.png
#EXTINF:2.033333,
630334619846608-index10224.png
#EXTINF:1.166667,
630334619846608-index10225.png
#EXTINF:2.033333,
630334619846608-index10226.png
#EXTINF:2.933333,
630334619846608-index10227.png
#EXTINF:3.933333,
630334619846608-index10228.png
#EXTINF:1.333333,
630334619846608-index10229.png
#EXTINF:2.333333,
630334619846608-index10230.png
#EXTINF:1.400000,
630334619846608-index10231.png
#EXTINF:3.733333,
630334619846608-index10232.png
#EXTINF:2.666667,
630334619846608-index10233.png
#EXTINF:3.600000,
630334619846608-index10234.png
#EXTINF:1.033333,
630334619846608-index10235.png
#EXTINF:1.266667,
630334619846608-index10236.png
#EXTINF:4.733333,
630334619846608-index10237.png
#EXTINF:1.300000,
630334619846608-index10238.png
#EXTINF:1.000000,
630334619846608-index10239.png
#EXTINF:1.266667,
630334619846608-index10240.png
#EXTINF:3.033333,
630334619846608-index10241.png
#EXTINF:5.666667,
630334619846608-index10242.png
#EXTINF:1.166667,
630334619846608-index10243.png
#EXTINF:1.533333,
630334619846608-index10244.png
#EXTINF:1.666667,
630334619846608-index10245.png
#EXTINF:3.100000,
630334619846608-index10246.png
#EXTINF:2.866667,
630334619846608-index10247.png
#EXTINF:2.600000,
630334619846608-index10248.png
#EXTINF:2.500000,
630334619846608-index10249.png
#EXTINF:1.633333,
630334619846608-index10250.png
#EXTINF:2.866667,
630334619846608-index10251.png
#EXTINF:2.366667,
630334619846608-index10252.png
#EXTINF:2.266667,
630334619846608-index10253.png
#EXTINF:2.466667,
630334619846608-index10254.png
#EXTINF:2.833333,
630334619846608-index10255.png
#EXTINF:1.300000,
630334619846608-index10256.png
#EXTINF:2.900000,
630334619846608-index10257.png
#EXTINF:2.233333,
630334619846608-index10258.png
#EXTINF:2.833333,
630334619846608-index10259.png
#EXTINF:2.733333,
630334619846608-index10260.png
#EXTINF:4.266667,
630334619846608-index10261.png
#EXTINF:3.166667,
630334619846608-index10262.png
#EXTINF:2.200000,
630334619846608-index10263.png
#EXTINF:5.066667,
630334619846608-index10264.png
#EXTINF:4.700000,
630334619846608-index10265.png
#EXTINF:2.200000,
630334619846608-index10266.png
#EXTINF:1.633333,
630334619846608-index10267.png
#EXTINF:1.900000,
630334619846608-index10268.png
#EXTINF:2.666667,
630334619846608-index10269.png
#EXTINF:4.166667,
630334619846608-index10270.png
#EXTINF:3.166667,
630334619846608-index10271.png
#EXTINF:2.466667,
630334619846608-index10272.png
#EXTINF:2.333333,
630334619846608-index10273.png
#EXTINF:2.833333,
630334619846608-index10274.png
#EXTINF:1.966667,
630334619846608-index10275.png
#EXTINF:1.833333,
630334619846608-index10276.png
#EXTINF:2.266667,
630334619846608-index10277.png
#EXTINF:6.900000,
630334619846608-index10278.png
#EXTINF:8.333333,
630334619846608-index10279.png
#EXTINF:2.166667,
630334619846608-index10280.png
#EXTINF:2.100000,
630334619846608-index10281.png
#EXTINF:3.000000,
630334619846608-index10282.png
#EXTINF:1.966667,
630334619846608-index10283.png
#EXTINF:3.733333,
630334619846608-index10284.png
#EXTINF:3.666667,
630334619846608-index10285.png
#EXTINF:3.266667,
630334619846608-index10286.png
#EXTINF:2.466667,
630334619846608-index10287.png
#EXTINF:3.566667,
630334619846608-index10288.png
#EXTINF:1.733333,
630334619846608-index10289.png
#EXTINF:5.633333,
630334619846608-index10290.png
#EXTINF:4.866667,
630334619846608-index10291.png
#EXTINF:1.666667,
630334619846608-index10292.png
#EXTINF:1.766667,
630334619846608-index10293.png
#EXTINF:1.066667,
630334619846608-index10294.png
#EXTINF:2.700000,
630334619846608-index10295.png
#EXTINF:2.700000,
630334619846608-index10296.png
#EXTINF:1.200000,
630334619846608-index10297.png
#EXTINF:3.333333,
630334619846608-index10298.png
#EXTINF:8.333333,
630334619846608-index10299.png
#EXTINF:1.900000,
630334619846608-index10300.png
#EXTINF:3.700000,
630334619846608-index10301.png
#EXTINF:3.566667,
630334619846608-index10302.png
#EXTINF:3.566667,
630334619846608-index10303.png
#EXTINF:2.300000,
630334619846608-index10304.png
#EXTINF:6.266667,
630334619846608-index10305.png
#EXTINF:8.333333,
630334619846608-index10306.png
#EXTINF:3.233333,
630334619846608-index10307.png
#EXTINF:0.833333,
630334619846608-index10308.png
#EXTINF:1.966667,
630334619846608-index10309.png
#EXTINF:1.366667,
630334619846608-index10310.png
#EXTINF:2.633333,
630334619846608-index10311.png
#EXTINF:5.000000,
630334619846608-index10312.png
#EXTINF:5.600000,
630334619846608-index10313.png
#EXTINF:8.333333,
630334619846608-index10314.png
#EXTINF:5.766667,
630334619846608-index10315.png
#EXTINF:4.933333,
630334619846608-index10316.png
#EXTINF:8.333333,
630334619846608-index10317.png
#EXTINF:3.200000,
630334619846608-index10318.png
#EXTINF:2.800000,
630334619846608-index10319.png
#EXTINF:6.266667,
630334619846608-index10320.png
#EXTINF:3.666667,
630334619846608-index10321.png
#EXTINF:3.400000,
630334619846608-index10322.png
#EXTINF:6.166667,
630334619846608-index10323.png
#EXTINF:8.333333,
630334619846608-index10324.png
#EXTINF:6.033333,
630334619846608-index10325.png
#EXTINF:2.100000,
630334619846608-index10326.png
#EXTINF:1.800000,
630334619846608-index10327.png
#EXTINF:3.933333,
630334619846608-index10328.png
#EXTINF:5.500000,
630334619846608-index10329.png
#EXTINF:1.400000,
630334619846608-index10330.png
#EXTINF:1.666667,
630334619846608-index10331.png
#EXTINF:4.200000,
630334619846608-index10332.png
#EXTINF:5.833333,
630334619846608-index10333.png
#EXTINF:8.333333,
630334619846608-index10334.png
#EXTINF:5.133333,
630334619846608-index10335.png
#EXTINF:3.433333,
630334619846608-index10336.png
#EXTINF:3.900000,
630334619846608-index10337.png
#EXTINF:4.366667,
630334619846608-index10338.png
#EXTINF:2.133333,
630334619846608-index10339.png
#EXTINF:1.900000,
630334619846608-index10340.png
#EXTINF:2.000000,
630334619846608-index10341.png
#EXTINF:6.166667,
630334619846608-index10342.png
#EXTINF:3.233333,
630334619846608-index10343.png
#EXTINF:4.000000,
630334619846608-index10344.png
#EXTINF:4.300000,
630334619846608-index10345.png
#EXTINF:0.866667,
630334619846608-index10346.png
#EXTINF:3.433333,
630334619846608-index10347.png
#EXTINF:2.266667,
630334619846608-index10348.png
#EXTINF:3.666667,
630334619846608-index10349.png
#EXTINF:4.933333,
630334619846608-index10350.png
#EXTINF:2.500000,
630334619846608-index10351.png
#EXTINF:7.133333,
630334619846608-index10352.png
#EXTINF:3.500000,
630334619846608-index10353.png
#EXTINF:8.300000,
630334619846608-index10354.png
#EXTINF:6.133333,
630334619846608-index10355.png
#EXTINF:6.133333,
630334619846608-index10356.png
#EXTINF:3.866667,
630334619846608-index10357.png
#EXTINF:4.633333,
630334619846608-index10358.png
#EXTINF:3.866667,
630334619846608-index10359.png
#EXTINF:2.200000,
630334619846608-index10360.png
#EXTINF:5.100000,
630334619846608-index10361.png
#EXTINF:2.000000,
630334619846608-index10362.png
#EXTINF:6.633333,
630334619846608-index10363.png
#EXTINF:4.500000,
630334619846608-index10364.png
#EXTINF:4.766667,
630334619846608-index10365.png
#EXTINF:2.533333,
630334619846608-index10366.png
#EXTINF:2.766667,
630334619846608-index10367.png
#EXTINF:1.600000,
630334619846608-index10368.png
#EXTINF:7.533333,
630334619846608-index10369.png
#EXTINF:3.900000,
630334619846608-index10370.png
#EXTINF:1.666667,
630334619846608-index10371.png
#EXTINF:3.600000,
630334619846608-index10372.png
#EXTINF:7.800000,
630334619846608-index10373.png
#EXTINF:2.000000,
630334619846608-index10374.png
#EXTINF:2.300000,
630334619846608-index10375.png
#EXTINF:7.866667,
630334619846608-index10376.png
#EXTINF:8.300000,
630334619846608-index10377.png
#EXTINF:6.933333,
630334619846608-index10378.png
#EXTINF:6.266667,
630334619846608-index10379.png
#EXTINF:3.966667,
630334619846608-index10380.png
#EXTINF:2.866667,
630334619846608-index10381.png
#EXTINF:4.800000,
630334619846608-index10382.png
#EXTINF:4.233333,
630334619846608-index10383.png
#EXTINF:2.300000,
630334619846608-index10384.png
#EXTINF:4.633333,
630334619846608-index10385.png
#EXTINF:1.066667,
630334619846608-index10386.png
#EXTINF:4.366667,
630334619846608-index10387.png
#EXTINF:2.766667,
630334619846608-index10388.png
#EXTINF:2.200000,
630334619846608-index10389.png
#EXTINF:8.266667,
630334619846608-index10390.png
#EXTINF:6.133333,
630334619846608-index10391.png
#EXTINF:2.833333,
630334619846608-index10392.png
#EXTINF:2.800000,
630334619846608-index10393.png
#EXTINF:2.966667,
630334619846608-index10394.png
#EXTINF:2.433333,
630334619846608-index10395.png
#EXTINF:5.166667,
630334619846608-index10396.png
#EXTINF:2.566667,
630334619846608-index10397.png
#EXTINF:2.633333,
630334619846608-index10398.png
#EXTINF:2.933333,
630334619846608-index10399.png
#EXTINF:1.333333,
630334619846608-index10400.png
#EXTINF:2.700000,
630334619846608-index10401.png
#EXTINF:7.400000,
630334619846608-index10402.png
#EXTINF:1.366667,
630334619846608-index10403.png
#EXTINF:3.133333,
630334619846608-index10404.png
#EXTINF:2.966667,
630334619846608-index10405.png
#EXTINF:8.333333,
630334619846608-index10406.png
#EXTINF:3.000000,
630334619846608-index10407.png
#EXTINF:2.300000,
630334619846608-index10408.png
#EXTINF:1.233333,
630334619846608-index10409.png
#EXTINF:2.166667,
630334619846608-index10410.png
#EXTINF:3.700000,
630334619846608-index10411.png
#EXTINF:4.000000,
630334619846608-index10412.png
#EXTINF:8.333333,
630334619846608-index10413.png
#EXTINF:2.866667,
630334619846608-index10414.png
#EXTINF:4.900000,
630334619846608-index10415.png
#EXTINF:4.200000,
630334619846608-index10416.png
#EXTINF:1.866667,
630334619846608-index10417.png
#EXTINF:1.800000,
630334619846608-index10418.png
#EXTINF:1.300000,
630334619846608-index10419.png
#EXTINF:1.766667,
630334619846608-index10420.png
#EXTINF:2.133333,
630334619846608-index10421.png
#EXTINF:1.766667,
630334619846608-index10422.png
#EXTINF:2.933333,
630334619846608-index10423.png
#EXTINF:3.600000,
630334619846608-index10424.png
#EXTINF:6.700000,
630334619846608-index10425.png
#EXTINF:4.533333,
630334619846608-index10426.png
#EXTINF:6.300000,
630334619846608-index10427.png
#EXTINF:3.700000,
630334619846608-index10428.png
#EXTINF:4.266667,
630334619846608-index10429.png
#EXT-X-ENDLIST
