#EXTM3U
#EXT-X-VERSION:3
#EXT-X-TARGETDURATION:11
#EXT-X-MEDIA-SEQUENCE:10001
#EXTINF:3.739089,
630444521291388-index10001.png
#EXTINF:7.782522,
630444521291388-index10002.png
#EXTINF:4.739078,
630444521291388-index10003.png
#EXTINF:1.913022,
630444521291388-index10004.png
#EXTINF:5.869500,
630444521291388-index10005.png
#EXTINF:4.999944,
630444521291388-index10006.png
#EXTINF:5.304289,
630444521291388-index10007.png
#EXTINF:3.826044,
630444521291388-index10008.png
#EXTINF:1.565200,
630444521291388-index10009.png
#EXTINF:1.956500,
630444521291388-index10010.png
#EXTINF:4.217344,
630444521291388-index10011.png
#EXTINF:1.739111,
630444521291388-index10012.png
#EXTINF:3.304311,
630444521291388-index10013.png
#EXTINF:5.739067,
630444521291388-index10014.png
#EXTINF:2.782578,
630444521291388-index10015.png
#EXTINF:4.478211,
630444521291388-index10016.png
#EXTINF:6.652100,
630444521291388-index10017.png
#EXTINF:5.999933,
630444521291388-index10018.png
#EXTINF:2.478233,
630444521291388-index10019.png
#EXTINF:5.999933,
630444521291388-index10020.png
#EXTINF:3.999956,
630444521291388-index10021.png
#EXTINF:10.869444,
630444521291388-index10022.png
#EXTINF:10.869444,
630444521291388-index10023.png
#EXTINF:5.434722,
630444521291388-index10024.png
#EXTINF:8.304256,
630444521291388-index10025.png
#EXTINF:10.869444,
630444521291388-index10026.png
#EXTINF:10.130322,
630444521291388-index10027.png
#EXTINF:7.260789,
630444521291388-index10028.png
#EXTINF:6.260800,
630444521291388-index10029.png
#EXTINF:3.478222,
630444521291388-index10030.png
#EXTINF:3.043444,
630444521291388-index10031.png
#EXTINF:10.825967,
630444521291388-index10032.png
#EXTINF:8.391211,
630444521291388-index10033.png
#EXTINF:6.043411,
630444521291388-index10034.png
#EXTINF:8.695556,
630444521291388-index10035.png
#EXTINF:5.999933,
630444521291388-index10036.png
#EXTINF:4.739078,
630444521291388-index10037.png
#EXTINF:6.347756,
630444521291388-index10038.png
#EXTINF:6.869489,
630444521291388-index10039.png
#EXTINF:10.869444,
630444521291388-index10040.png
#EXTINF:4.434733,
630444521291388-index10041.png
#EXTINF:5.782544,
630444521291388-index10042.png
#EXTINF:6.956444,
630444521291388-index10043.png
#EXTINF:1.521722,
630444521291388-index10044.png
#EXTINF:1.478244,
630444521291388-index10045.png
#EXTINF:5.043422,
630444521291388-index10046.png
#EXTINF:3.434744,
630444521291388-index10047.png
#EXTINF:5.521678,
630444521291388-index10048.png
#EXTINF:3.391267,
630444521291388-index10049.png
#EXTINF:3.869522,
630444521291388-index10050.png
#EXTINF:4.782556,
630444521291388-index10051.png
#EXTINF:4.826033,
630444521291388-index10052.png
#EXTINF:3.217356,
630444521291388-index10053.png
#EXTINF:1.217378,
630444521291388-index10054.png
#EXTINF:7.521656,
630444521291388-index10055.png
#EXTINF:5.912978,
630444521291388-index10056.png
#EXTINF:5.739067,
630444521291388-index10057.png
#EXTINF:4.478211,
630444521291388-index10058.png
#EXTINF:5.999933,
630444521291388-index10059.png
#EXTINF:10.869444,
630444521291388-index10060.png
#EXTINF:10.869444,
630444521291388-index10061.png
#EXTINF:7.999911,
630444521291388-index10062.png
#EXTINF:10.869444,
630444521291388-index10063.png
#EXTINF:5.043422,
630444521291388-index10064.png
#EXTINF:6.695578,
630444521291388-index10065.png
#EXTINF:10.869444,
630444521291388-index10066.png
#EXTINF:5.782544,
630444521291388-index10067.png
#EXTINF:5.260811,
630444521291388-index10068.png
#EXTINF:10.869444,
630444521291388-index10069.png
#EXTINF:4.434733,
630444521291388-index10070.png
#EXTINF:2.434756,
630444521291388-index10071.png
#EXTINF:2.695622,
630444521291388-index10072.png
#EXTINF:1.913022,
630444521291388-index10073.png
#EXTINF:10.869444,
630444521291388-index10074.png
#EXTINF:10.869444,
630444521291388-index10075.png
#EXTINF:6.173844,
630444521291388-index10076.png
#EXT-X-ENDLIST
