#EXTM3U
#EXT-X-VERSION:3
#EXT-X-TARGETDURATION:10
#EXT-X-MEDIA-SEQUENCE:10001
#EXTINF:9.531378,
648420824772781-index10001.png
#EXTINF:2.916667,
648420824772781-index10002.png
#EXTINF:1.125000,
648420824772781-index10003.png
#EXTINF:1.958333,
648420824772781-index10004.png
#EXTINF:3.041667,
648420824772781-index10005.png
#EXTINF:1.166667,
648420824772781-index10006.png
#EXTINF:1.083333,
648420824772781-index10007.png
#EXTINF:1.375000,
648420824772781-index10008.png
#EXTINF:2.291667,
648420824772781-index10009.png
#EXTINF:3.166667,
648420824772781-index10010.png
#EXTINF:1.375000,
648420824772781-index10011.png
#EXTINF:2.208333,
648420824772781-index10012.png
#EXTINF:2.750000,
648420824772781-index10013.png
#EXTINF:4.500000,
648420824772781-index10014.png
#EXTINF:1.166667,
648420824772781-index10015.png
#EXTINF:9.083333,
648420824772781-index10016.png
#EXTINF:8.041667,
648420824772781-index10017.png
#EXTINF:1.250000,
648420824772781-index10018.png
#EXTINF:3.833333,
648420824772781-index10019.png
#EXTINF:3.916667,
648420824772781-index10020.png
#EXTINF:10.000000,
648420824772781-index10021.png
#EXTINF:4.125000,
648420824772781-index10022.png
#EXTINF:7.000000,
648420824772781-index10023.png
#EXTINF:7.166667,
648420824772781-index10024.png
#EXTINF:1.041667,
648420824772781-index10025.png
#EXTINF:1.041667,
648420824772781-index10026.png
#EXTINF:2.041667,
648420824772781-index10027.png
#EXTINF:10.000000,
648420824772781-index10028.png
#EXTINF:2.458333,
648420824772781-index10029.png
#EXTINF:1.125000,
648420824772781-index10030.png
#EXTINF:1.166667,
648420824772781-index10031.png
#EXTINF:6.083333,
648420824772781-index10032.png
#EXTINF:6.083333,
648420824772781-index10033.png
#EXTINF:3.500000,
648420824772781-index10034.png
#EXTINF:4.208333,
648420824772781-index10035.png
#EXTINF:7.833333,
648420824772781-index10036.png
#EXTINF:4.958333,
648420824772781-index10037.png
#EXTINF:5.458333,
648420824772781-index10038.png
#EXTINF:3.166667,
648420824772781-index10039.png
#EXTINF:3.541667,
648420824772781-index10040.png
#EXTINF:2.666667,
648420824772781-index10041.png
#EXTINF:8.250000,
648420824772781-index10042.png
#EXTINF:4.666667,
648420824772781-index10043.png
#EXTINF:5.750000,
648420824772781-index10044.png
#EXTINF:1.916667,
648420824772781-index10045.png
#EXTINF:4.666667,
648420824772781-index10046.png
#EXTINF:10.000000,
648420824772781-index10047.png
#EXTINF:1.375000,
648420824772781-index10048.png
#EXTINF:4.541667,
648420824772781-index10049.png
#EXTINF:7.708333,
648420824772781-index10050.png
#EXTINF:4.000000,
648420824772781-index10051.png
#EXTINF:2.750000,
648420824772781-index10052.png
#EXTINF:4.875000,
648420824772781-index10053.png
#EXTINF:10.000000,
648420824772781-index10054.png
#EXTINF:4.875000,
648420824772781-index10055.png
#EXTINF:10.000000,
648420824772781-index10056.png
#EXTINF:9.958333,
648420824772781-index10057.png
#EXTINF:8.291667,
648420824772781-index10058.png
#EXTINF:6.625000,
648420824772781-index10059.png
#EXTINF:2.375000,
648420824772781-index10060.png
#EXTINF:6.625000,
648420824772781-index10061.png
#EXTINF:1.416667,
648420824772781-index10062.png
#EXTINF:10.000000,
648420824772781-index10063.png
#EXTINF:6.500000,
648420824772781-index10064.png
#EXTINF:10.000000,
648420824772781-index10065.png
#EXTINF:5.333333,
648420824772781-index10066.png
#EXTINF:10.000000,
648420824772781-index10067.png
#EXTINF:7.041667,
648420824772781-index10068.png
#EXTINF:4.958333,
648420824772781-index10069.png
#EXTINF:7.041667,
648420824772781-index10070.png
#EXTINF:6.666667,
648420824772781-index10071.png
#EXTINF:4.000000,
648420824772781-index10072.png
#EXTINF:6.708333,
648420824772781-index10073.png
#EXTINF:5.875000,
648420824772781-index10074.png
#EXTINF:3.000000,
648420824772781-index10075.png
#EXTINF:10.000000,
648420824772781-index10076.png
#EXTINF:3.083333,
648420824772781-index10077.png
#EXTINF:3.333333,
648420824772781-index10078.png
#EXTINF:4.000000,
648420824772781-index10079.png
#EXTINF:3.291667,
648420824772781-index10080.png
#EXTINF:4.458333,
648420824772781-index10081.png
#EXTINF:4.458333,
648420824772781-index10082.png
#EXTINF:3.375000,
648420824772781-index10083.png
#EXTINF:2.500000,
648420824772781-index10084.png
#EXTINF:3.791667,
648420824772781-index10085.png
#EXTINF:2.125000,
648420824772781-index10086.png
#EXTINF:2.166667,
648420824772781-index10087.png
#EXTINF:2.416667,
648420824772781-index10088.png
#EXTINF:3.708333,
648420824772781-index10089.png
#EXTINF:9.500000,
648420824772781-index10090.png
#EXTINF:2.000000,
648420824772781-index10091.png
#EXTINF:4.625000,
648420824772781-index10092.png
#EXTINF:2.083333,
648420824772781-index10093.png
#EXTINF:2.000000,
648420824772781-index10094.png
#EXTINF:4.375000,
648420824772781-index10095.png
#EXTINF:8.000000,
648420824772781-index10096.png
#EXTINF:2.416667,
648420824772781-index10097.png
#EXTINF:2.708333,
648420824772781-index10098.png
#EXTINF:1.250000,
648420824772781-index10099.png
#EXTINF:2.291667,
648420824772781-index10100.png
#EXTINF:1.083333,
648420824772781-index10101.png
#EXTINF:1.125000,
648420824772781-index10102.png
#EXTINF:1.583333,
648420824772781-index10103.png
#EXTINF:1.125000,
648420824772781-index10104.png
#EXTINF:2.250000,
648420824772781-index10105.png
#EXTINF:2.541667,
648420824772781-index10106.png
#EXTINF:5.041667,
648420824772781-index10107.png
#EXTINF:1.666667,
648420824772781-index10108.png
#EXTINF:10.000000,
648420824772781-index10109.png
#EXTINF:1.583333,
648420824772781-index10110.png
#EXTINF:7.458333,
648420824772781-index10111.png
#EXTINF:10.000000,
648420824772781-index10112.png
#EXTINF:7.958333,
648420824772781-index10113.png
#EXTINF:2.291667,
648420824772781-index10114.png
#EXTINF:7.375000,
648420824772781-index10115.png
#EXTINF:4.625000,
648420824772781-index10116.png
#EXTINF:3.583333,
648420824772781-index10117.png
#EXTINF:1.250000,
648420824772781-index10118.png
#EXTINF:3.416667,
648420824772781-index10119.png
#EXTINF:1.375000,
648420824772781-index10120.png
#EXTINF:4.666667,
648420824772781-index10121.png
#EXTINF:2.000000,
648420824772781-index10122.png
#EXTINF:1.916667,
648420824772781-index10123.png
#EXTINF:5.875000,
648420824772781-index10124.png
#EXTINF:5.125000,
648420824772781-index10125.png
#EXTINF:2.166667,
648420824772781-index10126.png
#EXTINF:2.916667,
648420824772781-index10127.png
#EXTINF:7.166667,
648420824772781-index10128.png
#EXTINF:7.166667,
648420824772781-index10129.png
#EXTINF:1.583333,
648420824772781-index10130.png
#EXTINF:1.416667,
648420824772781-index10131.png
#EXTINF:2.833333,
648420824772781-index10132.png
#EXTINF:1.375000,
648420824772781-index10133.png
#EXTINF:1.375000,
648420824772781-index10134.png
#EXTINF:1.666667,
648420824772781-index10135.png
#EXTINF:2.833333,
648420824772781-index10136.png
#EXTINF:10.000000,
648420824772781-index10137.png
#EXTINF:4.125000,
648420824772781-index10138.png
#EXTINF:4.208333,
648420824772781-index10139.png
#EXTINF:1.791667,
648420824772781-index10140.png
#EXTINF:1.791667,
648420824772781-index10141.png
#EXTINF:3.291667,
648420824772781-index10142.png
#EXTINF:2.291667,
648420824772781-index10143.png
#EXTINF:3.625000,
648420824772781-index10144.png
#EXTINF:3.000000,
648420824772781-index10145.png
#EXTINF:1.833333,
648420824772781-index10146.png
#EXTINF:4.875000,
648420824772781-index10147.png
#EXTINF:1.083333,
648420824772781-index10148.png
#EXTINF:1.000000,
648420824772781-index10149.png
#EXTINF:2.250000,
648420824772781-index10150.png
#EXTINF:3.541667,
648420824772781-index10151.png
#EXTINF:4.791667,
648420824772781-index10152.png
#EXTINF:2.125000,
648420824772781-index10153.png
#EXTINF:4.000000,
648420824772781-index10154.png
#EXTINF:6.208333,
648420824772781-index10155.png
#EXTINF:2.916667,
648420824772781-index10156.png
#EXTINF:1.375000,
648420824772781-index10157.png
#EXTINF:2.041667,
648420824772781-index10158.png
#EXTINF:1.791667,
648420824772781-index10159.png
#EXTINF:3.750000,
648420824772781-index10160.png
#EXTINF:2.083333,
648420824772781-index10161.png
#EXTINF:2.500000,
648420824772781-index10162.png
#EXTINF:2.375000,
648420824772781-index10163.png
#EXTINF:8.833333,
648420824772781-index10164.png
#EXTINF:3.750000,
648420824772781-index10165.png
#EXTINF:6.666667,
648420824772781-index10166.png
#EXTINF:2.500000,
648420824772781-index10167.png
#EXTINF:1.291667,
648420824772781-index10168.png
#EXTINF:4.791667,
648420824772781-index10169.png
#EXTINF:5.000000,
648420824772781-index10170.png
#EXTINF:5.166667,
648420824772781-index10171.png
#EXTINF:3.125000,
648420824772781-index10172.png
#EXTINF:5.208333,
648420824772781-index10173.png
#EXTINF:5.041667,
648420824772781-index10174.png
#EXTINF:8.166667,
648420824772781-index10175.png
#EXTINF:3.666667,
648420824772781-index10176.png
#EXTINF:5.416667,
648420824772781-index10177.png
#EXTINF:4.500000,
648420824772781-index10178.png
#EXTINF:1.708333,
648420824772781-index10179.png
#EXTINF:5.125000,
648420824772781-index10180.png
#EXTINF:7.291667,
648420824772781-index10181.png
#EXTINF:8.666667,
648420824772781-index10182.png
#EXTINF:4.041667,
648420824772781-index10183.png
#EXTINF:2.833333,
648420824772781-index10184.png
#EXTINF:2.333333,
648420824772781-index10185.png
#EXTINF:1.291667,
648420824772781-index10186.png
#EXTINF:1.500000,
648420824772781-index10187.png
#EXTINF:1.083333,
648420824772781-index10188.png
#EXTINF:1.000000,
648420824772781-index10189.png
#EXTINF:4.791667,
648420824772781-index10190.png
#EXTINF:4.208333,
648420824772781-index10191.png
#EXTINF:3.083333,
648420824772781-index10192.png
#EXTINF:5.708333,
648420824772781-index10193.png
#EXTINF:1.083333,
648420824772781-index10194.png
#EXTINF:1.000000,
648420824772781-index10195.png
#EXTINF:10.000000,
648420824772781-index10196.png
#EXTINF:10.000000,
648420824772781-index10197.png
#EXTINF:10.000000,
648420824772781-index10198.png
#EXTINF:10.000000,
648420824772781-index10199.png
#EXTINF:10.000000,
648420824772781-index10200.png
#EXTINF:10.000000,
648420824772781-index10201.png
#EXTINF:10.000000,
648420824772781-index10202.png
#EXTINF:10.000000,
648420824772781-index10203.png
#EXTINF:8.833333,
648420824772781-index10204.png
#EXTINF:3.458333,
648420824772781-index10205.png
#EXTINF:1.416667,
648420824772781-index10206.png
#EXTINF:2.500000,
648420824772781-index10207.png
#EXTINF:3.583333,
648420824772781-index10208.png
#EXTINF:1.708333,
648420824772781-index10209.png
#EXTINF:1.625000,
648420824772781-index10210.png
#EXTINF:1.208333,
648420824772781-index10211.png
#EXTINF:1.458333,
648420824772781-index10212.png
#EXTINF:1.083333,
648420824772781-index10213.png
#EXTINF:1.375000,
648420824772781-index10214.png
#EXTINF:1.791667,
648420824772781-index10215.png
#EXTINF:3.291667,
648420824772781-index10216.png
#EXT-X-ENDLIST
