#EXTM3U
#EXT-X-VERSION:3
#EXT-X-TARGETDURATION:10
#EXT-X-MEDIA-SEQUENCE:10001
#EXTINF:8.400000,
660159297287464-index10001.png
#EXTINF:1.240000,
660159297287464-index10002.png
#EXTINF:4.320000,
660159297287464-index10003.png
#EXTINF:2.040000,
660159297287464-index10004.png
#EXTINF:4.080000,
660159297287464-index10005.png
#EXTINF:5.400000,
660159297287464-index10006.png
#EXTINF:3.520000,
660159297287464-index10007.png
#EXTINF:1.360000,
660159297287464-index10008.png
#EXTINF:3.480000,
660159297287464-index10009.png
#EXTINF:5.680000,
660159297287464-index10010.png
#EXTINF:2.040000,
660159297287464-index10011.png
#EXTINF:1.480000,
660159297287464-index10012.png
#EXTINF:1.360000,
660159297287464-index10013.png
#EXTINF:5.280000,
660159297287464-index10014.png
#EXTINF:2.480000,
660159297287464-index10015.png
#EXTINF:6.800000,
660159297287464-index10016.png
#EXTINF:2.520000,
660159297287464-index10017.png
#EXTINF:2.040000,
660159297287464-index10018.png
#EXTINF:1.760000,
660159297287464-index10019.png
#EXTINF:1.640000,
660159297287464-index10020.png
#EXTINF:4.040000,
660159297287464-index10021.png
#EXTINF:3.800000,
660159297287464-index10022.png
#EXTINF:2.320000,
660159297287464-index10023.png
#EXTINF:3.080000,
660159297287464-index10024.png
#EXTINF:3.000000,
660159297287464-index10025.png
#EXTINF:3.400000,
660159297287464-index10026.png
#EXTINF:1.840000,
660159297287464-index10027.png
#EXTINF:3.080000,
660159297287464-index10028.png
#EXTINF:2.640000,
660159297287464-index10029.png
#EXTINF:3.160000,
660159297287464-index10030.png
#EXTINF:1.760000,
660159297287464-index10031.png
#EXTINF:1.840000,
660159297287464-index10032.png
#EXTINF:1.120000,
660159297287464-index10033.png
#EXTINF:10.000000,
660159297287464-index10034.png
#EXTINF:8.000000,
660159297287464-index10035.png
#EXTINF:3.000000,
660159297287464-index10036.png
#EXTINF:7.720000,
660159297287464-index10037.png
#EXTINF:1.560000,
660159297287464-index10038.png
#EXTINF:2.000000,
660159297287464-index10039.png
#EXTINF:3.160000,
660159297287464-index10040.png
#EXTINF:5.560000,
660159297287464-index10041.png
#EXTINF:1.760000,
660159297287464-index10042.png
#EXTINF:8.400000,
660159297287464-index10043.png
#EXTINF:9.760000,
660159297287464-index10044.png
#EXTINF:3.880000,
660159297287464-index10045.png
#EXTINF:5.720000,
660159297287464-index10046.png
#EXTINF:10.000000,
660159297287464-index10047.png
#EXTINF:3.720000,
660159297287464-index10048.png
#EXTINF:4.440000,
660159297287464-index10049.png
#EXTINF:4.120000,
660159297287464-index10050.png
#EXTINF:9.840000,
660159297287464-index10051.png
#EXTINF:9.960000,
660159297287464-index10052.png
#EXTINF:7.680000,
660159297287464-index10053.png
#EXTINF:4.480000,
660159297287464-index10054.png
#EXTINF:7.000000,
660159297287464-index10055.png
#EXTINF:6.040000,
660159297287464-index10056.png
#EXTINF:10.000000,
660159297287464-index10057.png
#EXTINF:3.840000,
660159297287464-index10058.png
#EXTINF:7.000000,
660159297287464-index10059.png
#EXTINF:5.920000,
660159297287464-index10060.png
#EXTINF:3.360000,
660159297287464-index10061.png
#EXTINF:5.000000,
660159297287464-index10062.png
#EXTINF:10.000000,
660159297287464-index10063.png
#EXTINF:2.480000,
660159297287464-index10064.png
#EXTINF:6.400000,
660159297287464-index10065.png
#EXTINF:4.040000,
660159297287464-index10066.png
#EXTINF:1.960000,
660159297287464-index10067.png
#EXTINF:1.200000,
660159297287464-index10068.png
#EXTINF:1.480000,
660159297287464-index10069.png
#EXTINF:1.880000,
660159297287464-index10070.png
#EXTINF:2.280000,
660159297287464-index10071.png
#EXTINF:2.680000,
660159297287464-index10072.png
#EXTINF:2.880000,
660159297287464-index10073.png
#EXTINF:2.760000,
660159297287464-index10074.png
#EXTINF:4.240000,
660159297287464-index10075.png
#EXTINF:3.800000,
660159297287464-index10076.png
#EXTINF:6.200000,
660159297287464-index10077.png
#EXTINF:3.880000,
660159297287464-index10078.png
#EXTINF:4.000000,
660159297287464-index10079.png
#EXTINF:6.480000,
660159297287464-index10080.png
#EXTINF:4.880000,
660159297287464-index10081.png
#EXTINF:4.480000,
660159297287464-index10082.png
#EXTINF:3.800000,
660159297287464-index10083.png
#EXTINF:4.640000,
660159297287464-index10084.png
#EXTINF:2.760000,
660159297287464-index10085.png
#EXTINF:6.480000,
660159297287464-index10086.png
#EXTINF:4.240000,
660159297287464-index10087.png
#EXTINF:3.640000,
660159297287464-index10088.png
#EXTINF:6.840000,
660159297287464-index10089.png
#EXTINF:1.400000,
660159297287464-index10090.png
#EXTINF:7.440000,
660159297287464-index10091.png
#EXTINF:5.280000,
660159297287464-index10092.png
#EXTINF:2.680000,
660159297287464-index10093.png
#EXTINF:4.560000,
660159297287464-index10094.png
#EXTINF:3.720000,
660159297287464-index10095.png
#EXTINF:3.440000,
660159297287464-index10096.png
#EXTINF:1.560000,
660159297287464-index10097.png
#EXTINF:2.880000,
660159297287464-index10098.png
#EXTINF:3.080000,
660159297287464-index10099.png
#EXTINF:1.280000,
660159297287464-index10100.png
#EXTINF:2.320000,
660159297287464-index10101.png
#EXTINF:5.040000,
660159297287464-index10102.png
#EXTINF:7.840000,
660159297287464-index10103.png
#EXTINF:1.680000,
660159297287464-index10104.png
#EXTINF:6.160000,
660159297287464-index10105.png
#EXTINF:7.760000,
660159297287464-index10106.png
#EXTINF:3.520000,
660159297287464-index10107.png
#EXTINF:3.200000,
660159297287464-index10108.png
#EXTINF:7.280000,
660159297287464-index10109.png
#EXTINF:5.360000,
660159297287464-index10110.png
#EXTINF:4.240000,
660159297287464-index10111.png
#EXTINF:2.320000,
660159297287464-index10112.png
#EXTINF:9.080000,
660159297287464-index10113.png
#EXTINF:4.120000,
660159297287464-index10114.png
#EXTINF:3.360000,
660159297287464-index10115.png
#EXTINF:2.040000,
660159297287464-index10116.png
#EXTINF:2.640000,
660159297287464-index10117.png
#EXTINF:2.360000,
660159297287464-index10118.png
#EXTINF:3.080000,
660159297287464-index10119.png
#EXTINF:2.720000,
660159297287464-index10120.png
#EXTINF:2.520000,
660159297287464-index10121.png
#EXTINF:3.880000,
660159297287464-index10122.png
#EXTINF:2.160000,
660159297287464-index10123.png
#EXTINF:3.200000,
660159297287464-index10124.png
#EXTINF:4.480000,
660159297287464-index10125.png
#EXTINF:6.200000,
660159297287464-index10126.png
#EXTINF:4.560000,
660159297287464-index10127.png
#EXTINF:1.680000,
660159297287464-index10128.png
#EXTINF:3.160000,
660159297287464-index10129.png
#EXTINF:3.440000,
660159297287464-index10130.png
#EXTINF:1.720000,
660159297287464-index10131.png
#EXTINF:1.120000,
660159297287464-index10132.png
#EXTINF:1.800000,
660159297287464-index10133.png
#EXTINF:7.840000,
660159297287464-index10134.png
#EXTINF:8.240000,
660159297287464-index10135.png
#EXTINF:4.360000,
660159297287464-index10136.png
#EXTINF:1.840000,
660159297287464-index10137.png
#EXTINF:2.880000,
660159297287464-index10138.png
#EXTINF:4.280000,
660159297287464-index10139.png
#EXTINF:10.000000,
660159297287464-index10140.png
#EXTINF:3.720000,
660159297287464-index10141.png
#EXTINF:5.360000,
660159297287464-index10142.png
#EXTINF:4.720000,
660159297287464-index10143.png
#EXTINF:10.000000,
660159297287464-index10144.png
#EXTINF:3.480000,
660159297287464-index10145.png
#EXTINF:2.760000,
660159297287464-index10146.png
#EXTINF:1.360000,
660159297287464-index10147.png
#EXTINF:1.680000,
660159297287464-index10148.png
#EXTINF:1.360000,
660159297287464-index10149.png
#EXTINF:1.480000,
660159297287464-index10150.png
#EXTINF:5.120000,
660159297287464-index10151.png
#EXTINF:4.000000,
660159297287464-index10152.png
#EXTINF:8.520000,
660159297287464-index10153.png
#EXTINF:4.120000,
660159297287464-index10154.png
#EXTINF:3.760000,
660159297287464-index10155.png
#EXTINF:2.440000,
660159297287464-index10156.png
#EXTINF:3.000000,
660159297287464-index10157.png
#EXTINF:2.600000,
660159297287464-index10158.png
#EXTINF:1.840000,
660159297287464-index10159.png
#EXTINF:2.760000,
660159297287464-index10160.png
#EXTINF:1.080000,
660159297287464-index10161.png
#EXTINF:1.440000,
660159297287464-index10162.png
#EXTINF:1.320000,
660159297287464-index10163.png
#EXTINF:2.640000,
660159297287464-index10164.png
#EXTINF:1.600000,
660159297287464-index10165.png
#EXTINF:5.000000,
660159297287464-index10166.png
#EXTINF:6.200000,
660159297287464-index10167.png
#EXTINF:3.320000,
660159297287464-index10168.png
#EXTINF:10.000000,
660159297287464-index10169.png
#EXTINF:4.280000,
660159297287464-index10170.png
#EXTINF:7.640000,
660159297287464-index10171.png
#EXTINF:4.200000,
660159297287464-index10172.png
#EXTINF:4.600000,
660159297287464-index10173.png
#EXTINF:3.840000,
660159297287464-index10174.png
#EXTINF:2.200000,
660159297287464-index10175.png
#EXTINF:1.880000,
660159297287464-index10176.png
#EXTINF:10.000000,
660159297287464-index10177.png
#EXTINF:1.720000,
660159297287464-index10178.png
#EXTINF:9.520000,
660159297287464-index10179.png
#EXTINF:2.960000,
660159297287464-index10180.png
#EXTINF:5.320000,
660159297287464-index10181.png
#EXTINF:4.800000,
660159297287464-index10182.png
#EXTINF:9.840000,
660159297287464-index10183.png
#EXTINF:9.480000,
660159297287464-index10184.png
#EXTINF:3.280000,
660159297287464-index10185.png
#EXTINF:1.440000,
660159297287464-index10186.png
#EXTINF:2.480000,
660159297287464-index10187.png
#EXTINF:7.440000,
660159297287464-index10188.png
#EXTINF:4.680000,
660159297287464-index10189.png
#EXTINF:6.440000,
660159297287464-index10190.png
#EXTINF:6.080000,
660159297287464-index10191.png
#EXTINF:2.280000,
660159297287464-index10192.png
#EXTINF:4.400000,
660159297287464-index10193.png
#EXTINF:6.160000,
660159297287464-index10194.png
#EXTINF:4.080000,
660159297287464-index10195.png
#EXTINF:3.040000,
660159297287464-index10196.png
#EXTINF:3.680000,
660159297287464-index10197.png
#EXTINF:7.720000,
660159297287464-index10198.png
#EXTINF:2.080000,
660159297287464-index10199.png
#EXTINF:6.000000,
660159297287464-index10200.png
#EXTINF:9.320000,
660159297287464-index10201.png
#EXTINF:6.680000,
660159297287464-index10202.png
#EXTINF:2.800000,
660159297287464-index10203.png
#EXTINF:2.200000,
660159297287464-index10204.png
#EXTINF:8.600000,
660159297287464-index10205.png
#EXTINF:6.200000,
660159297287464-index10206.png
#EXTINF:2.080000,
660159297287464-index10207.png
#EXTINF:10.000000,
660159297287464-index10208.png
#EXTINF:2.000000,
660159297287464-index10209.png
#EXTINF:2.200000,
660159297287464-index10210.png
#EXTINF:1.600000,
660159297287464-index10211.png
#EXTINF:2.440000,
660159297287464-index10212.png
#EXTINF:5.680000,
660159297287464-index10213.png
#EXTINF:5.240000,
660159297287464-index10214.png
#EXTINF:3.320000,
660159297287464-index10215.png
#EXTINF:2.720000,
660159297287464-index10216.png
#EXTINF:5.800000,
660159297287464-index10217.png
#EXTINF:6.600000,
660159297287464-index10218.png
#EXTINF:7.360000,
660159297287464-index10219.png
#EXTINF:4.320000,
660159297287464-index10220.png
#EXTINF:6.280000,
660159297287464-index10221.png
#EXTINF:5.280000,
660159297287464-index10222.png
#EXTINF:2.280000,
660159297287464-index10223.png
#EXTINF:3.800000,
660159297287464-index10224.png
#EXTINF:4.440000,
660159297287464-index10225.png
#EXTINF:3.960000,
660159297287464-index10226.png
#EXTINF:8.200000,
660159297287464-index10227.png
#EXTINF:6.360000,
660159297287464-index10228.png
#EXTINF:2.080000,
660159297287464-index10229.png
#EXTINF:8.640000,
660159297287464-index10230.png
#EXTINF:7.960000,
660159297287464-index10231.png
#EXTINF:8.560000,
660159297287464-index10232.png
#EXTINF:2.080000,
660159297287464-index10233.png
#EXTINF:5.200000,
660159297287464-index10234.png
#EXTINF:2.480000,
660159297287464-index10235.png
#EXTINF:3.720000,
660159297287464-index10236.png
#EXTINF:2.160000,
660159297287464-index10237.png
#EXTINF:3.160000,
660159297287464-index10238.png
#EXTINF:2.800000,
660159297287464-index10239.png
#EXTINF:3.000000,
660159297287464-index10240.png
#EXTINF:1.920000,
660159297287464-index10241.png
#EXTINF:1.920000,
660159297287464-index10242.png
#EXTINF:1.800000,
660159297287464-index10243.png
#EXTINF:1.480000,
660159297287464-index10244.png
#EXTINF:2.120000,
660159297287464-index10245.png
#EXTINF:3.040000,
660159297287464-index10246.png
#EXTINF:2.520000,
660159297287464-index10247.png
#EXTINF:1.000000,
660159297287464-index10248.png
#EXTINF:1.520000,
660159297287464-index10249.png
#EXTINF:1.920000,
660159297287464-index10250.png
#EXTINF:1.760000,
660159297287464-index10251.png
#EXTINF:1.560000,
660159297287464-index10252.png
#EXTINF:1.120000,
660159297287464-index10253.png
#EXTINF:2.040000,
660159297287464-index10254.png
#EXTINF:1.120000,
660159297287464-index10255.png
#EXTINF:1.040000,
660159297287464-index10256.png
#EXTINF:5.680000,
660159297287464-index10257.png
#EXTINF:1.880000,
660159297287464-index10258.png
#EXTINF:1.200000,
660159297287464-index10259.png
#EXTINF:1.640000,
660159297287464-index10260.png
#EXTINF:2.640000,
660159297287464-index10261.png
#EXTINF:1.120000,
660159297287464-index10262.png
#EXTINF:1.200000,
660159297287464-index10263.png
#EXTINF:2.480000,
660159297287464-index10264.png
#EXTINF:1.640000,
660159297287464-index10265.png
#EXTINF:2.280000,
660159297287464-index10266.png
#EXTINF:2.240000,
660159297287464-index10267.png
#EXTINF:2.920000,
660159297287464-index10268.png
#EXTINF:1.520000,
660159297287464-index10269.png
#EXTINF:2.360000,
660159297287464-index10270.png
#EXTINF:1.680000,
660159297287464-index10271.png
#EXTINF:1.000000,
660159297287464-index10272.png
#EXTINF:1.280000,
660159297287464-index10273.png
#EXTINF:1.400000,
660159297287464-index10274.png
#EXTINF:2.240000,
660159297287464-index10275.png
#EXTINF:1.560000,
660159297287464-index10276.png
#EXTINF:1.360000,
660159297287464-index10277.png
#EXTINF:1.400000,
660159297287464-index10278.png
#EXTINF:1.320000,
660159297287464-index10279.png
#EXTINF:1.480000,
660159297287464-index10280.png
#EXTINF:2.000000,
660159297287464-index10281.png
#EXTINF:4.040000,
660159297287464-index10282.png
#EXTINF:5.360000,
660159297287464-index10283.png
#EXTINF:1.680000,
660159297287464-index10284.png
#EXTINF:1.720000,
660159297287464-index10285.png
#EXTINF:4.120000,
660159297287464-index10286.png
#EXTINF:2.040000,
660159297287464-index10287.png
#EXTINF:2.960000,
660159297287464-index10288.png
#EXTINF:2.560000,
660159297287464-index10289.png
#EXTINF:3.160000,
660159297287464-index10290.png
#EXTINF:4.840000,
660159297287464-index10291.png
#EXTINF:1.200000,
660159297287464-index10292.png
#EXTINF:2.320000,
660159297287464-index10293.png
#EXTINF:2.000000,
660159297287464-index10294.png
#EXTINF:3.440000,
660159297287464-index10295.png
#EXTINF:1.840000,
660159297287464-index10296.png
#EXTINF:7.840000,
660159297287464-index10297.png
#EXTINF:6.800000,
660159297287464-index10298.png
#EXTINF:2.440000,
660159297287464-index10299.png
#EXTINF:5.400000,
660159297287464-index10300.png
#EXTINF:4.080000,
660159297287464-index10301.png
#EXTINF:3.080000,
660159297287464-index10302.png
#EXTINF:2.080000,
660159297287464-index10303.png
#EXTINF:3.840000,
660159297287464-index10304.png
#EXTINF:4.840000,
660159297287464-index10305.png
#EXTINF:2.360000,
660159297287464-index10306.png
#EXTINF:9.000000,
660159297287464-index10307.png
#EXTINF:2.560000,
660159297287464-index10308.png
#EXTINF:4.840000,
660159297287464-index10309.png
#EXTINF:2.880000,
660159297287464-index10310.png
#EXTINF:1.880000,
660159297287464-index10311.png
#EXTINF:3.000000,
660159297287464-index10312.png
#EXTINF:4.960000,
660159297287464-index10313.png
#EXTINF:3.120000,
660159297287464-index10314.png
#EXTINF:6.280000,
660159297287464-index10315.png
#EXTINF:4.560000,
660159297287464-index10316.png
#EXTINF:3.520000,
660159297287464-index10317.png
#EXTINF:4.720000,
660159297287464-index10318.png
#EXTINF:2.480000,
660159297287464-index10319.png
#EXTINF:6.000000,
660159297287464-index10320.png
#EXTINF:3.920000,
660159297287464-index10321.png
#EXTINF:1.920000,
660159297287464-index10322.png
#EXTINF:2.560000,
660159297287464-index10323.png
#EXTINF:6.000000,
660159297287464-index10324.png
#EXTINF:4.080000,
660159297287464-index10325.png
#EXTINF:4.760000,
660159297287464-index10326.png
#EXTINF:2.600000,
660159297287464-index10327.png
#EXTINF:4.640000,
660159297287464-index10328.png
#EXTINF:4.600000,
660159297287464-index10329.png
#EXTINF:4.240000,
660159297287464-index10330.png
#EXTINF:3.480000,
660159297287464-index10331.png
#EXTINF:2.880000,
660159297287464-index10332.png
#EXTINF:2.120000,
660159297287464-index10333.png
#EXTINF:2.880000,
660159297287464-index10334.png
#EXTINF:4.560000,
660159297287464-index10335.png
#EXTINF:5.960000,
660159297287464-index10336.png
#EXTINF:7.760000,
660159297287464-index10337.png
#EXTINF:2.480000,
660159297287464-index10338.png
#EXTINF:1.960000,
660159297287464-index10339.png
#EXTINF:6.880000,
660159297287464-index10340.png
#EXTINF:2.440000,
660159297287464-index10341.png
#EXTINF:1.560000,
660159297287464-index10342.png
#EXTINF:1.200000,
660159297287464-index10343.png
#EXTINF:2.320000,
660159297287464-index10344.png
#EXTINF:3.600000,
660159297287464-index10345.png
#EXTINF:3.040000,
660159297287464-index10346.png
#EXTINF:1.880000,
660159297287464-index10347.png
#EXTINF:2.720000,
660159297287464-index10348.png
#EXTINF:1.240000,
660159297287464-index10349.png
#EXTINF:1.120000,
660159297287464-index10350.png
#EXTINF:3.960000,
660159297287464-index10351.png
#EXTINF:1.960000,
660159297287464-index10352.png
#EXTINF:10.000000,
660159297287464-index10353.png
#EXTINF:5.520000,
660159297287464-index10354.png
#EXTINF:5.040000,
660159297287464-index10355.png
#EXTINF:6.240000,
660159297287464-index10356.png
#EXTINF:4.400000,
660159297287464-index10357.png
#EXTINF:3.800000,
660159297287464-index10358.png
#EXTINF:4.520000,
660159297287464-index10359.png
#EXTINF:5.120000,
660159297287464-index10360.png
#EXTINF:1.080000,
660159297287464-index10361.png
#EXTINF:7.440000,
660159297287464-index10362.png
#EXTINF:6.240000,
660159297287464-index10363.png
#EXTINF:6.440000,
660159297287464-index10364.png
#EXTINF:9.560000,
660159297287464-index10365.png
#EXTINF:8.720000,
660159297287464-index10366.png
#EXTINF:5.120000,
660159297287464-index10367.png
#EXTINF:2.000000,
660159297287464-index10368.png
#EXTINF:7.200000,
660159297287464-index10369.png
#EXTINF:1.560000,
660159297287464-index10370.png
#EXTINF:6.080000,
660159297287464-index10371.png
#EXTINF:1.680000,
660159297287464-index10372.png
#EXTINF:5.640000,
660159297287464-index10373.png
#EXTINF:7.200000,
660159297287464-index10374.png
#EXTINF:1.800000,
660159297287464-index10375.png
#EXTINF:5.720000,
660159297287464-index10376.png
#EXTINF:8.200000,
660159297287464-index10377.png
#EXTINF:5.720000,
660159297287464-index10378.png
#EXTINF:3.440000,
660159297287464-index10379.png
#EXTINF:1.680000,
660159297287464-index10380.png
#EXTINF:6.040000,
660159297287464-index10381.png
#EXTINF:2.720000,
660159297287464-index10382.png
#EXTINF:2.120000,
660159297287464-index10383.png
#EXTINF:1.840000,
660159297287464-index10384.png
#EXTINF:3.600000,
660159297287464-index10385.png
#EXTINF:3.520000,
660159297287464-index10386.png
#EXTINF:4.080000,
660159297287464-index10387.png
#EXTINF:4.920000,
660159297287464-index10388.png
#EXTINF:7.560000,
660159297287464-index10389.png
#EXTINF:3.120000,
660159297287464-index10390.png
#EXTINF:3.280000,
660159297287464-index10391.png
#EXTINF:5.760000,
660159297287464-index10392.png
#EXTINF:3.040000,
660159297287464-index10393.png
#EXTINF:3.160000,
660159297287464-index10394.png
#EXTINF:3.360000,
660159297287464-index10395.png
#EXTINF:1.320000,
660159297287464-index10396.png
#EXTINF:5.840000,
660159297287464-index10397.png
#EXTINF:1.440000,
660159297287464-index10398.png
#EXTINF:1.440000,
660159297287464-index10399.png
#EXTINF:5.640000,
660159297287464-index10400.png
#EXTINF:3.240000,
660159297287464-index10401.png
#EXTINF:4.040000,
660159297287464-index10402.png
#EXTINF:4.520000,
660159297287464-index10403.png
#EXTINF:2.800000,
660159297287464-index10404.png
#EXTINF:4.840000,
660159297287464-index10405.png
#EXTINF:2.200000,
660159297287464-index10406.png
#EXTINF:4.040000,
660159297287464-index10407.png
#EXTINF:7.040000,
660159297287464-index10408.png
#EXTINF:4.800000,
660159297287464-index10409.png
#EXTINF:3.760000,
660159297287464-index10410.png
#EXTINF:6.640000,
660159297287464-index10411.png
#EXTINF:3.320000,
660159297287464-index10412.png
#EXTINF:6.600000,
660159297287464-index10413.png
#EXTINF:2.800000,
660159297287464-index10414.png
#EXTINF:3.520000,
660159297287464-index10415.png
#EXTINF:1.880000,
660159297287464-index10416.png
#EXTINF:4.000000,
660159297287464-index10417.png
#EXTINF:5.760000,
660159297287464-index10418.png
#EXTINF:6.360000,
660159297287464-index10419.png
#EXTINF:5.000000,
660159297287464-index10420.png
#EXTINF:1.320000,
660159297287464-index10421.png
#EXTINF:7.280000,
660159297287464-index10422.png
#EXTINF:5.880000,
660159297287464-index10423.png
#EXTINF:4.240000,
660159297287464-index10424.png
#EXTINF:2.360000,
660159297287464-index10425.png
#EXTINF:4.360000,
660159297287464-index10426.png
#EXTINF:4.200000,
660159297287464-index10427.png
#EXTINF:10.000000,
660159297287464-index10428.png
#EXTINF:10.000000,
660159297287464-index10429.png
#EXTINF:5.000000,
660159297287464-index10430.png
#EXTINF:4.320000,
660159297287464-index10431.png
#EXTINF:7.280000,
660159297287464-index10432.png
#EXTINF:8.920000,
660159297287464-index10433.png
#EXTINF:6.360000,
660159297287464-index10434.png
#EXTINF:6.000000,
660159297287464-index10435.png
#EXTINF:6.480000,
660159297287464-index10436.png
#EXTINF:6.480000,
660159297287464-index10437.png
#EXTINF:8.200000,
660159297287464-index10438.png
#EXTINF:7.720000,
660159297287464-index10439.png
#EXTINF:3.400000,
660159297287464-index10440.png
#EXTINF:4.000000,
660159297287464-index10441.png
#EXTINF:7.400000,
660159297287464-index10442.png
#EXTINF:3.320000,
660159297287464-index10443.png
#EXTINF:1.800000,
660159297287464-index10444.png
#EXTINF:5.240000,
660159297287464-index10445.png
#EXTINF:4.800000,
660159297287464-index10446.png
#EXTINF:1.640000,
660159297287464-index10447.png
#EXTINF:8.600000,
660159297287464-index10448.png
#EXTINF:5.760000,
660159297287464-index10449.png
#EXTINF:2.040000,
660159297287464-index10450.png
#EXTINF:1.640000,
660159297287464-index10451.png
#EXTINF:6.240000,
660159297287464-index10452.png
#EXTINF:3.640000,
660159297287464-index10453.png
#EXTINF:2.920000,
660159297287464-index10454.png
#EXTINF:2.760000,
660159297287464-index10455.png
#EXTINF:1.800000,
660159297287464-index10456.png
#EXTINF:2.120000,
660159297287464-index10457.png
#EXTINF:2.800000,
660159297287464-index10458.png
#EXTINF:3.040000,
660159297287464-index10459.png
#EXTINF:5.040000,
660159297287464-index10460.png
#EXTINF:7.840000,
660159297287464-index10461.png
#EXTINF:8.320000,
660159297287464-index10462.png
#EXTINF:10.000000,
660159297287464-index10463.png
#EXTINF:8.760000,
660159297287464-index10464.png
#EXTINF:5.480000,
660159297287464-index10465.png
#EXTINF:5.160000,
660159297287464-index10466.png
#EXTINF:5.280000,
660159297287464-index10467.png
#EXTINF:3.880000,
660159297287464-index10468.png
#EXTINF:2.680000,
660159297287464-index10469.png
#EXTINF:4.040000,
660159297287464-index10470.png
#EXTINF:2.080000,
660159297287464-index10471.png
#EXTINF:1.400000,
660159297287464-index10472.png
#EXTINF:4.040000,
660159297287464-index10473.png
#EXTINF:4.240000,
660159297287464-index10474.png
#EXTINF:4.520000,
660159297287464-index10475.png
#EXTINF:2.000000,
660159297287464-index10476.png
#EXTINF:7.240000,
660159297287464-index10477.png
#EXTINF:3.720000,
660159297287464-index10478.png
#EXTINF:6.720000,
660159297287464-index10479.png
#EXTINF:1.920000,
660159297287464-index10480.png
#EXTINF:4.440000,
660159297287464-index10481.png
#EXTINF:5.400000,
660159297287464-index10482.png
#EXTINF:3.480000,
660159297287464-index10483.png
#EXTINF:5.920000,
660159297287464-index10484.png
#EXTINF:1.640000,
660159297287464-index10485.png
#EXTINF:6.520000,
660159297287464-index10486.png
#EXTINF:7.360000,
660159297287464-index10487.png
#EXTINF:4.080000,
660159297287464-index10488.png
#EXTINF:2.800000,
660159297287464-index10489.png
#EXTINF:3.400000,
660159297287464-index10490.png
#EXTINF:4.400000,
660159297287464-index10491.png
#EXTINF:1.960000,
660159297287464-index10492.png
#EXTINF:10.000000,
660159297287464-index10493.png
#EXTINF:2.080000,
660159297287464-index10494.png
#EXTINF:4.880000,
660159297287464-index10495.png
#EXTINF:6.760000,
660159297287464-index10496.png
#EXTINF:7.200000,
660159297287464-index10497.png
#EXTINF:9.720000,
660159297287464-index10498.png
#EXTINF:6.240000,
660159297287464-index10499.png
#EXTINF:2.040000,
660159297287464-index10500.png
#EXTINF:2.920000,
660159297287464-index10501.png
#EXTINF:3.360000,
660159297287464-index10502.png
#EXTINF:1.800000,
660159297287464-index10503.png
#EXTINF:5.080000,
660159297287464-index10504.png
#EXTINF:1.960000,
660159297287464-index10505.png
#EXTINF:2.280000,
660159297287464-index10506.png
#EXTINF:2.080000,
660159297287464-index10507.png
#EXTINF:1.360000,
660159297287464-index10508.png
#EXTINF:3.440000,
660159297287464-index10509.png
#EXTINF:1.400000,
660159297287464-index10510.png
#EXTINF:2.480000,
660159297287464-index10511.png
#EXTINF:6.240000,
660159297287464-index10512.png
#EXTINF:2.120000,
660159297287464-index10513.png
#EXTINF:2.280000,
660159297287464-index10514.png
#EXTINF:2.800000,
660159297287464-index10515.png
#EXTINF:1.800000,
660159297287464-index10516.png
#EXTINF:1.800000,
660159297287464-index10517.png
#EXTINF:2.040000,
660159297287464-index10518.png
#EXTINF:1.680000,
660159297287464-index10519.png
#EXTINF:1.320000,
660159297287464-index10520.png
#EXTINF:3.720000,
660159297287464-index10521.png
#EXTINF:6.080000,
660159297287464-index10522.png
#EXTINF:2.840000,
660159297287464-index10523.png
#EXTINF:8.960000,
660159297287464-index10524.png
#EXTINF:1.040000,
660159297287464-index10525.png
#EXTINF:2.520000,
660159297287464-index10526.png
#EXTINF:3.280000,
660159297287464-index10527.png
#EXTINF:1.440000,
660159297287464-index10528.png
#EXTINF:1.720000,
660159297287464-index10529.png
#EXTINF:1.200000,
660159297287464-index10530.png
#EXTINF:1.720000,
660159297287464-index10531.png
#EXTINF:1.040000,
660159297287464-index10532.png
#EXTINF:1.240000,
660159297287464-index10533.png
#EXTINF:2.400000,
660159297287464-index10534.png
#EXTINF:2.920000,
660159297287464-index10535.png
#EXTINF:1.800000,
660159297287464-index10536.png
#EXTINF:1.360000,
660159297287464-index10537.png
#EXTINF:5.120000,
660159297287464-index10538.png
#EXTINF:1.960000,
660159297287464-index10539.png
#EXTINF:3.720000,
660159297287464-index10540.png
#EXTINF:2.160000,
660159297287464-index10541.png
#EXTINF:2.600000,
660159297287464-index10542.png
#EXTINF:5.720000,
660159297287464-index10543.png
#EXTINF:2.840000,
660159297287464-index10544.png
#EXTINF:5.240000,
660159297287464-index10545.png
#EXTINF:1.200000,
660159297287464-index10546.png
#EXTINF:2.880000,
660159297287464-index10547.png
#EXTINF:1.200000,
660159297287464-index10548.png
#EXTINF:4.640000,
660159297287464-index10549.png
#EXTINF:8.080000,
660159297287464-index10550.png
#EXTINF:1.760000,
660159297287464-index10551.png
#EXTINF:1.720000,
660159297287464-index10552.png
#EXTINF:1.720000,
660159297287464-index10553.png
#EXTINF:2.960000,
660159297287464-index10554.png
#EXTINF:4.040000,
660159297287464-index10555.png
#EXTINF:1.040000,
660159297287464-index10556.png
#EXTINF:1.680000,
660159297287464-index10557.png
#EXTINF:6.080000,
660159297287464-index10558.png
#EXTINF:5.240000,
660159297287464-index10559.png
#EXTINF:3.800000,
660159297287464-index10560.png
#EXTINF:3.080000,
660159297287464-index10561.png
#EXTINF:4.320000,
660159297287464-index10562.png
#EXTINF:2.280000,
660159297287464-index10563.png
#EXTINF:4.360000,
660159297287464-index10564.png
#EXTINF:10.000000,
660159297287464-index10565.png
#EXTINF:3.920000,
660159297287464-index10566.png
#EXTINF:4.000000,
660159297287464-index10567.png
#EXTINF:7.520000,
660159297287464-index10568.png
#EXTINF:5.640000,
660159297287464-index10569.png
#EXTINF:4.600000,
660159297287464-index10570.png
#EXTINF:3.920000,
660159297287464-index10571.png
#EXTINF:3.920000,
660159297287464-index10572.png
#EXTINF:3.320000,
660159297287464-index10573.png
#EXTINF:3.120000,
660159297287464-index10574.png
#EXTINF:3.720000,
660159297287464-index10575.png
#EXTINF:4.560000,
660159297287464-index10576.png
#EXTINF:4.480000,
660159297287464-index10577.png
#EXTINF:5.360000,
660159297287464-index10578.png
#EXTINF:6.080000,
660159297287464-index10579.png
#EXTINF:5.560000,
660159297287464-index10580.png
#EXTINF:5.160000,
660159297287464-index10581.png
#EXTINF:3.480000,
660159297287464-index10582.png
#EXTINF:3.440000,
660159297287464-index10583.png
#EXTINF:5.360000,
660159297287464-index10584.png
#EXTINF:5.440000,
660159297287464-index10585.png
#EXTINF:5.000000,
660159297287464-index10586.png
#EXTINF:3.400000,
660159297287464-index10587.png
#EXTINF:3.720000,
660159297287464-index10588.png
#EXTINF:6.360000,
660159297287464-index10589.png
#EXTINF:7.320000,
660159297287464-index10590.png
#EXTINF:2.800000,
660159297287464-index10591.png
#EXTINF:10.000000,
660159297287464-index10592.png
#EXTINF:10.000000,
660159297287464-index10593.png
#EXTINF:5.720000,
660159297287464-index10594.png
#EXT-X-ENDLIST
