#EXTM3U
#EXT-X-VERSION:3
#EXT-X-TARGETDURATION:11
#EXT-X-MEDIA-SEQUENCE:10001
#EXTINF:4.253400,
665243848330444-index10001.png
#EXTINF:5.504400,
665243848330444-index10002.png
#EXTINF:5.045700,
665243848330444-index10003.png
#EXTINF:10.425000,
665243848330444-index10004.png
#EXTINF:8.840400,
665243848330444-index10005.png
#EXTINF:7.506000,
665243848330444-index10006.png
#EXTINF:7.756200,
665243848330444-index10007.png
#EXTINF:5.879700,
665243848330444-index10008.png
#EXTINF:8.256600,
665243848330444-index10009.png
#EXTINF:10.425000,
665243848330444-index10010.png
#EXTINF:9.257400,
665243848330444-index10011.png
#EXTINF:9.215700,
665243848330444-index10012.png
#EXTINF:9.757800,
665243848330444-index10013.png
#EXTINF:4.712100,
665243848330444-index10014.png
#EXTINF:10.425000,
665243848330444-index10015.png
#EXTINF:3.836400,
665243848330444-index10016.png
#EXTINF:5.004000,
665243848330444-index10017.png
#EXTINF:8.882100,
665243848330444-index10018.png
#EXTINF:6.421800,
665243848330444-index10019.png
#EXTINF:10.425000,
665243848330444-index10020.png
#EXTINF:10.425000,
665243848330444-index10021.png
#EXTINF:6.755400,
665243848330444-index10022.png
#EXTINF:5.879700,
665243848330444-index10023.png
#EXTINF:8.631900,
665243848330444-index10024.png
#EXTINF:9.132300,
665243848330444-index10025.png
#EXTINF:10.425000,
665243848330444-index10026.png
#EXTINF:7.089000,
665243848330444-index10027.png
#EXTINF:10.425000,
665243848330444-index10028.png
#EXTINF:6.838800,
665243848330444-index10029.png
#EXTINF:8.131500,
665243848330444-index10030.png
#EXTINF:10.425000,
665243848330444-index10031.png
#EXTINF:10.425000,
665243848330444-index10032.png
#EXTINF:10.425000,
665243848330444-index10033.png
#EXTINF:10.425000,
665243848330444-index10034.png
#EXTINF:10.425000,
665243848330444-index10035.png
#EXTINF:4.545300,
665243848330444-index10036.png
#EXTINF:5.254200,
665243848330444-index10037.png
#EXTINF:7.130700,
665243848330444-index10038.png
#EXTINF:7.506000,
665243848330444-index10039.png
#EXTINF:10.425000,
665243848330444-index10040.png
#EXTINF:8.089800,
665243848330444-index10041.png
#EXTINF:8.006400,
665243848330444-index10042.png
#EXTINF:10.425000,
665243848330444-index10043.png
#EXTINF:10.425000,
665243848330444-index10044.png
#EXTINF:10.425000,
665243848330444-index10045.png
#EXTINF:10.425000,
665243848330444-index10046.png
#EXTINF:10.425000,
665243848330444-index10047.png
#EXTINF:10.425000,
665243848330444-index10048.png
#EXTINF:10.341600,
665243848330444-index10049.png
#EXTINF:6.755400,
665243848330444-index10050.png
#EXTINF:8.882100,
665243848330444-index10051.png
#EXTINF:7.506000,
665243848330444-index10052.png
#EXTINF:10.133100,
665243848330444-index10053.png
#EXTINF:10.425000,
665243848330444-index10054.png
#EXTINF:10.425000,
665243848330444-index10055.png
#EXTINF:8.423400,
665243848330444-index10056.png
#EXTINF:2.502000,
665243848330444-index10057.png
#EXTINF:10.425000,
665243848330444-index10058.png
#EXTINF:5.963100,
665243848330444-index10059.png
#EXTINF:8.631900,
665243848330444-index10060.png
#EXTINF:6.380100,
665243848330444-index10061.png
#EXTINF:10.425000,
665243848330444-index10062.png
#EXTINF:4.837200,
665243848330444-index10063.png
#EXTINF:2.627100,
665243848330444-index10064.png
#EXTINF:10.425000,
665243848330444-index10065.png
#EXTINF:9.340800,
665243848330444-index10066.png
#EXTINF:10.425000,
665243848330444-index10067.png
#EXTINF:10.425000,
665243848330444-index10068.png
#EXTINF:10.425000,
665243848330444-index10069.png
#EXTINF:10.425000,
665243848330444-index10070.png
#EXTINF:10.425000,
665243848330444-index10071.png
#EXTINF:10.425000,
665243848330444-index10072.png
#EXTINF:10.425000,
665243848330444-index10073.png
#EXTINF:10.425000,
665243848330444-index10074.png
#EXTINF:10.425000,
665243848330444-index10075.png
#EXTINF:6.880500,
665243848330444-index10076.png
#EXTINF:10.425000,
665243848330444-index10077.png
#EXTINF:9.716100,
665243848330444-index10078.png
#EXTINF:8.006400,
665243848330444-index10079.png
#EXTINF:6.004800,
665243848330444-index10080.png
#EXTINF:9.132300,
665243848330444-index10081.png
#EXTINF:10.425000,
665243848330444-index10082.png
#EXTINF:10.425000,
665243848330444-index10083.png
#EXTINF:10.425000,
665243848330444-index10084.png
#EXTINF:8.381700,
665243848330444-index10085.png
#EXTINF:10.425000,
665243848330444-index10086.png
#EXTINF:10.425000,
665243848330444-index10087.png
#EXTINF:10.425000,
665243848330444-index10088.png
#EXTINF:10.133100,
665243848330444-index10089.png
#EXTINF:8.757000,
665243848330444-index10090.png
#EXTINF:10.425000,
665243848330444-index10091.png
#EXTINF:10.425000,
665243848330444-index10092.png
#EXTINF:10.425000,
665243848330444-index10093.png
#EXTINF:10.341600,
665243848330444-index10094.png
#EXTINF:10.425000,
665243848330444-index10095.png
#EXTINF:10.425000,
665243848330444-index10096.png
#EXTINF:10.425000,
665243848330444-index10097.png
#EXTINF:10.425000,
665243848330444-index10098.png
#EXTINF:6.088200,
665243848330444-index10099.png
#EXTINF:5.879700,
665243848330444-index10100.png
#EXTINF:10.425000,
665243848330444-index10101.png
#EXTINF:10.425000,
665243848330444-index10102.png
#EXTINF:10.425000,
665243848330444-index10103.png
#EXTINF:7.380900,
665243848330444-index10104.png
#EXTINF:10.425000,
665243848330444-index10105.png
#EXTINF:10.425000,
665243848330444-index10106.png
#EXTINF:10.425000,
665243848330444-index10107.png
#EXTINF:10.425000,
665243848330444-index10108.png
#EXTINF:10.425000,
665243848330444-index10109.png
#EXTINF:10.425000,
665243848330444-index10110.png
#EXTINF:10.425000,
665243848330444-index10111.png
#EXTINF:7.089000,
665243848330444-index10112.png
#EXTINF:10.133100,
665243848330444-index10113.png
#EXTINF:10.425000,
665243848330444-index10114.png
#EXTINF:4.461900,
665243848330444-index10115.png
#EXTINF:10.425000,
665243848330444-index10116.png
#EXTINF:10.425000,
665243848330444-index10117.png
#EXTINF:10.425000,
665243848330444-index10118.png
#EXTINF:10.425000,
665243848330444-index10119.png
#EXTINF:8.965500,
665243848330444-index10120.png
#EXTINF:10.425000,
665243848330444-index10121.png
#EXTINF:10.425000,
665243848330444-index10122.png
#EXTINF:10.425000,
665243848330444-index10123.png
#EXTINF:10.425000,
665243848330444-index10124.png
#EXTINF:10.425000,
665243848330444-index10125.png
#EXTINF:10.425000,
665243848330444-index10126.png
#EXTINF:10.425000,
665243848330444-index10127.png
#EXTINF:10.425000,
665243848330444-index10128.png
#EXTINF:10.425000,
665243848330444-index10129.png
#EXTINF:10.425000,
665243848330444-index10130.png
#EXTINF:10.425000,
665243848330444-index10131.png
#EXTINF:10.425000,
665243848330444-index10132.png
#EXTINF:10.425000,
665243848330444-index10133.png
#EXTINF:10.425000,
665243848330444-index10134.png
#EXTINF:8.381700,
665243848330444-index10135.png
#EXTINF:10.425000,
665243848330444-index10136.png
#EXTINF:4.712100,
665243848330444-index10137.png
#EXTINF:10.425000,
665243848330444-index10138.png
#EXTINF:10.425000,
665243848330444-index10139.png
#EXTINF:10.425000,
665243848330444-index10140.png
#EXTINF:10.425000,
665243848330444-index10141.png
#EXTINF:10.425000,
665243848330444-index10142.png
#EXTINF:10.425000,
665243848330444-index10143.png
#EXTINF:10.425000,
665243848330444-index10144.png
#EXTINF:10.425000,
665243848330444-index10145.png
#EXTINF:9.299100,
665243848330444-index10146.png
#EXTINF:10.425000,
665243848330444-index10147.png
#EXTINF:8.840400,
665243848330444-index10148.png
#EXTINF:3.961500,
665243848330444-index10149.png
#EXTINF:10.425000,
665243848330444-index10150.png
#EXTINF:10.216500,
665243848330444-index10151.png
#EXTINF:8.131500,
665243848330444-index10152.png
#EXTINF:5.129100,
665243848330444-index10153.png
#EXTINF:10.425000,
665243848330444-index10154.png
#EXTINF:10.425000,
665243848330444-index10155.png
#EXTINF:10.425000,
665243848330444-index10156.png
#EXTINF:10.425000,
665243848330444-index10157.png
#EXTINF:10.425000,
665243848330444-index10158.png
#EXTINF:10.425000,
665243848330444-index10159.png
#EXTINF:10.425000,
665243848330444-index10160.png
#EXTINF:10.425000,
665243848330444-index10161.png
#EXTINF:10.425000,
665243848330444-index10162.png
#EXTINF:10.425000,
665243848330444-index10163.png
#EXTINF:7.047300,
665243848330444-index10164.png
#EXTINF:9.924600,
665243848330444-index10165.png
#EXT-X-ENDLIST
