#EXTM3U
#EXT-X-VERSION:3
#EXT-X-TARGETDURATION:11
#EXT-X-MEDIA-SEQUENCE:10001
#EXTINF:3.669600,
668816837171713-index10001.png
#EXTINF:2.460300,
668816837171713-index10002.png
#EXTINF:4.962300,
668816837171713-index10003.png
#EXTINF:3.419400,
668816837171713-index10004.png
#EXTINF:2.543700,
668816837171713-index10005.png
#EXTINF:3.210900,
668816837171713-index10006.png
#EXTINF:9.215700,
668816837171713-index10007.png
#EXTINF:5.546100,
668816837171713-index10008.png
#EXTINF:4.837200,
668816837171713-index10009.png
#EXTINF:2.752200,
668816837171713-index10010.png
#EXTINF:1.668000,
668816837171713-index10011.png
#EXTINF:2.752200,
668816837171713-index10012.png
#EXTINF:2.126700,
668816837171713-index10013.png
#EXTINF:1.084200,
668816837171713-index10014.png
#EXTINF:3.961500,
668816837171713-index10015.png
#EXTINF:4.503600,
668816837171713-index10016.png
#EXTINF:1.042500,
668816837171713-index10017.png
#EXTINF:3.961500,
668816837171713-index10018.png
#EXTINF:2.668800,
668816837171713-index10019.png
#EXTINF:2.752200,
668816837171713-index10020.png
#EXTINF:1.167600,
668816837171713-index10021.png
#EXTINF:2.043300,
668816837171713-index10022.png
#EXTINF:3.753000,
668816837171713-index10023.png
#EXTINF:2.752200,
668816837171713-index10024.png
#EXTINF:1.584600,
668816837171713-index10025.png
#EXTINF:2.502000,
668816837171713-index10026.png
#EXTINF:1.000800,
668816837171713-index10027.png
#EXTINF:1.751400,
668816837171713-index10028.png
#EXTINF:1.501200,
668816837171713-index10029.png
#EXTINF:1.542900,
668816837171713-index10030.png
#EXTINF:2.210100,
668816837171713-index10031.png
#EXTINF:1.167600,
668816837171713-index10032.png
#EXTINF:1.084200,
668816837171713-index10033.png
#EXTINF:2.001600,
668816837171713-index10034.png
#EXTINF:1.584600,
668816837171713-index10035.png
#EXTINF:1.000800,
668816837171713-index10036.png
#EXTINF:1.459500,
668816837171713-index10037.png
#EXTINF:2.585400,
668816837171713-index10038.png
#EXTINF:1.125900,
668816837171713-index10039.png
#EXTINF:1.042500,
668816837171713-index10040.png
#EXTINF:1.793100,
668816837171713-index10041.png
#EXTINF:1.751400,
668816837171713-index10042.png
#EXTINF:0.959100,
668816837171713-index10043.png
#EXTINF:4.336800,
668816837171713-index10044.png
#EXTINF:1.834800,
668816837171713-index10045.png
#EXTINF:1.751400,
668816837171713-index10046.png
#EXTINF:3.753000,
668816837171713-index10047.png
#EXTINF:1.084200,
668816837171713-index10048.png
#EXTINF:2.460300,
668816837171713-index10049.png
#EXTINF:1.834800,
668816837171713-index10050.png
#EXTINF:1.376100,
668816837171713-index10051.png
#EXTINF:1.501200,
668816837171713-index10052.png
#EXTINF:1.626300,
668816837171713-index10053.png
#EXTINF:1.042500,
668816837171713-index10054.png
#EXTINF:1.834800,
668816837171713-index10055.png
#EXTINF:1.793100,
668816837171713-index10056.png
#EXTINF:2.251800,
668816837171713-index10057.png
#EXTINF:4.336800,
668816837171713-index10058.png
#EXTINF:3.461100,
668816837171713-index10059.png
#EXTINF:6.963900,
668816837171713-index10060.png
#EXTINF:7.964700,
668816837171713-index10061.png
#EXTINF:2.460300,
668816837171713-index10062.png
#EXTINF:4.962300,
668816837171713-index10063.png
#EXTINF:3.669600,
668816837171713-index10064.png
#EXTINF:3.336000,
668816837171713-index10065.png
#EXTINF:1.501200,
668816837171713-index10066.png
#EXTINF:2.668800,
668816837171713-index10067.png
#EXTINF:4.378500,
668816837171713-index10068.png
#EXTINF:5.295900,
668816837171713-index10069.png
#EXTINF:1.459500,
668816837171713-index10070.png
#EXTINF:3.502800,
668816837171713-index10071.png
#EXTINF:5.629500,
668816837171713-index10072.png
#EXTINF:3.336000,
668816837171713-index10073.png
#EXTINF:6.755400,
668816837171713-index10074.png
#EXTINF:7.047300,
668816837171713-index10075.png
#EXTINF:1.751400,
668816837171713-index10076.png
#EXTINF:6.421800,
668816837171713-index10077.png
#EXTINF:3.878100,
668816837171713-index10078.png
#EXTINF:5.087400,
668816837171713-index10079.png
#EXTINF:8.465100,
668816837171713-index10080.png
#EXTINF:1.417800,
668816837171713-index10081.png
#EXTINF:1.459500,
668816837171713-index10082.png
#EXTINF:7.380900,
668816837171713-index10083.png
#EXTINF:3.461100,
668816837171713-index10084.png
#EXTINF:4.253400,
668816837171713-index10085.png
#EXTINF:2.460300,
668816837171713-index10086.png
#EXTINF:2.585400,
668816837171713-index10087.png
#EXTINF:1.834800,
668816837171713-index10088.png
#EXTINF:2.627100,
668816837171713-index10089.png
#EXTINF:5.587800,
668816837171713-index10090.png
#EXTINF:8.757000,
668816837171713-index10091.png
#EXTINF:5.212500,
668816837171713-index10092.png
#EXTINF:5.712900,
668816837171713-index10093.png
#EXTINF:3.961500,
668816837171713-index10094.png
#EXTINF:3.878100,
668816837171713-index10095.png
#EXTINF:4.587000,
668816837171713-index10096.png
#EXTINF:7.089000,
668816837171713-index10097.png
#EXTINF:2.668800,
668816837171713-index10098.png
#EXTINF:2.960700,
668816837171713-index10099.png
#EXTINF:3.127500,
668816837171713-index10100.png
#EXTINF:2.627100,
668816837171713-index10101.png
#EXTINF:2.376900,
668816837171713-index10102.png
#EXTINF:1.793100,
668816837171713-index10103.png
#EXTINF:2.126700,
668816837171713-index10104.png
#EXTINF:7.964700,
668816837171713-index10105.png
#EXTINF:4.712100,
668816837171713-index10106.png
#EXTINF:2.960700,
668816837171713-index10107.png
#EXTINF:2.502000,
668816837171713-index10108.png
#EXTINF:2.793900,
668816837171713-index10109.png
#EXTINF:3.336000,
668816837171713-index10110.png
#EXTINF:2.835600,
668816837171713-index10111.png
#EXTINF:3.753000,
668816837171713-index10112.png
#EXTINF:2.960700,
668816837171713-index10113.png
#EXTINF:10.425000,
668816837171713-index10114.png
#EXTINF:2.668800,
668816837171713-index10115.png
#EXTINF:6.963900,
668816837171713-index10116.png
#EXTINF:6.546900,
668816837171713-index10117.png
#EXTINF:1.501200,
668816837171713-index10118.png
#EXTINF:2.502000,
668816837171713-index10119.png
#EXTINF:3.919800,
668816837171713-index10120.png
#EXTINF:1.251000,
668816837171713-index10121.png
#EXTINF:1.167600,
668816837171713-index10122.png
#EXTINF:5.254200,
668816837171713-index10123.png
#EXTINF:3.544500,
668816837171713-index10124.png
#EXTINF:5.129100,
668816837171713-index10125.png
#EXTINF:1.501200,
668816837171713-index10126.png
#EXTINF:2.668800,
668816837171713-index10127.png
#EXTINF:4.753800,
668816837171713-index10128.png
#EXTINF:1.417800,
668816837171713-index10129.png
#EXTINF:1.209300,
668816837171713-index10130.png
#EXTINF:1.209300,
668816837171713-index10131.png
#EXTINF:1.584600,
668816837171713-index10132.png
#EXTINF:2.001600,
668816837171713-index10133.png
#EXTINF:2.251800,
668816837171713-index10134.png
#EXTINF:3.252600,
668816837171713-index10135.png
#EXTINF:3.461100,
668816837171713-index10136.png
#EXTINF:3.294300,
668816837171713-index10137.png
#EXTINF:2.418600,
668816837171713-index10138.png
#EXTINF:3.044100,
668816837171713-index10139.png
#EXTINF:1.918200,
668816837171713-index10140.png
#EXTINF:5.004000,
668816837171713-index10141.png
#EXTINF:4.003200,
668816837171713-index10142.png
#EXTINF:2.335200,
668816837171713-index10143.png
#EXTINF:5.462700,
668816837171713-index10144.png
#EXTINF:7.422600,
668816837171713-index10145.png
#EXTINF:5.462700,
668816837171713-index10146.png
#EXTINF:1.209300,
668816837171713-index10147.png
#EXTINF:4.837200,
668816837171713-index10148.png
#EXTINF:3.127500,
668816837171713-index10149.png
#EXTINF:3.502800,
668816837171713-index10150.png
#EXTINF:2.877300,
668816837171713-index10151.png
#EXTINF:9.048900,
668816837171713-index10152.png
#EXTINF:5.712900,
668816837171713-index10153.png
#EXTINF:1.959900,
668816837171713-index10154.png
#EXTINF:2.502000,
668816837171713-index10155.png
#EXTINF:4.837200,
668816837171713-index10156.png
#EXTINF:2.043300,
668816837171713-index10157.png
#EXTINF:1.542900,
668816837171713-index10158.png
#EXTINF:1.417800,
668816837171713-index10159.png
#EXTINF:1.626300,
668816837171713-index10160.png
#EXTINF:2.168400,
668816837171713-index10161.png
#EXTINF:1.000800,
668816837171713-index10162.png
#EXTINF:1.000800,
668816837171713-index10163.png
#EXTINF:1.501200,
668816837171713-index10164.png
#EXTINF:2.502000,
668816837171713-index10165.png
#EXTINF:5.671200,
668816837171713-index10166.png
#EXTINF:2.793900,
668816837171713-index10167.png
#EXTINF:1.959900,
668816837171713-index10168.png
#EXTINF:5.254200,
668816837171713-index10169.png
#EXTINF:3.669600,
668816837171713-index10170.png
#EXTINF:6.296700,
668816837171713-index10171.png
#EXTINF:4.086600,
668816837171713-index10172.png
#EXTINF:2.085000,
668816837171713-index10173.png
#EXTINF:3.085800,
668816837171713-index10174.png
#EXTINF:2.835600,
668816837171713-index10175.png
#EXTINF:7.214100,
668816837171713-index10176.png
#EXTINF:4.837200,
668816837171713-index10177.png
#EXTINF:2.919000,
668816837171713-index10178.png
#EXTINF:5.462700,
668816837171713-index10179.png
#EXTINF:3.502800,
668816837171713-index10180.png
#EXTINF:6.755400,
668816837171713-index10181.png
#EXTINF:10.174800,
668816837171713-index10182.png
#EXTINF:2.710500,
668816837171713-index10183.png
#EXTINF:1.959900,
668816837171713-index10184.png
#EXTINF:10.425000,
668816837171713-index10185.png
#EXTINF:2.043300,
668816837171713-index10186.png
#EXTINF:3.336000,
668816837171713-index10187.png
#EXTINF:3.002400,
668816837171713-index10188.png
#EXTINF:4.170000,
668816837171713-index10189.png
#EXTINF:2.251800,
668816837171713-index10190.png
#EXTINF:6.338400,
668816837171713-index10191.png
#EXTINF:6.004800,
668816837171713-index10192.png
#EXTINF:1.751400,
668816837171713-index10193.png
#EXTINF:4.795500,
668816837171713-index10194.png
#EXTINF:1.000800,
668816837171713-index10195.png
#EXTINF:10.425000,
668816837171713-index10196.png
#EXTINF:5.629500,
668816837171713-index10197.png
#EXTINF:10.425000,
668816837171713-index10198.png
#EXTINF:3.002400,
668816837171713-index10199.png
#EXTINF:9.966300,
668816837171713-index10200.png
#EXTINF:2.710500,
668816837171713-index10201.png
#EXTINF:2.919000,
668816837171713-index10202.png
#EXTINF:3.669600,
668816837171713-index10203.png
#EXTINF:6.380100,
668816837171713-index10204.png
#EXTINF:2.710500,
668816837171713-index10205.png
#EXTINF:5.879700,
668816837171713-index10206.png
#EXTINF:2.668800,
668816837171713-index10207.png
#EXTINF:3.127500,
668816837171713-index10208.png
#EXTINF:2.126700,
668816837171713-index10209.png
#EXTINF:2.460300,
668816837171713-index10210.png
#EXTINF:2.001600,
668816837171713-index10211.png
#EXTINF:5.129100,
668816837171713-index10212.png
#EXTINF:2.376900,
668816837171713-index10213.png
#EXTINF:3.210900,
668816837171713-index10214.png
#EXTINF:1.959900,
668816837171713-index10215.png
#EXTINF:2.001600,
668816837171713-index10216.png
#EXTINF:2.251800,
668816837171713-index10217.png
#EXTINF:4.503600,
668816837171713-index10218.png
#EXTINF:5.879700,
668816837171713-index10219.png
#EXTINF:10.425000,
668816837171713-index10220.png
#EXTINF:2.376900,
668816837171713-index10221.png
#EXTINF:6.838800,
668816837171713-index10222.png
#EXTINF:6.338400,
668816837171713-index10223.png
#EXTINF:8.423400,
668816837171713-index10224.png
#EXTINF:3.711300,
668816837171713-index10225.png
#EXTINF:1.292700,
668816837171713-index10226.png
#EXTINF:3.669600,
668816837171713-index10227.png
#EXTINF:8.214900,
668816837171713-index10228.png
#EXTINF:5.671200,
668816837171713-index10229.png
#EXTINF:7.881300,
668816837171713-index10230.png
#EXTINF:5.879700,
668816837171713-index10231.png
#EXTINF:7.756200,
668816837171713-index10232.png
#EXTINF:3.085800,
668816837171713-index10233.png
#EXTINF:5.504400,
668816837171713-index10234.png
#EXTINF:1.918200,
668816837171713-index10235.png
#EXTINF:1.668000,
668816837171713-index10236.png
#EXTINF:4.253400,
668816837171713-index10237.png
#EXTINF:3.711300,
668816837171713-index10238.png
#EXTINF:6.463500,
668816837171713-index10239.png
#EXTINF:5.462700,
668816837171713-index10240.png
#EXTINF:4.795500,
668816837171713-index10241.png
#EXTINF:4.461900,
668816837171713-index10242.png
#EXTINF:7.422600,
668816837171713-index10243.png
#EXTINF:7.214100,
668816837171713-index10244.png
#EXTINF:5.254200,
668816837171713-index10245.png
#EXTINF:10.174800,
668816837171713-index10246.png
#EXTINF:5.379300,
668816837171713-index10247.png
#EXTINF:8.298300,
668816837171713-index10248.png
#EXTINF:9.549300,
668816837171713-index10249.png
#EXTINF:10.425000,
668816837171713-index10250.png
#EXTINF:5.587800,
668816837171713-index10251.png
#EXTINF:3.961500,
668816837171713-index10252.png
#EXTINF:6.963900,
668816837171713-index10253.png
#EXTINF:6.213300,
668816837171713-index10254.png
#EXTINF:10.425000,
668816837171713-index10255.png
#EXTINF:1.334400,
668816837171713-index10256.png
#EXTINF:10.425000,
668816837171713-index10257.png
#EXTINF:5.671200,
668816837171713-index10258.png
#EXTINF:5.379300,
668816837171713-index10259.png
#EXTINF:2.085000,
668816837171713-index10260.png
#EXTINF:5.963100,
668816837171713-index10261.png
#EXTINF:6.463500,
668816837171713-index10262.png
#EXTINF:1.000800,
668816837171713-index10263.png
#EXTINF:2.877300,
668816837171713-index10264.png
#EXTINF:3.085800,
668816837171713-index10265.png
#EXTINF:1.959900,
668816837171713-index10266.png
#EXTINF:6.838800,
668816837171713-index10267.png
#EXTINF:2.668800,
668816837171713-index10268.png
#EXTINF:3.002400,
668816837171713-index10269.png
#EXTINF:4.878900,
668816837171713-index10270.png
#EXTINF:6.296700,
668816837171713-index10271.png
#EXTINF:4.378500,
668816837171713-index10272.png
#EXTINF:4.920600,
668816837171713-index10273.png
#EXTINF:1.292700,
668816837171713-index10274.png
#EXTINF:2.001600,
668816837171713-index10275.png
#EXTINF:1.834800,
668816837171713-index10276.png
#EXTINF:1.000800,
668816837171713-index10277.png
#EXTINF:6.421800,
668816837171713-index10278.png
#EXTINF:0.959100,
668816837171713-index10279.png
#EXTINF:2.960700,
668816837171713-index10280.png
#EXTINF:0.959100,
668816837171713-index10281.png
#EXTINF:2.960700,
668816837171713-index10282.png
#EXTINF:2.251800,
668816837171713-index10283.png
#EXTINF:2.460300,
668816837171713-index10284.png
#EXTINF:3.127500,
668816837171713-index10285.png
#EXTINF:7.089000,
668816837171713-index10286.png
#EXTINF:4.545300,
668816837171713-index10287.png
#EXTINF:1.959900,
668816837171713-index10288.png
#EXTINF:1.542900,
668816837171713-index10289.png
#EXTINF:2.251800,
668816837171713-index10290.png
#EXTINF:2.793900,
668816837171713-index10291.png
#EXTINF:1.459500,
668816837171713-index10292.png
#EXTINF:2.960700,
668816837171713-index10293.png
#EXTINF:2.960700,
668816837171713-index10294.png
#EXTINF:2.752200,
668816837171713-index10295.png
#EXTINF:2.668800,
668816837171713-index10296.png
#EXTINF:5.295900,
668816837171713-index10297.png
#EXTINF:5.295900,
668816837171713-index10298.png
#EXTINF:6.463500,
668816837171713-index10299.png
#EXTINF:3.461100,
668816837171713-index10300.png
#EXTINF:3.919800,
668816837171713-index10301.png
#EXTINF:3.961500,
668816837171713-index10302.png
#EXTINF:4.461900,
668816837171713-index10303.png
#EXTINF:2.001600,
668816837171713-index10304.png
#EXTINF:6.463500,
668816837171713-index10305.png
#EXTINF:1.000800,
668816837171713-index10306.png
#EXTINF:2.960700,
668816837171713-index10307.png
#EXTINF:4.211700,
668816837171713-index10308.png
#EXTINF:6.546900,
668816837171713-index10309.png
#EXTINF:1.501200,
668816837171713-index10310.png
#EXTINF:7.506000,
668816837171713-index10311.png
#EXTINF:5.129100,
668816837171713-index10312.png
#EXTINF:1.959900,
668816837171713-index10313.png
#EXTINF:3.919800,
668816837171713-index10314.png
#EXTINF:2.460300,
668816837171713-index10315.png
#EXTINF:2.960700,
668816837171713-index10316.png
#EXTINF:1.959900,
668816837171713-index10317.png
#EXTINF:2.960700,
668816837171713-index10318.png
#EXTINF:2.710500,
668816837171713-index10319.png
#EXTINF:1.918200,
668816837171713-index10320.png
#EXTINF:3.002400,
668816837171713-index10321.png
#EXTINF:5.504400,
668816837171713-index10322.png
#EXTINF:8.006400,
668816837171713-index10323.png
#EXTINF:2.001600,
668816837171713-index10324.png
#EXTINF:4.044900,
668816837171713-index10325.png
#EXTINF:5.045700,
668816837171713-index10326.png
#EXTINF:3.586200,
668816837171713-index10327.png
#EXTINF:4.712100,
668816837171713-index10328.png
#EXTINF:6.880500,
668816837171713-index10329.png
#EXTINF:3.252600,
668816837171713-index10330.png
#EXTINF:4.545300,
668816837171713-index10331.png
#EXTINF:3.002400,
668816837171713-index10332.png
#EXTINF:2.793900,
668816837171713-index10333.png
#EXTINF:1.834800,
668816837171713-index10334.png
#EXTINF:1.501200,
668816837171713-index10335.png
#EXTINF:1.959900,
668816837171713-index10336.png
#EXTINF:10.425000,
668816837171713-index10337.png
#EXTINF:2.210100,
668816837171713-index10338.png
#EXTINF:10.425000,
668816837171713-index10339.png
#EXTINF:2.001600,
668816837171713-index10340.png
#EXTINF:10.425000,
668816837171713-index10341.png
#EXTINF:2.001600,
668816837171713-index10342.png
#EXTINF:6.004800,
668816837171713-index10343.png
#EXTINF:10.425000,
668816837171713-index10344.png
#EXTINF:1.709700,
668816837171713-index10345.png
#EXTINF:10.425000,
668816837171713-index10346.png
#EXTINF:4.670400,
668816837171713-index10347.png
#EXTINF:10.425000,
668816837171713-index10348.png
#EXTINF:4.628700,
668816837171713-index10349.png
#EXTINF:4.003200,
668816837171713-index10350.png
#EXTINF:2.335200,
668816837171713-index10351.png
#EXTINF:3.002400,
668816837171713-index10352.png
#EXTINF:3.002400,
668816837171713-index10353.png
#EXTINF:2.877300,
668816837171713-index10354.png
#EXTINF:2.585400,
668816837171713-index10355.png
#EXTINF:1.751400,
668816837171713-index10356.png
#EXTINF:2.168400,
668816837171713-index10357.png
#EXTINF:1.918200,
668816837171713-index10358.png
#EXTINF:6.004800,
668816837171713-index10359.png
#EXTINF:6.755400,
668816837171713-index10360.png
#EXTINF:2.418600,
668816837171713-index10361.png
#EXTINF:2.335200,
668816837171713-index10362.png
#EXTINF:3.419400,
668816837171713-index10363.png
#EXTINF:4.920600,
668816837171713-index10364.png
#EXTINF:6.755400,
668816837171713-index10365.png
#EXT-X-ENDLIST
