#EXTM3U
#EXT-X-VERSION:3
#EXT-X-TARGETDURATION:10
#EXT-X-MEDIA-SEQUENCE:10001
#EXTINF:9.867000,
671009309175941-index10001.png
#EXTINF:9.207000,
671009309175941-index10002.png
#EXTINF:4.257000,
671009309175941-index10003.png
#EXTINF:4.356000,
671009309175941-index10004.png
#EXTINF:9.900000,
671009309175941-index10005.png
#EXTINF:7.326000,
671009309175941-index10006.png
#EXTINF:9.900000,
671009309175941-index10007.png
#EXTINF:7.128000,
671009309175941-index10008.png
#EXTINF:6.633000,
671009309175941-index10009.png
#EXTINF:1.386000,
671009309175941-index10010.png
#EXTINF:5.313000,
671009309175941-index10011.png
#EXTINF:2.937000,
671009309175941-index10012.png
#EXTINF:3.069000,
671009309175941-index10013.png
#EXTINF:2.706000,
671009309175941-index10014.png
#EXTINF:2.805000,
671009309175941-index10015.png
#EXTINF:1.716000,
671009309175941-index10016.png
#EXTINF:3.234000,
671009309175941-index10017.png
#EXTINF:9.801000,
671009309175941-index10018.png
#EXTINF:1.386000,
671009309175941-index10019.png
#EXTINF:9.900000,
671009309175941-index10020.png
#EXTINF:8.283000,
671009309175941-index10021.png
#EXTINF:5.775000,
671009309175941-index10022.png
#EXTINF:9.900000,
671009309175941-index10023.png
#EXTINF:9.900000,
671009309175941-index10024.png
#EXTINF:1.485000,
671009309175941-index10025.png
#EXTINF:7.590000,
671009309175941-index10026.png
#EXTINF:4.917000,
671009309175941-index10027.png
#EXTINF:8.679000,
671009309175941-index10028.png
#EXTINF:7.623000,
671009309175941-index10029.png
#EXTINF:3.036000,
671009309175941-index10030.png
#EXTINF:1.386000,
671009309175941-index10031.png
#EXTINF:5.313000,
671009309175941-index10032.png
#EXTINF:3.498000,
671009309175941-index10033.png
#EXTINF:1.485000,
671009309175941-index10034.png
#EXTINF:9.900000,
671009309175941-index10035.png
#EXTINF:2.574000,
671009309175941-index10036.png
#EXTINF:4.785000,
671009309175941-index10037.png
#EXTINF:4.059000,
671009309175941-index10038.png
#EXTINF:4.422000,
671009309175941-index10039.png
#EXTINF:1.122000,
671009309175941-index10040.png
#EXTINF:1.023000,
671009309175941-index10041.png
#EXTINF:1.782000,
671009309175941-index10042.png
#EXTINF:2.508000,
671009309175941-index10043.png
#EXTINF:2.442000,
671009309175941-index10044.png
#EXTINF:8.448000,
671009309175941-index10045.png
#EXTINF:3.267000,
671009309175941-index10046.png
#EXTINF:6.831000,
671009309175941-index10047.png
#EXTINF:4.620000,
671009309175941-index10048.png
#EXTINF:9.900000,
671009309175941-index10049.png
#EXTINF:9.900000,
671009309175941-index10050.png
#EXTINF:2.112000,
671009309175941-index10051.png
#EXTINF:2.508000,
671009309175941-index10052.png
#EXTINF:1.716000,
671009309175941-index10053.png
#EXTINF:1.749000,
671009309175941-index10054.png
#EXTINF:1.287000,
671009309175941-index10055.png
#EXTINF:2.442000,
671009309175941-index10056.png
#EXTINF:5.445000,
671009309175941-index10057.png
#EXTINF:4.356000,
671009309175941-index10058.png
#EXTINF:2.541000,
671009309175941-index10059.png
#EXTINF:1.089000,
671009309175941-index10060.png
#EXTINF:1.617000,
671009309175941-index10061.png
#EXTINF:3.432000,
671009309175941-index10062.png
#EXTINF:7.128000,
671009309175941-index10063.png
#EXTINF:9.900000,
671009309175941-index10064.png
#EXTINF:6.039000,
671009309175941-index10065.png
#EXTINF:2.871000,
671009309175941-index10066.png
#EXTINF:7.359000,
671009309175941-index10067.png
#EXTINF:5.280000,
671009309175941-index10068.png
#EXTINF:3.069000,
671009309175941-index10069.png
#EXTINF:3.300000,
671009309175941-index10070.png
#EXTINF:1.881000,
671009309175941-index10071.png
#EXTINF:5.049000,
671009309175941-index10072.png
#EXTINF:2.805000,
671009309175941-index10073.png
#EXTINF:9.042000,
671009309175941-index10074.png
#EXTINF:2.838000,
671009309175941-index10075.png
#EXTINF:3.630000,
671009309175941-index10076.png
#EXTINF:3.201000,
671009309175941-index10077.png
#EXTINF:6.369000,
671009309175941-index10078.png
#EXTINF:2.376000,
671009309175941-index10079.png
#EXTINF:2.145000,
671009309175941-index10080.png
#EXTINF:3.630000,
671009309175941-index10081.png
#EXTINF:3.069000,
671009309175941-index10082.png
#EXTINF:9.900000,
671009309175941-index10083.png
#EXTINF:7.920000,
671009309175941-index10084.png
#EXTINF:7.557000,
671009309175941-index10085.png
#EXTINF:6.105000,
671009309175941-index10086.png
#EXTINF:5.247000,
671009309175941-index10087.png
#EXTINF:4.521000,
671009309175941-index10088.png
#EXTINF:8.514000,
671009309175941-index10089.png
#EXTINF:9.900000,
671009309175941-index10090.png
#EXTINF:8.580000,
671009309175941-index10091.png
#EXTINF:9.900000,
671009309175941-index10092.png
#EXTINF:3.432000,
671009309175941-index10093.png
#EXTINF:2.178000,
671009309175941-index10094.png
#EXTINF:6.237000,
671009309175941-index10095.png
#EXTINF:2.871000,
671009309175941-index10096.png
#EXTINF:4.224000,
671009309175941-index10097.png
#EXTINF:1.848000,
671009309175941-index10098.png
#EXTINF:9.900000,
671009309175941-index10099.png
#EXTINF:9.867000,
671009309175941-index10100.png
#EXTINF:6.435000,
671009309175941-index10101.png
#EXTINF:7.260000,
671009309175941-index10102.png
#EXTINF:3.333000,
671009309175941-index10103.png
#EXTINF:6.897000,
671009309175941-index10104.png
#EXTINF:4.950000,
671009309175941-index10105.png
#EXTINF:9.735000,
671009309175941-index10106.png
#EXTINF:6.006000,
671009309175941-index10107.png
#EXTINF:4.224000,
671009309175941-index10108.png
#EXTINF:1.980000,
671009309175941-index10109.png
#EXTINF:4.818000,
671009309175941-index10110.png
#EXTINF:6.765000,
671009309175941-index10111.png
#EXTINF:9.900000,
671009309175941-index10112.png
#EXTINF:3.696000,
671009309175941-index10113.png
#EXTINF:2.805000,
671009309175941-index10114.png
#EXTINF:9.240000,
671009309175941-index10115.png
#EXTINF:2.442000,
671009309175941-index10116.png
#EXTINF:9.900000,
671009309175941-index10117.png
#EXTINF:1.683000,
671009309175941-index10118.png
#EXTINF:6.105000,
671009309175941-index10119.png
#EXTINF:2.574000,
671009309175941-index10120.png
#EXTINF:2.937000,
671009309175941-index10121.png
#EXTINF:9.669000,
671009309175941-index10122.png
#EXTINF:1.155000,
671009309175941-index10123.png
#EXTINF:1.122000,
671009309175941-index10124.png
#EXTINF:1.485000,
671009309175941-index10125.png
#EXTINF:1.815000,
671009309175941-index10126.png
#EXTINF:3.333000,
671009309175941-index10127.png
#EXTINF:3.696000,
671009309175941-index10128.png
#EXTINF:4.653000,
671009309175941-index10129.png
#EXTINF:2.640000,
671009309175941-index10130.png
#EXTINF:9.867000,
671009309175941-index10131.png
#EXTINF:9.900000,
671009309175941-index10132.png
#EXTINF:3.465000,
671009309175941-index10133.png
#EXTINF:4.389000,
671009309175941-index10134.png
#EXTINF:3.564000,
671009309175941-index10135.png
#EXTINF:8.910000,
671009309175941-index10136.png
#EXTINF:7.953000,
671009309175941-index10137.png
#EXTINF:9.900000,
671009309175941-index10138.png
#EXTINF:5.874000,
671009309175941-index10139.png
#EXTINF:3.663000,
671009309175941-index10140.png
#EXTINF:1.386000,
671009309175941-index10141.png
#EXTINF:3.069000,
671009309175941-index10142.png
#EXTINF:4.026000,
671009309175941-index10143.png
#EXTINF:1.419000,
671009309175941-index10144.png
#EXTINF:4.455000,
671009309175941-index10145.png
#EXTINF:9.900000,
671009309175941-index10146.png
#EXTINF:8.745000,
671009309175941-index10147.png
#EXTINF:9.900000,
671009309175941-index10148.png
#EXTINF:9.900000,
671009309175941-index10149.png
#EXTINF:6.897000,
671009309175941-index10150.png
#EXTINF:2.244000,
671009309175941-index10151.png
#EXTINF:1.452000,
671009309175941-index10152.png
#EXTINF:3.564000,
671009309175941-index10153.png
#EXTINF:2.673000,
671009309175941-index10154.png
#EXTINF:3.696000,
671009309175941-index10155.png
#EXTINF:1.089000,
671009309175941-index10156.png
#EXTINF:5.082000,
671009309175941-index10157.png
#EXTINF:1.683000,
671009309175941-index10158.png
#EXTINF:3.036000,
671009309175941-index10159.png
#EXTINF:5.742000,
671009309175941-index10160.png
#EXTINF:5.214000,
671009309175941-index10161.png
#EXTINF:5.049000,
671009309175941-index10162.png
#EXTINF:1.221000,
671009309175941-index10163.png
#EXTINF:1.353000,
671009309175941-index10164.png
#EXTINF:1.815000,
671009309175941-index10165.png
#EXTINF:2.805000,
671009309175941-index10166.png
#EXTINF:6.336000,
671009309175941-index10167.png
#EXTINF:4.389000,
671009309175941-index10168.png
#EXTINF:4.983000,
671009309175941-index10169.png
#EXTINF:2.574000,
671009309175941-index10170.png
#EXTINF:4.125000,
671009309175941-index10171.png
#EXTINF:1.518000,
671009309175941-index10172.png
#EXTINF:3.498000,
671009309175941-index10173.png
#EXTINF:1.815000,
671009309175941-index10174.png
#EXTINF:1.518000,
671009309175941-index10175.png
#EXTINF:7.326000,
671009309175941-index10176.png
#EXTINF:2.706000,
671009309175941-index10177.png
#EXTINF:6.831000,
671009309175941-index10178.png
#EXTINF:7.392000,
671009309175941-index10179.png
#EXTINF:9.900000,
671009309175941-index10180.png
#EXTINF:9.900000,
671009309175941-index10181.png
#EXTINF:3.795000,
671009309175941-index10182.png
#EXTINF:2.442000,
671009309175941-index10183.png
#EXTINF:7.293000,
671009309175941-index10184.png
#EXTINF:9.900000,
671009309175941-index10185.png
#EXTINF:3.927000,
671009309175941-index10186.png
#EXTINF:3.135000,
671009309175941-index10187.png
#EXTINF:1.881000,
671009309175941-index10188.png
#EXTINF:9.900000,
671009309175941-index10189.png
#EXTINF:9.900000,
671009309175941-index10190.png
#EXTINF:2.442000,
671009309175941-index10191.png
#EXTINF:7.557000,
671009309175941-index10192.png
#EXTINF:9.240000,
671009309175941-index10193.png
#EXTINF:2.013000,
671009309175941-index10194.png
#EXTINF:1.089000,
671009309175941-index10195.png
#EXTINF:9.900000,
671009309175941-index10196.png
#EXTINF:1.749000,
671009309175941-index10197.png
#EXTINF:5.280000,
671009309175941-index10198.png
#EXTINF:9.900000,
671009309175941-index10199.png
#EXTINF:4.224000,
671009309175941-index10200.png
#EXTINF:0.957000,
671009309175941-index10201.png
#EXTINF:2.409000,
671009309175941-index10202.png
#EXTINF:1.221000,
671009309175941-index10203.png
#EXTINF:3.861000,
671009309175941-index10204.png
#EXTINF:3.828000,
671009309175941-index10205.png
#EXTINF:5.907000,
671009309175941-index10206.png
#EXTINF:5.247000,
671009309175941-index10207.png
#EXTINF:9.438000,
671009309175941-index10208.png
#EXTINF:2.640000,
671009309175941-index10209.png
#EXTINF:2.937000,
671009309175941-index10210.png
#EXTINF:4.785000,
671009309175941-index10211.png
#EXTINF:7.161000,
671009309175941-index10212.png
#EXTINF:8.382000,
671009309175941-index10213.png
#EXTINF:1.188000,
671009309175941-index10214.png
#EXTINF:4.686000,
671009309175941-index10215.png
#EXTINF:3.234000,
671009309175941-index10216.png
#EXTINF:8.646000,
671009309175941-index10217.png
#EXTINF:3.531000,
671009309175941-index10218.png
#EXTINF:7.458000,
671009309175941-index10219.png
#EXTINF:1.254000,
671009309175941-index10220.png
#EXTINF:2.442000,
671009309175941-index10221.png
#EXTINF:3.201000,
671009309175941-index10222.png
#EXTINF:2.145000,
671009309175941-index10223.png
#EXTINF:2.112000,
671009309175941-index10224.png
#EXTINF:9.240000,
671009309175941-index10225.png
#EXTINF:1.320000,
671009309175941-index10226.png
#EXTINF:7.986000,
671009309175941-index10227.png
#EXTINF:7.722000,
671009309175941-index10228.png
#EXTINF:6.732000,
671009309175941-index10229.png
#EXTINF:4.785000,
671009309175941-index10230.png
#EXTINF:1.023000,
671009309175941-index10231.png
#EXTINF:2.442000,
671009309175941-index10232.png
#EXTINF:3.597000,
671009309175941-index10233.png
#EXTINF:9.834000,
671009309175941-index10234.png
#EXTINF:5.511000,
671009309175941-index10235.png
#EXTINF:2.376000,
671009309175941-index10236.png
#EXTINF:1.452000,
671009309175941-index10237.png
#EXTINF:3.762000,
671009309175941-index10238.png
#EXTINF:5.544000,
671009309175941-index10239.png
#EXTINF:9.900000,
671009309175941-index10240.png
#EXTINF:9.735000,
671009309175941-index10241.png
#EXTINF:9.900000,
671009309175941-index10242.png
#EXTINF:1.155000,
671009309175941-index10243.png
#EXTINF:1.650000,
671009309175941-index10244.png
#EXTINF:2.211000,
671009309175941-index10245.png
#EXTINF:2.475000,
671009309175941-index10246.png
#EXTINF:2.739000,
671009309175941-index10247.png
#EXTINF:5.709000,
671009309175941-index10248.png
#EXTINF:1.683000,
671009309175941-index10249.png
#EXTINF:6.600000,
671009309175941-index10250.png
#EXTINF:4.917000,
671009309175941-index10251.png
#EXTINF:4.785000,
671009309175941-index10252.png
#EXTINF:2.706000,
671009309175941-index10253.png
#EXTINF:8.745000,
671009309175941-index10254.png
#EXTINF:2.079000,
671009309175941-index10255.png
#EXTINF:1.881000,
671009309175941-index10256.png
#EXTINF:1.122000,
671009309175941-index10257.png
#EXTINF:2.508000,
671009309175941-index10258.png
#EXTINF:3.300000,
671009309175941-index10259.png
#EXTINF:9.636000,
671009309175941-index10260.png
#EXTINF:4.719000,
671009309175941-index10261.png
#EXTINF:3.069000,
671009309175941-index10262.png
#EXTINF:2.145000,
671009309175941-index10263.png
#EXTINF:3.135000,
671009309175941-index10264.png
#EXTINF:1.320000,
671009309175941-index10265.png
#EXTINF:5.280000,
671009309175941-index10266.png
#EXTINF:1.848000,
671009309175941-index10267.png
#EXTINF:1.023000,
671009309175941-index10268.png
#EXTINF:1.716000,
671009309175941-index10269.png
#EXTINF:1.056000,
671009309175941-index10270.png
#EXTINF:2.112000,
671009309175941-index10271.png
#EXTINF:1.683000,
671009309175941-index10272.png
#EXTINF:3.168000,
671009309175941-index10273.png
#EXTINF:1.749000,
671009309175941-index10274.png
#EXTINF:3.498000,
671009309175941-index10275.png
#EXTINF:2.178000,
671009309175941-index10276.png
#EXTINF:2.145000,
671009309175941-index10277.png
#EXTINF:1.584000,
671009309175941-index10278.png
#EXTINF:2.475000,
671009309175941-index10279.png
#EXTINF:6.105000,
671009309175941-index10280.png
#EXTINF:2.376000,
671009309175941-index10281.png
#EXTINF:2.475000,
671009309175941-index10282.png
#EXTINF:1.980000,
671009309175941-index10283.png
#EXTINF:4.587000,
671009309175941-index10284.png
#EXTINF:7.722000,
671009309175941-index10285.png
#EXTINF:5.148000,
671009309175941-index10286.png
#EXTINF:6.303000,
671009309175941-index10287.png
#EXTINF:4.620000,
671009309175941-index10288.png
#EXTINF:1.815000,
671009309175941-index10289.png
#EXTINF:2.244000,
671009309175941-index10290.png
#EXTINF:3.036000,
671009309175941-index10291.png
#EXTINF:3.795000,
671009309175941-index10292.png
#EXTINF:4.752000,
671009309175941-index10293.png
#EXTINF:2.442000,
671009309175941-index10294.png
#EXTINF:3.795000,
671009309175941-index10295.png
#EXTINF:9.900000,
671009309175941-index10296.png
#EXTINF:4.950000,
671009309175941-index10297.png
#EXTINF:4.323000,
671009309175941-index10298.png
#EXT-X-ENDLIST
