#EXTM3U
#EXT-X-VERSION:3
#EXT-X-TARGETDURATION:3
#EXT-X-MEDIA-SEQUENCE:10001
#EXTINF:3.040000,
673202407028939-index10001.png
#EXTINF:3.040000,
673202407028939-index10002.png
#EXTINF:3.040000,
673202407028939-index10003.png
#EXTINF:3.040000,
673202407028939-index10004.png
#EXTINF:3.040000,
673202407028939-index10005.png
#EXTINF:3.040000,
673202407028939-index10006.png
#EXTINF:3.040000,
673202407028939-index10007.png
#EXTINF:3.040000,
673202407028939-index10008.png
#EXTINF:3.040000,
673202407028939-index10009.png
#EXTINF:3.040000,
673202407028939-index10010.png
#EXTINF:3.040000,
673202407028939-index10011.png
#EXTINF:3.040000,
673202407028939-index10012.png
#EXTINF:3.040000,
673202407028939-index10013.png
#EXTINF:3.040000,
673202407028939-index10014.png
#EXTINF:3.040000,
673202407028939-index10015.png
#EXTINF:3.040000,
673202407028939-index10016.png
#EXTINF:3.040000,
673202407028939-index10017.png
#EXTINF:3.040000,
673202407028939-index10018.png
#EXTINF:3.040000,
673202407028939-index10019.png
#EXTINF:3.040000,
673202407028939-index10020.png
#EXTINF:3.040000,
673202407028939-index10021.png
#EXTINF:3.040000,
673202407028939-index10022.png
#EXTINF:3.040000,
673202407028939-index10023.png
#EXTINF:3.040000,
673202407028939-index10024.png
#EXTINF:3.040000,
673202407028939-index10025.png
#EXTINF:3.040000,
673202407028939-index10026.png
#EXTINF:3.040000,
673202407028939-index10027.png
#EXTINF:3.040000,
673202407028939-index10028.png
#EXTINF:3.040000,
673202407028939-index10029.png
#EXTINF:3.040000,
673202407028939-index10030.png
#EXTINF:3.040000,
673202407028939-index10031.png
#EXTINF:3.040000,
673202407028939-index10032.png
#EXTINF:3.040000,
673202407028939-index10033.png
#EXTINF:3.040000,
673202407028939-index10034.png
#EXTINF:3.040000,
673202407028939-index10035.png
#EXTINF:3.040000,
673202407028939-index10036.png
#EXTINF:3.040000,
673202407028939-index10037.png
#EXTINF:3.040000,
673202407028939-index10038.png
#EXTINF:3.040000,
673202407028939-index10039.png
#EXTINF:3.040000,
673202407028939-index10040.png
#EXTINF:3.040000,
673202407028939-index10041.png
#EXTINF:3.040000,
673202407028939-index10042.png
#EXTINF:3.040000,
673202407028939-index10043.png
#EXTINF:3.040000,
673202407028939-index10044.png
#EXTINF:3.040000,
673202407028939-index10045.png
#EXTINF:3.040000,
673202407028939-index10046.png
#EXTINF:3.040000,
673202407028939-index10047.png
#EXTINF:3.040000,
673202407028939-index10048.png
#EXTINF:3.040000,
673202407028939-index10049.png
#EXTINF:3.040000,
673202407028939-index10050.png
#EXTINF:3.040000,
673202407028939-index10051.png
#EXTINF:3.040000,
673202407028939-index10052.png
#EXTINF:3.040000,
673202407028939-index10053.png
#EXTINF:3.040000,
673202407028939-index10054.png
#EXTINF:3.040000,
673202407028939-index10055.png
#EXTINF:3.040000,
673202407028939-index10056.png
#EXTINF:3.040000,
673202407028939-index10057.png
#EXTINF:3.040000,
673202407028939-index10058.png
#EXTINF:3.040000,
673202407028939-index10059.png
#EXTINF:3.040000,
673202407028939-index10060.png
#EXTINF:3.040000,
673202407028939-index10061.png
#EXTINF:3.040000,
673202407028939-index10062.png
#EXTINF:3.040000,
673202407028939-index10063.png
#EXTINF:3.040000,
673202407028939-index10064.png
#EXTINF:3.040000,
673202407028939-index10065.png
#EXTINF:3.040000,
673202407028939-index10066.png
#EXTINF:3.040000,
673202407028939-index10067.png
#EXTINF:3.040000,
673202407028939-index10068.png
#EXTINF:3.040000,
673202407028939-index10069.png
#EXTINF:3.040000,
673202407028939-index10070.png
#EXTINF:3.040000,
673202407028939-index10071.png
#EXTINF:3.040000,
673202407028939-index10072.png
#EXTINF:3.040000,
673202407028939-index10073.png
#EXTINF:3.040000,
673202407028939-index10074.png
#EXTINF:3.040000,
673202407028939-index10075.png
#EXTINF:3.040000,
673202407028939-index10076.png
#EXTINF:3.040000,
673202407028939-index10077.png
#EXTINF:3.040000,
673202407028939-index10078.png
#EXTINF:3.040000,
673202407028939-index10079.png
#EXTINF:3.040000,
673202407028939-index10080.png
#EXTINF:3.040000,
673202407028939-index10081.png
#EXTINF:3.040000,
673202407028939-index10082.png
#EXTINF:3.040000,
673202407028939-index10083.png
#EXTINF:3.040000,
673202407028939-index10084.png
#EXTINF:3.040000,
673202407028939-index10085.png
#EXTINF:3.040000,
673202407028939-index10086.png
#EXTINF:3.040000,
673202407028939-index10087.png
#EXTINF:3.040000,
673202407028939-index10088.png
#EXTINF:3.040000,
673202407028939-index10089.png
#EXTINF:3.040000,
673202407028939-index10090.png
#EXTINF:3.040000,
673202407028939-index10091.png
#EXTINF:3.040000,
673202407028939-index10092.png
#EXTINF:3.040000,
673202407028939-index10093.png
#EXTINF:3.040000,
673202407028939-index10094.png
#EXTINF:3.040000,
673202407028939-index10095.png
#EXTINF:3.040000,
673202407028939-index10096.png
#EXTINF:3.040000,
673202407028939-index10097.png
#EXTINF:3.040000,
673202407028939-index10098.png
#EXTINF:3.040000,
673202407028939-index10099.png
#EXTINF:3.040000,
673202407028939-index10100.png
#EXTINF:3.040000,
673202407028939-index10101.png
#EXTINF:3.040000,
673202407028939-index10102.png
#EXTINF:3.040000,
673202407028939-index10103.png
#EXTINF:3.040000,
673202407028939-index10104.png
#EXTINF:3.040000,
673202407028939-index10105.png
#EXTINF:3.040000,
673202407028939-index10106.png
#EXTINF:3.040000,
673202407028939-index10107.png
#EXTINF:3.040000,
673202407028939-index10108.png
#EXTINF:3.040000,
673202407028939-index10109.png
#EXTINF:3.040000,
673202407028939-index10110.png
#EXTINF:3.040000,
673202407028939-index10111.png
#EXTINF:3.040000,
673202407028939-index10112.png
#EXTINF:3.040000,
673202407028939-index10113.png
#EXTINF:3.040000,
673202407028939-index10114.png
#EXTINF:3.040000,
673202407028939-index10115.png
#EXTINF:3.040000,
673202407028939-index10116.png
#EXTINF:3.040000,
673202407028939-index10117.png
#EXTINF:3.040000,
673202407028939-index10118.png
#EXTINF:3.040000,
673202407028939-index10119.png
#EXTINF:3.040000,
673202407028939-index10120.png
#EXTINF:3.040000,
673202407028939-index10121.png
#EXTINF:3.040000,
673202407028939-index10122.png
#EXTINF:3.040000,
673202407028939-index10123.png
#EXTINF:3.040000,
673202407028939-index10124.png
#EXTINF:3.040000,
673202407028939-index10125.png
#EXTINF:3.040000,
673202407028939-index10126.png
#EXTINF:3.040000,
673202407028939-index10127.png
#EXTINF:3.040000,
673202407028939-index10128.png
#EXTINF:3.040000,
673202407028939-index10129.png
#EXTINF:3.040000,
673202407028939-index10130.png
#EXTINF:3.040000,
673202407028939-index10131.png
#EXTINF:3.040000,
673202407028939-index10132.png
#EXTINF:3.040000,
673202407028939-index10133.png
#EXTINF:3.040000,
673202407028939-index10134.png
#EXTINF:3.040000,
673202407028939-index10135.png
#EXTINF:3.040000,
673202407028939-index10136.png
#EXTINF:3.040000,
673202407028939-index10137.png
#EXTINF:3.040000,
673202407028939-index10138.png
#EXTINF:3.040000,
673202407028939-index10139.png
#EXTINF:3.040000,
673202407028939-index10140.png
#EXTINF:3.040000,
673202407028939-index10141.png
#EXTINF:3.040000,
673202407028939-index10142.png
#EXTINF:3.040000,
673202407028939-index10143.png
#EXTINF:3.040000,
673202407028939-index10144.png
#EXTINF:3.040000,
673202407028939-index10145.png
#EXTINF:3.040000,
673202407028939-index10146.png
#EXTINF:3.040000,
673202407028939-index10147.png
#EXTINF:3.040000,
673202407028939-index10148.png
#EXTINF:3.040000,
673202407028939-index10149.png
#EXTINF:3.040000,
673202407028939-index10150.png
#EXTINF:3.040000,
673202407028939-index10151.png
#EXTINF:3.040000,
673202407028939-index10152.png
#EXTINF:3.040000,
673202407028939-index10153.png
#EXTINF:3.040000,
673202407028939-index10154.png
#EXTINF:3.040000,
673202407028939-index10155.png
#EXTINF:3.040000,
673202407028939-index10156.png
#EXTINF:3.040000,
673202407028939-index10157.png
#EXTINF:3.040000,
673202407028939-index10158.png
#EXTINF:3.040000,
673202407028939-index10159.png
#EXTINF:3.040000,
673202407028939-index10160.png
#EXTINF:3.040000,
673202407028939-index10161.png
#EXTINF:3.040000,
673202407028939-index10162.png
#EXTINF:3.040000,
673202407028939-index10163.png
#EXTINF:3.040000,
673202407028939-index10164.png
#EXTINF:3.040000,
673202407028939-index10165.png
#EXTINF:3.040000,
673202407028939-index10166.png
#EXTINF:3.040000,
673202407028939-index10167.png
#EXTINF:3.040000,
673202407028939-index10168.png
#EXTINF:3.040000,
673202407028939-index10169.png
#EXTINF:3.040000,
673202407028939-index10170.png
#EXTINF:3.040000,
673202407028939-index10171.png
#EXTINF:3.040000,
673202407028939-index10172.png
#EXTINF:3.040000,
673202407028939-index10173.png
#EXTINF:3.040000,
673202407028939-index10174.png
#EXTINF:3.040000,
673202407028939-index10175.png
#EXTINF:3.040000,
673202407028939-index10176.png
#EXTINF:3.040000,
673202407028939-index10177.png
#EXTINF:3.040000,
673202407028939-index10178.png
#EXTINF:3.040000,
673202407028939-index10179.png
#EXTINF:3.040000,
673202407028939-index10180.png
#EXTINF:3.040000,
673202407028939-index10181.png
#EXTINF:3.040000,
673202407028939-index10182.png
#EXTINF:3.040000,
673202407028939-index10183.png
#EXTINF:3.040000,
673202407028939-index10184.png
#EXTINF:3.040000,
673202407028939-index10185.png
#EXTINF:3.040000,
673202407028939-index10186.png
#EXTINF:3.040000,
673202407028939-index10187.png
#EXTINF:3.040000,
673202407028939-index10188.png
#EXTINF:3.040000,
673202407028939-index10189.png
#EXTINF:3.040000,
673202407028939-index10190.png
#EXTINF:3.040000,
673202407028939-index10191.png
#EXTINF:3.040000,
673202407028939-index10192.png
#EXTINF:3.040000,
673202407028939-index10193.png
#EXTINF:3.040000,
673202407028939-index10194.png
#EXTINF:3.040000,
673202407028939-index10195.png
#EXTINF:3.040000,
673202407028939-index10196.png
#EXTINF:3.040000,
673202407028939-index10197.png
#EXTINF:3.040000,
673202407028939-index10198.png
#EXTINF:3.040000,
673202407028939-index10199.png
#EXTINF:3.040000,
673202407028939-index10200.png
#EXTINF:3.040000,
673202407028939-index10201.png
#EXTINF:3.040000,
673202407028939-index10202.png
#EXTINF:3.040000,
673202407028939-index10203.png
#EXTINF:3.040000,
673202407028939-index10204.png
#EXTINF:3.040000,
673202407028939-index10205.png
#EXTINF:3.040000,
673202407028939-index10206.png
#EXTINF:3.040000,
673202407028939-index10207.png
#EXTINF:3.040000,
673202407028939-index10208.png
#EXTINF:3.040000,
673202407028939-index10209.png
#EXTINF:3.040000,
673202407028939-index10210.png
#EXTINF:3.040000,
673202407028939-index10211.png
#EXTINF:3.040000,
673202407028939-index10212.png
#EXTINF:3.040000,
673202407028939-index10213.png
#EXTINF:3.040000,
673202407028939-index10214.png
#EXTINF:3.040000,
673202407028939-index10215.png
#EXTINF:3.040000,
673202407028939-index10216.png
#EXTINF:3.040000,
673202407028939-index10217.png
#EXTINF:3.040000,
673202407028939-index10218.png
#EXTINF:3.040000,
673202407028939-index10219.png
#EXTINF:3.040000,
673202407028939-index10220.png
#EXTINF:3.040000,
673202407028939-index10221.png
#EXTINF:3.040000,
673202407028939-index10222.png
#EXTINF:3.040000,
673202407028939-index10223.png
#EXTINF:3.040000,
673202407028939-index10224.png
#EXTINF:3.040000,
673202407028939-index10225.png
#EXTINF:3.040000,
673202407028939-index10226.png
#EXTINF:3.040000,
673202407028939-index10227.png
#EXTINF:3.040000,
673202407028939-index10228.png
#EXTINF:3.040000,
673202407028939-index10229.png
#EXTINF:3.040000,
673202407028939-index10230.png
#EXTINF:3.040000,
673202407028939-index10231.png
#EXTINF:3.040000,
673202407028939-index10232.png
#EXTINF:3.040000,
673202407028939-index10233.png
#EXTINF:3.040000,
673202407028939-index10234.png
#EXTINF:3.040000,
673202407028939-index10235.png
#EXTINF:3.040000,
673202407028939-index10236.png
#EXTINF:3.040000,
673202407028939-index10237.png
#EXTINF:3.040000,
673202407028939-index10238.png
#EXTINF:3.040000,
673202407028939-index10239.png
#EXTINF:3.040000,
673202407028939-index10240.png
#EXTINF:3.040000,
673202407028939-index10241.png
#EXTINF:3.040000,
673202407028939-index10242.png
#EXTINF:3.040000,
673202407028939-index10243.png
#EXTINF:3.040000,
673202407028939-index10244.png
#EXTINF:3.040000,
673202407028939-index10245.png
#EXTINF:3.040000,
673202407028939-index10246.png
#EXTINF:3.040000,
673202407028939-index10247.png
#EXTINF:3.040000,
673202407028939-index10248.png
#EXTINF:3.040000,
673202407028939-index10249.png
#EXTINF:3.040000,
673202407028939-index10250.png
#EXTINF:3.040000,
673202407028939-index10251.png
#EXTINF:3.040000,
673202407028939-index10252.png
#EXTINF:3.040000,
673202407028939-index10253.png
#EXTINF:3.040000,
673202407028939-index10254.png
#EXTINF:3.040000,
673202407028939-index10255.png
#EXTINF:3.040000,
673202407028939-index10256.png
#EXTINF:3.040000,
673202407028939-index10257.png
#EXTINF:3.040000,
673202407028939-index10258.png
#EXTINF:3.040000,
673202407028939-index10259.png
#EXTINF:3.040000,
673202407028939-index10260.png
#EXTINF:3.040000,
673202407028939-index10261.png
#EXTINF:3.040000,
673202407028939-index10262.png
#EXTINF:3.040000,
673202407028939-index10263.png
#EXTINF:3.040000,
673202407028939-index10264.png
#EXTINF:3.040000,
673202407028939-index10265.png
#EXTINF:3.040000,
673202407028939-index10266.png
#EXTINF:3.040000,
673202407028939-index10267.png
#EXTINF:3.040000,
673202407028939-index10268.png
#EXTINF:3.040000,
673202407028939-index10269.png
#EXTINF:3.040000,
673202407028939-index10270.png
#EXTINF:3.040000,
673202407028939-index10271.png
#EXTINF:3.040000,
673202407028939-index10272.png
#EXTINF:3.040000,
673202407028939-index10273.png
#EXTINF:3.040000,
673202407028939-index10274.png
#EXTINF:3.040000,
673202407028939-index10275.png
#EXTINF:3.040000,
673202407028939-index10276.png
#EXTINF:3.040000,
673202407028939-index10277.png
#EXTINF:3.040000,
673202407028939-index10278.png
#EXTINF:3.040000,
673202407028939-index10279.png
#EXTINF:3.040000,
673202407028939-index10280.png
#EXTINF:3.040000,
673202407028939-index10281.png
#EXTINF:3.040000,
673202407028939-index10282.png
#EXTINF:3.040000,
673202407028939-index10283.png
#EXTINF:3.040000,
673202407028939-index10284.png
#EXTINF:3.040000,
673202407028939-index10285.png
#EXTINF:3.040000,
673202407028939-index10286.png
#EXTINF:3.040000,
673202407028939-index10287.png
#EXTINF:3.040000,
673202407028939-index10288.png
#EXTINF:3.040000,
673202407028939-index10289.png
#EXTINF:3.040000,
673202407028939-index10290.png
#EXTINF:3.040000,
673202407028939-index10291.png
#EXTINF:3.040000,
673202407028939-index10292.png
#EXTINF:3.040000,
673202407028939-index10293.png
#EXTINF:3.040000,
673202407028939-index10294.png
#EXTINF:3.040000,
673202407028939-index10295.png
#EXTINF:3.040000,
673202407028939-index10296.png
#EXTINF:3.040000,
673202407028939-index10297.png
#EXTINF:3.040000,
673202407028939-index10298.png
#EXTINF:3.040000,
673202407028939-index10299.png
#EXTINF:3.040000,
673202407028939-index10300.png
#EXTINF:3.040000,
673202407028939-index10301.png
#EXTINF:3.040000,
673202407028939-index10302.png
#EXTINF:3.040000,
673202407028939-index10303.png
#EXTINF:3.040000,
673202407028939-index10304.png
#EXTINF:3.040000,
673202407028939-index10305.png
#EXTINF:3.040000,
673202407028939-index10306.png
#EXTINF:3.040000,
673202407028939-index10307.png
#EXTINF:3.040000,
673202407028939-index10308.png
#EXTINF:3.040000,
673202407028939-index10309.png
#EXTINF:3.040000,
673202407028939-index10310.png
#EXTINF:3.040000,
673202407028939-index10311.png
#EXTINF:3.040000,
673202407028939-index10312.png
#EXTINF:3.040000,
673202407028939-index10313.png
#EXTINF:3.040000,
673202407028939-index10314.png
#EXTINF:3.040000,
673202407028939-index10315.png
#EXTINF:3.040000,
673202407028939-index10316.png
#EXTINF:3.040000,
673202407028939-index10317.png
#EXTINF:3.040000,
673202407028939-index10318.png
#EXTINF:3.040000,
673202407028939-index10319.png
#EXTINF:3.040000,
673202407028939-index10320.png
#EXTINF:3.040000,
673202407028939-index10321.png
#EXTINF:3.040000,
673202407028939-index10322.png
#EXTINF:3.040000,
673202407028939-index10323.png
#EXTINF:3.040000,
673202407028939-index10324.png
#EXTINF:3.040000,
673202407028939-index10325.png
#EXTINF:3.040000,
673202407028939-index10326.png
#EXTINF:3.040000,
673202407028939-index10327.png
#EXTINF:3.040000,
673202407028939-index10328.png
#EXTINF:3.040000,
673202407028939-index10329.png
#EXTINF:3.040000,
673202407028939-index10330.png
#EXTINF:3.040000,
673202407028939-index10331.png
#EXTINF:3.040000,
673202407028939-index10332.png
#EXTINF:3.040000,
673202407028939-index10333.png
#EXTINF:3.040000,
673202407028939-index10334.png
#EXTINF:3.040000,
673202407028939-index10335.png
#EXTINF:3.040000,
673202407028939-index10336.png
#EXTINF:3.040000,
673202407028939-index10337.png
#EXTINF:3.040000,
673202407028939-index10338.png
#EXTINF:3.040000,
673202407028939-index10339.png
#EXTINF:3.040000,
673202407028939-index10340.png
#EXTINF:3.040000,
673202407028939-index10341.png
#EXTINF:3.040000,
673202407028939-index10342.png
#EXTINF:3.040000,
673202407028939-index10343.png
#EXTINF:3.040000,
673202407028939-index10344.png
#EXTINF:3.040000,
673202407028939-index10345.png
#EXTINF:3.040000,
673202407028939-index10346.png
#EXTINF:3.040000,
673202407028939-index10347.png
#EXTINF:3.040000,
673202407028939-index10348.png
#EXTINF:3.040000,
673202407028939-index10349.png
#EXTINF:3.040000,
673202407028939-index10350.png
#EXTINF:3.040000,
673202407028939-index10351.png
#EXTINF:3.040000,
673202407028939-index10352.png
#EXTINF:3.040000,
673202407028939-index10353.png
#EXTINF:3.040000,
673202407028939-index10354.png
#EXTINF:3.040000,
673202407028939-index10355.png
#EXTINF:3.040000,
673202407028939-index10356.png
#EXTINF:3.040000,
673202407028939-index10357.png
#EXTINF:3.040000,
673202407028939-index10358.png
#EXTINF:3.040000,
673202407028939-index10359.png
#EXTINF:3.040000,
673202407028939-index10360.png
#EXTINF:3.040000,
673202407028939-index10361.png
#EXTINF:3.040000,
673202407028939-index10362.png
#EXTINF:3.040000,
673202407028939-index10363.png
#EXTINF:3.040000,
673202407028939-index10364.png
#EXTINF:3.040000,
673202407028939-index10365.png
#EXTINF:3.040000,
673202407028939-index10366.png
#EXTINF:3.040000,
673202407028939-index10367.png
#EXTINF:3.040000,
673202407028939-index10368.png
#EXTINF:3.040000,
673202407028939-index10369.png
#EXTINF:3.040000,
673202407028939-index10370.png
#EXTINF:3.040000,
673202407028939-index10371.png
#EXTINF:3.040000,
673202407028939-index10372.png
#EXTINF:3.040000,
673202407028939-index10373.png
#EXTINF:3.040000,
673202407028939-index10374.png
#EXTINF:3.040000,
673202407028939-index10375.png
#EXTINF:3.040000,
673202407028939-index10376.png
#EXTINF:3.040000,
673202407028939-index10377.png
#EXTINF:3.040000,
673202407028939-index10378.png
#EXTINF:3.040000,
673202407028939-index10379.png
#EXTINF:3.040000,
673202407028939-index10380.png
#EXTINF:3.040000,
673202407028939-index10381.png
#EXTINF:3.040000,
673202407028939-index10382.png
#EXTINF:3.040000,
673202407028939-index10383.png
#EXTINF:3.040000,
673202407028939-index10384.png
#EXTINF:3.040000,
673202407028939-index10385.png
#EXTINF:3.040000,
673202407028939-index10386.png
#EXTINF:3.040000,
673202407028939-index10387.png
#EXTINF:3.040000,
673202407028939-index10388.png
#EXTINF:3.040000,
673202407028939-index10389.png
#EXTINF:3.040000,
673202407028939-index10390.png
#EXTINF:3.040000,
673202407028939-index10391.png
#EXTINF:3.040000,
673202407028939-index10392.png
#EXTINF:3.040000,
673202407028939-index10393.png
#EXTINF:3.040000,
673202407028939-index10394.png
#EXTINF:3.040000,
673202407028939-index10395.png
#EXTINF:3.040000,
673202407028939-index10396.png
#EXTINF:3.040000,
673202407028939-index10397.png
#EXTINF:3.040000,
673202407028939-index10398.png
#EXTINF:3.040000,
673202407028939-index10399.png
#EXTINF:3.040000,
673202407028939-index10400.png
#EXTINF:3.040000,
673202407028939-index10401.png
#EXTINF:3.040000,
673202407028939-index10402.png
#EXTINF:3.040000,
673202407028939-index10403.png
#EXTINF:3.040000,
673202407028939-index10404.png
#EXTINF:3.040000,
673202407028939-index10405.png
#EXTINF:3.040000,
673202407028939-index10406.png
#EXTINF:3.040000,
673202407028939-index10407.png
#EXTINF:3.040000,
673202407028939-index10408.png
#EXTINF:3.040000,
673202407028939-index10409.png
#EXTINF:3.040000,
673202407028939-index10410.png
#EXTINF:3.040000,
673202407028939-index10411.png
#EXTINF:3.040000,
673202407028939-index10412.png
#EXTINF:3.040000,
673202407028939-index10413.png
#EXTINF:3.040000,
673202407028939-index10414.png
#EXTINF:3.040000,
673202407028939-index10415.png
#EXTINF:3.040000,
673202407028939-index10416.png
#EXTINF:3.040000,
673202407028939-index10417.png
#EXTINF:3.040000,
673202407028939-index10418.png
#EXTINF:3.040000,
673202407028939-index10419.png
#EXTINF:3.040000,
673202407028939-index10420.png
#EXTINF:3.040000,
673202407028939-index10421.png
#EXTINF:3.040000,
673202407028939-index10422.png
#EXTINF:3.040000,
673202407028939-index10423.png
#EXTINF:3.040000,
673202407028939-index10424.png
#EXTINF:3.040000,
673202407028939-index10425.png
#EXTINF:3.040000,
673202407028939-index10426.png
#EXTINF:3.040000,
673202407028939-index10427.png
#EXTINF:3.040000,
673202407028939-index10428.png
#EXTINF:3.040000,
673202407028939-index10429.png
#EXTINF:3.040000,
673202407028939-index10430.png
#EXTINF:3.040000,
673202407028939-index10431.png
#EXTINF:3.040000,
673202407028939-index10432.png
#EXTINF:3.040000,
673202407028939-index10433.png
#EXTINF:3.040000,
673202407028939-index10434.png
#EXTINF:3.040000,
673202407028939-index10435.png
#EXTINF:3.040000,
673202407028939-index10436.png
#EXTINF:3.040000,
673202407028939-index10437.png
#EXTINF:3.040000,
673202407028939-index10438.png
#EXTINF:3.040000,
673202407028939-index10439.png
#EXTINF:3.040000,
673202407028939-index10440.png
#EXTINF:3.040000,
673202407028939-index10441.png
#EXTINF:3.040000,
673202407028939-index10442.png
#EXTINF:3.040000,
673202407028939-index10443.png
#EXTINF:3.040000,
673202407028939-index10444.png
#EXTINF:3.040000,
673202407028939-index10445.png
#EXTINF:3.040000,
673202407028939-index10446.png
#EXTINF:3.040000,
673202407028939-index10447.png
#EXTINF:3.040000,
673202407028939-index10448.png
#EXTINF:3.040000,
673202407028939-index10449.png
#EXTINF:3.040000,
673202407028939-index10450.png
#EXTINF:3.040000,
673202407028939-index10451.png
#EXTINF:3.040000,
673202407028939-index10452.png
#EXTINF:3.040000,
673202407028939-index10453.png
#EXTINF:3.040000,
673202407028939-index10454.png
#EXTINF:3.040000,
673202407028939-index10455.png
#EXTINF:3.040000,
673202407028939-index10456.png
#EXTINF:3.040000,
673202407028939-index10457.png
#EXTINF:3.040000,
673202407028939-index10458.png
#EXTINF:3.040000,
673202407028939-index10459.png
#EXTINF:3.040000,
673202407028939-index10460.png
#EXTINF:3.040000,
673202407028939-index10461.png
#EXTINF:3.040000,
673202407028939-index10462.png
#EXTINF:3.040000,
673202407028939-index10463.png
#EXTINF:3.040000,
673202407028939-index10464.png
#EXTINF:3.040000,
673202407028939-index10465.png
#EXTINF:3.040000,
673202407028939-index10466.png
#EXTINF:3.040000,
673202407028939-index10467.png
#EXTINF:3.040000,
673202407028939-index10468.png
#EXTINF:3.040000,
673202407028939-index10469.png
#EXTINF:3.040000,
673202407028939-index10470.png
#EXTINF:3.040000,
673202407028939-index10471.png
#EXTINF:3.040000,
673202407028939-index10472.png
#EXTINF:3.040000,
673202407028939-index10473.png
#EXTINF:3.040000,
673202407028939-index10474.png
#EXTINF:3.040000,
673202407028939-index10475.png
#EXTINF:3.040000,
673202407028939-index10476.png
#EXTINF:3.040000,
673202407028939-index10477.png
#EXTINF:3.040000,
673202407028939-index10478.png
#EXTINF:3.040000,
673202407028939-index10479.png
#EXTINF:3.040000,
673202407028939-index10480.png
#EXTINF:3.040000,
673202407028939-index10481.png
#EXTINF:3.040000,
673202407028939-index10482.png
#EXTINF:3.040000,
673202407028939-index10483.png
#EXTINF:3.040000,
673202407028939-index10484.png
#EXTINF:3.040000,
673202407028939-index10485.png
#EXTINF:3.040000,
673202407028939-index10486.png
#EXTINF:3.040000,
673202407028939-index10487.png
#EXTINF:3.040000,
673202407028939-index10488.png
#EXTINF:3.040000,
673202407028939-index10489.png
#EXTINF:3.040000,
673202407028939-index10490.png
#EXTINF:3.040000,
673202407028939-index10491.png
#EXTINF:3.040000,
673202407028939-index10492.png
#EXTINF:3.040000,
673202407028939-index10493.png
#EXTINF:3.040000,
673202407028939-index10494.png
#EXTINF:3.040000,
673202407028939-index10495.png
#EXTINF:3.040000,
673202407028939-index10496.png
#EXTINF:3.040000,
673202407028939-index10497.png
#EXTINF:3.040000,
673202407028939-index10498.png
#EXTINF:3.040000,
673202407028939-index10499.png
#EXTINF:3.040000,
673202407028939-index10500.png
#EXTINF:3.040000,
673202407028939-index10501.png
#EXTINF:3.040000,
673202407028939-index10502.png
#EXTINF:3.040000,
673202407028939-index10503.png
#EXTINF:3.040000,
673202407028939-index10504.png
#EXTINF:3.040000,
673202407028939-index10505.png
#EXTINF:3.040000,
673202407028939-index10506.png
#EXTINF:3.040000,
673202407028939-index10507.png
#EXTINF:3.040000,
673202407028939-index10508.png
#EXTINF:3.040000,
673202407028939-index10509.png
#EXTINF:3.040000,
673202407028939-index10510.png
#EXTINF:3.040000,
673202407028939-index10511.png
#EXTINF:3.040000,
673202407028939-index10512.png
#EXTINF:3.040000,
673202407028939-index10513.png
#EXTINF:3.040000,
673202407028939-index10514.png
#EXTINF:3.040000,
673202407028939-index10515.png
#EXTINF:3.040000,
673202407028939-index10516.png
#EXTINF:3.040000,
673202407028939-index10517.png
#EXTINF:3.040000,
673202407028939-index10518.png
#EXTINF:3.040000,
673202407028939-index10519.png
#EXTINF:3.040000,
673202407028939-index10520.png
#EXTINF:3.040000,
673202407028939-index10521.png
#EXTINF:3.040000,
673202407028939-index10522.png
#EXTINF:3.040000,
673202407028939-index10523.png
#EXTINF:3.040000,
673202407028939-index10524.png
#EXTINF:3.040000,
673202407028939-index10525.png
#EXTINF:3.040000,
673202407028939-index10526.png
#EXTINF:3.040000,
673202407028939-index10527.png
#EXTINF:3.040000,
673202407028939-index10528.png
#EXTINF:3.040000,
673202407028939-index10529.png
#EXTINF:3.040000,
673202407028939-index10530.png
#EXTINF:3.040000,
673202407028939-index10531.png
#EXTINF:3.040000,
673202407028939-index10532.png
#EXTINF:3.040000,
673202407028939-index10533.png
#EXTINF:3.040000,
673202407028939-index10534.png
#EXTINF:3.040000,
673202407028939-index10535.png
#EXTINF:3.040000,
673202407028939-index10536.png
#EXTINF:3.040000,
673202407028939-index10537.png
#EXTINF:3.040000,
673202407028939-index10538.png
#EXTINF:3.040000,
673202407028939-index10539.png
#EXTINF:3.040000,
673202407028939-index10540.png
#EXTINF:3.040000,
673202407028939-index10541.png
#EXTINF:3.040000,
673202407028939-index10542.png
#EXTINF:3.040000,
673202407028939-index10543.png
#EXTINF:3.040000,
673202407028939-index10544.png
#EXTINF:3.040000,
673202407028939-index10545.png
#EXTINF:3.040000,
673202407028939-index10546.png
#EXTINF:3.040000,
673202407028939-index10547.png
#EXTINF:3.040000,
673202407028939-index10548.png
#EXTINF:3.040000,
673202407028939-index10549.png
#EXTINF:3.040000,
673202407028939-index10550.png
#EXTINF:3.040000,
673202407028939-index10551.png
#EXTINF:3.040000,
673202407028939-index10552.png
#EXTINF:3.040000,
673202407028939-index10553.png
#EXTINF:3.040000,
673202407028939-index10554.png
#EXTINF:3.040000,
673202407028939-index10555.png
#EXTINF:3.040000,
673202407028939-index10556.png
#EXTINF:3.040000,
673202407028939-index10557.png
#EXTINF:3.040000,
673202407028939-index10558.png
#EXTINF:3.040000,
673202407028939-index10559.png
#EXTINF:3.040000,
673202407028939-index10560.png
#EXTINF:3.040000,
673202407028939-index10561.png
#EXTINF:3.040000,
673202407028939-index10562.png
#EXTINF:3.040000,
673202407028939-index10563.png
#EXTINF:3.040000,
673202407028939-index10564.png
#EXTINF:3.040000,
673202407028939-index10565.png
#EXTINF:3.040000,
673202407028939-index10566.png
#EXTINF:3.040000,
673202407028939-index10567.png
#EXTINF:3.040000,
673202407028939-index10568.png
#EXTINF:3.040000,
673202407028939-index10569.png
#EXTINF:3.040000,
673202407028939-index10570.png
#EXTINF:3.040000,
673202407028939-index10571.png
#EXTINF:3.040000,
673202407028939-index10572.png
#EXTINF:3.040000,
673202407028939-index10573.png
#EXTINF:3.040000,
673202407028939-index10574.png
#EXTINF:3.040000,
673202407028939-index10575.png
#EXTINF:3.040000,
673202407028939-index10576.png
#EXTINF:3.040000,
673202407028939-index10577.png
#EXTINF:3.040000,
673202407028939-index10578.png
#EXTINF:3.040000,
673202407028939-index10579.png
#EXTINF:3.040000,
673202407028939-index10580.png
#EXTINF:3.040000,
673202407028939-index10581.png
#EXTINF:3.040000,
673202407028939-index10582.png
#EXTINF:3.040000,
673202407028939-index10583.png
#EXTINF:3.040000,
673202407028939-index10584.png
#EXTINF:3.040000,
673202407028939-index10585.png
#EXTINF:3.040000,
673202407028939-index10586.png
#EXTINF:3.040000,
673202407028939-index10587.png
#EXTINF:3.040000,
673202407028939-index10588.png
#EXTINF:3.040000,
673202407028939-index10589.png
#EXTINF:3.040000,
673202407028939-index10590.png
#EXTINF:3.040000,
673202407028939-index10591.png
#EXTINF:3.040000,
673202407028939-index10592.png
#EXTINF:3.040000,
673202407028939-index10593.png
#EXTINF:3.040000,
673202407028939-index10594.png
#EXTINF:3.040000,
673202407028939-index10595.png
#EXTINF:3.040000,
673202407028939-index10596.png
#EXTINF:3.040000,
673202407028939-index10597.png
#EXTINF:3.040000,
673202407028939-index10598.png
#EXTINF:3.040000,
673202407028939-index10599.png
#EXTINF:3.040000,
673202407028939-index10600.png
#EXTINF:3.040000,
673202407028939-index10601.png
#EXTINF:3.040000,
673202407028939-index10602.png
#EXTINF:3.040000,
673202407028939-index10603.png
#EXTINF:3.040000,
673202407028939-index10604.png
#EXTINF:3.040000,
673202407028939-index10605.png
#EXTINF:3.040000,
673202407028939-index10606.png
#EXTINF:3.040000,
673202407028939-index10607.png
#EXTINF:3.040000,
673202407028939-index10608.png
#EXTINF:3.040000,
673202407028939-index10609.png
#EXTINF:3.040000,
673202407028939-index10610.png
#EXTINF:3.040000,
673202407028939-index10611.png
#EXTINF:3.040000,
673202407028939-index10612.png
#EXTINF:3.040000,
673202407028939-index10613.png
#EXTINF:3.040000,
673202407028939-index10614.png
#EXTINF:3.040000,
673202407028939-index10615.png
#EXTINF:3.040000,
673202407028939-index10616.png
#EXTINF:3.040000,
673202407028939-index10617.png
#EXTINF:3.040000,
673202407028939-index10618.png
#EXTINF:3.040000,
673202407028939-index10619.png
#EXTINF:3.040000,
673202407028939-index10620.png
#EXTINF:3.040000,
673202407028939-index10621.png
#EXTINF:3.040000,
673202407028939-index10622.png
#EXTINF:3.040000,
673202407028939-index10623.png
#EXTINF:3.040000,
673202407028939-index10624.png
#EXTINF:3.040000,
673202407028939-index10625.png
#EXTINF:3.040000,
673202407028939-index10626.png
#EXTINF:3.040000,
673202407028939-index10627.png
#EXTINF:3.040000,
673202407028939-index10628.png
#EXTINF:3.040000,
673202407028939-index10629.png
#EXTINF:3.040000,
673202407028939-index10630.png
#EXTINF:3.040000,
673202407028939-index10631.png
#EXTINF:3.040000,
673202407028939-index10632.png
#EXTINF:3.040000,
673202407028939-index10633.png
#EXTINF:3.040000,
673202407028939-index10634.png
#EXTINF:3.040000,
673202407028939-index10635.png
#EXTINF:3.040000,
673202407028939-index10636.png
#EXTINF:3.040000,
673202407028939-index10637.png
#EXTINF:3.040000,
673202407028939-index10638.png
#EXTINF:3.040000,
673202407028939-index10639.png
#EXTINF:3.040000,
673202407028939-index10640.png
#EXTINF:3.040000,
673202407028939-index10641.png
#EXTINF:3.040000,
673202407028939-index10642.png
#EXTINF:3.040000,
673202407028939-index10643.png
#EXTINF:3.040000,
673202407028939-index10644.png
#EXTINF:3.040000,
673202407028939-index10645.png
#EXTINF:3.040000,
673202407028939-index10646.png
#EXTINF:3.040000,
673202407028939-index10647.png
#EXTINF:3.040000,
673202407028939-index10648.png
#EXTINF:3.040000,
673202407028939-index10649.png
#EXTINF:3.040000,
673202407028939-index10650.png
#EXTINF:3.040000,
673202407028939-index10651.png
#EXTINF:3.040000,
673202407028939-index10652.png
#EXTINF:3.040000,
673202407028939-index10653.png
#EXTINF:3.040000,
673202407028939-index10654.png
#EXTINF:3.040000,
673202407028939-index10655.png
#EXTINF:3.040000,
673202407028939-index10656.png
#EXTINF:3.040000,
673202407028939-index10657.png
#EXTINF:3.040000,
673202407028939-index10658.png
#EXTINF:3.040000,
673202407028939-index10659.png
#EXTINF:3.040000,
673202407028939-index10660.png
#EXTINF:3.040000,
673202407028939-index10661.png
#EXTINF:3.040000,
673202407028939-index10662.png
#EXTINF:3.040000,
673202407028939-index10663.png
#EXTINF:3.040000,
673202407028939-index10664.png
#EXTINF:3.040000,
673202407028939-index10665.png
#EXTINF:3.040000,
673202407028939-index10666.png
#EXTINF:3.040000,
673202407028939-index10667.png
#EXTINF:3.040000,
673202407028939-index10668.png
#EXTINF:3.040000,
673202407028939-index10669.png
#EXTINF:3.040000,
673202407028939-index10670.png
#EXTINF:3.040000,
673202407028939-index10671.png
#EXTINF:3.040000,
673202407028939-index10672.png
#EXTINF:3.040000,
673202407028939-index10673.png
#EXTINF:3.040000,
673202407028939-index10674.png
#EXTINF:3.040000,
673202407028939-index10675.png
#EXTINF:3.040000,
673202407028939-index10676.png
#EXTINF:3.040000,
673202407028939-index10677.png
#EXTINF:3.040000,
673202407028939-index10678.png
#EXTINF:3.040000,
673202407028939-index10679.png
#EXTINF:3.040000,
673202407028939-index10680.png
#EXTINF:3.040000,
673202407028939-index10681.png
#EXTINF:3.040000,
673202407028939-index10682.png
#EXTINF:3.040000,
673202407028939-index10683.png
#EXTINF:3.040000,
673202407028939-index10684.png
#EXTINF:3.040000,
673202407028939-index10685.png
#EXTINF:3.040000,
673202407028939-index10686.png
#EXTINF:3.040000,
673202407028939-index10687.png
#EXTINF:3.040000,
673202407028939-index10688.png
#EXTINF:3.040000,
673202407028939-index10689.png
#EXTINF:3.040000,
673202407028939-index10690.png
#EXTINF:3.040000,
673202407028939-index10691.png
#EXTINF:3.040000,
673202407028939-index10692.png
#EXTINF:3.040000,
673202407028939-index10693.png
#EXTINF:3.040000,
673202407028939-index10694.png
#EXTINF:3.040000,
673202407028939-index10695.png
#EXTINF:3.040000,
673202407028939-index10696.png
#EXTINF:3.040000,
673202407028939-index10697.png
#EXTINF:3.040000,
673202407028939-index10698.png
#EXTINF:3.040000,
673202407028939-index10699.png
#EXTINF:3.040000,
673202407028939-index10700.png
#EXTINF:3.040000,
673202407028939-index10701.png
#EXTINF:3.040000,
673202407028939-index10702.png
#EXTINF:3.040000,
673202407028939-index10703.png
#EXTINF:3.040000,
673202407028939-index10704.png
#EXTINF:3.040000,
673202407028939-index10705.png
#EXTINF:3.040000,
673202407028939-index10706.png
#EXTINF:3.040000,
673202407028939-index10707.png
#EXTINF:3.040000,
673202407028939-index10708.png
#EXTINF:3.040000,
673202407028939-index10709.png
#EXTINF:3.040000,
673202407028939-index10710.png
#EXTINF:3.040000,
673202407028939-index10711.png
#EXTINF:3.040000,
673202407028939-index10712.png
#EXTINF:3.040000,
673202407028939-index10713.png
#EXTINF:3.040000,
673202407028939-index10714.png
#EXTINF:3.040000,
673202407028939-index10715.png
#EXTINF:3.040000,
673202407028939-index10716.png
#EXTINF:3.040000,
673202407028939-index10717.png
#EXTINF:3.040000,
673202407028939-index10718.png
#EXTINF:3.040000,
673202407028939-index10719.png
#EXTINF:3.040000,
673202407028939-index10720.png
#EXTINF:3.040000,
673202407028939-index10721.png
#EXTINF:3.040000,
673202407028939-index10722.png
#EXTINF:3.040000,
673202407028939-index10723.png
#EXTINF:3.040000,
673202407028939-index10724.png
#EXTINF:3.040000,
673202407028939-index10725.png
#EXTINF:3.040000,
673202407028939-index10726.png
#EXTINF:3.040000,
673202407028939-index10727.png
#EXTINF:3.040000,
673202407028939-index10728.png
#EXTINF:3.040000,
673202407028939-index10729.png
#EXTINF:3.040000,
673202407028939-index10730.png
#EXTINF:3.040000,
673202407028939-index10731.png
#EXTINF:3.040000,
673202407028939-index10732.png
#EXTINF:3.040000,
673202407028939-index10733.png
#EXTINF:3.040000,
673202407028939-index10734.png
#EXTINF:3.040000,
673202407028939-index10735.png
#EXTINF:3.040000,
673202407028939-index10736.png
#EXTINF:3.040000,
673202407028939-index10737.png
#EXTINF:3.040000,
673202407028939-index10738.png
#EXTINF:3.040000,
673202407028939-index10739.png
#EXTINF:3.040000,
673202407028939-index10740.png
#EXTINF:3.040000,
673202407028939-index10741.png
#EXTINF:3.040000,
673202407028939-index10742.png
#EXTINF:3.040000,
673202407028939-index10743.png
#EXTINF:3.040000,
673202407028939-index10744.png
#EXTINF:3.040000,
673202407028939-index10745.png
#EXTINF:3.040000,
673202407028939-index10746.png
#EXTINF:3.040000,
673202407028939-index10747.png
#EXTINF:3.040000,
673202407028939-index10748.png
#EXTINF:3.040000,
673202407028939-index10749.png
#EXTINF:3.040000,
673202407028939-index10750.png
#EXTINF:3.040000,
673202407028939-index10751.png
#EXTINF:3.040000,
673202407028939-index10752.png
#EXTINF:3.040000,
673202407028939-index10753.png
#EXTINF:3.040000,
673202407028939-index10754.png
#EXTINF:3.040000,
673202407028939-index10755.png
#EXTINF:3.040000,
673202407028939-index10756.png
#EXTINF:3.040000,
673202407028939-index10757.png
#EXTINF:3.040000,
673202407028939-index10758.png
#EXTINF:3.040000,
673202407028939-index10759.png
#EXTINF:3.040000,
673202407028939-index10760.png
#EXTINF:3.040000,
673202407028939-index10761.png
#EXTINF:3.040000,
673202407028939-index10762.png
#EXTINF:3.040000,
673202407028939-index10763.png
#EXTINF:3.040000,
673202407028939-index10764.png
#EXTINF:3.040000,
673202407028939-index10765.png
#EXTINF:3.040000,
673202407028939-index10766.png
#EXTINF:3.040000,
673202407028939-index10767.png
#EXTINF:3.040000,
673202407028939-index10768.png
#EXTINF:3.040000,
673202407028939-index10769.png
#EXTINF:3.040000,
673202407028939-index10770.png
#EXTINF:3.040000,
673202407028939-index10771.png
#EXTINF:3.040000,
673202407028939-index10772.png
#EXTINF:3.040000,
673202407028939-index10773.png
#EXTINF:3.040000,
673202407028939-index10774.png
#EXTINF:3.040000,
673202407028939-index10775.png
#EXTINF:3.040000,
673202407028939-index10776.png
#EXTINF:3.040000,
673202407028939-index10777.png
#EXTINF:3.040000,
673202407028939-index10778.png
#EXTINF:3.040000,
673202407028939-index10779.png
#EXTINF:3.040000,
673202407028939-index10780.png
#EXTINF:3.040000,
673202407028939-index10781.png
#EXTINF:3.040000,
673202407028939-index10782.png
#EXTINF:3.040000,
673202407028939-index10783.png
#EXTINF:3.040000,
673202407028939-index10784.png
#EXTINF:3.040000,
673202407028939-index10785.png
#EXTINF:3.040000,
673202407028939-index10786.png
#EXTINF:3.040000,
673202407028939-index10787.png
#EXTINF:3.040000,
673202407028939-index10788.png
#EXTINF:3.040000,
673202407028939-index10789.png
#EXTINF:3.040000,
673202407028939-index10790.png
#EXTINF:3.040000,
673202407028939-index10791.png
#EXTINF:3.040000,
673202407028939-index10792.png
#EXTINF:3.040000,
673202407028939-index10793.png
#EXTINF:3.040000,
673202407028939-index10794.png
#EXTINF:3.040000,
673202407028939-index10795.png
#EXTINF:3.040000,
673202407028939-index10796.png
#EXTINF:3.040000,
673202407028939-index10797.png
#EXTINF:3.040000,
673202407028939-index10798.png
#EXTINF:3.040000,
673202407028939-index10799.png
#EXTINF:3.040000,
673202407028939-index10800.png
#EXTINF:3.040000,
673202407028939-index10801.png
#EXTINF:3.040000,
673202407028939-index10802.png
#EXTINF:3.040000,
673202407028939-index10803.png
#EXTINF:3.040000,
673202407028939-index10804.png
#EXTINF:3.040000,
673202407028939-index10805.png
#EXTINF:3.040000,
673202407028939-index10806.png
#EXTINF:3.040000,
673202407028939-index10807.png
#EXTINF:3.040000,
673202407028939-index10808.png
#EXTINF:3.040000,
673202407028939-index10809.png
#EXTINF:3.040000,
673202407028939-index10810.png
#EXTINF:3.040000,
673202407028939-index10811.png
#EXTINF:3.040000,
673202407028939-index10812.png
#EXTINF:3.040000,
673202407028939-index10813.png
#EXTINF:3.040000,
673202407028939-index10814.png
#EXTINF:3.040000,
673202407028939-index10815.png
#EXTINF:3.040000,
673202407028939-index10816.png
#EXTINF:3.040000,
673202407028939-index10817.png
#EXTINF:3.040000,
673202407028939-index10818.png
#EXTINF:3.040000,
673202407028939-index10819.png
#EXTINF:3.040000,
673202407028939-index10820.png
#EXTINF:3.040000,
673202407028939-index10821.png
#EXTINF:3.040000,
673202407028939-index10822.png
#EXTINF:3.040000,
673202407028939-index10823.png
#EXTINF:3.040000,
673202407028939-index10824.png
#EXTINF:3.040000,
673202407028939-index10825.png
#EXTINF:3.040000,
673202407028939-index10826.png
#EXTINF:3.040000,
673202407028939-index10827.png
#EXTINF:3.040000,
673202407028939-index10828.png
#EXTINF:3.040000,
673202407028939-index10829.png
#EXTINF:3.040000,
673202407028939-index10830.png
#EXTINF:3.040000,
673202407028939-index10831.png
#EXTINF:3.040000,
673202407028939-index10832.png
#EXTINF:3.040000,
673202407028939-index10833.png
#EXTINF:3.040000,
673202407028939-index10834.png
#EXTINF:3.040000,
673202407028939-index10835.png
#EXTINF:3.040000,
673202407028939-index10836.png
#EXTINF:3.040000,
673202407028939-index10837.png
#EXTINF:3.040000,
673202407028939-index10838.png
#EXTINF:3.040000,
673202407028939-index10839.png
#EXTINF:3.040000,
673202407028939-index10840.png
#EXTINF:3.040000,
673202407028939-index10841.png
#EXTINF:3.040000,
673202407028939-index10842.png
#EXTINF:3.040000,
673202407028939-index10843.png
#EXTINF:3.040000,
673202407028939-index10844.png
#EXTINF:3.040000,
673202407028939-index10845.png
#EXTINF:3.040000,
673202407028939-index10846.png
#EXTINF:3.040000,
673202407028939-index10847.png
#EXTINF:3.040000,
673202407028939-index10848.png
#EXTINF:3.040000,
673202407028939-index10849.png
#EXTINF:3.040000,
673202407028939-index10850.png
#EXTINF:3.040000,
673202407028939-index10851.png
#EXTINF:3.040000,
673202407028939-index10852.png
#EXTINF:3.040000,
673202407028939-index10853.png
#EXTINF:3.040000,
673202407028939-index10854.png
#EXTINF:3.040000,
673202407028939-index10855.png
#EXTINF:3.040000,
673202407028939-index10856.png
#EXTINF:3.040000,
673202407028939-index10857.png
#EXTINF:3.040000,
673202407028939-index10858.png
#EXTINF:3.040000,
673202407028939-index10859.png
#EXTINF:3.040000,
673202407028939-index10860.png
#EXTINF:3.040000,
673202407028939-index10861.png
#EXTINF:3.040000,
673202407028939-index10862.png
#EXTINF:3.040000,
673202407028939-index10863.png
#EXTINF:3.040000,
673202407028939-index10864.png
#EXTINF:3.040000,
673202407028939-index10865.png
#EXTINF:3.040000,
673202407028939-index10866.png
#EXTINF:3.040000,
673202407028939-index10867.png
#EXTINF:3.040000,
673202407028939-index10868.png
#EXTINF:3.040000,
673202407028939-index10869.png
#EXTINF:3.040000,
673202407028939-index10870.png
#EXTINF:3.040000,
673202407028939-index10871.png
#EXTINF:3.040000,
673202407028939-index10872.png
#EXTINF:3.040000,
673202407028939-index10873.png
#EXTINF:3.040000,
673202407028939-index10874.png
#EXTINF:3.040000,
673202407028939-index10875.png
#EXTINF:3.040000,
673202407028939-index10876.png
#EXTINF:3.040000,
673202407028939-index10877.png
#EXTINF:3.040000,
673202407028939-index10878.png
#EXTINF:3.040000,
673202407028939-index10879.png
#EXTINF:3.040000,
673202407028939-index10880.png
#EXTINF:3.040000,
673202407028939-index10881.png
#EXTINF:3.040000,
673202407028939-index10882.png
#EXTINF:3.040000,
673202407028939-index10883.png
#EXTINF:3.040000,
673202407028939-index10884.png
#EXTINF:3.040000,
673202407028939-index10885.png
#EXTINF:3.040000,
673202407028939-index10886.png
#EXTINF:3.040000,
673202407028939-index10887.png
#EXTINF:3.040000,
673202407028939-index10888.png
#EXTINF:3.040000,
673202407028939-index10889.png
#EXTINF:3.040000,
673202407028939-index10890.png
#EXTINF:3.040000,
673202407028939-index10891.png
#EXTINF:3.040000,
673202407028939-index10892.png
#EXTINF:3.040000,
673202407028939-index10893.png
#EXTINF:3.040000,
673202407028939-index10894.png
#EXTINF:3.040000,
673202407028939-index10895.png
#EXTINF:3.040000,
673202407028939-index10896.png
#EXTINF:3.040000,
673202407028939-index10897.png
#EXTINF:3.040000,
673202407028939-index10898.png
#EXTINF:3.040000,
673202407028939-index10899.png
#EXTINF:3.040000,
673202407028939-index10900.png
#EXTINF:3.040000,
673202407028939-index10901.png
#EXTINF:3.040000,
673202407028939-index10902.png
#EXTINF:3.040000,
673202407028939-index10903.png
#EXTINF:3.040000,
673202407028939-index10904.png
#EXTINF:3.040000,
673202407028939-index10905.png
#EXTINF:3.040000,
673202407028939-index10906.png
#EXTINF:3.040000,
673202407028939-index10907.png
#EXTINF:3.040000,
673202407028939-index10908.png
#EXTINF:3.040000,
673202407028939-index10909.png
#EXTINF:3.040000,
673202407028939-index10910.png
#EXTINF:3.040000,
673202407028939-index10911.png
#EXTINF:3.040000,
673202407028939-index10912.png
#EXTINF:3.040000,
673202407028939-index10913.png
#EXTINF:3.040000,
673202407028939-index10914.png
#EXTINF:3.040000,
673202407028939-index10915.png
#EXTINF:3.040000,
673202407028939-index10916.png
#EXTINF:3.040000,
673202407028939-index10917.png
#EXTINF:3.040000,
673202407028939-index10918.png
#EXTINF:3.040000,
673202407028939-index10919.png
#EXTINF:3.040000,
673202407028939-index10920.png
#EXTINF:3.040000,
673202407028939-index10921.png
#EXTINF:3.040000,
673202407028939-index10922.png
#EXTINF:3.040000,
673202407028939-index10923.png
#EXTINF:3.040000,
673202407028939-index10924.png
#EXTINF:3.040000,
673202407028939-index10925.png
#EXTINF:3.040000,
673202407028939-index10926.png
#EXTINF:3.040000,
673202407028939-index10927.png
#EXTINF:3.040000,
673202407028939-index10928.png
#EXTINF:3.040000,
673202407028939-index10929.png
#EXTINF:3.040000,
673202407028939-index10930.png
#EXTINF:3.040000,
673202407028939-index10931.png
#EXTINF:3.040000,
673202407028939-index10932.png
#EXTINF:3.040000,
673202407028939-index10933.png
#EXTINF:3.040000,
673202407028939-index10934.png
#EXTINF:3.040000,
673202407028939-index10935.png
#EXTINF:3.040000,
673202407028939-index10936.png
#EXTINF:3.040000,
673202407028939-index10937.png
#EXTINF:3.040000,
673202407028939-index10938.png
#EXTINF:3.040000,
673202407028939-index10939.png
#EXTINF:3.040000,
673202407028939-index10940.png
#EXTINF:2.206444,
673202407028939-index10941.png
#EXT-X-ENDLIST
