#EXTM3U
#EXT-X-VERSION:3
#EXT-X-TARGETDURATION:10
#EXT-X-MEDIA-SEQUENCE:10001
#EXTINF:10.000000,
680980051143301-index10001.png
#EXTINF:10.000000,
680980051143301-index10002.png
#EXTINF:10.000000,
680980051143301-index10003.png
#EXTINF:10.000000,
680980051143301-index10004.png
#EXTINF:10.000000,
680980051143301-index10005.png
#EXTINF:10.000000,
680980051143301-index10006.png
#EXTINF:10.000000,
680980051143301-index10007.png
#EXTINF:10.000000,
680980051143301-index10008.png
#EXTINF:10.000000,
680980051143301-index10009.png
#EXTINF:10.000000,
680980051143301-index10010.png
#EXTINF:10.000000,
680980051143301-index10011.png
#EXTINF:10.000000,
680980051143301-index10012.png
#EXTINF:10.000000,
680980051143301-index10013.png
#EXTINF:10.000000,
680980051143301-index10014.png
#EXTINF:10.000000,
680980051143301-index10015.png
#EXTINF:10.000000,
680980051143301-index10016.png
#EXTINF:10.000000,
680980051143301-index10017.png
#EXTINF:10.000000,
680980051143301-index10018.png
#EXTINF:10.000000,
680980051143301-index10019.png
#EXTINF:10.000000,
680980051143301-index10020.png
#EXTINF:10.000000,
680980051143301-index10021.png
#EXTINF:10.000000,
680980051143301-index10022.png
#EXTINF:10.000000,
680980051143301-index10023.png
#EXTINF:10.000000,
680980051143301-index10024.png
#EXTINF:10.000000,
680980051143301-index10025.png
#EXTINF:10.000000,
680980051143301-index10026.png
#EXTINF:10.000000,
680980051143301-index10027.png
#EXTINF:10.000000,
680980051143301-index10028.png
#EXTINF:10.000000,
680980051143301-index10029.png
#EXTINF:3.960000,
680980051143301-index10030.png
#EXT-X-ENDLIST
