#EXTM3U
#EXT-X-VERSION:3
#EXT-X-TARGETDURATION:10
#EXT-X-MEDIA-SEQUENCE:10001
#EXTINF:10.000000,
687486684984631-index10001.png
#EXTINF:10.000000,
687486684984631-index10002.png
#EXTINF:10.000000,
687486684984631-index10003.png
#EXTINF:7.120000,
687486684984631-index10004.png
#EXTINF:10.000000,
687486684984631-index10005.png
#EXTINF:6.920000,
687486684984631-index10006.png
#EXTINF:10.000000,
687486684984631-index10007.png
#EXTINF:3.480000,
687486684984631-index10008.png
#EXTINF:6.160000,
687486684984631-index10009.png
#EXTINF:1.120000,
687486684984631-index10010.png
#EXTINF:2.560000,
687486684984631-index10011.png
#EXTINF:6.280000,
687486684984631-index10012.png
#EXTINF:6.280000,
687486684984631-index10013.png
#EXTINF:8.280000,
687486684984631-index10014.png
#EXTINF:8.120000,
687486684984631-index10015.png
#EXTINF:9.160000,
687486684984631-index10016.png
#EXTINF:10.000000,
687486684984631-index10017.png
#EXTINF:10.000000,
687486684984631-index10018.png
#EXTINF:7.360000,
687486684984631-index10019.png
#EXTINF:3.120000,
687486684984631-index10020.png
#EXTINF:8.680000,
687486684984631-index10021.png
#EXTINF:10.000000,
687486684984631-index10022.png
#EXTINF:4.080000,
687486684984631-index10023.png
#EXTINF:8.840000,
687486684984631-index10024.png
#EXTINF:8.120000,
687486684984631-index10025.png
#EXTINF:6.040000,
687486684984631-index10026.png
#EXTINF:5.200000,
687486684984631-index10027.png
#EXTINF:8.160000,
687486684984631-index10028.png
#EXTINF:5.120000,
687486684984631-index10029.png
#EXTINF:4.960000,
687486684984631-index10030.png
#EXTINF:8.840000,
687486684984631-index10031.png
#EXTINF:10.000000,
687486684984631-index10032.png
#EXTINF:6.760000,
687486684984631-index10033.png
#EXTINF:7.400000,
687486684984631-index10034.png
#EXTINF:5.960000,
687486684984631-index10035.png
#EXTINF:6.560000,
687486684984631-index10036.png
#EXTINF:1.000000,
687486684984631-index10037.png
#EXT-X-ENDLIST
