#EXTM3U
#EXT-X-VERSION:3
#EXT-X-TARGETDURATION:11
#EXT-X-MEDIA-SEQUENCE:10001
#EXTINF:10.869444,
692318614572286-index10001.png
#EXTINF:10.869444,
692318614572286-index10002.png
#EXTINF:10.869444,
692318614572286-index10003.png
#EXTINF:10.869444,
692318614572286-index10004.png
#EXTINF:10.869444,
692318614572286-index10005.png
#EXTINF:7.260789,
692318614572286-index10006.png
#EXTINF:10.869444,
692318614572286-index10007.png
#EXTINF:10.869444,
692318614572286-index10008.png
#EXTINF:10.869444,
692318614572286-index10009.png
#EXTINF:10.869444,
692318614572286-index10010.png
#EXTINF:6.912967,
692318614572286-index10011.png
#EXTINF:10.869444,
692318614572286-index10012.png
#EXTINF:8.130344,
692318614572286-index10013.png
#EXTINF:10.869444,
692318614572286-index10014.png
#EXTINF:10.086844,
692318614572286-index10015.png
#EXTINF:10.869444,
692318614572286-index10016.png
#EXTINF:8.956422,
692318614572286-index10017.png
#EXTINF:3.478222,
692318614572286-index10018.png
#EXTINF:10.869444,
692318614572286-index10019.png
#EXTINF:10.869444,
692318614572286-index10020.png
#EXTINF:9.869456,
692318614572286-index10021.png
#EXTINF:7.608611,
692318614572286-index10022.png
#EXTINF:10.869444,
692318614572286-index10023.png
#EXTINF:10.869444,
692318614572286-index10024.png
#EXTINF:10.869444,
692318614572286-index10025.png
#EXTINF:10.869444,
692318614572286-index10026.png
#EXTINF:10.869444,
692318614572286-index10027.png
#EXTINF:6.565144,
692318614572286-index10028.png
#EXTINF:10.391189,
692318614572286-index10029.png
#EXTINF:8.695556,
692318614572286-index10030.png
#EXTINF:10.347711,
692318614572286-index10031.png
#EXTINF:10.869444,
692318614572286-index10032.png
#EXTINF:10.869444,
692318614572286-index10033.png
#EXTINF:8.565122,
692318614572286-index10034.png
#EXTINF:10.260756,
692318614572286-index10035.png
#EXTINF:10.869444,
692318614572286-index10036.png
#EXTINF:10.869444,
692318614572286-index10037.png
#EXTINF:9.782500,
692318614572286-index10038.png
#EXTINF:9.217289,
692318614572286-index10039.png
#EXTINF:4.434733,
692318614572286-index10040.png
#EXTINF:10.869444,
692318614572286-index10041.png
#EXTINF:10.869444,
692318614572286-index10042.png
#EXTINF:6.043411,
692318614572286-index10043.png
#EXTINF:10.869444,
692318614572286-index10044.png
#EXTINF:9.521633,
692318614572286-index10045.png
#EXTINF:9.391200,
692318614572286-index10046.png
#EXTINF:3.869522,
692318614572286-index10047.png
#EXTINF:6.043411,
692318614572286-index10048.png
#EXTINF:10.869444,
692318614572286-index10049.png
#EXTINF:9.217289,
692318614572286-index10050.png
#EXTINF:10.869444,
692318614572286-index10051.png
#EXTINF:10.869444,
692318614572286-index10052.png
#EXTINF:5.347767,
692318614572286-index10053.png
#EXTINF:10.869444,
692318614572286-index10054.png
#EXTINF:10.391189,
692318614572286-index10055.png
#EXTINF:10.869444,
692318614572286-index10056.png
#EXTINF:10.608578,
692318614572286-index10057.png
#EXTINF:10.739011,
692318614572286-index10058.png
#EXTINF:9.912933,
692318614572286-index10059.png
#EXTINF:7.826000,
692318614572286-index10060.png
#EXTINF:10.869444,
692318614572286-index10061.png
#EXTINF:10.869444,
692318614572286-index10062.png
#EXTINF:4.347778,
692318614572286-index10063.png
#EXTINF:6.826011,
692318614572286-index10064.png
#EXTINF:10.869444,
692318614572286-index10065.png
#EXTINF:10.869444,
692318614572286-index10066.png
#EXTINF:10.869444,
692318614572286-index10067.png
#EXTINF:10.825967,
692318614572286-index10068.png
#EXTINF:10.869444,
692318614572286-index10069.png
#EXTINF:10.869444,
692318614572286-index10070.png
#EXTINF:10.869444,
692318614572286-index10071.png
#EXTINF:9.999889,
692318614572286-index10072.png
#EXTINF:10.869444,
692318614572286-index10073.png
#EXTINF:10.869444,
692318614572286-index10074.png
#EXTINF:10.869444,
692318614572286-index10075.png
#EXTINF:10.869444,
692318614572286-index10076.png
#EXTINF:10.869444,
692318614572286-index10077.png
#EXTINF:10.869444,
692318614572286-index10078.png
#EXTINF:10.869444,
692318614572286-index10079.png
#EXTINF:10.869444,
692318614572286-index10080.png
#EXTINF:10.869444,
692318614572286-index10081.png
#EXTINF:10.869444,
692318614572286-index10082.png
#EXTINF:10.869444,
692318614572286-index10083.png
#EXTINF:10.869444,
692318614572286-index10084.png
#EXTINF:10.869444,
692318614572286-index10085.png
#EXTINF:10.869444,
692318614572286-index10086.png
#EXTINF:10.869444,
692318614572286-index10087.png
#EXTINF:10.869444,
692318614572286-index10088.png
#EXTINF:10.869444,
692318614572286-index10089.png
#EXTINF:10.869444,
692318614572286-index10090.png
#EXTINF:8.086867,
692318614572286-index10091.png
#EXT-X-ENDLIST
