#EXTM3U
#EXT-X-VERSION:3
#EXT-X-TARGETDURATION:10
#EXT-X-MEDIA-SEQUENCE:10001
#EXTINF:4.878900,
693197354674339-index10001.png
#EXTINF:4.503600,
693197354674339-index10002.png
#EXTINF:3.502800,
693197354674339-index10003.png
#EXTINF:10.425000,
693197354674339-index10004.png
#EXTINF:5.379300,
693197354674339-index10005.png
#EXTINF:7.506000,
693197354674339-index10006.png
#EXTINF:10.425000,
693197354674339-index10007.png
#EXTINF:5.087400,
693197354674339-index10008.png
#EXTINF:4.003200,
693197354674339-index10009.png
#EXTINF:3.502800,
693197354674339-index10010.png
#EXTINF:6.004800,
693197354674339-index10011.png
#EXTINF:4.503600,
693197354674339-index10012.png
#EXTINF:6.797100,
693197354674339-index10013.png
#EXTINF:10.425000,
693197354674339-index10014.png
#EXTINF:8.715300,
693197354674339-index10015.png
#EXTINF:5.629500,
693197354674339-index10016.png
#EXTINF:10.425000,
693197354674339-index10017.png
#EXTINF:10.425000,
693197354674339-index10018.png
#EXTINF:10.425000,
693197354674339-index10019.png
#EXTINF:10.425000,
693197354674339-index10020.png
#EXTINF:8.798700,
693197354674339-index10021.png
#EXTINF:3.002400,
693197354674339-index10022.png
#EXTINF:3.461100,
693197354674339-index10023.png
#EXTINF:3.461100,
693197354674339-index10024.png
#EXTINF:5.629500,
693197354674339-index10025.png
#EXTINF:3.836400,
693197354674339-index10026.png
#EXTINF:7.464300,
693197354674339-index10027.png
#EXTINF:8.423400,
693197354674339-index10028.png
#EXTINF:4.044900,
693197354674339-index10029.png
#EXTINF:7.005600,
693197354674339-index10030.png
#EXTINF:5.379300,
693197354674339-index10031.png
#EXTINF:5.254200,
693197354674339-index10032.png
#EXTINF:4.378500,
693197354674339-index10033.png
#EXTINF:4.712100,
693197354674339-index10034.png
#EXTINF:7.130700,
693197354674339-index10035.png
#EXTINF:2.502000,
693197354674339-index10036.png
#EXTINF:7.589400,
693197354674339-index10037.png
#EXTINF:5.004000,
693197354674339-index10038.png
#EXTINF:6.505200,
693197354674339-index10039.png
#EXTINF:6.255000,
693197354674339-index10040.png
#EXTINF:5.004000,
693197354674339-index10041.png
#EXTINF:4.962300,
693197354674339-index10042.png
#EXTINF:3.753000,
693197354674339-index10043.png
#EXTINF:10.425000,
693197354674339-index10044.png
#EXTINF:10.425000,
693197354674339-index10045.png
#EXTINF:10.425000,
693197354674339-index10046.png
#EXTINF:10.425000,
693197354674339-index10047.png
#EXTINF:10.425000,
693197354674339-index10048.png
#EXTINF:10.425000,
693197354674339-index10049.png
#EXTINF:10.425000,
693197354674339-index10050.png
#EXTINF:8.590200,
693197354674339-index10051.png
#EXTINF:9.757800,
693197354674339-index10052.png
#EXTINF:4.336800,
693197354674339-index10053.png
#EXTINF:7.047300,
693197354674339-index10054.png
#EXTINF:2.877300,
693197354674339-index10055.png
#EXTINF:5.754600,
693197354674339-index10056.png
#EXTINF:5.838000,
693197354674339-index10057.png
#EXTINF:10.425000,
693197354674339-index10058.png
#EXTINF:3.461100,
693197354674339-index10059.png
#EXTINF:6.546900,
693197354674339-index10060.png
#EXTINF:4.878900,
693197354674339-index10061.png
#EXTINF:10.425000,
693197354674339-index10062.png
#EXTINF:8.715300,
693197354674339-index10063.png
#EXTINF:4.712100,
693197354674339-index10064.png
#EXTINF:4.920600,
693197354674339-index10065.png
#EXTINF:6.380100,
693197354674339-index10066.png
#EXTINF:3.252600,
693197354674339-index10067.png
#EXTINF:8.506800,
693197354674339-index10068.png
#EXTINF:5.712900,
693197354674339-index10069.png
#EXTINF:7.380900,
693197354674339-index10070.png
#EXTINF:7.172400,
693197354674339-index10071.png
#EXTINF:6.505200,
693197354674339-index10072.png
#EXTINF:5.295900,
693197354674339-index10073.png
#EXTINF:5.004000,
693197354674339-index10074.png
#EXTINF:8.006400,
693197354674339-index10075.png
#EXTINF:10.425000,
693197354674339-index10076.png
#EXTINF:7.339200,
693197354674339-index10077.png
#EXTINF:10.425000,
693197354674339-index10078.png
#EXTINF:10.425000,
693197354674339-index10079.png
#EXTINF:7.380900,
693197354674339-index10080.png
#EXTINF:7.881300,
693197354674339-index10081.png
#EXTINF:8.214900,
693197354674339-index10082.png
#EXTINF:5.838000,
693197354674339-index10083.png
#EXTINF:7.506000,
693197354674339-index10084.png
#EXTINF:2.376900,
693197354674339-index10085.png
#EXTINF:8.423400,
693197354674339-index10086.png
#EXTINF:5.212500,
693197354674339-index10087.png
#EXTINF:4.753800,
693197354674339-index10088.png
#EXTINF:6.630300,
693197354674339-index10089.png
#EXTINF:4.628700,
693197354674339-index10090.png
#EXTINF:7.756200,
693197354674339-index10091.png
#EXTINF:3.502800,
693197354674339-index10092.png
#EXTINF:10.425000,
693197354674339-index10093.png
#EXTINF:4.336800,
693197354674339-index10094.png
#EXTINF:7.089000,
693197354674339-index10095.png
#EXTINF:6.505200,
693197354674339-index10096.png
#EXTINF:4.003200,
693197354674339-index10097.png
#EXTINF:9.007200,
693197354674339-index10098.png
#EXTINF:9.841200,
693197354674339-index10099.png
#EXTINF:8.465100,
693197354674339-index10100.png
#EXTINF:10.425000,
693197354674339-index10101.png
#EXTINF:4.503600,
693197354674339-index10102.png
#EXTINF:6.171600,
693197354674339-index10103.png
#EXTINF:4.170000,
693197354674339-index10104.png
#EXTINF:4.753800,
693197354674339-index10105.png
#EXTINF:7.756200,
693197354674339-index10106.png
#EXTINF:8.882100,
693197354674339-index10107.png
#EXTINF:3.794700,
693197354674339-index10108.png
#EXTINF:4.461900,
693197354674339-index10109.png
#EXTINF:5.838000,
693197354674339-index10110.png
#EXTINF:7.214100,
693197354674339-index10111.png
#EXTINF:7.214100,
693197354674339-index10112.png
#EXTINF:2.502000,
693197354674339-index10113.png
#EXTINF:5.587800,
693197354674339-index10114.png
#EXTINF:7.923000,
693197354674339-index10115.png
#EXTINF:3.002400,
693197354674339-index10116.png
#EXTINF:7.797900,
693197354674339-index10117.png
#EXTINF:10.425000,
693197354674339-index10118.png
#EXTINF:6.129900,
693197354674339-index10119.png
#EXTINF:7.506000,
693197354674339-index10120.png
#EXTINF:6.463500,
693197354674339-index10121.png
#EXTINF:9.257400,
693197354674339-index10122.png
#EXTINF:8.006400,
693197354674339-index10123.png
#EXTINF:5.754600,
693197354674339-index10124.png
#EXTINF:7.005600,
693197354674339-index10125.png
#EXTINF:4.253400,
693197354674339-index10126.png
#EXTINF:4.712100,
693197354674339-index10127.png
#EXTINF:8.715300,
693197354674339-index10128.png
#EXTINF:5.004000,
693197354674339-index10129.png
#EXTINF:2.668800,
693197354674339-index10130.png
#EXTINF:9.215700,
693197354674339-index10131.png
#EXTINF:4.628700,
693197354674339-index10132.png
#EXTINF:6.880500,
693197354674339-index10133.png
#EXTINF:8.965500,
693197354674339-index10134.png
#EXTINF:7.005600,
693197354674339-index10135.png
#EXTINF:6.505200,
693197354674339-index10136.png
#EXTINF:6.505200,
693197354674339-index10137.png
#EXTINF:6.255000,
693197354674339-index10138.png
#EXTINF:3.377700,
693197354674339-index10139.png
#EXTINF:5.504400,
693197354674339-index10140.png
#EXTINF:6.421800,
693197354674339-index10141.png
#EXTINF:2.001600,
693197354674339-index10142.png
#EXTINF:10.425000,
693197354674339-index10143.png
#EXTINF:6.546900,
693197354674339-index10144.png
#EXTINF:4.420200,
693197354674339-index10145.png
#EXTINF:4.545300,
693197354674339-index10146.png
#EXTINF:4.795500,
693197354674339-index10147.png
#EXTINF:10.425000,
693197354674339-index10148.png
#EXTINF:5.546100,
693197354674339-index10149.png
#EXTINF:10.174800,
693197354674339-index10150.png
#EXTINF:7.589400,
693197354674339-index10151.png
#EXTINF:6.129900,
693197354674339-index10152.png
#EXTINF:10.425000,
693197354674339-index10153.png
#EXTINF:10.425000,
693197354674339-index10154.png
#EXTINF:10.425000,
693197354674339-index10155.png
#EXTINF:10.091400,
693197354674339-index10156.png
#EXTINF:10.425000,
693197354674339-index10157.png
#EXTINF:6.171600,
693197354674339-index10158.png
#EXTINF:10.258200,
693197354674339-index10159.png
#EXTINF:10.008000,
693197354674339-index10160.png
#EXTINF:5.421000,
693197354674339-index10161.png
#EXTINF:6.672000,
693197354674339-index10162.png
#EXTINF:10.425000,
693197354674339-index10163.png
#EXTINF:10.425000,
693197354674339-index10164.png
#EXTINF:5.254200,
693197354674339-index10165.png
#EXTINF:10.383300,
693197354674339-index10166.png
#EXTINF:10.425000,
693197354674339-index10167.png
#EXTINF:10.425000,
693197354674339-index10168.png
#EXTINF:8.214900,
693197354674339-index10169.png
#EXTINF:10.425000,
693197354674339-index10170.png
#EXTINF:7.672800,
693197354674339-index10171.png
#EXTINF:6.004800,
693197354674339-index10172.png
#EXTINF:6.004800,
693197354674339-index10173.png
#EXTINF:10.425000,
693197354674339-index10174.png
#EXTINF:2.210100,
693197354674339-index10175.png
#EXTINF:6.505200,
693197354674339-index10176.png
#EXTINF:6.004800,
693197354674339-index10177.png
#EXTINF:10.425000,
693197354674339-index10178.png
#EXTINF:6.338400,
693197354674339-index10179.png
#EXTINF:6.046500,
693197354674339-index10180.png
#EXTINF:10.425000,
693197354674339-index10181.png
#EXTINF:4.044900,
693197354674339-index10182.png
#EXTINF:10.425000,
693197354674339-index10183.png
#EXTINF:9.340800,
693197354674339-index10184.png
#EXTINF:6.004800,
693197354674339-index10185.png
#EXTINF:6.505200,
693197354674339-index10186.png
#EXTINF:9.632700,
693197354674339-index10187.png
#EXTINF:2.668800,
693197354674339-index10188.png
#EXTINF:10.425000,
693197354674339-index10189.png
#EXTINF:3.878100,
693197354674339-index10190.png
#EXTINF:10.425000,
693197354674339-index10191.png
#EXTINF:10.425000,
693197354674339-index10192.png
#EXTINF:10.425000,
693197354674339-index10193.png
#EXTINF:10.425000,
693197354674339-index10194.png
#EXTINF:10.425000,
693197354674339-index10195.png
#EXTINF:10.425000,
693197354674339-index10196.png
#EXTINF:10.216500,
693197354674339-index10197.png
#EXTINF:8.631900,
693197354674339-index10198.png
#EXTINF:8.757000,
693197354674339-index10199.png
#EXTINF:7.255800,
693197354674339-index10200.png
#EXTINF:7.339200,
693197354674339-index10201.png
#EXTINF:6.588600,
693197354674339-index10202.png
#EXT-X-ENDLIST
