#EXTM3U
#EXT-X-VERSION:3
#EXT-X-TARGETDURATION:10
#EXT-X-MEDIA-SEQUENCE:10001
#EXTINF:10.000000,
703996203839778-index10001.ts
#EXTINF:10.000000,
703996203839778-index10002.ts
#EXTINF:10.000000,
703996203839778-index10003.ts
#EXTINF:10.000000,
703996203839778-index10004.ts
#EXTINF:8.240000,
703996203839778-index10005.ts
#EXTINF:4.880000,
703996203839778-index10006.ts
#EXTINF:4.560000,
703996203839778-index10007.ts
#EXTINF:10.000000,
703996203839778-index10008.ts
#EXTINF:7.920000,
703996203839778-index10009.ts
#EXTINF:10.000000,
703996203839778-index10010.ts
#EXTINF:8.080000,
703996203839778-index10011.ts
#EXTINF:9.160000,
703996203839778-index10012.ts
#EXTINF:7.840000,
703996203839778-index10013.ts
#EXTINF:9.680000,
703996203839778-index10014.ts
#EXTINF:8.520000,
703996203839778-index10015.ts
#EXTINF:10.000000,
703996203839778-index10016.ts
#EXTINF:8.480000,
703996203839778-index10017.ts
#EXTINF:7.040000,
703996203839778-index10018.ts
#EXTINF:10.000000,
703996203839778-index10019.ts
#EXTINF:7.400000,
703996203839778-index10020.ts
#EXTINF:10.000000,
703996203839778-index10021.ts
#EXTINF:7.840000,
703996203839778-index10022.ts
#EXTINF:8.520000,
703996203839778-index10023.ts
#EXTINF:8.080000,
703996203839778-index10024.ts
#EXTINF:3.800000,
703996203839778-index10025.ts
#EXTINF:3.200000,
703996203839778-index10026.ts
#EXTINF:8.320000,
703996203839778-index10027.ts
#EXTINF:10.000000,
703996203839778-index10028.ts
#EXTINF:8.320000,
703996203839778-index10029.ts
#EXTINF:10.000000,
703996203839778-index10030.ts
#EXTINF:10.000000,
703996203839778-index10031.ts
#EXTINF:10.000000,
703996203839778-index10032.ts
#EXTINF:10.000000,
703996203839778-index10033.ts
#EXTINF:10.000000,
703996203839778-index10034.ts
#EXTINF:10.000000,
703996203839778-index10035.ts
#EXTINF:10.000000,
703996203839778-index10036.ts
#EXTINF:10.000000,
703996203839778-index10037.ts
#EXTINF:10.000000,
703996203839778-index10038.ts
#EXTINF:10.000000,
703996203839778-index10039.ts
#EXTINF:6.960000,
703996203839778-index10040.ts
#EXTINF:10.000000,
703996203839778-index10041.ts
#EXTINF:10.000000,
703996203839778-index10042.ts
#EXTINF:4.200000,
703996203839778-index10043.ts
#EXT-X-ENDLIST
