#EXTM3U
#EXT-X-VERSION:3
#EXT-X-TARGETDURATION:11
#EXT-X-MEDIA-SEQUENCE:10001
#EXTINF:8.695556,
720961038437154-index10001.png
#EXTINF:10.869444,
720961038437154-index10002.png
#EXTINF:6.912967,
720961038437154-index10003.png
#EXTINF:4.999944,
720961038437154-index10004.png
#EXTINF:2.608667,
720961038437154-index10005.png
#EXTINF:3.521700,
720961038437154-index10006.png
#EXTINF:8.434689,
720961038437154-index10007.png
#EXTINF:3.086922,
720961038437154-index10008.png
#EXTINF:5.478200,
720961038437154-index10009.png
#EXTINF:4.260822,
720961038437154-index10010.png
#EXTINF:6.478189,
720961038437154-index10011.png
#EXTINF:3.608656,
720961038437154-index10012.png
#EXTINF:2.173889,
720961038437154-index10013.png
#EXTINF:4.217344,
720961038437154-index10014.png
#EXTINF:4.956467,
720961038437154-index10015.png
#EXTINF:4.565167,
720961038437154-index10016.png
#EXTINF:4.608644,
720961038437154-index10017.png
#EXTINF:4.086911,
720961038437154-index10018.png
#EXTINF:3.782567,
720961038437154-index10019.png
#EXTINF:7.478178,
720961038437154-index10020.png
#EXTINF:5.565156,
720961038437154-index10021.png
#EXTINF:10.869444,
720961038437154-index10022.png
#EXTINF:7.347744,
720961038437154-index10023.png
#EXTINF:8.782511,
720961038437154-index10024.png
#EXTINF:10.869444,
720961038437154-index10025.png
#EXTINF:4.304300,
720961038437154-index10026.png
#EXTINF:10.869444,
720961038437154-index10027.png
#EXTINF:4.130389,
720961038437154-index10028.png
#EXTINF:10.869444,
720961038437154-index10029.png
#EXTINF:10.869444,
720961038437154-index10030.png
#EXTINF:9.869456,
720961038437154-index10031.png
#EXTINF:10.869444,
720961038437154-index10032.png
#EXTINF:9.869456,
720961038437154-index10033.png
#EXTINF:6.999922,
720961038437154-index10034.png
#EXTINF:6.999922,
720961038437154-index10035.png
#EXTINF:8.130344,
720961038437154-index10036.png
#EXTINF:6.999922,
720961038437154-index10037.png
#EXTINF:8.304256,
720961038437154-index10038.png
#EXTINF:10.782489,
720961038437154-index10039.png
#EXTINF:10.869444,
720961038437154-index10040.png
#EXTINF:9.825978,
720961038437154-index10041.png
#EXTINF:8.999900,
720961038437154-index10042.png
#EXTINF:5.999933,
720961038437154-index10043.png
#EXTINF:4.999944,
720961038437154-index10044.png
#EXTINF:4.999944,
720961038437154-index10045.png
#EXTINF:8.999900,
720961038437154-index10046.png
#EXTINF:8.565122,
720961038437154-index10047.png
#EXTINF:10.869444,
720961038437154-index10048.png
#EXTINF:10.130322,
720961038437154-index10049.png
#EXTINF:8.999900,
720961038437154-index10050.png
#EXTINF:9.695544,
720961038437154-index10051.png
#EXTINF:8.999900,
720961038437154-index10052.png
#EXTINF:4.999944,
720961038437154-index10053.png
#EXTINF:7.999911,
720961038437154-index10054.png
#EXTINF:6.999922,
720961038437154-index10055.png
#EXTINF:9.999889,
720961038437154-index10056.png
#EXTINF:7.565133,
720961038437154-index10057.png
#EXTINF:7.434700,
720961038437154-index10058.png
#EXTINF:9.999889,
720961038437154-index10059.png
#EXTINF:2.565189,
720961038437154-index10060.png
#EXTINF:9.130333,
720961038437154-index10061.png
#EXTINF:4.999944,
720961038437154-index10062.png
#EXTINF:3.999956,
720961038437154-index10063.png
#EXTINF:4.608644,
720961038437154-index10064.png
#EXTINF:8.391211,
720961038437154-index10065.png
#EXTINF:7.999911,
720961038437154-index10066.png
#EXTINF:5.826022,
720961038437154-index10067.png
#EXTINF:7.565133,
720961038437154-index10068.png
#EXTINF:8.999900,
720961038437154-index10069.png
#EXTINF:9.999889,
720961038437154-index10070.png
#EXTINF:8.739033,
720961038437154-index10071.png
#EXTINF:10.869444,
720961038437154-index10072.png
#EXTINF:7.391222,
720961038437154-index10073.png
#EXTINF:9.086856,
720961038437154-index10074.png
#EXTINF:8.652078,
720961038437154-index10075.png
#EXTINF:5.217333,
720961038437154-index10076.png
#EXTINF:4.826033,
720961038437154-index10077.png
#EXTINF:4.478211,
720961038437154-index10078.png
#EXTINF:4.869511,
720961038437154-index10079.png
#EXTINF:6.869489,
720961038437154-index10080.png
#EXTINF:5.739067,
720961038437154-index10081.png
#EXTINF:7.608611,
720961038437154-index10082.png
#EXTINF:10.869444,
720961038437154-index10083.png
#EXTINF:10.869444,
720961038437154-index10084.png
#EXTINF:10.869444,
720961038437154-index10085.png
#EXTINF:10.869444,
720961038437154-index10086.png
#EXTINF:7.999911,
720961038437154-index10087.png
#EXT-X-ENDLIST
