#EXTM3U
#EXT-X-VERSION:3
#EXT-X-TARGETDURATION:9
#EXT-X-MEDIA-SEQUENCE:10001
#EXTINF:5.533333,
721906808929310-index10001.png
#EXTINF:1.533333,
721906808929310-index10002.png
#EXTINF:0.433333,
721906808929310-index10003.png
#EXTINF:2.666667,
721906808929310-index10004.png
#EXTINF:0.666667,
721906808929310-index10005.png
#EXTINF:2.700000,
721906808929310-index10006.png
#EXTINF:1.133333,
721906808929310-index10007.png
#EXTINF:6.233333,
721906808929310-index10008.png
#EXTINF:1.433333,
721906808929310-index10009.png
#EXTINF:1.833333,
721906808929310-index10010.png
#EXTINF:1.566667,
721906808929310-index10011.png
#EXTINF:0.766667,
721906808929310-index10012.png
#EXTINF:1.233333,
721906808929310-index10013.png
#EXTINF:1.133333,
721906808929310-index10014.png
#EXTINF:1.966667,
721906808929310-index10015.png
#EXTINF:1.233333,
721906808929310-index10016.png
#EXTINF:7.166667,
721906808929310-index10017.png
#EXTINF:3.233333,
721906808929310-index10018.png
#EXTINF:3.533333,
721906808929310-index10019.png
#EXTINF:2.033333,
721906808929310-index10020.png
#EXTINF:7.833333,
721906808929310-index10021.png
#EXTINF:8.333333,
721906808929310-index10022.png
#EXTINF:8.333333,
721906808929310-index10023.png
#EXTINF:8.333333,
721906808929310-index10024.png
#EXTINF:8.333333,
721906808929310-index10025.png
#EXTINF:6.200000,
721906808929310-index10026.png
#EXTINF:3.900000,
721906808929310-index10027.png
#EXTINF:8.333333,
721906808929310-index10028.png
#EXTINF:1.733333,
721906808929310-index10029.png
#EXTINF:2.633333,
721906808929310-index10030.png
#EXTINF:4.733333,
721906808929310-index10031.png
#EXTINF:4.166667,
721906808929310-index10032.png
#EXTINF:8.333333,
721906808929310-index10033.png
#EXTINF:8.333333,
721906808929310-index10034.png
#EXTINF:8.333333,
721906808929310-index10035.png
#EXTINF:8.333333,
721906808929310-index10036.png
#EXTINF:1.166667,
721906808929310-index10037.png
#EXTINF:6.233333,
721906808929310-index10038.png
#EXTINF:1.166667,
721906808929310-index10039.png
#EXTINF:6.566667,
721906808929310-index10040.png
#EXTINF:5.966667,
721906808929310-index10041.png
#EXTINF:6.200000,
721906808929310-index10042.png
#EXTINF:1.200000,
721906808929310-index10043.png
#EXTINF:3.500000,
721906808929310-index10044.png
#EXTINF:8.333333,
721906808929310-index10045.png
#EXTINF:3.500000,
721906808929310-index10046.png
#EXTINF:1.400000,
721906808929310-index10047.png
#EXTINF:2.566667,
721906808929310-index10048.png
#EXTINF:7.500000,
721906808929310-index10049.png
#EXTINF:1.033333,
721906808929310-index10050.png
#EXTINF:2.466667,
721906808929310-index10051.png
#EXTINF:8.333333,
721906808929310-index10052.png
#EXTINF:0.833333,
721906808929310-index10053.png
#EXTINF:0.600000,
721906808929310-index10054.png
#EXTINF:0.400000,
721906808929310-index10055.png
#EXTINF:8.333333,
721906808929310-index10056.png
#EXTINF:1.200000,
721906808929310-index10057.png
#EXTINF:0.900000,
721906808929310-index10058.png
#EXTINF:2.233333,
721906808929310-index10059.png
#EXTINF:0.800000,
721906808929310-index10060.png
#EXTINF:4.133333,
721906808929310-index10061.png
#EXTINF:1.933333,
721906808929310-index10062.png
#EXTINF:8.333333,
721906808929310-index10063.png
#EXTINF:1.066667,
721906808929310-index10064.png
#EXTINF:8.333333,
721906808929310-index10065.png
#EXTINF:2.066667,
721906808929310-index10066.png
#EXTINF:0.866667,
721906808929310-index10067.png
#EXTINF:1.000000,
721906808929310-index10068.png
#EXTINF:2.633333,
721906808929310-index10069.png
#EXTINF:5.866667,
721906808929310-index10070.png
#EXTINF:1.566667,
721906808929310-index10071.png
#EXTINF:1.700000,
721906808929310-index10072.png
#EXTINF:4.466667,
721906808929310-index10073.png
#EXTINF:2.333333,
721906808929310-index10074.png
#EXTINF:4.500000,
721906808929310-index10075.png
#EXTINF:8.333333,
721906808929310-index10076.png
#EXTINF:0.933333,
721906808929310-index10077.png
#EXTINF:5.000000,
721906808929310-index10078.png
#EXTINF:4.433333,
721906808929310-index10079.png
#EXTINF:1.533333,
721906808929310-index10080.png
#EXTINF:2.700000,
721906808929310-index10081.png
#EXTINF:8.333333,
721906808929310-index10082.png
#EXTINF:2.833333,
721906808929310-index10083.png
#EXTINF:6.333333,
721906808929310-index10084.png
#EXTINF:0.566667,
721906808929310-index10085.png
#EXTINF:3.033333,
721906808929310-index10086.png
#EXTINF:0.666667,
721906808929310-index10087.png
#EXTINF:0.800000,
721906808929310-index10088.png
#EXTINF:4.833333,
721906808929310-index10089.png
#EXTINF:4.033333,
721906808929310-index10090.png
#EXTINF:1.400000,
721906808929310-index10091.png
#EXTINF:0.933333,
721906808929310-index10092.png
#EXTINF:1.466667,
721906808929310-index10093.png
#EXTINF:1.166667,
721906808929310-index10094.png
#EXTINF:0.900000,
721906808929310-index10095.png
#EXTINF:1.166667,
721906808929310-index10096.png
#EXTINF:2.500000,
721906808929310-index10097.png
#EXTINF:2.300000,
721906808929310-index10098.png
#EXTINF:2.400000,
721906808929310-index10099.png
#EXTINF:6.900000,
721906808929310-index10100.png
#EXTINF:1.566667,
721906808929310-index10101.png
#EXTINF:1.133333,
721906808929310-index10102.png
#EXTINF:3.066667,
721906808929310-index10103.png
#EXTINF:2.766667,
721906808929310-index10104.png
#EXTINF:4.366667,
721906808929310-index10105.png
#EXTINF:1.300000,
721906808929310-index10106.png
#EXTINF:1.233333,
721906808929310-index10107.png
#EXTINF:2.633333,
721906808929310-index10108.png
#EXTINF:1.300000,
721906808929310-index10109.png
#EXTINF:2.533333,
721906808929310-index10110.png
#EXTINF:2.800000,
721906808929310-index10111.png
#EXTINF:6.300000,
721906808929310-index10112.png
#EXTINF:2.566667,
721906808929310-index10113.png
#EXTINF:4.666667,
721906808929310-index10114.png
#EXTINF:1.166667,
721906808929310-index10115.png
#EXTINF:2.333333,
721906808929310-index10116.png
#EXTINF:1.366667,
721906808929310-index10117.png
#EXTINF:1.833333,
721906808929310-index10118.png
#EXTINF:6.166667,
721906808929310-index10119.png
#EXTINF:8.333333,
721906808929310-index10120.png
#EXTINF:1.566667,
721906808929310-index10121.png
#EXTINF:8.333333,
721906808929310-index10122.png
#EXTINF:5.833333,
721906808929310-index10123.png
#EXTINF:6.200000,
721906808929310-index10124.png
#EXTINF:1.833333,
721906808929310-index10125.png
#EXTINF:5.466667,
721906808929310-index10126.png
#EXTINF:1.533333,
721906808929310-index10127.png
#EXTINF:8.333333,
721906808929310-index10128.png
#EXTINF:0.966667,
721906808929310-index10129.png
#EXTINF:3.766667,
721906808929310-index10130.png
#EXTINF:2.733333,
721906808929310-index10131.png
#EXTINF:3.000000,
721906808929310-index10132.png
#EXTINF:3.100000,
721906808929310-index10133.png
#EXTINF:8.333333,
721906808929310-index10134.png
#EXTINF:2.900000,
721906808929310-index10135.png
#EXTINF:1.700000,
721906808929310-index10136.png
#EXTINF:3.000000,
721906808929310-index10137.png
#EXTINF:2.633333,
721906808929310-index10138.png
#EXTINF:2.866667,
721906808929310-index10139.png
#EXTINF:1.500000,
721906808929310-index10140.png
#EXTINF:3.066667,
721906808929310-index10141.png
#EXTINF:6.333333,
721906808929310-index10142.png
#EXTINF:8.333333,
721906808929310-index10143.png
#EXTINF:1.233333,
721906808929310-index10144.png
#EXTINF:1.400000,
721906808929310-index10145.png
#EXTINF:1.666667,
721906808929310-index10146.png
#EXTINF:2.800000,
721906808929310-index10147.png
#EXTINF:3.000000,
721906808929310-index10148.png
#EXTINF:2.200000,
721906808929310-index10149.png
#EXTINF:3.466667,
721906808929310-index10150.png
#EXTINF:1.033333,
721906808929310-index10151.png
#EXTINF:1.200000,
721906808929310-index10152.png
#EXTINF:4.833333,
721906808929310-index10153.png
#EXTINF:4.633333,
721906808929310-index10154.png
#EXTINF:5.966667,
721906808929310-index10155.png
#EXTINF:4.866667,
721906808929310-index10156.png
#EXTINF:6.866667,
721906808929310-index10157.png
#EXTINF:3.900000,
721906808929310-index10158.png
#EXTINF:1.500000,
721906808929310-index10159.png
#EXTINF:1.600000,
721906808929310-index10160.png
#EXTINF:2.333333,
721906808929310-index10161.png
#EXTINF:3.066667,
721906808929310-index10162.png
#EXTINF:8.333333,
721906808929310-index10163.png
#EXTINF:5.600000,
721906808929310-index10164.png
#EXTINF:5.333333,
721906808929310-index10165.png
#EXTINF:5.066667,
721906808929310-index10166.png
#EXTINF:8.333333,
721906808929310-index10167.png
#EXTINF:2.766667,
721906808929310-index10168.png
#EXTINF:1.566667,
721906808929310-index10169.png
#EXTINF:1.500000,
721906808929310-index10170.png
#EXTINF:2.033333,
721906808929310-index10171.png
#EXTINF:8.333333,
721906808929310-index10172.png
#EXTINF:1.500000,
721906808929310-index10173.png
#EXTINF:8.333333,
721906808929310-index10174.png
#EXTINF:4.166667,
721906808929310-index10175.png
#EXTINF:5.166667,
721906808929310-index10176.png
#EXTINF:4.800000,
721906808929310-index10177.png
#EXTINF:4.566667,
721906808929310-index10178.png
#EXTINF:3.300000,
721906808929310-index10179.png
#EXTINF:3.533333,
721906808929310-index10180.png
#EXTINF:3.766667,
721906808929310-index10181.png
#EXTINF:5.000000,
721906808929310-index10182.png
#EXTINF:8.333333,
721906808929310-index10183.png
#EXTINF:3.000000,
721906808929310-index10184.png
#EXTINF:2.733333,
721906808929310-index10185.png
#EXTINF:8.333333,
721906808929310-index10186.png
#EXTINF:8.333333,
721906808929310-index10187.png
#EXTINF:8.333333,
721906808929310-index10188.png
#EXTINF:1.266667,
721906808929310-index10189.png
#EXTINF:8.333333,
721906808929310-index10190.png
#EXTINF:1.600000,
721906808929310-index10191.png
#EXTINF:8.333333,
721906808929310-index10192.png
#EXTINF:3.000000,
721906808929310-index10193.png
#EXTINF:6.066667,
721906808929310-index10194.png
#EXTINF:8.333333,
721906808929310-index10195.png
#EXTINF:0.733333,
721906808929310-index10196.png
#EXTINF:8.333333,
721906808929310-index10197.png
#EXTINF:4.033333,
721906808929310-index10198.png
#EXTINF:8.333333,
721906808929310-index10199.png
#EXTINF:8.333333,
721906808929310-index10200.png
#EXTINF:2.566667,
721906808929310-index10201.png
#EXTINF:8.333333,
721906808929310-index10202.png
#EXTINF:0.833333,
721906808929310-index10203.png
#EXTINF:3.533333,
721906808929310-index10204.png
#EXTINF:4.733333,
721906808929310-index10205.png
#EXTINF:3.233333,
721906808929310-index10206.png
#EXTINF:7.600000,
721906808929310-index10207.png
#EXTINF:7.800000,
721906808929310-index10208.png
#EXTINF:8.333333,
721906808929310-index10209.png
#EXTINF:0.666667,
721906808929310-index10210.png
#EXTINF:8.333333,
721906808929310-index10211.png
#EXTINF:5.700000,
721906808929310-index10212.png
#EXTINF:6.966667,
721906808929310-index10213.png
#EXTINF:3.300000,
721906808929310-index10214.png
#EXTINF:8.333333,
721906808929310-index10215.png
#EXTINF:5.733333,
721906808929310-index10216.png
#EXTINF:2.933333,
721906808929310-index10217.png
#EXTINF:1.566667,
721906808929310-index10218.png
#EXTINF:2.466667,
721906808929310-index10219.png
#EXTINF:3.700000,
721906808929310-index10220.png
#EXTINF:2.600000,
721906808929310-index10221.png
#EXTINF:6.300000,
721906808929310-index10222.png
#EXTINF:2.500000,
721906808929310-index10223.png
#EXTINF:1.500000,
721906808929310-index10224.png
#EXTINF:1.400000,
721906808929310-index10225.png
#EXTINF:8.333333,
721906808929310-index10226.png
#EXTINF:0.700000,
721906808929310-index10227.png
#EXTINF:1.733333,
721906808929310-index10228.png
#EXTINF:3.100000,
721906808929310-index10229.png
#EXTINF:4.833333,
721906808929310-index10230.png
#EXTINF:4.133333,
721906808929310-index10231.png
#EXTINF:8.333333,
721906808929310-index10232.png
#EXTINF:8.333333,
721906808929310-index10233.png
#EXTINF:8.333333,
721906808929310-index10234.png
#EXTINF:4.266667,
721906808929310-index10235.png
#EXTINF:8.333333,
721906808929310-index10236.png
#EXTINF:8.333333,
721906808929310-index10237.png
#EXTINF:8.333333,
721906808929310-index10238.png
#EXTINF:8.333333,
721906808929310-index10239.png
#EXTINF:8.333333,
721906808929310-index10240.png
#EXTINF:8.333333,
721906808929310-index10241.png
#EXTINF:4.666667,
721906808929310-index10242.png
#EXTINF:8.333333,
721906808929310-index10243.png
#EXTINF:8.333333,
721906808929310-index10244.png
#EXTINF:5.433333,
721906808929310-index10245.png
#EXTINF:3.166667,
721906808929310-index10246.png
#EXTINF:8.333333,
721906808929310-index10247.png
#EXTINF:8.333333,
721906808929310-index10248.png
#EXTINF:8.333333,
721906808929310-index10249.png
#EXTINF:8.333333,
721906808929310-index10250.png
#EXTINF:1.233333,
721906808929310-index10251.png
#EXTINF:1.833333,
721906808929310-index10252.png
#EXTINF:8.333333,
721906808929310-index10253.png
#EXTINF:5.066667,
721906808929310-index10254.png
#EXTINF:1.100000,
721906808929310-index10255.png
#EXTINF:8.333333,
721906808929310-index10256.png
#EXTINF:4.533333,
721906808929310-index10257.png
#EXTINF:5.033333,
721906808929310-index10258.png
#EXTINF:4.666667,
721906808929310-index10259.png
#EXTINF:7.933333,
721906808929310-index10260.png
#EXTINF:1.266667,
721906808929310-index10261.png
#EXTINF:1.400000,
721906808929310-index10262.png
#EXTINF:2.100000,
721906808929310-index10263.png
#EXTINF:8.333333,
721906808929310-index10264.png
#EXTINF:3.466667,
721906808929310-index10265.png
#EXTINF:8.333333,
721906808929310-index10266.png
#EXTINF:0.266667,
721906808929310-index10267.png
#EXTINF:3.900000,
721906808929310-index10268.png
#EXTINF:1.333333,
721906808929310-index10269.png
#EXTINF:2.533333,
721906808929310-index10270.png
#EXTINF:3.100000,
721906808929310-index10271.png
#EXTINF:7.200000,
721906808929310-index10272.png
#EXTINF:8.333333,
721906808929310-index10273.png
#EXTINF:8.333333,
721906808929310-index10274.png
#EXTINF:8.333333,
721906808929310-index10275.png
#EXTINF:0.766667,
721906808929310-index10276.png
#EXTINF:8.333333,
721906808929310-index10277.png
#EXTINF:2.433333,
721906808929310-index10278.png
#EXTINF:8.333333,
721906808929310-index10279.png
#EXTINF:7.633333,
721906808929310-index10280.png
#EXTINF:8.333333,
721906808929310-index10281.png
#EXTINF:8.333333,
721906808929310-index10282.png
#EXTINF:0.700000,
721906808929310-index10283.png
#EXTINF:8.333333,
721906808929310-index10284.png
#EXTINF:2.600000,
721906808929310-index10285.png
#EXTINF:8.333333,
721906808929310-index10286.png
#EXTINF:4.166667,
721906808929310-index10287.png
#EXTINF:2.500000,
721906808929310-index10288.png
#EXTINF:7.200000,
721906808929310-index10289.png
#EXTINF:8.333333,
721906808929310-index10290.png
#EXTINF:8.333333,
721906808929310-index10291.png
#EXTINF:0.600000,
721906808929310-index10292.png
#EXTINF:8.333333,
721906808929310-index10293.png
#EXTINF:3.400000,
721906808929310-index10294.png
#EXTINF:7.766667,
721906808929310-index10295.png
#EXTINF:3.100000,
721906808929310-index10296.png
#EXTINF:5.800000,
721906808929310-index10297.png
#EXTINF:8.333333,
721906808929310-index10298.png
#EXTINF:8.333333,
721906808929310-index10299.png
#EXTINF:1.800000,
721906808929310-index10300.png
#EXTINF:8.333333,
721906808929310-index10301.png
#EXTINF:0.700000,
721906808929310-index10302.png
#EXTINF:8.333333,
721906808929310-index10303.png
#EXTINF:8.333333,
721906808929310-index10304.png
#EXTINF:4.866667,
721906808929310-index10305.png
#EXTINF:8.333333,
721906808929310-index10306.png
#EXTINF:3.133333,
721906808929310-index10307.png
#EXTINF:3.766667,
721906808929310-index10308.png
#EXTINF:1.866667,
721906808929310-index10309.png
#EXTINF:3.633333,
721906808929310-index10310.png
#EXTINF:4.766667,
721906808929310-index10311.png
#EXTINF:8.333333,
721906808929310-index10312.png
#EXTINF:8.333333,
721906808929310-index10313.png
#EXTINF:4.966667,
721906808929310-index10314.png
#EXTINF:7.633333,
721906808929310-index10315.png
#EXTINF:8.333333,
721906808929310-index10316.png
#EXTINF:2.400000,
721906808929310-index10317.png
#EXTINF:8.333333,
721906808929310-index10318.png
#EXTINF:1.266667,
721906808929310-index10319.png
#EXTINF:2.666667,
721906808929310-index10320.png
#EXTINF:2.866667,
721906808929310-index10321.png
#EXTINF:8.333333,
721906808929310-index10322.png
#EXTINF:5.533333,
721906808929310-index10323.png
#EXTINF:6.600000,
721906808929310-index10324.png
#EXTINF:3.333333,
721906808929310-index10325.png
#EXTINF:1.166667,
721906808929310-index10326.png
#EXTINF:8.333333,
721906808929310-index10327.png
#EXTINF:8.333333,
721906808929310-index10328.png
#EXTINF:6.200000,
721906808929310-index10329.png
#EXTINF:3.433333,
721906808929310-index10330.png
#EXTINF:6.533333,
721906808929310-index10331.png
#EXTINF:8.333333,
721906808929310-index10332.png
#EXTINF:0.866667,
721906808929310-index10333.png
#EXTINF:3.933333,
721906808929310-index10334.png
#EXTINF:5.266667,
721906808929310-index10335.png
#EXTINF:2.666667,
721906808929310-index10336.png
#EXTINF:4.266667,
721906808929310-index10337.png
#EXTINF:3.800000,
721906808929310-index10338.png
#EXTINF:4.233333,
721906808929310-index10339.png
#EXTINF:8.333333,
721906808929310-index10340.png
#EXTINF:0.600000,
721906808929310-index10341.png
#EXTINF:5.900000,
721906808929310-index10342.png
#EXTINF:4.433333,
721906808929310-index10343.png
#EXTINF:3.366667,
721906808929310-index10344.png
#EXTINF:7.700000,
721906808929310-index10345.png
#EXTINF:6.633333,
721906808929310-index10346.png
#EXTINF:8.333333,
721906808929310-index10347.png
#EXTINF:8.333333,
721906808929310-index10348.png
#EXTINF:7.166667,
721906808929310-index10349.png
#EXTINF:5.000000,
721906808929310-index10350.png
#EXTINF:4.466667,
721906808929310-index10351.png
#EXTINF:2.366667,
721906808929310-index10352.png
#EXTINF:6.233333,
721906808929310-index10353.png
#EXTINF:8.333333,
721906808929310-index10354.png
#EXTINF:1.333333,
721906808929310-index10355.png
#EXTINF:3.666667,
721906808929310-index10356.png
#EXTINF:8.300000,
721906808929310-index10357.png
#EXTINF:8.333333,
721906808929310-index10358.png
#EXTINF:0.266667,
721906808929310-index10359.png
#EXTINF:8.333333,
721906808929310-index10360.png
#EXTINF:8.333333,
721906808929310-index10361.png
#EXTINF:6.000000,
721906808929310-index10362.png
#EXTINF:7.233333,
721906808929310-index10363.png
#EXTINF:8.333333,
721906808929310-index10364.png
#EXTINF:8.333333,
721906808929310-index10365.png
#EXTINF:8.333333,
721906808929310-index10366.png
#EXTINF:1.966667,
721906808929310-index10367.png
#EXTINF:8.333333,
721906808929310-index10368.png
#EXTINF:8.333333,
721906808929310-index10369.png
#EXTINF:8.333333,
721906808929310-index10370.png
#EXTINF:8.333333,
721906808929310-index10371.png
#EXTINF:8.333333,
721906808929310-index10372.png
#EXTINF:8.333333,
721906808929310-index10373.png
#EXTINF:6.633333,
721906808929310-index10374.png
#EXTINF:8.333333,
721906808929310-index10375.png
#EXTINF:8.333333,
721906808929310-index10376.png
#EXTINF:8.333333,
721906808929310-index10377.png
#EXTINF:8.333333,
721906808929310-index10378.png
#EXTINF:7.266667,
721906808929310-index10379.png
#EXTINF:6.166667,
721906808929310-index10380.png
#EXTINF:3.800000,
721906808929310-index10381.png
#EXTINF:2.266667,
721906808929310-index10382.png
#EXTINF:3.833333,
721906808929310-index10383.png
#EXTINF:3.033333,
721906808929310-index10384.png
#EXTINF:6.900000,
721906808929310-index10385.png
#EXTINF:2.633333,
721906808929310-index10386.png
#EXTINF:3.133333,
721906808929310-index10387.png
#EXTINF:3.666667,
721906808929310-index10388.png
#EXTINF:1.400000,
721906808929310-index10389.png
#EXTINF:2.633333,
721906808929310-index10390.png
#EXTINF:3.366667,
721906808929310-index10391.png
#EXTINF:4.600000,
721906808929310-index10392.png
#EXTINF:6.633333,
721906808929310-index10393.png
#EXTINF:7.700000,
721906808929310-index10394.png
#EXTINF:4.566667,
721906808929310-index10395.png
#EXTINF:3.933333,
721906808929310-index10396.png
#EXTINF:0.966667,
721906808929310-index10397.png
#EXTINF:5.366667,
721906808929310-index10398.png
#EXTINF:5.800000,
721906808929310-index10399.png
#EXTINF:6.500000,
721906808929310-index10400.png
#EXTINF:2.366667,
721906808929310-index10401.png
#EXTINF:2.166667,
721906808929310-index10402.png
#EXTINF:8.333333,
721906808929310-index10403.png
#EXTINF:3.500000,
721906808929310-index10404.png
#EXTINF:8.333333,
721906808929310-index10405.png
#EXTINF:2.966667,
721906808929310-index10406.png
#EXTINF:3.833333,
721906808929310-index10407.png
#EXTINF:7.933333,
721906808929310-index10408.png
#EXTINF:8.333333,
721906808929310-index10409.png
#EXTINF:8.333333,
721906808929310-index10410.png
#EXTINF:8.333333,
721906808929310-index10411.png
#EXTINF:4.600000,
721906808929310-index10412.png
#EXTINF:8.333333,
721906808929310-index10413.png
#EXTINF:8.333333,
721906808929310-index10414.png
#EXTINF:0.966667,
721906808929310-index10415.png
#EXTINF:3.000000,
721906808929310-index10416.png
#EXTINF:7.766667,
721906808929310-index10417.png
#EXTINF:1.500000,
721906808929310-index10418.png
#EXTINF:8.333333,
721906808929310-index10419.png
#EXTINF:6.133333,
721906808929310-index10420.png
#EXTINF:5.866667,
721906808929310-index10421.png
#EXTINF:8.333333,
721906808929310-index10422.png
#EXTINF:1.300000,
721906808929310-index10423.png
#EXTINF:2.766667,
721906808929310-index10424.png
#EXTINF:1.033333,
721906808929310-index10425.png
#EXTINF:8.333333,
721906808929310-index10426.png
#EXTINF:8.333333,
721906808929310-index10427.png
#EXTINF:8.333333,
721906808929310-index10428.png
#EXTINF:8.333333,
721906808929310-index10429.png
#EXTINF:5.833333,
721906808929310-index10430.png
#EXTINF:8.300000,
721906808929310-index10431.png
#EXTINF:8.333333,
721906808929310-index10432.png
#EXTINF:8.333333,
721906808929310-index10433.png
#EXTINF:3.866667,
721906808929310-index10434.png
#EXTINF:3.066667,
721906808929310-index10435.png
#EXTINF:2.300000,
721906808929310-index10436.png
#EXTINF:8.000000,
721906808929310-index10437.png
#EXTINF:4.700000,
721906808929310-index10438.png
#EXTINF:8.333333,
721906808929310-index10439.png
#EXTINF:8.333333,
721906808929310-index10440.png
#EXTINF:8.333333,
721906808929310-index10441.png
#EXTINF:2.600000,
721906808929310-index10442.png
#EXTINF:1.833333,
721906808929310-index10443.png
#EXTINF:8.333333,
721906808929310-index10444.png
#EXTINF:2.033333,
721906808929310-index10445.png
#EXTINF:5.533333,
721906808929310-index10446.png
#EXTINF:8.333333,
721906808929310-index10447.png
#EXTINF:1.433333,
721906808929310-index10448.png
#EXTINF:8.333333,
721906808929310-index10449.png
#EXTINF:4.466667,
721906808929310-index10450.png
#EXTINF:4.600000,
721906808929310-index10451.png
#EXTINF:3.800000,
721906808929310-index10452.png
#EXTINF:1.300000,
721906808929310-index10453.png
#EXTINF:0.666667,
721906808929310-index10454.png
#EXTINF:0.500000,
721906808929310-index10455.png
#EXTINF:1.200000,
721906808929310-index10456.png
#EXTINF:1.166667,
721906808929310-index10457.png
#EXTINF:4.266667,
721906808929310-index10458.png
#EXTINF:2.333333,
721906808929310-index10459.png
#EXTINF:6.066667,
721906808929310-index10460.png
#EXTINF:0.866667,
721906808929310-index10461.png
#EXTINF:2.766667,
721906808929310-index10462.png
#EXTINF:0.633333,
721906808929310-index10463.png
#EXTINF:0.766667,
721906808929310-index10464.png
#EXTINF:1.433333,
721906808929310-index10465.png
#EXTINF:0.800000,
721906808929310-index10466.png
#EXTINF:1.100000,
721906808929310-index10467.png
#EXTINF:2.433333,
721906808929310-index10468.png
#EXTINF:2.233333,
721906808929310-index10469.png
#EXTINF:0.900000,
721906808929310-index10470.png
#EXTINF:1.500000,
721906808929310-index10471.png
#EXTINF:3.200000,
721906808929310-index10472.png
#EXTINF:0.833333,
721906808929310-index10473.png
#EXTINF:0.700000,
721906808929310-index10474.png
#EXTINF:2.033333,
721906808929310-index10475.png
#EXTINF:1.566667,
721906808929310-index10476.png
#EXTINF:0.666667,
721906808929310-index10477.png
#EXTINF:2.733333,
721906808929310-index10478.png
#EXTINF:1.966667,
721906808929310-index10479.png
#EXTINF:1.633333,
721906808929310-index10480.png
#EXTINF:6.100000,
721906808929310-index10481.png
#EXTINF:8.333333,
721906808929310-index10482.png
#EXTINF:0.800000,
721906808929310-index10483.png
#EXTINF:3.533333,
721906808929310-index10484.png
#EXTINF:2.433333,
721906808929310-index10485.png
#EXTINF:2.233333,
721906808929310-index10486.png
#EXTINF:1.466667,
721906808929310-index10487.png
#EXTINF:7.133333,
721906808929310-index10488.png
#EXTINF:4.866667,
721906808929310-index10489.png
#EXTINF:8.333333,
721906808929310-index10490.png
#EXTINF:8.333333,
721906808929310-index10491.png
#EXTINF:4.133333,
721906808929310-index10492.png
#EXTINF:8.333333,
721906808929310-index10493.png
#EXTINF:8.333333,
721906808929310-index10494.png
#EXTINF:8.333333,
721906808929310-index10495.png
#EXTINF:8.333333,
721906808929310-index10496.png
#EXTINF:3.200000,
721906808929310-index10497.png
#EXTINF:8.333333,
721906808929310-index10498.png
#EXTINF:8.333333,
721906808929310-index10499.png
#EXTINF:8.333333,
721906808929310-index10500.png
#EXTINF:5.933333,
721906808929310-index10501.png
#EXTINF:8.333333,
721906808929310-index10502.png
#EXTINF:2.700000,
721906808929310-index10503.png
#EXTINF:8.133333,
721906808929310-index10504.png
#EXTINF:8.333333,
721906808929310-index10505.png
#EXTINF:6.400000,
721906808929310-index10506.png
#EXTINF:8.333333,
721906808929310-index10507.png
#EXTINF:8.166667,
721906808929310-index10508.png
#EXTINF:2.800000,
721906808929310-index10509.png
#EXTINF:3.533333,
721906808929310-index10510.png
#EXTINF:6.133333,
721906808929310-index10511.png
#EXTINF:8.333333,
721906808929310-index10512.png
#EXTINF:8.333333,
721906808929310-index10513.png
#EXTINF:8.333333,
721906808929310-index10514.png
#EXTINF:2.733333,
721906808929310-index10515.png
#EXTINF:2.233333,
721906808929310-index10516.png
#EXTINF:3.566667,
721906808929310-index10517.png
#EXTINF:3.700000,
721906808929310-index10518.png
#EXTINF:5.000000,
721906808929310-index10519.png
#EXTINF:2.833333,
721906808929310-index10520.png
#EXTINF:7.266667,
721906808929310-index10521.png
#EXTINF:8.333333,
721906808929310-index10522.png
#EXTINF:4.566667,
721906808929310-index10523.png
#EXTINF:7.733333,
721906808929310-index10524.png
#EXTINF:5.733333,
721906808929310-index10525.png
#EXTINF:6.933333,
721906808929310-index10526.png
#EXTINF:1.700000,
721906808929310-index10527.png
#EXTINF:8.333333,
721906808929310-index10528.png
#EXTINF:4.066667,
721906808929310-index10529.png
#EXTINF:8.333333,
721906808929310-index10530.png
#EXTINF:0.900000,
721906808929310-index10531.png
#EXTINF:6.066667,
721906808929310-index10532.png
#EXTINF:2.666667,
721906808929310-index10533.png
#EXTINF:5.766667,
721906808929310-index10534.png
#EXTINF:4.366667,
721906808929310-index10535.png
#EXTINF:6.733333,
721906808929310-index10536.png
#EXTINF:8.333333,
721906808929310-index10537.png
#EXTINF:8.300000,
721906808929310-index10538.png
#EXTINF:4.500000,
721906808929310-index10539.png
#EXTINF:8.333333,
721906808929310-index10540.png
#EXTINF:2.600000,
721906808929310-index10541.png
#EXTINF:8.333333,
721906808929310-index10542.png
#EXTINF:4.366667,
721906808929310-index10543.png
#EXTINF:3.200000,
721906808929310-index10544.png
#EXTINF:1.866667,
721906808929310-index10545.png
#EXTINF:8.333333,
721906808929310-index10546.png
#EXTINF:0.666667,
721906808929310-index10547.png
#EXTINF:2.233333,
721906808929310-index10548.png
#EXTINF:8.333333,
721906808929310-index10549.png
#EXTINF:3.666667,
721906808929310-index10550.png
#EXTINF:8.333333,
721906808929310-index10551.png
#EXTINF:8.333333,
721906808929310-index10552.png
#EXTINF:8.333333,
721906808929310-index10553.png
#EXTINF:8.333333,
721906808929310-index10554.png
#EXTINF:3.400000,
721906808929310-index10555.png
#EXTINF:1.933333,
721906808929310-index10556.png
#EXTINF:4.866667,
721906808929310-index10557.png
#EXTINF:3.633333,
721906808929310-index10558.png
#EXTINF:1.733333,
721906808929310-index10559.png
#EXTINF:8.333333,
721906808929310-index10560.png
#EXTINF:3.000000,
721906808929310-index10561.png
#EXTINF:0.933333,
721906808929310-index10562.png
#EXTINF:0.733333,
721906808929310-index10563.png
#EXTINF:8.333333,
721906808929310-index10564.png
#EXTINF:6.766667,
721906808929310-index10565.png
#EXTINF:4.066667,
721906808929310-index10566.png
#EXTINF:0.866667,
721906808929310-index10567.png
#EXTINF:1.100000,
721906808929310-index10568.png
#EXTINF:2.400000,
721906808929310-index10569.png
#EXTINF:1.266667,
721906808929310-index10570.png
#EXTINF:1.233333,
721906808929310-index10571.png
#EXTINF:7.266667,
721906808929310-index10572.png
#EXTINF:1.200000,
721906808929310-index10573.png
#EXTINF:0.800000,
721906808929310-index10574.png
#EXTINF:0.833333,
721906808929310-index10575.png
#EXTINF:8.033333,
721906808929310-index10576.png
#EXTINF:2.533333,
721906808929310-index10577.png
#EXTINF:2.100000,
721906808929310-index10578.png
#EXTINF:8.333333,
721906808929310-index10579.png
#EXTINF:6.533333,
721906808929310-index10580.png
#EXTINF:8.333333,
721906808929310-index10581.png
#EXTINF:5.200000,
721906808929310-index10582.png
#EXTINF:4.400000,
721906808929310-index10583.png
#EXTINF:2.500000,
721906808929310-index10584.png
#EXTINF:2.933333,
721906808929310-index10585.png
#EXTINF:8.333333,
721906808929310-index10586.png
#EXTINF:4.933333,
721906808929310-index10587.png
#EXTINF:6.866667,
721906808929310-index10588.png
#EXTINF:8.333333,
721906808929310-index10589.png
#EXTINF:6.300000,
721906808929310-index10590.png
#EXTINF:6.633333,
721906808929310-index10591.png
#EXTINF:1.400000,
721906808929310-index10592.png
#EXTINF:1.433333,
721906808929310-index10593.png
#EXTINF:2.400000,
721906808929310-index10594.png
#EXTINF:1.666667,
721906808929310-index10595.png
#EXTINF:1.366667,
721906808929310-index10596.png
#EXTINF:1.266667,
721906808929310-index10597.png
#EXTINF:1.066667,
721906808929310-index10598.png
#EXTINF:2.100000,
721906808929310-index10599.png
#EXTINF:5.733333,
721906808929310-index10600.png
#EXTINF:8.333333,
721906808929310-index10601.png
#EXTINF:8.333333,
721906808929310-index10602.png
#EXTINF:0.333333,
721906808929310-index10603.png
#EXTINF:4.666667,
721906808929310-index10604.png
#EXTINF:1.333333,
721906808929310-index10605.png
#EXTINF:8.333333,
721906808929310-index10606.png
#EXTINF:6.733333,
721906808929310-index10607.png
#EXTINF:7.533333,
721906808929310-index10608.png
#EXTINF:8.333333,
721906808929310-index10609.png
#EXTINF:2.700000,
721906808929310-index10610.png
#EXTINF:1.866667,
721906808929310-index10611.png
#EXTINF:3.066667,
721906808929310-index10612.png
#EXTINF:0.400000,
721906808929310-index10613.png
#EXTINF:2.433333,
721906808929310-index10614.png
#EXTINF:1.233333,
721906808929310-index10615.png
#EXTINF:8.333333,
721906808929310-index10616.png
#EXTINF:8.333333,
721906808929310-index10617.png
#EXTINF:1.133333,
721906808929310-index10618.png
#EXTINF:1.633333,
721906808929310-index10619.png
#EXTINF:0.500000,
721906808929310-index10620.png
#EXTINF:6.000000,
721906808929310-index10621.png
#EXTINF:1.833333,
721906808929310-index10622.png
#EXTINF:1.266667,
721906808929310-index10623.png
#EXTINF:4.233333,
721906808929310-index10624.png
#EXTINF:1.566667,
721906808929310-index10625.png
#EXTINF:8.333333,
721906808929310-index10626.png
#EXTINF:3.200000,
721906808929310-index10627.png
#EXTINF:4.466667,
721906808929310-index10628.png
#EXTINF:3.266667,
721906808929310-index10629.png
#EXTINF:4.366667,
721906808929310-index10630.png
#EXTINF:1.366667,
721906808929310-index10631.png
#EXTINF:4.933333,
721906808929310-index10632.png
#EXTINF:1.500000,
721906808929310-index10633.png
#EXTINF:3.233333,
721906808929310-index10634.png
#EXTINF:8.333333,
721906808929310-index10635.png
#EXTINF:4.700000,
721906808929310-index10636.png
#EXTINF:2.100000,
721906808929310-index10637.png
#EXTINF:8.333333,
721906808929310-index10638.png
#EXTINF:8.333333,
721906808929310-index10639.png
#EXTINF:7.833333,
721906808929310-index10640.png
#EXTINF:8.333333,
721906808929310-index10641.png
#EXTINF:8.333333,
721906808929310-index10642.png
#EXTINF:4.000000,
721906808929310-index10643.png
#EXTINF:8.333333,
721906808929310-index10644.png
#EXTINF:8.333333,
721906808929310-index10645.png
#EXTINF:5.366667,
721906808929310-index10646.png
#EXTINF:1.500000,
721906808929310-index10647.png
#EXTINF:5.266667,
721906808929310-index10648.png
#EXTINF:2.666667,
721906808929310-index10649.png
#EXTINF:7.933333,
721906808929310-index10650.png
#EXTINF:8.333333,
721906808929310-index10651.png
#EXTINF:8.333333,
721906808929310-index10652.png
#EXTINF:1.766667,
721906808929310-index10653.png
#EXTINF:8.333333,
721906808929310-index10654.png
#EXTINF:6.333333,
721906808929310-index10655.png
#EXTINF:8.333333,
721906808929310-index10656.png
#EXTINF:8.333333,
721906808929310-index10657.png
#EXTINF:0.566667,
721906808929310-index10658.png
#EXTINF:6.766667,
721906808929310-index10659.png
#EXTINF:7.566667,
721906808929310-index10660.png
#EXTINF:3.900000,
721906808929310-index10661.png
#EXTINF:4.933333,
721906808929310-index10662.png
#EXTINF:1.666667,
721906808929310-index10663.png
#EXTINF:8.333333,
721906808929310-index10664.png
#EXTINF:0.833333,
721906808929310-index10665.png
#EXTINF:8.333333,
721906808929310-index10666.png
#EXTINF:5.800000,
721906808929310-index10667.png
#EXTINF:7.133333,
721906808929310-index10668.png
#EXTINF:3.666667,
721906808929310-index10669.png
#EXTINF:8.333333,
721906808929310-index10670.png
#EXTINF:7.833333,
721906808929310-index10671.png
#EXTINF:3.900000,
721906808929310-index10672.png
#EXTINF:7.400000,
721906808929310-index10673.png
#EXTINF:2.900000,
721906808929310-index10674.png
#EXTINF:4.966667,
721906808929310-index10675.png
#EXTINF:2.233333,
721906808929310-index10676.png
#EXTINF:7.500000,
721906808929310-index10677.png
#EXTINF:2.066667,
721906808929310-index10678.png
#EXTINF:2.900000,
721906808929310-index10679.png
#EXTINF:6.666667,
721906808929310-index10680.png
#EXTINF:8.333333,
721906808929310-index10681.png
#EXTINF:1.100000,
721906808929310-index10682.png
#EXTINF:3.866667,
721906808929310-index10683.png
#EXTINF:8.333333,
721906808929310-index10684.png
#EXTINF:1.566667,
721906808929310-index10685.png
#EXTINF:1.566667,
721906808929310-index10686.png
#EXTINF:8.333333,
721906808929310-index10687.png
#EXTINF:6.400000,
721906808929310-index10688.png
#EXTINF:5.500000,
721906808929310-index10689.png
#EXTINF:6.533333,
721906808929310-index10690.png
#EXTINF:1.600000,
721906808929310-index10691.png
#EXTINF:2.733333,
721906808929310-index10692.png
#EXTINF:8.333333,
721906808929310-index10693.png
#EXTINF:0.500000,
721906808929310-index10694.png
#EXTINF:8.333333,
721906808929310-index10695.png
#EXTINF:5.066667,
721906808929310-index10696.png
#EXTINF:3.266667,
721906808929310-index10697.png
#EXTINF:5.166667,
721906808929310-index10698.png
#EXTINF:0.933333,
721906808929310-index10699.png
#EXTINF:1.366667,
721906808929310-index10700.png
#EXTINF:4.666667,
721906808929310-index10701.png
#EXTINF:2.466667,
721906808929310-index10702.png
#EXTINF:2.400000,
721906808929310-index10703.png
#EXTINF:3.766667,
721906808929310-index10704.png
#EXTINF:3.666667,
721906808929310-index10705.png
#EXTINF:4.066667,
721906808929310-index10706.png
#EXTINF:0.966667,
721906808929310-index10707.png
#EXTINF:1.166667,
721906808929310-index10708.png
#EXTINF:3.333333,
721906808929310-index10709.png
#EXTINF:1.600000,
721906808929310-index10710.png
#EXTINF:1.666667,
721906808929310-index10711.png
#EXTINF:4.033333,
721906808929310-index10712.png
#EXTINF:1.566667,
721906808929310-index10713.png
#EXTINF:2.966667,
721906808929310-index10714.png
#EXTINF:2.366667,
721906808929310-index10715.png
#EXTINF:1.233333,
721906808929310-index10716.png
#EXTINF:2.866667,
721906808929310-index10717.png
#EXTINF:1.533333,
721906808929310-index10718.png
#EXTINF:1.533333,
721906808929310-index10719.png
#EXTINF:3.166667,
721906808929310-index10720.png
#EXTINF:2.966667,
721906808929310-index10721.png
#EXTINF:7.700000,
721906808929310-index10722.png
#EXTINF:8.333333,
721906808929310-index10723.png
#EXTINF:1.733333,
721906808929310-index10724.png
#EXTINF:8.333333,
721906808929310-index10725.png
#EXTINF:8.333333,
721906808929310-index10726.png
#EXTINF:8.233333,
721906808929310-index10727.png
#EXTINF:7.166667,
721906808929310-index10728.png
#EXTINF:2.100000,
721906808929310-index10729.png
#EXTINF:7.366667,
721906808929310-index10730.png
#EXTINF:6.400000,
721906808929310-index10731.png
#EXTINF:3.300000,
721906808929310-index10732.png
#EXTINF:5.433333,
721906808929310-index10733.png
#EXTINF:2.333333,
721906808929310-index10734.png
#EXTINF:2.200000,
721906808929310-index10735.png
#EXTINF:1.200000,
721906808929310-index10736.png
#EXTINF:7.300000,
721906808929310-index10737.png
#EXTINF:8.333333,
721906808929310-index10738.png
#EXTINF:4.033333,
721906808929310-index10739.png
#EXTINF:8.333333,
721906808929310-index10740.png
#EXTINF:8.333333,
721906808929310-index10741.png
#EXTINF:8.333333,
721906808929310-index10742.png
#EXTINF:0.766667,
721906808929310-index10743.png
#EXTINF:8.333333,
721906808929310-index10744.png
#EXTINF:8.333333,
721906808929310-index10745.png
#EXTINF:4.100000,
721906808929310-index10746.png
#EXTINF:7.766667,
721906808929310-index10747.png
#EXTINF:8.333333,
721906808929310-index10748.png
#EXTINF:8.333333,
721906808929310-index10749.png
#EXTINF:7.533333,
721906808929310-index10750.png
#EXTINF:4.933333,
721906808929310-index10751.png
#EXTINF:7.100000,
721906808929310-index10752.png
#EXTINF:7.500000,
721906808929310-index10753.png
#EXTINF:2.900000,
721906808929310-index10754.png
#EXTINF:6.666667,
721906808929310-index10755.png
#EXTINF:2.566667,
721906808929310-index10756.png
#EXTINF:4.933333,
721906808929310-index10757.png
#EXTINF:4.333333,
721906808929310-index10758.png
#EXTINF:4.833333,
721906808929310-index10759.png
#EXTINF:5.866667,
721906808929310-index10760.png
#EXTINF:8.333333,
721906808929310-index10761.png
#EXTINF:8.333333,
721906808929310-index10762.png
#EXTINF:3.866667,
721906808929310-index10763.png
#EXTINF:8.333333,
721906808929310-index10764.png
#EXTINF:8.333333,
721906808929310-index10765.png
#EXTINF:2.333333,
721906808929310-index10766.png
#EXTINF:4.600000,
721906808929310-index10767.png
#EXTINF:8.333333,
721906808929310-index10768.png
#EXTINF:0.833333,
721906808929310-index10769.png
#EXTINF:4.833333,
721906808929310-index10770.png
#EXTINF:2.900000,
721906808929310-index10771.png
#EXTINF:8.333333,
721906808929310-index10772.png
#EXTINF:8.333333,
721906808929310-index10773.png
#EXTINF:8.333333,
721906808929310-index10774.png
#EXTINF:8.333333,
721906808929310-index10775.png
#EXTINF:8.333333,
721906808929310-index10776.png
#EXTINF:8.166667,
721906808929310-index10777.png
#EXTINF:8.333333,
721906808929310-index10778.png
#EXTINF:8.333333,
721906808929310-index10779.png
#EXTINF:5.933333,
721906808929310-index10780.png
#EXTINF:6.433333,
721906808929310-index10781.png
#EXTINF:4.333333,
721906808929310-index10782.png
#EXTINF:3.300000,
721906808929310-index10783.png
#EXTINF:4.433333,
721906808929310-index10784.png
#EXT-X-ENDLIST
