#EXTM3U
#EXT-X-VERSION:3
#EXT-X-TARGETDURATION:10
#EXT-X-MEDIA-SEQUENCE:10001
#EXTINF:10.000000,
723206351200739-index10001.ts
#EXTINF:10.000000,
723206351200739-index10002.ts
#EXTINF:10.000000,
723206351200739-index10003.ts
#EXTINF:10.000000,
723206351200739-index10004.ts
#EXTINF:10.000000,
723206351200739-index10005.ts
#EXTINF:10.000000,
723206351200739-index10006.ts
#EXTINF:10.000000,
723206351200739-index10007.ts
#EXTINF:10.000000,
723206351200739-index10008.ts
#EXTINF:10.000000,
723206351200739-index10009.ts
#EXTINF:10.000000,
723206351200739-index10010.ts
#EXTINF:10.000000,
723206351200739-index10011.ts
#EXTINF:10.000000,
723206351200739-index10012.ts
#EXTINF:10.000000,
723206351200739-index10013.ts
#EXTINF:10.000000,
723206351200739-index10014.ts
#EXTINF:10.000000,
723206351200739-index10015.ts
#EXTINF:10.000000,
723206351200739-index10016.ts
#EXTINF:10.000000,
723206351200739-index10017.ts
#EXTINF:10.000000,
723206351200739-index10018.ts
#EXTINF:10.000000,
723206351200739-index10019.ts
#EXTINF:10.000000,
723206351200739-index10020.ts
#EXTINF:10.000000,
723206351200739-index10021.ts
#EXTINF:10.000000,
723206351200739-index10022.ts
#EXTINF:10.000000,
723206351200739-index10023.ts
#EXTINF:10.000000,
723206351200739-index10024.ts
#EXTINF:10.000000,
723206351200739-index10025.ts
#EXTINF:10.000000,
723206351200739-index10026.ts
#EXTINF:10.000000,
723206351200739-index10027.ts
#EXTINF:10.000000,
723206351200739-index10028.ts
#EXTINF:10.000000,
723206351200739-index10029.ts
#EXTINF:10.000000,
723206351200739-index10030.ts
#EXTINF:10.000000,
723206351200739-index10031.ts
#EXTINF:10.000000,
723206351200739-index10032.ts
#EXTINF:10.000000,
723206351200739-index10033.ts
#EXTINF:10.000000,
723206351200739-index10034.ts
#EXTINF:0.280000,
723206351200739-index10035.ts
#EXT-X-ENDLIST
