#EXTM3U
#EXT-X-VERSION:3
#EXT-X-TARGETDURATION:7
#EXT-X-MEDIA-SEQUENCE:10001
#EXTINF:6.760000,
725640025817685-index10001.png
#EXTINF:6.640000,
725640025817685-index10002.png
#EXTINF:3.560000,
725640025817685-index10003.png
#EXTINF:5.280000,
725640025817685-index10004.png
#EXTINF:4.520000,
725640025817685-index10005.png
#EXTINF:3.160000,
725640025817685-index10006.png
#EXTINF:4.800000,
725640025817685-index10007.png
#EXTINF:5.440000,
725640025817685-index10008.png
#EXTINF:6.840000,
725640025817685-index10009.png
#EXTINF:5.160000,
725640025817685-index10010.png
#EXTINF:5.640000,
725640025817685-index10011.png
#EXTINF:5.880000,
725640025817685-index10012.png
#EXTINF:3.120000,
725640025817685-index10013.png
#EXTINF:6.440000,
725640025817685-index10014.png
#EXTINF:6.680000,
725640025817685-index10015.png
#EXTINF:3.000000,
725640025817685-index10016.png
#EXTINF:5.640000,
725640025817685-index10017.png
#EXTINF:5.440000,
725640025817685-index10018.png
#EXTINF:7.000000,
725640025817685-index10019.png
#EXTINF:3.920000,
725640025817685-index10020.png
#EXTINF:4.880000,
725640025817685-index10021.png
#EXTINF:6.840000,
725640025817685-index10022.png
#EXTINF:4.080000,
725640025817685-index10023.png
#EXTINF:6.880000,
725640025817685-index10024.png
#EXTINF:4.640000,
725640025817685-index10025.png
#EXTINF:5.520000,
725640025817685-index10026.png
#EXTINF:4.000000,
725640025817685-index10027.png
#EXTINF:3.040000,
725640025817685-index10028.png
#EXTINF:4.800000,
725640025817685-index10029.png
#EXTINF:3.240000,
725640025817685-index10030.png
#EXTINF:5.640000,
725640025817685-index10031.png
#EXTINF:5.760000,
725640025817685-index10032.png
#EXTINF:5.720000,
725640025817685-index10033.png
#EXTINF:5.320000,
725640025817685-index10034.png
#EXTINF:3.320000,
725640025817685-index10035.png
#EXTINF:4.600000,
725640025817685-index10036.png
#EXTINF:4.040000,
725640025817685-index10037.png
#EXTINF:5.560000,
725640025817685-index10038.png
#EXTINF:4.880000,
725640025817685-index10039.png
#EXTINF:3.840000,
725640025817685-index10040.png
#EXTINF:4.040000,
725640025817685-index10041.png
#EXTINF:5.520000,
725640025817685-index10042.png
#EXTINF:6.360000,
725640025817685-index10043.png
#EXTINF:6.640000,
725640025817685-index10044.png
#EXTINF:6.760000,
725640025817685-index10045.png
#EXTINF:4.400000,
725640025817685-index10046.png
#EXTINF:3.000000,
725640025817685-index10047.png
#EXTINF:6.040000,
725640025817685-index10048.png
#EXTINF:6.560000,
725640025817685-index10049.png
#EXTINF:7.000000,
725640025817685-index10050.png
#EXTINF:3.840000,
725640025817685-index10051.png
#EXTINF:5.160000,
725640025817685-index10052.png
#EXTINF:4.720000,
725640025817685-index10053.png
#EXTINF:5.440000,
725640025817685-index10054.png
#EXTINF:6.440000,
725640025817685-index10055.png
#EXTINF:7.000000,
725640025817685-index10056.png
#EXTINF:3.520000,
725640025817685-index10057.png
#EXTINF:4.880000,
725640025817685-index10058.png
#EXTINF:3.000000,
725640025817685-index10059.png
#EXTINF:6.200000,
725640025817685-index10060.png
#EXTINF:4.760000,
725640025817685-index10061.png
#EXTINF:3.120000,
725640025817685-index10062.png
#EXTINF:5.520000,
725640025817685-index10063.png
#EXTINF:6.720000,
725640025817685-index10064.png
#EXTINF:4.280000,
725640025817685-index10065.png
#EXTINF:5.440000,
725640025817685-index10066.png
#EXTINF:3.400000,
725640025817685-index10067.png
#EXTINF:4.800000,
725640025817685-index10068.png
#EXTINF:3.000000,
725640025817685-index10069.png
#EXTINF:4.480000,
725640025817685-index10070.png
#EXTINF:6.240000,
725640025817685-index10071.png
#EXTINF:6.680000,
725640025817685-index10072.png
#EXT-X-ENDLIST
