#EXTM3U
#EXT-X-VERSION:3
#EXT-X-TARGETDURATION:10
#EXT-X-MEDIA-SEQUENCE:10001
#EXTINF:6.100000,
728730335417721-index10001.png
#EXTINF:3.433333,
728730335417721-index10002.png
#EXTINF:5.933333,
728730335417721-index10003.png
#EXTINF:10.000000,
728730335417721-index10004.png
#EXTINF:5.900000,
728730335417721-index10005.png
#EXTINF:4.033333,
728730335417721-index10006.png
#EXTINF:6.066667,
728730335417721-index10007.png
#EXTINF:2.033333,
728730335417721-index10008.png
#EXTINF:7.900000,
728730335417721-index10009.png
#EXTINF:10.000000,
728730335417721-index10010.png
#EXTINF:9.966667,
728730335417721-index10011.png
#EXTINF:1.733333,
728730335417721-index10012.png
#EXTINF:2.033333,
728730335417721-index10013.png
#EXTINF:4.233333,
728730335417721-index10014.png
#EXTINF:1.766667,
728730335417721-index10015.png
#EXTINF:6.866667,
728730335417721-index10016.png
#EXTINF:10.000000,
728730335417721-index10017.png
#EXTINF:10.000000,
728730335417721-index10018.png
#EXTINF:6.600000,
728730335417721-index10019.png
#EXTINF:5.033333,
728730335417721-index10020.png
#EXTINF:5.833333,
728730335417721-index10021.png
#EXTINF:10.000000,
728730335417721-index10022.png
#EXTINF:9.800000,
728730335417721-index10023.png
#EXTINF:7.900000,
728730335417721-index10024.png
#EXTINF:4.966667,
728730335417721-index10025.png
#EXTINF:4.633333,
728730335417721-index10026.png
#EXTINF:7.733333,
728730335417721-index10027.png
#EXTINF:1.666667,
728730335417721-index10028.png
#EXTINF:1.366667,
728730335417721-index10029.png
#EXTINF:2.433333,
728730335417721-index10030.png
#EXTINF:4.966667,
728730335417721-index10031.png
#EXTINF:7.033333,
728730335417721-index10032.png
#EXTINF:10.000000,
728730335417721-index10033.png
#EXTINF:10.000000,
728730335417721-index10034.png
#EXTINF:7.833333,
728730335417721-index10035.png
#EXTINF:8.300000,
728730335417721-index10036.png
#EXTINF:3.533333,
728730335417721-index10037.png
#EXTINF:8.033333,
728730335417721-index10038.png
#EXTINF:9.733333,
728730335417721-index10039.png
#EXTINF:5.366667,
728730335417721-index10040.png
#EXTINF:10.000000,
728730335417721-index10041.png
#EXTINF:2.266667,
728730335417721-index10042.png
#EXTINF:5.166667,
728730335417721-index10043.png
#EXTINF:1.066667,
728730335417721-index10044.png
#EXTINF:2.866667,
728730335417721-index10045.png
#EXTINF:1.500000,
728730335417721-index10046.png
#EXTINF:4.066667,
728730335417721-index10047.png
#EXTINF:3.933333,
728730335417721-index10048.png
#EXTINF:9.966667,
728730335417721-index10049.png
#EXTINF:3.800000,
728730335417721-index10050.png
#EXTINF:3.966667,
728730335417721-index10051.png
#EXTINF:2.500000,
728730335417721-index10052.png
#EXTINF:1.966667,
728730335417721-index10053.png
#EXTINF:9.700000,
728730335417721-index10054.png
#EXTINF:2.066667,
728730335417721-index10055.png
#EXTINF:7.100000,
728730335417721-index10056.png
#EXTINF:10.000000,
728730335417721-index10057.png
#EXTINF:3.366667,
728730335417721-index10058.png
#EXTINF:7.666667,
728730335417721-index10059.png
#EXTINF:7.400000,
728730335417721-index10060.png
#EXTINF:6.633333,
728730335417721-index10061.png
#EXTINF:3.666667,
728730335417721-index10062.png
#EXTINF:3.366667,
728730335417721-index10063.png
#EXTINF:7.133333,
728730335417721-index10064.png
#EXTINF:2.366667,
728730335417721-index10065.png
#EXTINF:2.466667,
728730335417721-index10066.png
#EXTINF:7.233333,
728730335417721-index10067.png
#EXTINF:3.566667,
728730335417721-index10068.png
#EXTINF:5.666667,
728730335417721-index10069.png
#EXTINF:3.966667,
728730335417721-index10070.png
#EXTINF:3.600000,
728730335417721-index10071.png
#EXTINF:4.833333,
728730335417721-index10072.png
#EXTINF:2.966667,
728730335417721-index10073.png
#EXTINF:2.366667,
728730335417721-index10074.png
#EXTINF:1.566667,
728730335417721-index10075.png
#EXTINF:2.600000,
728730335417721-index10076.png
#EXTINF:2.066667,
728730335417721-index10077.png
#EXTINF:8.000000,
728730335417721-index10078.png
#EXTINF:1.366667,
728730335417721-index10079.png
#EXTINF:2.100000,
728730335417721-index10080.png
#EXTINF:3.933333,
728730335417721-index10081.png
#EXTINF:6.400000,
728730335417721-index10082.png
#EXTINF:4.766667,
728730335417721-index10083.png
#EXTINF:3.533333,
728730335417721-index10084.png
#EXTINF:1.366667,
728730335417721-index10085.png
#EXTINF:3.633333,
728730335417721-index10086.png
#EXTINF:4.666667,
728730335417721-index10087.png
#EXTINF:2.133333,
728730335417721-index10088.png
#EXTINF:6.366667,
728730335417721-index10089.png
#EXTINF:4.933333,
728730335417721-index10090.png
#EXTINF:3.266667,
728730335417721-index10091.png
#EXTINF:2.866667,
728730335417721-index10092.png
#EXTINF:5.366667,
728730335417721-index10093.png
#EXTINF:3.400000,
728730335417721-index10094.png
#EXTINF:5.200000,
728730335417721-index10095.png
#EXTINF:7.600000,
728730335417721-index10096.png
#EXTINF:3.666667,
728730335417721-index10097.png
#EXTINF:3.066667,
728730335417721-index10098.png
#EXTINF:5.400000,
728730335417721-index10099.png
#EXTINF:9.966667,
728730335417721-index10100.png
#EXTINF:8.266667,
728730335417721-index10101.png
#EXTINF:1.900000,
728730335417721-index10102.png
#EXTINF:6.700000,
728730335417721-index10103.png
#EXTINF:10.000000,
728730335417721-index10104.png
#EXTINF:3.066667,
728730335417721-index10105.png
#EXTINF:3.566667,
728730335417721-index10106.png
#EXTINF:4.700000,
728730335417721-index10107.png
#EXTINF:7.700000,
728730335417721-index10108.png
#EXTINF:7.233333,
728730335417721-index10109.png
#EXTINF:3.933333,
728730335417721-index10110.png
#EXTINF:2.166667,
728730335417721-index10111.png
#EXTINF:8.033333,
728730335417721-index10112.png
#EXTINF:9.966667,
728730335417721-index10113.png
#EXTINF:6.133333,
728730335417721-index10114.png
#EXTINF:3.333333,
728730335417721-index10115.png
#EXTINF:4.233333,
728730335417721-index10116.png
#EXTINF:4.766667,
728730335417721-index10117.png
#EXTINF:5.900000,
728730335417721-index10118.png
#EXTINF:4.700000,
728730335417721-index10119.png
#EXTINF:5.366667,
728730335417721-index10120.png
#EXTINF:8.166667,
728730335417721-index10121.png
#EXTINF:7.433333,
728730335417721-index10122.png
#EXTINF:3.433333,
728730335417721-index10123.png
#EXTINF:10.000000,
728730335417721-index10124.png
#EXTINF:7.733333,
728730335417721-index10125.png
#EXTINF:9.000000,
728730335417721-index10126.png
#EXTINF:8.133333,
728730335417721-index10127.png
#EXTINF:10.000000,
728730335417721-index10128.png
#EXTINF:9.400000,
728730335417721-index10129.png
#EXTINF:8.900000,
728730335417721-index10130.png
#EXTINF:6.166667,
728730335417721-index10131.png
#EXTINF:3.600000,
728730335417721-index10132.png
#EXTINF:2.433333,
728730335417721-index10133.png
#EXTINF:3.100000,
728730335417721-index10134.png
#EXTINF:8.133333,
728730335417721-index10135.png
#EXTINF:1.566667,
728730335417721-index10136.png
#EXTINF:3.800000,
728730335417721-index10137.png
#EXTINF:1.666667,
728730335417721-index10138.png
#EXTINF:4.666667,
728730335417721-index10139.png
#EXTINF:4.500000,
728730335417721-index10140.png
#EXTINF:3.366667,
728730335417721-index10141.png
#EXTINF:1.800000,
728730335417721-index10142.png
#EXTINF:7.600000,
728730335417721-index10143.png
#EXTINF:5.933333,
728730335417721-index10144.png
#EXTINF:3.133333,
728730335417721-index10145.png
#EXTINF:3.500000,
728730335417721-index10146.png
#EXTINF:5.766667,
728730335417721-index10147.png
#EXTINF:5.500000,
728730335417721-index10148.png
#EXTINF:10.000000,
728730335417721-index10149.png
#EXTINF:3.366667,
728730335417721-index10150.png
#EXTINF:4.200000,
728730335417721-index10151.png
#EXTINF:3.866667,
728730335417721-index10152.png
#EXTINF:5.300000,
728730335417721-index10153.png
#EXTINF:3.933333,
728730335417721-index10154.png
#EXTINF:4.966667,
728730335417721-index10155.png
#EXTINF:3.366667,
728730335417721-index10156.png
#EXTINF:7.366667,
728730335417721-index10157.png
#EXTINF:5.933333,
728730335417721-index10158.png
#EXTINF:5.733333,
728730335417721-index10159.png
#EXTINF:3.900000,
728730335417721-index10160.png
#EXTINF:3.633333,
728730335417721-index10161.png
#EXTINF:3.333333,
728730335417721-index10162.png
#EXTINF:5.133333,
728730335417721-index10163.png
#EXTINF:6.166667,
728730335417721-index10164.png
#EXTINF:3.900000,
728730335417721-index10165.png
#EXTINF:6.633333,
728730335417721-index10166.png
#EXTINF:8.900000,
728730335417721-index10167.png
#EXTINF:10.000000,
728730335417721-index10168.png
#EXTINF:4.466667,
728730335417721-index10169.png
#EXTINF:5.600000,
728730335417721-index10170.png
#EXTINF:8.966667,
728730335417721-index10171.png
#EXTINF:10.000000,
728730335417721-index10172.png
#EXTINF:7.033333,
728730335417721-index10173.png
#EXTINF:7.233333,
728730335417721-index10174.png
#EXTINF:9.366667,
728730335417721-index10175.png
#EXTINF:10.000000,
728730335417721-index10176.png
#EXTINF:10.000000,
728730335417721-index10177.png
#EXTINF:10.000000,
728730335417721-index10178.png
#EXTINF:10.000000,
728730335417721-index10179.png
#EXTINF:2.666667,
728730335417721-index10180.png
#EXTINF:10.000000,
728730335417721-index10181.png
#EXTINF:10.000000,
728730335417721-index10182.png
#EXTINF:10.000000,
728730335417721-index10183.png
#EXTINF:10.000000,
728730335417721-index10184.png
#EXTINF:10.000000,
728730335417721-index10185.png
#EXTINF:7.666667,
728730335417721-index10186.png
#EXTINF:1.133333,
728730335417721-index10187.png
#EXTINF:5.633333,
728730335417721-index10188.png
#EXTINF:4.400000,
728730335417721-index10189.png
#EXTINF:1.233333,
728730335417721-index10190.png
#EXTINF:9.033333,
728730335417721-index10191.png
#EXTINF:3.966667,
728730335417721-index10192.png
#EXTINF:10.000000,
728730335417721-index10193.png
#EXTINF:10.000000,
728730335417721-index10194.png
#EXTINF:10.000000,
728730335417721-index10195.png
#EXTINF:10.000000,
728730335417721-index10196.png
#EXTINF:10.000000,
728730335417721-index10197.png
#EXTINF:10.000000,
728730335417721-index10198.png
#EXTINF:10.000000,
728730335417721-index10199.png
#EXTINF:10.000000,
728730335417721-index10200.png
#EXTINF:10.000000,
728730335417721-index10201.png
#EXTINF:1.733333,
728730335417721-index10202.png
#EXT-X-ENDLIST
