#EXTM3U
#EXT-X-VERSION:3
#EXT-X-TARGETDURATION:3
#EXT-X-MEDIA-SEQUENCE:10001
#EXTINF:2.003089,
754146445956495-index10001.png
#EXTINF:2.002133,
754146445956495-index10002.png
#EXTINF:2.002133,
754146445956495-index10003.png
#EXTINF:2.002133,
754146445956495-index10004.png
#EXTINF:2.002133,
754146445956495-index10005.png
#EXTINF:2.002133,
754146445956495-index10006.png
#EXTINF:2.002133,
754146445956495-index10007.png
#EXTINF:2.002133,
754146445956495-index10008.png
#EXTINF:2.002133,
754146445956495-index10009.png
#EXTINF:2.002133,
754146445956495-index10010.png
#EXTINF:2.002133,
754146445956495-index10011.png
#EXTINF:2.002133,
754146445956495-index10012.png
#EXTINF:2.002133,
754146445956495-index10013.png
#EXTINF:2.002133,
754146445956495-index10014.png
#EXTINF:2.002133,
754146445956495-index10015.png
#EXTINF:2.002133,
754146445956495-index10016.png
#EXTINF:2.002133,
754146445956495-index10017.png
#EXTINF:2.002133,
754146445956495-index10018.png
#EXTINF:2.002133,
754146445956495-index10019.png
#EXTINF:2.002133,
754146445956495-index10020.png
#EXTINF:1.960422,
754146445956495-index10021.png
#EXTINF:2.002133,
754146445956495-index10022.png
#EXTINF:2.002133,
754146445956495-index10023.png
#EXTINF:2.002133,
754146445956495-index10024.png
#EXTINF:2.002133,
754146445956495-index10025.png
#EXTINF:2.002133,
754146445956495-index10026.png
#EXTINF:2.002133,
754146445956495-index10027.png
#EXTINF:2.002133,
754146445956495-index10028.png
#EXTINF:2.002133,
754146445956495-index10029.png
#EXTINF:2.002133,
754146445956495-index10030.png
#EXTINF:2.002133,
754146445956495-index10031.png
#EXTINF:2.002133,
754146445956495-index10032.png
#EXTINF:2.002133,
754146445956495-index10033.png
#EXTINF:2.002133,
754146445956495-index10034.png
#EXTINF:2.002133,
754146445956495-index10035.png
#EXTINF:2.002133,
754146445956495-index10036.png
#EXTINF:2.002133,
754146445956495-index10037.png
#EXTINF:2.002133,
754146445956495-index10038.png
#EXTINF:2.002133,
754146445956495-index10039.png
#EXTINF:2.002133,
754146445956495-index10040.png
#EXTINF:2.002133,
754146445956495-index10041.png
#EXTINF:1.960422,
754146445956495-index10042.png
#EXTINF:2.002133,
754146445956495-index10043.png
#EXTINF:2.002133,
754146445956495-index10044.png
#EXTINF:2.002133,
754146445956495-index10045.png
#EXTINF:2.002133,
754146445956495-index10046.png
#EXTINF:2.002133,
754146445956495-index10047.png
#EXTINF:2.002133,
754146445956495-index10048.png
#EXTINF:2.002133,
754146445956495-index10049.png
#EXTINF:2.002133,
754146445956495-index10050.png
#EXTINF:2.002133,
754146445956495-index10051.png
#EXTINF:2.002133,
754146445956495-index10052.png
#EXTINF:2.002133,
754146445956495-index10053.png
#EXTINF:2.002133,
754146445956495-index10054.png
#EXTINF:2.002133,
754146445956495-index10055.png
#EXTINF:2.002133,
754146445956495-index10056.png
#EXTINF:2.002133,
754146445956495-index10057.png
#EXTINF:2.002133,
754146445956495-index10058.png
#EXTINF:2.002133,
754146445956495-index10059.png
#EXTINF:2.002133,
754146445956495-index10060.png
#EXTINF:2.002133,
754146445956495-index10061.png
#EXTINF:2.002133,
754146445956495-index10062.png
#EXTINF:1.960422,
754146445956495-index10063.png
#EXTINF:2.002133,
754146445956495-index10064.png
#EXTINF:2.002133,
754146445956495-index10065.png
#EXTINF:2.002133,
754146445956495-index10066.png
#EXTINF:2.002133,
754146445956495-index10067.png
#EXTINF:2.002133,
754146445956495-index10068.png
#EXTINF:2.002133,
754146445956495-index10069.png
#EXTINF:2.002133,
754146445956495-index10070.png
#EXTINF:2.002133,
754146445956495-index10071.png
#EXTINF:2.002133,
754146445956495-index10072.png
#EXTINF:2.002133,
754146445956495-index10073.png
#EXTINF:2.002133,
754146445956495-index10074.png
#EXTINF:2.002133,
754146445956495-index10075.png
#EXTINF:2.002133,
754146445956495-index10076.png
#EXTINF:2.002133,
754146445956495-index10077.png
#EXTINF:2.002133,
754146445956495-index10078.png
#EXTINF:2.002133,
754146445956495-index10079.png
#EXTINF:2.002133,
754146445956495-index10080.png
#EXTINF:2.002133,
754146445956495-index10081.png
#EXTINF:2.002133,
754146445956495-index10082.png
#EXTINF:1.960422,
754146445956495-index10083.png
#EXTINF:2.002133,
754146445956495-index10084.png
#EXTINF:2.002133,
754146445956495-index10085.png
#EXTINF:2.002133,
754146445956495-index10086.png
#EXTINF:2.002133,
754146445956495-index10087.png
#EXTINF:2.002133,
754146445956495-index10088.png
#EXTINF:2.002133,
754146445956495-index10089.png
#EXTINF:2.002133,
754146445956495-index10090.png
#EXTINF:2.002133,
754146445956495-index10091.png
#EXTINF:2.002133,
754146445956495-index10092.png
#EXTINF:2.002133,
754146445956495-index10093.png
#EXTINF:2.002133,
754146445956495-index10094.png
#EXTINF:2.002133,
754146445956495-index10095.png
#EXTINF:2.002133,
754146445956495-index10096.png
#EXTINF:2.002133,
754146445956495-index10097.png
#EXTINF:2.002133,
754146445956495-index10098.png
#EXTINF:2.002133,
754146445956495-index10099.png
#EXTINF:2.002133,
754146445956495-index10100.png
#EXTINF:2.002133,
754146445956495-index10101.png
#EXTINF:2.002133,
754146445956495-index10102.png
#EXTINF:2.002133,
754146445956495-index10103.png
#EXTINF:1.960422,
754146445956495-index10104.png
#EXTINF:2.002133,
754146445956495-index10105.png
#EXTINF:2.002133,
754146445956495-index10106.png
#EXTINF:2.002133,
754146445956495-index10107.png
#EXTINF:2.002133,
754146445956495-index10108.png
#EXTINF:2.002133,
754146445956495-index10109.png
#EXTINF:2.002133,
754146445956495-index10110.png
#EXTINF:2.002133,
754146445956495-index10111.png
#EXTINF:2.002133,
754146445956495-index10112.png
#EXTINF:2.002133,
754146445956495-index10113.png
#EXTINF:2.002133,
754146445956495-index10114.png
#EXTINF:2.002133,
754146445956495-index10115.png
#EXTINF:2.002133,
754146445956495-index10116.png
#EXTINF:2.002133,
754146445956495-index10117.png
#EXTINF:2.002133,
754146445956495-index10118.png
#EXTINF:2.002133,
754146445956495-index10119.png
#EXTINF:2.002133,
754146445956495-index10120.png
#EXTINF:2.002133,
754146445956495-index10121.png
#EXTINF:2.002133,
754146445956495-index10122.png
#EXTINF:2.002133,
754146445956495-index10123.png
#EXTINF:2.002133,
754146445956495-index10124.png
#EXTINF:1.960422,
754146445956495-index10125.png
#EXTINF:2.002133,
754146445956495-index10126.png
#EXTINF:2.002133,
754146445956495-index10127.png
#EXTINF:2.002133,
754146445956495-index10128.png
#EXTINF:2.002133,
754146445956495-index10129.png
#EXTINF:2.002133,
754146445956495-index10130.png
#EXTINF:2.002133,
754146445956495-index10131.png
#EXTINF:2.002133,
754146445956495-index10132.png
#EXTINF:2.002133,
754146445956495-index10133.png
#EXTINF:2.002133,
754146445956495-index10134.png
#EXTINF:2.002133,
754146445956495-index10135.png
#EXTINF:2.002133,
754146445956495-index10136.png
#EXTINF:2.002133,
754146445956495-index10137.png
#EXTINF:2.002133,
754146445956495-index10138.png
#EXTINF:2.002133,
754146445956495-index10139.png
#EXTINF:2.002133,
754146445956495-index10140.png
#EXTINF:2.002133,
754146445956495-index10141.png
#EXTINF:2.002133,
754146445956495-index10142.png
#EXTINF:2.002133,
754146445956495-index10143.png
#EXTINF:2.002133,
754146445956495-index10144.png
#EXTINF:2.002133,
754146445956495-index10145.png
#EXTINF:1.960422,
754146445956495-index10146.png
#EXTINF:2.002133,
754146445956495-index10147.png
#EXTINF:2.002133,
754146445956495-index10148.png
#EXTINF:2.002133,
754146445956495-index10149.png
#EXTINF:2.002133,
754146445956495-index10150.png
#EXTINF:2.002133,
754146445956495-index10151.png
#EXTINF:2.002133,
754146445956495-index10152.png
#EXTINF:2.002133,
754146445956495-index10153.png
#EXTINF:2.002133,
754146445956495-index10154.png
#EXTINF:2.002133,
754146445956495-index10155.png
#EXTINF:2.002133,
754146445956495-index10156.png
#EXTINF:2.002133,
754146445956495-index10157.png
#EXTINF:2.002133,
754146445956495-index10158.png
#EXTINF:2.002133,
754146445956495-index10159.png
#EXTINF:2.002133,
754146445956495-index10160.png
#EXTINF:2.002133,
754146445956495-index10161.png
#EXTINF:2.002133,
754146445956495-index10162.png
#EXTINF:2.002133,
754146445956495-index10163.png
#EXTINF:2.002133,
754146445956495-index10164.png
#EXTINF:2.002133,
754146445956495-index10165.png
#EXTINF:2.002133,
754146445956495-index10166.png
#EXTINF:1.960422,
754146445956495-index10167.png
#EXTINF:2.002133,
754146445956495-index10168.png
#EXTINF:2.002133,
754146445956495-index10169.png
#EXTINF:2.002133,
754146445956495-index10170.png
#EXTINF:2.002133,
754146445956495-index10171.png
#EXTINF:2.002133,
754146445956495-index10172.png
#EXTINF:2.002133,
754146445956495-index10173.png
#EXTINF:2.002133,
754146445956495-index10174.png
#EXTINF:2.002133,
754146445956495-index10175.png
#EXTINF:2.002133,
754146445956495-index10176.png
#EXTINF:2.002133,
754146445956495-index10177.png
#EXTINF:2.002133,
754146445956495-index10178.png
#EXTINF:2.002133,
754146445956495-index10179.png
#EXTINF:2.002133,
754146445956495-index10180.png
#EXTINF:2.002133,
754146445956495-index10181.png
#EXTINF:2.002133,
754146445956495-index10182.png
#EXTINF:2.002133,
754146445956495-index10183.png
#EXTINF:2.002133,
754146445956495-index10184.png
#EXTINF:2.002133,
754146445956495-index10185.png
#EXTINF:2.002133,
754146445956495-index10186.png
#EXTINF:2.002133,
754146445956495-index10187.png
#EXTINF:1.960422,
754146445956495-index10188.png
#EXTINF:2.002133,
754146445956495-index10189.png
#EXTINF:2.002133,
754146445956495-index10190.png
#EXTINF:2.002133,
754146445956495-index10191.png
#EXTINF:2.002133,
754146445956495-index10192.png
#EXTINF:2.002133,
754146445956495-index10193.png
#EXTINF:2.002133,
754146445956495-index10194.png
#EXTINF:2.002133,
754146445956495-index10195.png
#EXTINF:2.002133,
754146445956495-index10196.png
#EXTINF:2.002133,
754146445956495-index10197.png
#EXTINF:2.002133,
754146445956495-index10198.png
#EXTINF:2.002133,
754146445956495-index10199.png
#EXTINF:2.002133,
754146445956495-index10200.png
#EXTINF:2.002133,
754146445956495-index10201.png
#EXTINF:2.002133,
754146445956495-index10202.png
#EXTINF:2.002133,
754146445956495-index10203.png
#EXTINF:2.002133,
754146445956495-index10204.png
#EXTINF:2.002133,
754146445956495-index10205.png
#EXTINF:2.002133,
754146445956495-index10206.png
#EXTINF:2.002133,
754146445956495-index10207.png
#EXTINF:2.002133,
754146445956495-index10208.png
#EXTINF:1.960422,
754146445956495-index10209.png
#EXTINF:2.002133,
754146445956495-index10210.png
#EXTINF:2.002133,
754146445956495-index10211.png
#EXTINF:2.002133,
754146445956495-index10212.png
#EXTINF:2.002133,
754146445956495-index10213.png
#EXTINF:2.002133,
754146445956495-index10214.png
#EXTINF:2.002133,
754146445956495-index10215.png
#EXTINF:2.002133,
754146445956495-index10216.png
#EXTINF:2.002133,
754146445956495-index10217.png
#EXTINF:2.002133,
754146445956495-index10218.png
#EXTINF:2.002133,
754146445956495-index10219.png
#EXTINF:2.002133,
754146445956495-index10220.png
#EXTINF:2.002133,
754146445956495-index10221.png
#EXTINF:2.002133,
754146445956495-index10222.png
#EXTINF:2.002133,
754146445956495-index10223.png
#EXTINF:2.002133,
754146445956495-index10224.png
#EXTINF:2.002133,
754146445956495-index10225.png
#EXTINF:2.002133,
754146445956495-index10226.png
#EXTINF:2.002133,
754146445956495-index10227.png
#EXTINF:2.002133,
754146445956495-index10228.png
#EXTINF:1.960422,
754146445956495-index10229.png
#EXTINF:2.002133,
754146445956495-index10230.png
#EXTINF:2.002133,
754146445956495-index10231.png
#EXTINF:2.002133,
754146445956495-index10232.png
#EXTINF:2.002133,
754146445956495-index10233.png
#EXTINF:2.002133,
754146445956495-index10234.png
#EXTINF:2.002133,
754146445956495-index10235.png
#EXTINF:2.002133,
754146445956495-index10236.png
#EXTINF:2.002133,
754146445956495-index10237.png
#EXTINF:2.002133,
754146445956495-index10238.png
#EXTINF:2.002133,
754146445956495-index10239.png
#EXTINF:2.002133,
754146445956495-index10240.png
#EXTINF:2.002133,
754146445956495-index10241.png
#EXTINF:2.002133,
754146445956495-index10242.png
#EXTINF:2.002133,
754146445956495-index10243.png
#EXTINF:2.002133,
754146445956495-index10244.png
#EXTINF:2.002133,
754146445956495-index10245.png
#EXTINF:2.002133,
754146445956495-index10246.png
#EXTINF:2.002133,
754146445956495-index10247.png
#EXTINF:2.002133,
754146445956495-index10248.png
#EXTINF:2.002133,
754146445956495-index10249.png
#EXTINF:1.960422,
754146445956495-index10250.png
#EXTINF:2.002133,
754146445956495-index10251.png
#EXTINF:2.002133,
754146445956495-index10252.png
#EXTINF:2.002133,
754146445956495-index10253.png
#EXTINF:2.002133,
754146445956495-index10254.png
#EXTINF:2.002133,
754146445956495-index10255.png
#EXTINF:2.002133,
754146445956495-index10256.png
#EXTINF:2.002133,
754146445956495-index10257.png
#EXTINF:2.002133,
754146445956495-index10258.png
#EXTINF:2.002133,
754146445956495-index10259.png
#EXTINF:2.002133,
754146445956495-index10260.png
#EXTINF:2.002133,
754146445956495-index10261.png
#EXTINF:2.002133,
754146445956495-index10262.png
#EXTINF:2.002133,
754146445956495-index10263.png
#EXTINF:2.002133,
754146445956495-index10264.png
#EXTINF:2.002133,
754146445956495-index10265.png
#EXTINF:2.002133,
754146445956495-index10266.png
#EXTINF:2.002133,
754146445956495-index10267.png
#EXTINF:2.002133,
754146445956495-index10268.png
#EXTINF:2.002133,
754146445956495-index10269.png
#EXTINF:2.002133,
754146445956495-index10270.png
#EXTINF:1.960422,
754146445956495-index10271.png
#EXTINF:2.002133,
754146445956495-index10272.png
#EXTINF:2.002133,
754146445956495-index10273.png
#EXTINF:2.002133,
754146445956495-index10274.png
#EXTINF:2.002133,
754146445956495-index10275.png
#EXTINF:2.002133,
754146445956495-index10276.png
#EXTINF:2.002133,
754146445956495-index10277.png
#EXTINF:2.002133,
754146445956495-index10278.png
#EXTINF:2.002133,
754146445956495-index10279.png
#EXTINF:2.002133,
754146445956495-index10280.png
#EXTINF:2.002133,
754146445956495-index10281.png
#EXTINF:2.002133,
754146445956495-index10282.png
#EXTINF:2.002133,
754146445956495-index10283.png
#EXTINF:2.002133,
754146445956495-index10284.png
#EXTINF:2.002133,
754146445956495-index10285.png
#EXTINF:2.002133,
754146445956495-index10286.png
#EXTINF:2.002133,
754146445956495-index10287.png
#EXTINF:2.002133,
754146445956495-index10288.png
#EXTINF:2.002133,
754146445956495-index10289.png
#EXTINF:2.002133,
754146445956495-index10290.png
#EXTINF:2.002133,
754146445956495-index10291.png
#EXTINF:1.960422,
754146445956495-index10292.png
#EXTINF:2.002133,
754146445956495-index10293.png
#EXTINF:2.002133,
754146445956495-index10294.png
#EXTINF:2.002133,
754146445956495-index10295.png
#EXTINF:2.002133,
754146445956495-index10296.png
#EXTINF:2.002133,
754146445956495-index10297.png
#EXTINF:2.002133,
754146445956495-index10298.png
#EXTINF:2.002133,
754146445956495-index10299.png
#EXTINF:2.002133,
754146445956495-index10300.png
#EXTINF:2.002133,
754146445956495-index10301.png
#EXTINF:2.002133,
754146445956495-index10302.png
#EXTINF:2.002133,
754146445956495-index10303.png
#EXTINF:2.002133,
754146445956495-index10304.png
#EXTINF:2.002133,
754146445956495-index10305.png
#EXTINF:2.002133,
754146445956495-index10306.png
#EXTINF:2.002133,
754146445956495-index10307.png
#EXTINF:2.002133,
754146445956495-index10308.png
#EXTINF:2.002133,
754146445956495-index10309.png
#EXTINF:2.002133,
754146445956495-index10310.png
#EXTINF:2.002133,
754146445956495-index10311.png
#EXTINF:2.002133,
754146445956495-index10312.png
#EXTINF:1.960422,
754146445956495-index10313.png
#EXTINF:2.002133,
754146445956495-index10314.png
#EXTINF:2.002133,
754146445956495-index10315.png
#EXTINF:2.002133,
754146445956495-index10316.png
#EXTINF:2.002133,
754146445956495-index10317.png
#EXTINF:2.002133,
754146445956495-index10318.png
#EXTINF:2.002133,
754146445956495-index10319.png
#EXTINF:2.002133,
754146445956495-index10320.png
#EXTINF:2.002133,
754146445956495-index10321.png
#EXTINF:2.002133,
754146445956495-index10322.png
#EXTINF:2.002133,
754146445956495-index10323.png
#EXTINF:2.002133,
754146445956495-index10324.png
#EXTINF:2.002133,
754146445956495-index10325.png
#EXTINF:2.002133,
754146445956495-index10326.png
#EXTINF:2.002133,
754146445956495-index10327.png
#EXTINF:2.002133,
754146445956495-index10328.png
#EXTINF:2.002133,
754146445956495-index10329.png
#EXTINF:2.002133,
754146445956495-index10330.png
#EXTINF:2.002133,
754146445956495-index10331.png
#EXTINF:2.002133,
754146445956495-index10332.png
#EXTINF:2.002133,
754146445956495-index10333.png
#EXTINF:1.960422,
754146445956495-index10334.png
#EXTINF:2.002133,
754146445956495-index10335.png
#EXTINF:2.002133,
754146445956495-index10336.png
#EXTINF:2.002133,
754146445956495-index10337.png
#EXTINF:2.002133,
754146445956495-index10338.png
#EXTINF:2.002133,
754146445956495-index10339.png
#EXTINF:2.002133,
754146445956495-index10340.png
#EXTINF:2.002133,
754146445956495-index10341.png
#EXTINF:2.002133,
754146445956495-index10342.png
#EXTINF:2.002133,
754146445956495-index10343.png
#EXTINF:2.002133,
754146445956495-index10344.png
#EXTINF:2.002133,
754146445956495-index10345.png
#EXTINF:2.002133,
754146445956495-index10346.png
#EXTINF:2.002133,
754146445956495-index10347.png
#EXTINF:2.002133,
754146445956495-index10348.png
#EXTINF:2.002133,
754146445956495-index10349.png
#EXTINF:2.002133,
754146445956495-index10350.png
#EXTINF:2.002133,
754146445956495-index10351.png
#EXTINF:2.002133,
754146445956495-index10352.png
#EXTINF:2.002133,
754146445956495-index10353.png
#EXTINF:2.002133,
754146445956495-index10354.png
#EXTINF:1.960422,
754146445956495-index10355.png
#EXTINF:2.002133,
754146445956495-index10356.png
#EXTINF:2.002133,
754146445956495-index10357.png
#EXTINF:2.002133,
754146445956495-index10358.png
#EXTINF:2.002133,
754146445956495-index10359.png
#EXTINF:2.002133,
754146445956495-index10360.png
#EXTINF:2.002133,
754146445956495-index10361.png
#EXTINF:2.002133,
754146445956495-index10362.png
#EXTINF:2.002133,
754146445956495-index10363.png
#EXTINF:2.002133,
754146445956495-index10364.png
#EXTINF:2.002133,
754146445956495-index10365.png
#EXTINF:2.002133,
754146445956495-index10366.png
#EXTINF:2.002133,
754146445956495-index10367.png
#EXTINF:2.002133,
754146445956495-index10368.png
#EXTINF:2.002133,
754146445956495-index10369.png
#EXTINF:2.002133,
754146445956495-index10370.png
#EXTINF:2.002133,
754146445956495-index10371.png
#EXTINF:2.002133,
754146445956495-index10372.png
#EXTINF:2.002133,
754146445956495-index10373.png
#EXTINF:2.002133,
754146445956495-index10374.png
#EXTINF:1.960422,
754146445956495-index10375.png
#EXTINF:2.002133,
754146445956495-index10376.png
#EXTINF:2.002133,
754146445956495-index10377.png
#EXTINF:2.002133,
754146445956495-index10378.png
#EXTINF:2.002133,
754146445956495-index10379.png
#EXTINF:2.002133,
754146445956495-index10380.png
#EXTINF:2.002133,
754146445956495-index10381.png
#EXTINF:2.002133,
754146445956495-index10382.png
#EXTINF:2.002133,
754146445956495-index10383.png
#EXTINF:2.002133,
754146445956495-index10384.png
#EXTINF:2.002133,
754146445956495-index10385.png
#EXTINF:2.002133,
754146445956495-index10386.png
#EXTINF:2.002133,
754146445956495-index10387.png
#EXTINF:2.002133,
754146445956495-index10388.png
#EXTINF:2.002133,
754146445956495-index10389.png
#EXTINF:2.002133,
754146445956495-index10390.png
#EXTINF:2.002133,
754146445956495-index10391.png
#EXTINF:2.002133,
754146445956495-index10392.png
#EXTINF:2.002133,
754146445956495-index10393.png
#EXTINF:2.002133,
754146445956495-index10394.png
#EXTINF:2.002133,
754146445956495-index10395.png
#EXTINF:1.960422,
754146445956495-index10396.png
#EXTINF:2.002133,
754146445956495-index10397.png
#EXTINF:2.002133,
754146445956495-index10398.png
#EXTINF:2.002133,
754146445956495-index10399.png
#EXTINF:2.002133,
754146445956495-index10400.png
#EXTINF:2.002133,
754146445956495-index10401.png
#EXTINF:2.002133,
754146445956495-index10402.png
#EXTINF:2.002133,
754146445956495-index10403.png
#EXTINF:2.002133,
754146445956495-index10404.png
#EXTINF:2.002133,
754146445956495-index10405.png
#EXTINF:2.002133,
754146445956495-index10406.png
#EXTINF:2.002133,
754146445956495-index10407.png
#EXTINF:2.002133,
754146445956495-index10408.png
#EXTINF:2.002133,
754146445956495-index10409.png
#EXTINF:2.002133,
754146445956495-index10410.png
#EXTINF:2.002133,
754146445956495-index10411.png
#EXTINF:2.002133,
754146445956495-index10412.png
#EXTINF:2.002133,
754146445956495-index10413.png
#EXTINF:2.002133,
754146445956495-index10414.png
#EXTINF:2.002133,
754146445956495-index10415.png
#EXTINF:2.002133,
754146445956495-index10416.png
#EXTINF:1.960422,
754146445956495-index10417.png
#EXTINF:2.002133,
754146445956495-index10418.png
#EXTINF:2.002133,
754146445956495-index10419.png
#EXTINF:2.002133,
754146445956495-index10420.png
#EXTINF:2.002133,
754146445956495-index10421.png
#EXTINF:2.002133,
754146445956495-index10422.png
#EXTINF:2.002133,
754146445956495-index10423.png
#EXTINF:2.002133,
754146445956495-index10424.png
#EXTINF:2.002133,
754146445956495-index10425.png
#EXTINF:2.002133,
754146445956495-index10426.png
#EXTINF:2.002133,
754146445956495-index10427.png
#EXTINF:2.002133,
754146445956495-index10428.png
#EXTINF:2.002133,
754146445956495-index10429.png
#EXTINF:2.002133,
754146445956495-index10430.png
#EXTINF:2.002133,
754146445956495-index10431.png
#EXTINF:2.002133,
754146445956495-index10432.png
#EXTINF:2.002133,
754146445956495-index10433.png
#EXTINF:2.002133,
754146445956495-index10434.png
#EXTINF:2.002133,
754146445956495-index10435.png
#EXTINF:2.002133,
754146445956495-index10436.png
#EXTINF:2.002133,
754146445956495-index10437.png
#EXTINF:1.960422,
754146445956495-index10438.png
#EXTINF:2.002133,
754146445956495-index10439.png
#EXTINF:2.002133,
754146445956495-index10440.png
#EXTINF:2.002133,
754146445956495-index10441.png
#EXTINF:2.002133,
754146445956495-index10442.png
#EXTINF:2.002133,
754146445956495-index10443.png
#EXTINF:2.002133,
754146445956495-index10444.png
#EXTINF:2.002133,
754146445956495-index10445.png
#EXTINF:2.002133,
754146445956495-index10446.png
#EXTINF:2.002133,
754146445956495-index10447.png
#EXTINF:2.002133,
754146445956495-index10448.png
#EXTINF:2.002133,
754146445956495-index10449.png
#EXTINF:2.002133,
754146445956495-index10450.png
#EXTINF:2.002133,
754146445956495-index10451.png
#EXTINF:2.002133,
754146445956495-index10452.png
#EXTINF:2.002133,
754146445956495-index10453.png
#EXTINF:2.002133,
754146445956495-index10454.png
#EXTINF:2.002133,
754146445956495-index10455.png
#EXTINF:2.002133,
754146445956495-index10456.png
#EXTINF:2.002133,
754146445956495-index10457.png
#EXTINF:2.002133,
754146445956495-index10458.png
#EXTINF:1.960422,
754146445956495-index10459.png
#EXTINF:2.002133,
754146445956495-index10460.png
#EXTINF:2.002133,
754146445956495-index10461.png
#EXTINF:2.002133,
754146445956495-index10462.png
#EXTINF:2.002133,
754146445956495-index10463.png
#EXTINF:2.002133,
754146445956495-index10464.png
#EXTINF:2.002133,
754146445956495-index10465.png
#EXTINF:2.002133,
754146445956495-index10466.png
#EXTINF:2.002133,
754146445956495-index10467.png
#EXTINF:2.002133,
754146445956495-index10468.png
#EXTINF:2.002133,
754146445956495-index10469.png
#EXTINF:2.002133,
754146445956495-index10470.png
#EXTINF:2.002133,
754146445956495-index10471.png
#EXTINF:2.002133,
754146445956495-index10472.png
#EXTINF:2.002133,
754146445956495-index10473.png
#EXTINF:2.002133,
754146445956495-index10474.png
#EXTINF:2.002133,
754146445956495-index10475.png
#EXTINF:2.002133,
754146445956495-index10476.png
#EXTINF:2.002133,
754146445956495-index10477.png
#EXTINF:2.002133,
754146445956495-index10478.png
#EXTINF:2.002133,
754146445956495-index10479.png
#EXTINF:1.960422,
754146445956495-index10480.png
#EXTINF:2.002133,
754146445956495-index10481.png
#EXTINF:2.002133,
754146445956495-index10482.png
#EXTINF:2.002133,
754146445956495-index10483.png
#EXTINF:2.002133,
754146445956495-index10484.png
#EXTINF:2.002133,
754146445956495-index10485.png
#EXTINF:2.002133,
754146445956495-index10486.png
#EXTINF:2.002133,
754146445956495-index10487.png
#EXTINF:2.002133,
754146445956495-index10488.png
#EXTINF:2.002133,
754146445956495-index10489.png
#EXTINF:2.002133,
754146445956495-index10490.png
#EXTINF:2.002133,
754146445956495-index10491.png
#EXTINF:2.002133,
754146445956495-index10492.png
#EXTINF:2.002133,
754146445956495-index10493.png
#EXTINF:2.002133,
754146445956495-index10494.png
#EXTINF:2.002133,
754146445956495-index10495.png
#EXTINF:2.002133,
754146445956495-index10496.png
#EXTINF:2.002133,
754146445956495-index10497.png
#EXTINF:2.002133,
754146445956495-index10498.png
#EXTINF:2.002133,
754146445956495-index10499.png
#EXTINF:2.002133,
754146445956495-index10500.png
#EXTINF:1.960422,
754146445956495-index10501.png
#EXTINF:2.002133,
754146445956495-index10502.png
#EXTINF:2.002133,
754146445956495-index10503.png
#EXTINF:2.002133,
754146445956495-index10504.png
#EXTINF:2.002133,
754146445956495-index10505.png
#EXTINF:2.002133,
754146445956495-index10506.png
#EXTINF:2.002133,
754146445956495-index10507.png
#EXTINF:2.002133,
754146445956495-index10508.png
#EXTINF:2.002133,
754146445956495-index10509.png
#EXTINF:2.002133,
754146445956495-index10510.png
#EXTINF:2.002133,
754146445956495-index10511.png
#EXTINF:2.002133,
754146445956495-index10512.png
#EXTINF:2.002133,
754146445956495-index10513.png
#EXTINF:2.002133,
754146445956495-index10514.png
#EXTINF:2.002133,
754146445956495-index10515.png
#EXTINF:2.002133,
754146445956495-index10516.png
#EXTINF:2.002133,
754146445956495-index10517.png
#EXTINF:2.002133,
754146445956495-index10518.png
#EXTINF:2.002133,
754146445956495-index10519.png
#EXTINF:2.002133,
754146445956495-index10520.png
#EXTINF:1.960422,
754146445956495-index10521.png
#EXTINF:2.002133,
754146445956495-index10522.png
#EXTINF:2.002133,
754146445956495-index10523.png
#EXTINF:2.002133,
754146445956495-index10524.png
#EXTINF:2.002133,
754146445956495-index10525.png
#EXTINF:2.002133,
754146445956495-index10526.png
#EXTINF:2.002133,
754146445956495-index10527.png
#EXTINF:2.002133,
754146445956495-index10528.png
#EXTINF:2.002133,
754146445956495-index10529.png
#EXTINF:2.002133,
754146445956495-index10530.png
#EXTINF:2.002133,
754146445956495-index10531.png
#EXTINF:2.002133,
754146445956495-index10532.png
#EXTINF:2.002133,
754146445956495-index10533.png
#EXTINF:2.002133,
754146445956495-index10534.png
#EXTINF:2.002133,
754146445956495-index10535.png
#EXTINF:2.002133,
754146445956495-index10536.png
#EXTINF:2.002133,
754146445956495-index10537.png
#EXTINF:2.002133,
754146445956495-index10538.png
#EXTINF:2.002133,
754146445956495-index10539.png
#EXTINF:2.002133,
754146445956495-index10540.png
#EXTINF:2.002133,
754146445956495-index10541.png
#EXTINF:1.960422,
754146445956495-index10542.png
#EXTINF:2.002133,
754146445956495-index10543.png
#EXTINF:2.002133,
754146445956495-index10544.png
#EXTINF:2.002133,
754146445956495-index10545.png
#EXTINF:2.002133,
754146445956495-index10546.png
#EXTINF:2.002133,
754146445956495-index10547.png
#EXTINF:2.002133,
754146445956495-index10548.png
#EXTINF:2.002133,
754146445956495-index10549.png
#EXTINF:2.002133,
754146445956495-index10550.png
#EXTINF:2.002133,
754146445956495-index10551.png
#EXTINF:2.002133,
754146445956495-index10552.png
#EXTINF:2.002133,
754146445956495-index10553.png
#EXTINF:2.002133,
754146445956495-index10554.png
#EXTINF:2.002133,
754146445956495-index10555.png
#EXTINF:2.002133,
754146445956495-index10556.png
#EXTINF:2.002133,
754146445956495-index10557.png
#EXTINF:2.002133,
754146445956495-index10558.png
#EXTINF:2.002133,
754146445956495-index10559.png
#EXTINF:2.002133,
754146445956495-index10560.png
#EXTINF:2.002133,
754146445956495-index10561.png
#EXTINF:2.002133,
754146445956495-index10562.png
#EXTINF:1.960422,
754146445956495-index10563.png
#EXTINF:2.002133,
754146445956495-index10564.png
#EXTINF:2.002133,
754146445956495-index10565.png
#EXTINF:2.002133,
754146445956495-index10566.png
#EXTINF:2.002133,
754146445956495-index10567.png
#EXTINF:2.002133,
754146445956495-index10568.png
#EXTINF:2.002133,
754146445956495-index10569.png
#EXTINF:2.002133,
754146445956495-index10570.png
#EXTINF:2.002133,
754146445956495-index10571.png
#EXTINF:2.002133,
754146445956495-index10572.png
#EXTINF:2.002133,
754146445956495-index10573.png
#EXTINF:2.002133,
754146445956495-index10574.png
#EXTINF:2.002133,
754146445956495-index10575.png
#EXTINF:2.002133,
754146445956495-index10576.png
#EXTINF:2.002133,
754146445956495-index10577.png
#EXTINF:2.002133,
754146445956495-index10578.png
#EXTINF:2.002133,
754146445956495-index10579.png
#EXTINF:2.002133,
754146445956495-index10580.png
#EXTINF:2.002133,
754146445956495-index10581.png
#EXTINF:2.002133,
754146445956495-index10582.png
#EXTINF:2.002133,
754146445956495-index10583.png
#EXTINF:1.960422,
754146445956495-index10584.png
#EXTINF:2.002133,
754146445956495-index10585.png
#EXTINF:2.002133,
754146445956495-index10586.png
#EXTINF:2.002133,
754146445956495-index10587.png
#EXTINF:2.002133,
754146445956495-index10588.png
#EXTINF:2.002133,
754146445956495-index10589.png
#EXTINF:2.002133,
754146445956495-index10590.png
#EXTINF:2.002133,
754146445956495-index10591.png
#EXTINF:2.002133,
754146445956495-index10592.png
#EXTINF:2.002133,
754146445956495-index10593.png
#EXTINF:2.002133,
754146445956495-index10594.png
#EXTINF:2.002133,
754146445956495-index10595.png
#EXTINF:2.002133,
754146445956495-index10596.png
#EXTINF:2.002133,
754146445956495-index10597.png
#EXTINF:2.002133,
754146445956495-index10598.png
#EXTINF:2.002133,
754146445956495-index10599.png
#EXTINF:2.002133,
754146445956495-index10600.png
#EXTINF:2.002133,
754146445956495-index10601.png
#EXTINF:2.002133,
754146445956495-index10602.png
#EXTINF:2.002133,
754146445956495-index10603.png
#EXTINF:2.002133,
754146445956495-index10604.png
#EXTINF:1.960422,
754146445956495-index10605.png
#EXTINF:2.002133,
754146445956495-index10606.png
#EXTINF:2.002133,
754146445956495-index10607.png
#EXTINF:2.002133,
754146445956495-index10608.png
#EXTINF:2.002133,
754146445956495-index10609.png
#EXTINF:2.002133,
754146445956495-index10610.png
#EXTINF:2.002133,
754146445956495-index10611.png
#EXTINF:2.002133,
754146445956495-index10612.png
#EXTINF:2.002133,
754146445956495-index10613.png
#EXTINF:2.002133,
754146445956495-index10614.png
#EXTINF:2.002133,
754146445956495-index10615.png
#EXTINF:2.002133,
754146445956495-index10616.png
#EXTINF:2.002133,
754146445956495-index10617.png
#EXTINF:2.002133,
754146445956495-index10618.png
#EXTINF:2.002133,
754146445956495-index10619.png
#EXTINF:2.002133,
754146445956495-index10620.png
#EXTINF:2.002133,
754146445956495-index10621.png
#EXTINF:2.002133,
754146445956495-index10622.png
#EXTINF:2.002133,
754146445956495-index10623.png
#EXTINF:2.002133,
754146445956495-index10624.png
#EXTINF:2.002133,
754146445956495-index10625.png
#EXTINF:1.960422,
754146445956495-index10626.png
#EXTINF:2.002133,
754146445956495-index10627.png
#EXTINF:2.002133,
754146445956495-index10628.png
#EXTINF:2.002133,
754146445956495-index10629.png
#EXTINF:2.002133,
754146445956495-index10630.png
#EXTINF:2.002133,
754146445956495-index10631.png
#EXTINF:2.002133,
754146445956495-index10632.png
#EXTINF:2.002133,
754146445956495-index10633.png
#EXTINF:2.002133,
754146445956495-index10634.png
#EXTINF:2.002133,
754146445956495-index10635.png
#EXTINF:2.002133,
754146445956495-index10636.png
#EXTINF:2.002133,
754146445956495-index10637.png
#EXTINF:2.002133,
754146445956495-index10638.png
#EXTINF:2.002133,
754146445956495-index10639.png
#EXTINF:2.002133,
754146445956495-index10640.png
#EXTINF:2.002133,
754146445956495-index10641.png
#EXTINF:2.002133,
754146445956495-index10642.png
#EXTINF:2.002133,
754146445956495-index10643.png
#EXTINF:2.002133,
754146445956495-index10644.png
#EXTINF:2.002133,
754146445956495-index10645.png
#EXTINF:1.960422,
754146445956495-index10646.png
#EXTINF:2.002133,
754146445956495-index10647.png
#EXTINF:2.002133,
754146445956495-index10648.png
#EXTINF:2.002133,
754146445956495-index10649.png
#EXTINF:2.002133,
754146445956495-index10650.png
#EXTINF:2.002133,
754146445956495-index10651.png
#EXTINF:2.002133,
754146445956495-index10652.png
#EXTINF:2.002133,
754146445956495-index10653.png
#EXTINF:2.002133,
754146445956495-index10654.png
#EXTINF:2.002133,
754146445956495-index10655.png
#EXTINF:2.002133,
754146445956495-index10656.png
#EXTINF:2.002133,
754146445956495-index10657.png
#EXTINF:2.002133,
754146445956495-index10658.png
#EXTINF:2.002133,
754146445956495-index10659.png
#EXTINF:2.002133,
754146445956495-index10660.png
#EXTINF:2.002133,
754146445956495-index10661.png
#EXTINF:2.002133,
754146445956495-index10662.png
#EXTINF:2.002133,
754146445956495-index10663.png
#EXTINF:2.002133,
754146445956495-index10664.png
#EXTINF:2.002133,
754146445956495-index10665.png
#EXTINF:2.002133,
754146445956495-index10666.png
#EXTINF:1.960422,
754146445956495-index10667.png
#EXTINF:2.002133,
754146445956495-index10668.png
#EXTINF:2.002133,
754146445956495-index10669.png
#EXTINF:2.002133,
754146445956495-index10670.png
#EXTINF:2.002133,
754146445956495-index10671.png
#EXTINF:2.002133,
754146445956495-index10672.png
#EXTINF:2.002133,
754146445956495-index10673.png
#EXTINF:2.002133,
754146445956495-index10674.png
#EXTINF:2.002133,
754146445956495-index10675.png
#EXTINF:2.002133,
754146445956495-index10676.png
#EXTINF:2.002133,
754146445956495-index10677.png
#EXTINF:2.002133,
754146445956495-index10678.png
#EXTINF:2.002133,
754146445956495-index10679.png
#EXTINF:2.002133,
754146445956495-index10680.png
#EXTINF:2.002133,
754146445956495-index10681.png
#EXTINF:2.002133,
754146445956495-index10682.png
#EXTINF:2.002133,
754146445956495-index10683.png
#EXTINF:2.002133,
754146445956495-index10684.png
#EXTINF:2.002133,
754146445956495-index10685.png
#EXTINF:2.002133,
754146445956495-index10686.png
#EXTINF:2.002133,
754146445956495-index10687.png
#EXTINF:1.960422,
754146445956495-index10688.png
#EXTINF:2.002133,
754146445956495-index10689.png
#EXTINF:2.002133,
754146445956495-index10690.png
#EXTINF:2.002133,
754146445956495-index10691.png
#EXTINF:2.002133,
754146445956495-index10692.png
#EXTINF:2.002133,
754146445956495-index10693.png
#EXTINF:2.002133,
754146445956495-index10694.png
#EXTINF:2.002133,
754146445956495-index10695.png
#EXTINF:2.002133,
754146445956495-index10696.png
#EXTINF:2.002133,
754146445956495-index10697.png
#EXTINF:2.002133,
754146445956495-index10698.png
#EXTINF:2.002133,
754146445956495-index10699.png
#EXTINF:2.002133,
754146445956495-index10700.png
#EXTINF:2.002133,
754146445956495-index10701.png
#EXTINF:2.002133,
754146445956495-index10702.png
#EXTINF:2.002133,
754146445956495-index10703.png
#EXTINF:2.002133,
754146445956495-index10704.png
#EXTINF:2.002133,
754146445956495-index10705.png
#EXTINF:2.002133,
754146445956495-index10706.png
#EXTINF:2.002133,
754146445956495-index10707.png
#EXTINF:2.002133,
754146445956495-index10708.png
#EXTINF:1.960422,
754146445956495-index10709.png
#EXTINF:2.002133,
754146445956495-index10710.png
#EXTINF:2.002133,
754146445956495-index10711.png
#EXTINF:2.002133,
754146445956495-index10712.png
#EXTINF:2.002133,
754146445956495-index10713.png
#EXTINF:2.002133,
754146445956495-index10714.png
#EXTINF:2.002133,
754146445956495-index10715.png
#EXTINF:2.002133,
754146445956495-index10716.png
#EXTINF:2.002133,
754146445956495-index10717.png
#EXTINF:2.002133,
754146445956495-index10718.png
#EXTINF:2.002133,
754146445956495-index10719.png
#EXTINF:2.002133,
754146445956495-index10720.png
#EXTINF:2.002133,
754146445956495-index10721.png
#EXTINF:2.002133,
754146445956495-index10722.png
#EXTINF:2.002133,
754146445956495-index10723.png
#EXTINF:2.002133,
754146445956495-index10724.png
#EXTINF:2.002133,
754146445956495-index10725.png
#EXTINF:2.002133,
754146445956495-index10726.png
#EXTINF:2.002133,
754146445956495-index10727.png
#EXTINF:2.002133,
754146445956495-index10728.png
#EXTINF:2.002133,
754146445956495-index10729.png
#EXTINF:1.960422,
754146445956495-index10730.png
#EXTINF:2.002133,
754146445956495-index10731.png
#EXTINF:2.002133,
754146445956495-index10732.png
#EXTINF:2.002133,
754146445956495-index10733.png
#EXTINF:2.002133,
754146445956495-index10734.png
#EXTINF:2.002133,
754146445956495-index10735.png
#EXTINF:2.002133,
754146445956495-index10736.png
#EXTINF:2.002133,
754146445956495-index10737.png
#EXTINF:2.002133,
754146445956495-index10738.png
#EXTINF:2.002133,
754146445956495-index10739.png
#EXTINF:2.002133,
754146445956495-index10740.png
#EXTINF:2.002133,
754146445956495-index10741.png
#EXTINF:2.002133,
754146445956495-index10742.png
#EXTINF:2.002133,
754146445956495-index10743.png
#EXTINF:2.002133,
754146445956495-index10744.png
#EXTINF:2.002133,
754146445956495-index10745.png
#EXTINF:2.002133,
754146445956495-index10746.png
#EXTINF:2.002133,
754146445956495-index10747.png
#EXTINF:2.002133,
754146445956495-index10748.png
#EXTINF:2.002133,
754146445956495-index10749.png
#EXTINF:2.002133,
754146445956495-index10750.png
#EXTINF:1.960422,
754146445956495-index10751.png
#EXTINF:2.002133,
754146445956495-index10752.png
#EXTINF:2.002133,
754146445956495-index10753.png
#EXTINF:2.002133,
754146445956495-index10754.png
#EXTINF:2.002133,
754146445956495-index10755.png
#EXTINF:2.002133,
754146445956495-index10756.png
#EXTINF:2.002133,
754146445956495-index10757.png
#EXTINF:2.002133,
754146445956495-index10758.png
#EXTINF:2.002133,
754146445956495-index10759.png
#EXTINF:2.002133,
754146445956495-index10760.png
#EXTINF:2.002133,
754146445956495-index10761.png
#EXTINF:2.002133,
754146445956495-index10762.png
#EXTINF:2.002133,
754146445956495-index10763.png
#EXTINF:2.002133,
754146445956495-index10764.png
#EXTINF:2.002133,
754146445956495-index10765.png
#EXTINF:2.002133,
754146445956495-index10766.png
#EXTINF:2.002133,
754146445956495-index10767.png
#EXTINF:2.002133,
754146445956495-index10768.png
#EXTINF:2.002133,
754146445956495-index10769.png
#EXTINF:2.002133,
754146445956495-index10770.png
#EXTINF:2.002133,
754146445956495-index10771.png
#EXTINF:1.960422,
754146445956495-index10772.png
#EXTINF:2.002133,
754146445956495-index10773.png
#EXTINF:2.002133,
754146445956495-index10774.png
#EXTINF:2.002133,
754146445956495-index10775.png
#EXTINF:2.002133,
754146445956495-index10776.png
#EXTINF:2.002133,
754146445956495-index10777.png
#EXTINF:2.002133,
754146445956495-index10778.png
#EXTINF:2.002133,
754146445956495-index10779.png
#EXTINF:2.002133,
754146445956495-index10780.png
#EXTINF:2.002133,
754146445956495-index10781.png
#EXTINF:2.002133,
754146445956495-index10782.png
#EXTINF:2.002133,
754146445956495-index10783.png
#EXTINF:2.002133,
754146445956495-index10784.png
#EXTINF:2.002133,
754146445956495-index10785.png
#EXTINF:2.002133,
754146445956495-index10786.png
#EXTINF:2.002133,
754146445956495-index10787.png
#EXTINF:2.002133,
754146445956495-index10788.png
#EXTINF:2.002133,
754146445956495-index10789.png
#EXTINF:2.002133,
754146445956495-index10790.png
#EXTINF:2.002133,
754146445956495-index10791.png
#EXTINF:1.960422,
754146445956495-index10792.png
#EXTINF:2.002133,
754146445956495-index10793.png
#EXTINF:2.002133,
754146445956495-index10794.png
#EXTINF:2.002133,
754146445956495-index10795.png
#EXTINF:2.002133,
754146445956495-index10796.png
#EXTINF:2.002133,
754146445956495-index10797.png
#EXTINF:2.002133,
754146445956495-index10798.png
#EXTINF:2.002133,
754146445956495-index10799.png
#EXTINF:2.002133,
754146445956495-index10800.png
#EXTINF:2.002133,
754146445956495-index10801.png
#EXTINF:2.002133,
754146445956495-index10802.png
#EXTINF:2.002133,
754146445956495-index10803.png
#EXTINF:2.002133,
754146445956495-index10804.png
#EXTINF:2.002133,
754146445956495-index10805.png
#EXTINF:2.002133,
754146445956495-index10806.png
#EXTINF:2.002133,
754146445956495-index10807.png
#EXTINF:2.002133,
754146445956495-index10808.png
#EXTINF:2.002133,
754146445956495-index10809.png
#EXTINF:2.002133,
754146445956495-index10810.png
#EXTINF:2.002133,
754146445956495-index10811.png
#EXTINF:2.002133,
754146445956495-index10812.png
#EXTINF:1.960422,
754146445956495-index10813.png
#EXTINF:2.002133,
754146445956495-index10814.png
#EXTINF:2.002133,
754146445956495-index10815.png
#EXTINF:2.002133,
754146445956495-index10816.png
#EXTINF:2.002133,
754146445956495-index10817.png
#EXTINF:2.002133,
754146445956495-index10818.png
#EXTINF:2.002133,
754146445956495-index10819.png
#EXTINF:2.002133,
754146445956495-index10820.png
#EXTINF:2.002133,
754146445956495-index10821.png
#EXTINF:2.002133,
754146445956495-index10822.png
#EXTINF:2.002133,
754146445956495-index10823.png
#EXTINF:2.002133,
754146445956495-index10824.png
#EXTINF:2.002133,
754146445956495-index10825.png
#EXTINF:2.002133,
754146445956495-index10826.png
#EXTINF:2.002133,
754146445956495-index10827.png
#EXTINF:2.002133,
754146445956495-index10828.png
#EXTINF:2.002133,
754146445956495-index10829.png
#EXTINF:2.002133,
754146445956495-index10830.png
#EXTINF:2.002133,
754146445956495-index10831.png
#EXTINF:2.002133,
754146445956495-index10832.png
#EXTINF:2.002133,
754146445956495-index10833.png
#EXTINF:1.960422,
754146445956495-index10834.png
#EXTINF:2.002133,
754146445956495-index10835.png
#EXTINF:2.002133,
754146445956495-index10836.png
#EXTINF:2.002133,
754146445956495-index10837.png
#EXTINF:2.002133,
754146445956495-index10838.png
#EXTINF:2.002133,
754146445956495-index10839.png
#EXTINF:2.002133,
754146445956495-index10840.png
#EXTINF:2.002133,
754146445956495-index10841.png
#EXTINF:2.002133,
754146445956495-index10842.png
#EXTINF:2.002133,
754146445956495-index10843.png
#EXTINF:2.002133,
754146445956495-index10844.png
#EXTINF:2.002133,
754146445956495-index10845.png
#EXTINF:2.002133,
754146445956495-index10846.png
#EXTINF:2.002133,
754146445956495-index10847.png
#EXTINF:2.002133,
754146445956495-index10848.png
#EXTINF:2.002133,
754146445956495-index10849.png
#EXTINF:2.002133,
754146445956495-index10850.png
#EXTINF:2.002133,
754146445956495-index10851.png
#EXTINF:2.002133,
754146445956495-index10852.png
#EXTINF:2.002133,
754146445956495-index10853.png
#EXTINF:2.002133,
754146445956495-index10854.png
#EXTINF:1.960422,
754146445956495-index10855.png
#EXTINF:2.002133,
754146445956495-index10856.png
#EXTINF:2.002133,
754146445956495-index10857.png
#EXTINF:2.002133,
754146445956495-index10858.png
#EXTINF:2.002133,
754146445956495-index10859.png
#EXTINF:2.002133,
754146445956495-index10860.png
#EXTINF:2.002133,
754146445956495-index10861.png
#EXTINF:2.002133,
754146445956495-index10862.png
#EXTINF:2.002133,
754146445956495-index10863.png
#EXTINF:2.002133,
754146445956495-index10864.png
#EXTINF:2.002133,
754146445956495-index10865.png
#EXTINF:2.002133,
754146445956495-index10866.png
#EXTINF:2.002133,
754146445956495-index10867.png
#EXTINF:2.002133,
754146445956495-index10868.png
#EXTINF:2.002133,
754146445956495-index10869.png
#EXTINF:2.002133,
754146445956495-index10870.png
#EXTINF:2.002133,
754146445956495-index10871.png
#EXTINF:2.002133,
754146445956495-index10872.png
#EXTINF:2.002133,
754146445956495-index10873.png
#EXTINF:2.002133,
754146445956495-index10874.png
#EXTINF:2.002133,
754146445956495-index10875.png
#EXTINF:1.960422,
754146445956495-index10876.png
#EXTINF:2.002133,
754146445956495-index10877.png
#EXTINF:2.002133,
754146445956495-index10878.png
#EXTINF:2.002133,
754146445956495-index10879.png
#EXTINF:2.002133,
754146445956495-index10880.png
#EXTINF:2.002133,
754146445956495-index10881.png
#EXTINF:2.002133,
754146445956495-index10882.png
#EXTINF:2.002133,
754146445956495-index10883.png
#EXTINF:2.002133,
754146445956495-index10884.png
#EXTINF:2.002133,
754146445956495-index10885.png
#EXTINF:2.002133,
754146445956495-index10886.png
#EXTINF:2.002133,
754146445956495-index10887.png
#EXTINF:2.002133,
754146445956495-index10888.png
#EXTINF:2.002133,
754146445956495-index10889.png
#EXTINF:2.002133,
754146445956495-index10890.png
#EXTINF:2.002133,
754146445956495-index10891.png
#EXTINF:2.002133,
754146445956495-index10892.png
#EXTINF:2.002133,
754146445956495-index10893.png
#EXTINF:2.002133,
754146445956495-index10894.png
#EXTINF:2.002133,
754146445956495-index10895.png
#EXTINF:2.002133,
754146445956495-index10896.png
#EXTINF:1.960422,
754146445956495-index10897.png
#EXTINF:2.002133,
754146445956495-index10898.png
#EXTINF:2.002133,
754146445956495-index10899.png
#EXTINF:2.002133,
754146445956495-index10900.png
#EXTINF:2.002133,
754146445956495-index10901.png
#EXTINF:2.002133,
754146445956495-index10902.png
#EXTINF:2.002133,
754146445956495-index10903.png
#EXTINF:2.002133,
754146445956495-index10904.png
#EXTINF:2.002133,
754146445956495-index10905.png
#EXTINF:2.002133,
754146445956495-index10906.png
#EXTINF:2.002133,
754146445956495-index10907.png
#EXTINF:2.002133,
754146445956495-index10908.png
#EXTINF:2.002133,
754146445956495-index10909.png
#EXTINF:2.002133,
754146445956495-index10910.png
#EXTINF:2.002133,
754146445956495-index10911.png
#EXTINF:2.002133,
754146445956495-index10912.png
#EXTINF:2.002133,
754146445956495-index10913.png
#EXTINF:2.002133,
754146445956495-index10914.png
#EXTINF:2.002133,
754146445956495-index10915.png
#EXTINF:2.002133,
754146445956495-index10916.png
#EXTINF:2.002133,
754146445956495-index10917.png
#EXTINF:1.960422,
754146445956495-index10918.png
#EXTINF:2.002133,
754146445956495-index10919.png
#EXTINF:2.002133,
754146445956495-index10920.png
#EXTINF:2.002133,
754146445956495-index10921.png
#EXTINF:2.002133,
754146445956495-index10922.png
#EXTINF:2.002133,
754146445956495-index10923.png
#EXTINF:2.002133,
754146445956495-index10924.png
#EXTINF:2.002133,
754146445956495-index10925.png
#EXTINF:2.002133,
754146445956495-index10926.png
#EXTINF:2.002133,
754146445956495-index10927.png
#EXTINF:2.002133,
754146445956495-index10928.png
#EXTINF:2.002133,
754146445956495-index10929.png
#EXTINF:2.002133,
754146445956495-index10930.png
#EXTINF:2.002133,
754146445956495-index10931.png
#EXTINF:2.002133,
754146445956495-index10932.png
#EXTINF:2.002133,
754146445956495-index10933.png
#EXTINF:2.002133,
754146445956495-index10934.png
#EXTINF:2.002133,
754146445956495-index10935.png
#EXTINF:2.002133,
754146445956495-index10936.png
#EXTINF:2.002133,
754146445956495-index10937.png
#EXTINF:1.960422,
754146445956495-index10938.png
#EXTINF:2.002133,
754146445956495-index10939.png
#EXTINF:2.002133,
754146445956495-index10940.png
#EXTINF:2.002133,
754146445956495-index10941.png
#EXTINF:2.002133,
754146445956495-index10942.png
#EXTINF:2.002133,
754146445956495-index10943.png
#EXTINF:2.002133,
754146445956495-index10944.png
#EXTINF:2.002133,
754146445956495-index10945.png
#EXTINF:2.002133,
754146445956495-index10946.png
#EXTINF:2.002133,
754146445956495-index10947.png
#EXTINF:2.002133,
754146445956495-index10948.png
#EXTINF:2.002133,
754146445956495-index10949.png
#EXTINF:2.002133,
754146445956495-index10950.png
#EXTINF:2.002133,
754146445956495-index10951.png
#EXTINF:2.002133,
754146445956495-index10952.png
#EXTINF:2.002133,
754146445956495-index10953.png
#EXTINF:2.002133,
754146445956495-index10954.png
#EXTINF:2.002133,
754146445956495-index10955.png
#EXTINF:2.002133,
754146445956495-index10956.png
#EXTINF:2.002133,
754146445956495-index10957.png
#EXTINF:2.002133,
754146445956495-index10958.png
#EXTINF:1.960422,
754146445956495-index10959.png
#EXTINF:2.002133,
754146445956495-index10960.png
#EXTINF:2.002133,
754146445956495-index10961.png
#EXTINF:2.002133,
754146445956495-index10962.png
#EXTINF:2.002133,
754146445956495-index10963.png
#EXTINF:2.002133,
754146445956495-index10964.png
#EXTINF:2.002133,
754146445956495-index10965.png
#EXTINF:2.002133,
754146445956495-index10966.png
#EXTINF:2.002133,
754146445956495-index10967.png
#EXTINF:2.002133,
754146445956495-index10968.png
#EXTINF:2.002133,
754146445956495-index10969.png
#EXTINF:2.002133,
754146445956495-index10970.png
#EXTINF:2.002133,
754146445956495-index10971.png
#EXTINF:2.002133,
754146445956495-index10972.png
#EXTINF:2.002133,
754146445956495-index10973.png
#EXTINF:2.002133,
754146445956495-index10974.png
#EXTINF:2.002133,
754146445956495-index10975.png
#EXTINF:2.002133,
754146445956495-index10976.png
#EXTINF:2.002133,
754146445956495-index10977.png
#EXTINF:2.002133,
754146445956495-index10978.png
#EXTINF:2.002133,
754146445956495-index10979.png
#EXTINF:1.960422,
754146445956495-index10980.png
#EXTINF:2.002133,
754146445956495-index10981.png
#EXTINF:2.002133,
754146445956495-index10982.png
#EXTINF:2.002133,
754146445956495-index10983.png
#EXTINF:2.002133,
754146445956495-index10984.png
#EXTINF:2.002133,
754146445956495-index10985.png
#EXTINF:2.002133,
754146445956495-index10986.png
#EXTINF:2.002133,
754146445956495-index10987.png
#EXTINF:2.002133,
754146445956495-index10988.png
#EXTINF:2.002133,
754146445956495-index10989.png
#EXTINF:2.002133,
754146445956495-index10990.png
#EXTINF:2.002133,
754146445956495-index10991.png
#EXTINF:2.002133,
754146445956495-index10992.png
#EXTINF:2.002133,
754146445956495-index10993.png
#EXTINF:2.002133,
754146445956495-index10994.png
#EXTINF:2.002133,
754146445956495-index10995.png
#EXTINF:2.002133,
754146445956495-index10996.png
#EXTINF:2.002133,
754146445956495-index10997.png
#EXTINF:2.002133,
754146445956495-index10998.png
#EXTINF:2.002133,
754146445956495-index10999.png
#EXTINF:2.002133,
754146445956495-index11000.png
#EXTINF:1.960422,
754146445956495-index11001.png
#EXTINF:2.002133,
754146445956495-index11002.png
#EXTINF:2.002133,
754146445956495-index11003.png
#EXTINF:2.002133,
754146445956495-index11004.png
#EXTINF:2.002133,
754146445956495-index11005.png
#EXTINF:2.002133,
754146445956495-index11006.png
#EXTINF:2.002133,
754146445956495-index11007.png
#EXTINF:2.002133,
754146445956495-index11008.png
#EXTINF:2.002133,
754146445956495-index11009.png
#EXTINF:2.002133,
754146445956495-index11010.png
#EXTINF:2.002133,
754146445956495-index11011.png
#EXTINF:2.002133,
754146445956495-index11012.png
#EXTINF:2.002133,
754146445956495-index11013.png
#EXTINF:2.002133,
754146445956495-index11014.png
#EXTINF:2.002133,
754146445956495-index11015.png
#EXTINF:2.002133,
754146445956495-index11016.png
#EXTINF:2.002133,
754146445956495-index11017.png
#EXTINF:2.002133,
754146445956495-index11018.png
#EXTINF:2.002133,
754146445956495-index11019.png
#EXTINF:2.002133,
754146445956495-index11020.png
#EXTINF:2.002133,
754146445956495-index11021.png
#EXTINF:1.960422,
754146445956495-index11022.png
#EXTINF:2.002133,
754146445956495-index11023.png
#EXTINF:2.002133,
754146445956495-index11024.png
#EXTINF:2.002133,
754146445956495-index11025.png
#EXTINF:2.002133,
754146445956495-index11026.png
#EXTINF:2.002133,
754146445956495-index11027.png
#EXTINF:2.002133,
754146445956495-index11028.png
#EXTINF:2.002133,
754146445956495-index11029.png
#EXTINF:2.002133,
754146445956495-index11030.png
#EXTINF:2.002133,
754146445956495-index11031.png
#EXTINF:2.002133,
754146445956495-index11032.png
#EXTINF:2.002133,
754146445956495-index11033.png
#EXTINF:2.002133,
754146445956495-index11034.png
#EXTINF:2.002133,
754146445956495-index11035.png
#EXTINF:2.002133,
754146445956495-index11036.png
#EXTINF:2.002133,
754146445956495-index11037.png
#EXTINF:2.002133,
754146445956495-index11038.png
#EXTINF:2.002133,
754146445956495-index11039.png
#EXTINF:2.002133,
754146445956495-index11040.png
#EXTINF:2.002133,
754146445956495-index11041.png
#EXTINF:2.002133,
754146445956495-index11042.png
#EXTINF:1.960422,
754146445956495-index11043.png
#EXTINF:2.002133,
754146445956495-index11044.png
#EXTINF:2.002133,
754146445956495-index11045.png
#EXTINF:2.002133,
754146445956495-index11046.png
#EXTINF:2.002133,
754146445956495-index11047.png
#EXTINF:2.002133,
754146445956495-index11048.png
#EXTINF:2.002133,
754146445956495-index11049.png
#EXTINF:2.002133,
754146445956495-index11050.png
#EXTINF:2.002133,
754146445956495-index11051.png
#EXTINF:2.002133,
754146445956495-index11052.png
#EXTINF:2.002133,
754146445956495-index11053.png
#EXTINF:2.002133,
754146445956495-index11054.png
#EXTINF:2.002133,
754146445956495-index11055.png
#EXTINF:2.002133,
754146445956495-index11056.png
#EXTINF:2.002133,
754146445956495-index11057.png
#EXTINF:2.002133,
754146445956495-index11058.png
#EXTINF:2.002133,
754146445956495-index11059.png
#EXTINF:2.002133,
754146445956495-index11060.png
#EXTINF:2.002133,
754146445956495-index11061.png
#EXTINF:2.002133,
754146445956495-index11062.png
#EXTINF:2.002133,
754146445956495-index11063.png
#EXTINF:1.960422,
754146445956495-index11064.png
#EXTINF:2.002133,
754146445956495-index11065.png
#EXTINF:2.002133,
754146445956495-index11066.png
#EXTINF:2.002133,
754146445956495-index11067.png
#EXTINF:2.002133,
754146445956495-index11068.png
#EXTINF:2.002133,
754146445956495-index11069.png
#EXTINF:2.002133,
754146445956495-index11070.png
#EXTINF:2.002133,
754146445956495-index11071.png
#EXTINF:2.002133,
754146445956495-index11072.png
#EXTINF:2.002133,
754146445956495-index11073.png
#EXTINF:2.002133,
754146445956495-index11074.png
#EXTINF:2.002133,
754146445956495-index11075.png
#EXTINF:2.002133,
754146445956495-index11076.png
#EXTINF:2.002133,
754146445956495-index11077.png
#EXTINF:2.002133,
754146445956495-index11078.png
#EXTINF:2.002133,
754146445956495-index11079.png
#EXTINF:2.002133,
754146445956495-index11080.png
#EXTINF:2.002133,
754146445956495-index11081.png
#EXTINF:2.002133,
754146445956495-index11082.png
#EXTINF:2.002133,
754146445956495-index11083.png
#EXTINF:1.960422,
754146445956495-index11084.png
#EXTINF:2.002133,
754146445956495-index11085.png
#EXTINF:2.002133,
754146445956495-index11086.png
#EXTINF:2.002133,
754146445956495-index11087.png
#EXTINF:2.002133,
754146445956495-index11088.png
#EXTINF:2.002133,
754146445956495-index11089.png
#EXTINF:2.002133,
754146445956495-index11090.png
#EXTINF:2.002133,
754146445956495-index11091.png
#EXTINF:2.002133,
754146445956495-index11092.png
#EXTINF:2.002133,
754146445956495-index11093.png
#EXTINF:2.002133,
754146445956495-index11094.png
#EXTINF:2.002133,
754146445956495-index11095.png
#EXTINF:2.002133,
754146445956495-index11096.png
#EXTINF:2.002133,
754146445956495-index11097.png
#EXTINF:2.002133,
754146445956495-index11098.png
#EXTINF:2.002133,
754146445956495-index11099.png
#EXTINF:2.002133,
754146445956495-index11100.png
#EXTINF:2.002133,
754146445956495-index11101.png
#EXTINF:2.002133,
754146445956495-index11102.png
#EXTINF:2.002133,
754146445956495-index11103.png
#EXTINF:2.002133,
754146445956495-index11104.png
#EXTINF:1.960422,
754146445956495-index11105.png
#EXTINF:2.002133,
754146445956495-index11106.png
#EXTINF:2.002133,
754146445956495-index11107.png
#EXTINF:2.002133,
754146445956495-index11108.png
#EXTINF:2.002133,
754146445956495-index11109.png
#EXTINF:2.002133,
754146445956495-index11110.png
#EXTINF:2.002133,
754146445956495-index11111.png
#EXTINF:2.002133,
754146445956495-index11112.png
#EXTINF:2.002133,
754146445956495-index11113.png
#EXTINF:2.002133,
754146445956495-index11114.png
#EXTINF:2.002133,
754146445956495-index11115.png
#EXTINF:2.002133,
754146445956495-index11116.png
#EXTINF:2.002133,
754146445956495-index11117.png
#EXTINF:2.002133,
754146445956495-index11118.png
#EXTINF:2.002133,
754146445956495-index11119.png
#EXTINF:2.002133,
754146445956495-index11120.png
#EXTINF:2.002133,
754146445956495-index11121.png
#EXTINF:2.002133,
754146445956495-index11122.png
#EXTINF:2.002133,
754146445956495-index11123.png
#EXTINF:2.002133,
754146445956495-index11124.png
#EXTINF:2.002133,
754146445956495-index11125.png
#EXTINF:1.960422,
754146445956495-index11126.png
#EXTINF:2.002133,
754146445956495-index11127.png
#EXTINF:2.002133,
754146445956495-index11128.png
#EXTINF:2.002133,
754146445956495-index11129.png
#EXTINF:2.002133,
754146445956495-index11130.png
#EXTINF:2.002133,
754146445956495-index11131.png
#EXTINF:2.002133,
754146445956495-index11132.png
#EXTINF:2.002133,
754146445956495-index11133.png
#EXTINF:2.002133,
754146445956495-index11134.png
#EXTINF:2.002133,
754146445956495-index11135.png
#EXTINF:2.002133,
754146445956495-index11136.png
#EXTINF:2.002133,
754146445956495-index11137.png
#EXTINF:2.002133,
754146445956495-index11138.png
#EXTINF:2.002133,
754146445956495-index11139.png
#EXTINF:2.002133,
754146445956495-index11140.png
#EXTINF:2.002133,
754146445956495-index11141.png
#EXTINF:2.002133,
754146445956495-index11142.png
#EXTINF:2.002133,
754146445956495-index11143.png
#EXTINF:2.002133,
754146445956495-index11144.png
#EXTINF:2.002133,
754146445956495-index11145.png
#EXTINF:2.002133,
754146445956495-index11146.png
#EXTINF:1.960422,
754146445956495-index11147.png
#EXTINF:2.002133,
754146445956495-index11148.png
#EXTINF:2.002133,
754146445956495-index11149.png
#EXTINF:2.002133,
754146445956495-index11150.png
#EXTINF:2.002133,
754146445956495-index11151.png
#EXTINF:2.002133,
754146445956495-index11152.png
#EXTINF:2.002133,
754146445956495-index11153.png
#EXTINF:2.002133,
754146445956495-index11154.png
#EXTINF:2.002133,
754146445956495-index11155.png
#EXTINF:2.002133,
754146445956495-index11156.png
#EXTINF:2.002133,
754146445956495-index11157.png
#EXTINF:2.002133,
754146445956495-index11158.png
#EXTINF:2.002133,
754146445956495-index11159.png
#EXTINF:2.002133,
754146445956495-index11160.png
#EXTINF:2.002133,
754146445956495-index11161.png
#EXTINF:2.002133,
754146445956495-index11162.png
#EXTINF:2.002133,
754146445956495-index11163.png
#EXTINF:2.002133,
754146445956495-index11164.png
#EXTINF:2.002133,
754146445956495-index11165.png
#EXTINF:2.002133,
754146445956495-index11166.png
#EXTINF:2.002133,
754146445956495-index11167.png
#EXTINF:1.960422,
754146445956495-index11168.png
#EXTINF:2.002133,
754146445956495-index11169.png
#EXTINF:2.002133,
754146445956495-index11170.png
#EXTINF:2.002133,
754146445956495-index11171.png
#EXTINF:2.002133,
754146445956495-index11172.png
#EXTINF:2.002133,
754146445956495-index11173.png
#EXTINF:2.002133,
754146445956495-index11174.png
#EXTINF:2.002133,
754146445956495-index11175.png
#EXTINF:2.002133,
754146445956495-index11176.png
#EXTINF:2.002133,
754146445956495-index11177.png
#EXTINF:2.002133,
754146445956495-index11178.png
#EXTINF:2.002133,
754146445956495-index11179.png
#EXTINF:2.002133,
754146445956495-index11180.png
#EXTINF:2.002133,
754146445956495-index11181.png
#EXTINF:2.002133,
754146445956495-index11182.png
#EXTINF:2.002133,
754146445956495-index11183.png
#EXTINF:2.002133,
754146445956495-index11184.png
#EXTINF:2.002133,
754146445956495-index11185.png
#EXTINF:2.002133,
754146445956495-index11186.png
#EXTINF:2.002133,
754146445956495-index11187.png
#EXTINF:2.002133,
754146445956495-index11188.png
#EXTINF:1.960422,
754146445956495-index11189.png
#EXTINF:2.002133,
754146445956495-index11190.png
#EXTINF:2.002133,
754146445956495-index11191.png
#EXTINF:2.002133,
754146445956495-index11192.png
#EXTINF:2.002133,
754146445956495-index11193.png
#EXTINF:2.002133,
754146445956495-index11194.png
#EXTINF:2.002133,
754146445956495-index11195.png
#EXTINF:2.002133,
754146445956495-index11196.png
#EXTINF:2.002133,
754146445956495-index11197.png
#EXTINF:2.002133,
754146445956495-index11198.png
#EXTINF:2.002133,
754146445956495-index11199.png
#EXTINF:2.002133,
754146445956495-index11200.png
#EXTINF:2.002133,
754146445956495-index11201.png
#EXTINF:2.002133,
754146445956495-index11202.png
#EXTINF:2.002133,
754146445956495-index11203.png
#EXTINF:2.002133,
754146445956495-index11204.png
#EXTINF:2.002133,
754146445956495-index11205.png
#EXTINF:2.002133,
754146445956495-index11206.png
#EXTINF:2.002133,
754146445956495-index11207.png
#EXTINF:2.002133,
754146445956495-index11208.png
#EXTINF:2.002133,
754146445956495-index11209.png
#EXTINF:1.960422,
754146445956495-index11210.png
#EXTINF:2.002133,
754146445956495-index11211.png
#EXTINF:2.002133,
754146445956495-index11212.png
#EXTINF:2.002133,
754146445956495-index11213.png
#EXTINF:2.002133,
754146445956495-index11214.png
#EXTINF:2.002133,
754146445956495-index11215.png
#EXTINF:2.002133,
754146445956495-index11216.png
#EXTINF:2.002133,
754146445956495-index11217.png
#EXTINF:2.002133,
754146445956495-index11218.png
#EXTINF:2.002133,
754146445956495-index11219.png
#EXTINF:2.002133,
754146445956495-index11220.png
#EXTINF:2.002133,
754146445956495-index11221.png
#EXTINF:2.002133,
754146445956495-index11222.png
#EXTINF:2.002133,
754146445956495-index11223.png
#EXTINF:2.002133,
754146445956495-index11224.png
#EXTINF:2.002133,
754146445956495-index11225.png
#EXTINF:2.002133,
754146445956495-index11226.png
#EXTINF:2.002133,
754146445956495-index11227.png
#EXTINF:2.002133,
754146445956495-index11228.png
#EXTINF:2.002133,
754146445956495-index11229.png
#EXTINF:1.960422,
754146445956495-index11230.png
#EXTINF:2.002133,
754146445956495-index11231.png
#EXTINF:2.002133,
754146445956495-index11232.png
#EXTINF:2.002133,
754146445956495-index11233.png
#EXTINF:2.002133,
754146445956495-index11234.png
#EXTINF:2.002133,
754146445956495-index11235.png
#EXTINF:2.002133,
754146445956495-index11236.png
#EXTINF:2.002133,
754146445956495-index11237.png
#EXTINF:2.002133,
754146445956495-index11238.png
#EXTINF:2.002133,
754146445956495-index11239.png
#EXTINF:2.002133,
754146445956495-index11240.png
#EXTINF:2.002133,
754146445956495-index11241.png
#EXTINF:2.002133,
754146445956495-index11242.png
#EXTINF:2.002133,
754146445956495-index11243.png
#EXTINF:2.002133,
754146445956495-index11244.png
#EXTINF:2.002133,
754146445956495-index11245.png
#EXTINF:2.002133,
754146445956495-index11246.png
#EXTINF:2.002133,
754146445956495-index11247.png
#EXTINF:2.002133,
754146445956495-index11248.png
#EXTINF:2.002133,
754146445956495-index11249.png
#EXTINF:2.002133,
754146445956495-index11250.png
#EXTINF:1.960422,
754146445956495-index11251.png
#EXTINF:2.002133,
754146445956495-index11252.png
#EXTINF:2.002133,
754146445956495-index11253.png
#EXTINF:2.002133,
754146445956495-index11254.png
#EXTINF:2.002133,
754146445956495-index11255.png
#EXTINF:2.002133,
754146445956495-index11256.png
#EXTINF:2.002133,
754146445956495-index11257.png
#EXTINF:2.002133,
754146445956495-index11258.png
#EXTINF:2.002133,
754146445956495-index11259.png
#EXTINF:2.002133,
754146445956495-index11260.png
#EXTINF:2.002133,
754146445956495-index11261.png
#EXTINF:2.002133,
754146445956495-index11262.png
#EXTINF:2.002133,
754146445956495-index11263.png
#EXTINF:2.002133,
754146445956495-index11264.png
#EXTINF:2.002133,
754146445956495-index11265.png
#EXTINF:2.002133,
754146445956495-index11266.png
#EXTINF:2.002133,
754146445956495-index11267.png
#EXTINF:2.002133,
754146445956495-index11268.png
#EXTINF:2.002133,
754146445956495-index11269.png
#EXTINF:2.002133,
754146445956495-index11270.png
#EXTINF:2.002133,
754146445956495-index11271.png
#EXTINF:1.960422,
754146445956495-index11272.png
#EXTINF:2.002133,
754146445956495-index11273.png
#EXTINF:2.002133,
754146445956495-index11274.png
#EXTINF:2.002133,
754146445956495-index11275.png
#EXTINF:2.002133,
754146445956495-index11276.png
#EXTINF:2.002133,
754146445956495-index11277.png
#EXTINF:2.002133,
754146445956495-index11278.png
#EXTINF:2.002133,
754146445956495-index11279.png
#EXTINF:2.002133,
754146445956495-index11280.png
#EXTINF:2.002133,
754146445956495-index11281.png
#EXTINF:2.002133,
754146445956495-index11282.png
#EXTINF:2.002133,
754146445956495-index11283.png
#EXTINF:2.002133,
754146445956495-index11284.png
#EXTINF:2.002133,
754146445956495-index11285.png
#EXTINF:2.002133,
754146445956495-index11286.png
#EXTINF:2.002133,
754146445956495-index11287.png
#EXTINF:2.002133,
754146445956495-index11288.png
#EXTINF:2.002133,
754146445956495-index11289.png
#EXTINF:2.002133,
754146445956495-index11290.png
#EXTINF:2.002133,
754146445956495-index11291.png
#EXTINF:2.002133,
754146445956495-index11292.png
#EXTINF:1.960422,
754146445956495-index11293.png
#EXTINF:2.002133,
754146445956495-index11294.png
#EXTINF:2.002133,
754146445956495-index11295.png
#EXTINF:2.002133,
754146445956495-index11296.png
#EXTINF:2.002133,
754146445956495-index11297.png
#EXTINF:2.002133,
754146445956495-index11298.png
#EXTINF:2.002133,
754146445956495-index11299.png
#EXTINF:2.002133,
754146445956495-index11300.png
#EXTINF:2.002133,
754146445956495-index11301.png
#EXTINF:2.002133,
754146445956495-index11302.png
#EXTINF:2.002133,
754146445956495-index11303.png
#EXTINF:2.002133,
754146445956495-index11304.png
#EXTINF:2.002133,
754146445956495-index11305.png
#EXTINF:2.002133,
754146445956495-index11306.png
#EXTINF:2.002133,
754146445956495-index11307.png
#EXTINF:2.002133,
754146445956495-index11308.png
#EXTINF:2.002133,
754146445956495-index11309.png
#EXTINF:2.002133,
754146445956495-index11310.png
#EXTINF:2.002133,
754146445956495-index11311.png
#EXTINF:2.002133,
754146445956495-index11312.png
#EXTINF:2.002133,
754146445956495-index11313.png
#EXTINF:1.960422,
754146445956495-index11314.png
#EXTINF:2.002133,
754146445956495-index11315.png
#EXTINF:2.002133,
754146445956495-index11316.png
#EXTINF:2.002133,
754146445956495-index11317.png
#EXTINF:2.002133,
754146445956495-index11318.png
#EXTINF:2.002133,
754146445956495-index11319.png
#EXTINF:2.002133,
754146445956495-index11320.png
#EXTINF:2.002133,
754146445956495-index11321.png
#EXTINF:2.002133,
754146445956495-index11322.png
#EXTINF:2.002133,
754146445956495-index11323.png
#EXTINF:2.002133,
754146445956495-index11324.png
#EXTINF:2.002133,
754146445956495-index11325.png
#EXTINF:2.002133,
754146445956495-index11326.png
#EXTINF:2.002133,
754146445956495-index11327.png
#EXTINF:2.002133,
754146445956495-index11328.png
#EXTINF:2.002133,
754146445956495-index11329.png
#EXTINF:2.002133,
754146445956495-index11330.png
#EXTINF:2.002133,
754146445956495-index11331.png
#EXTINF:2.002133,
754146445956495-index11332.png
#EXTINF:2.002133,
754146445956495-index11333.png
#EXTINF:2.002133,
754146445956495-index11334.png
#EXTINF:1.960422,
754146445956495-index11335.png
#EXTINF:2.002133,
754146445956495-index11336.png
#EXTINF:2.002133,
754146445956495-index11337.png
#EXTINF:2.002133,
754146445956495-index11338.png
#EXTINF:2.002133,
754146445956495-index11339.png
#EXTINF:2.002133,
754146445956495-index11340.png
#EXTINF:2.002133,
754146445956495-index11341.png
#EXTINF:2.002133,
754146445956495-index11342.png
#EXTINF:2.002133,
754146445956495-index11343.png
#EXTINF:2.002133,
754146445956495-index11344.png
#EXTINF:2.002133,
754146445956495-index11345.png
#EXTINF:2.002133,
754146445956495-index11346.png
#EXTINF:2.002133,
754146445956495-index11347.png
#EXTINF:2.002133,
754146445956495-index11348.png
#EXTINF:2.002133,
754146445956495-index11349.png
#EXTINF:2.002133,
754146445956495-index11350.png
#EXTINF:2.002133,
754146445956495-index11351.png
#EXTINF:2.002133,
754146445956495-index11352.png
#EXTINF:2.002133,
754146445956495-index11353.png
#EXTINF:2.002133,
754146445956495-index11354.png
#EXTINF:2.002133,
754146445956495-index11355.png
#EXTINF:1.960422,
754146445956495-index11356.png
#EXTINF:2.002133,
754146445956495-index11357.png
#EXTINF:2.002133,
754146445956495-index11358.png
#EXTINF:2.002133,
754146445956495-index11359.png
#EXTINF:2.002133,
754146445956495-index11360.png
#EXTINF:2.002133,
754146445956495-index11361.png
#EXTINF:2.002133,
754146445956495-index11362.png
#EXTINF:2.002133,
754146445956495-index11363.png
#EXTINF:2.002133,
754146445956495-index11364.png
#EXTINF:2.002133,
754146445956495-index11365.png
#EXTINF:2.002133,
754146445956495-index11366.png
#EXTINF:2.002133,
754146445956495-index11367.png
#EXTINF:2.002133,
754146445956495-index11368.png
#EXTINF:2.002133,
754146445956495-index11369.png
#EXTINF:2.002133,
754146445956495-index11370.png
#EXTINF:2.002133,
754146445956495-index11371.png
#EXTINF:2.002133,
754146445956495-index11372.png
#EXTINF:2.002133,
754146445956495-index11373.png
#EXTINF:2.002133,
754146445956495-index11374.png
#EXTINF:2.002133,
754146445956495-index11375.png
#EXTINF:1.960422,
754146445956495-index11376.png
#EXTINF:2.002133,
754146445956495-index11377.png
#EXTINF:2.002133,
754146445956495-index11378.png
#EXTINF:2.002133,
754146445956495-index11379.png
#EXTINF:2.002133,
754146445956495-index11380.png
#EXTINF:2.002133,
754146445956495-index11381.png
#EXTINF:2.002133,
754146445956495-index11382.png
#EXTINF:2.002133,
754146445956495-index11383.png
#EXTINF:2.002133,
754146445956495-index11384.png
#EXTINF:2.002133,
754146445956495-index11385.png
#EXTINF:2.002133,
754146445956495-index11386.png
#EXTINF:2.002133,
754146445956495-index11387.png
#EXTINF:2.002133,
754146445956495-index11388.png
#EXTINF:2.002133,
754146445956495-index11389.png
#EXTINF:2.002133,
754146445956495-index11390.png
#EXTINF:2.002133,
754146445956495-index11391.png
#EXTINF:2.002133,
754146445956495-index11392.png
#EXTINF:2.002133,
754146445956495-index11393.png
#EXTINF:2.002133,
754146445956495-index11394.png
#EXTINF:2.002133,
754146445956495-index11395.png
#EXTINF:2.002133,
754146445956495-index11396.png
#EXTINF:1.960422,
754146445956495-index11397.png
#EXTINF:2.002133,
754146445956495-index11398.png
#EXTINF:2.002133,
754146445956495-index11399.png
#EXTINF:2.002133,
754146445956495-index11400.png
#EXTINF:2.002133,
754146445956495-index11401.png
#EXTINF:2.002133,
754146445956495-index11402.png
#EXTINF:2.002133,
754146445956495-index11403.png
#EXTINF:2.002133,
754146445956495-index11404.png
#EXTINF:2.002133,
754146445956495-index11405.png
#EXTINF:2.002133,
754146445956495-index11406.png
#EXTINF:2.002133,
754146445956495-index11407.png
#EXTINF:2.002133,
754146445956495-index11408.png
#EXTINF:2.002133,
754146445956495-index11409.png
#EXTINF:2.002133,
754146445956495-index11410.png
#EXTINF:2.002133,
754146445956495-index11411.png
#EXTINF:2.002133,
754146445956495-index11412.png
#EXTINF:2.002133,
754146445956495-index11413.png
#EXTINF:2.002133,
754146445956495-index11414.png
#EXTINF:2.002133,
754146445956495-index11415.png
#EXTINF:2.002133,
754146445956495-index11416.png
#EXTINF:2.002133,
754146445956495-index11417.png
#EXTINF:1.960422,
754146445956495-index11418.png
#EXTINF:2.002133,
754146445956495-index11419.png
#EXTINF:2.002133,
754146445956495-index11420.png
#EXTINF:2.002133,
754146445956495-index11421.png
#EXTINF:2.002133,
754146445956495-index11422.png
#EXTINF:2.002133,
754146445956495-index11423.png
#EXTINF:2.002133,
754146445956495-index11424.png
#EXTINF:2.002133,
754146445956495-index11425.png
#EXTINF:2.002133,
754146445956495-index11426.png
#EXTINF:2.002133,
754146445956495-index11427.png
#EXTINF:2.002133,
754146445956495-index11428.png
#EXTINF:2.002133,
754146445956495-index11429.png
#EXTINF:2.002133,
754146445956495-index11430.png
#EXTINF:2.002133,
754146445956495-index11431.png
#EXTINF:2.002133,
754146445956495-index11432.png
#EXTINF:2.002133,
754146445956495-index11433.png
#EXTINF:2.002133,
754146445956495-index11434.png
#EXTINF:2.002133,
754146445956495-index11435.png
#EXTINF:2.002133,
754146445956495-index11436.png
#EXTINF:2.002133,
754146445956495-index11437.png
#EXTINF:2.002133,
754146445956495-index11438.png
#EXTINF:1.960422,
754146445956495-index11439.png
#EXTINF:2.002133,
754146445956495-index11440.png
#EXTINF:2.002133,
754146445956495-index11441.png
#EXTINF:2.002133,
754146445956495-index11442.png
#EXTINF:2.002133,
754146445956495-index11443.png
#EXTINF:2.002133,
754146445956495-index11444.png
#EXTINF:2.002133,
754146445956495-index11445.png
#EXTINF:2.002133,
754146445956495-index11446.png
#EXTINF:2.002133,
754146445956495-index11447.png
#EXTINF:2.002133,
754146445956495-index11448.png
#EXTINF:2.002133,
754146445956495-index11449.png
#EXTINF:2.002133,
754146445956495-index11450.png
#EXTINF:2.002133,
754146445956495-index11451.png
#EXTINF:2.002133,
754146445956495-index11452.png
#EXTINF:2.002133,
754146445956495-index11453.png
#EXTINF:2.002133,
754146445956495-index11454.png
#EXTINF:2.002133,
754146445956495-index11455.png
#EXTINF:2.002133,
754146445956495-index11456.png
#EXTINF:2.002133,
754146445956495-index11457.png
#EXTINF:2.002133,
754146445956495-index11458.png
#EXTINF:2.002133,
754146445956495-index11459.png
#EXTINF:1.960422,
754146445956495-index11460.png
#EXTINF:2.002133,
754146445956495-index11461.png
#EXTINF:2.002133,
754146445956495-index11462.png
#EXTINF:2.002133,
754146445956495-index11463.png
#EXTINF:2.002133,
754146445956495-index11464.png
#EXTINF:2.002133,
754146445956495-index11465.png
#EXTINF:2.002133,
754146445956495-index11466.png
#EXTINF:2.002133,
754146445956495-index11467.png
#EXTINF:2.002133,
754146445956495-index11468.png
#EXTINF:2.002133,
754146445956495-index11469.png
#EXTINF:2.002133,
754146445956495-index11470.png
#EXTINF:2.002133,
754146445956495-index11471.png
#EXTINF:2.002133,
754146445956495-index11472.png
#EXTINF:2.002133,
754146445956495-index11473.png
#EXTINF:2.002133,
754146445956495-index11474.png
#EXTINF:2.002133,
754146445956495-index11475.png
#EXTINF:2.002133,
754146445956495-index11476.png
#EXTINF:2.002133,
754146445956495-index11477.png
#EXTINF:2.002133,
754146445956495-index11478.png
#EXTINF:2.002133,
754146445956495-index11479.png
#EXTINF:2.002133,
754146445956495-index11480.png
#EXTINF:1.960422,
754146445956495-index11481.png
#EXTINF:2.002133,
754146445956495-index11482.png
#EXTINF:2.002133,
754146445956495-index11483.png
#EXTINF:2.002133,
754146445956495-index11484.png
#EXTINF:2.002133,
754146445956495-index11485.png
#EXTINF:2.002133,
754146445956495-index11486.png
#EXTINF:2.002133,
754146445956495-index11487.png
#EXTINF:2.002133,
754146445956495-index11488.png
#EXTINF:2.002133,
754146445956495-index11489.png
#EXTINF:2.002133,
754146445956495-index11490.png
#EXTINF:2.002133,
754146445956495-index11491.png
#EXTINF:2.002133,
754146445956495-index11492.png
#EXTINF:2.002133,
754146445956495-index11493.png
#EXTINF:2.002133,
754146445956495-index11494.png
#EXTINF:2.002133,
754146445956495-index11495.png
#EXTINF:2.002133,
754146445956495-index11496.png
#EXTINF:2.002133,
754146445956495-index11497.png
#EXTINF:2.002133,
754146445956495-index11498.png
#EXTINF:2.002133,
754146445956495-index11499.png
#EXTINF:2.002133,
754146445956495-index11500.png
#EXTINF:2.002133,
754146445956495-index11501.png
#EXTINF:1.960422,
754146445956495-index11502.png
#EXTINF:2.002133,
754146445956495-index11503.png
#EXTINF:2.002133,
754146445956495-index11504.png
#EXTINF:2.002133,
754146445956495-index11505.png
#EXTINF:2.002133,
754146445956495-index11506.png
#EXTINF:2.002133,
754146445956495-index11507.png
#EXTINF:2.002133,
754146445956495-index11508.png
#EXTINF:2.002133,
754146445956495-index11509.png
#EXTINF:2.002133,
754146445956495-index11510.png
#EXTINF:2.002133,
754146445956495-index11511.png
#EXTINF:2.002133,
754146445956495-index11512.png
#EXTINF:2.002133,
754146445956495-index11513.png
#EXTINF:2.002133,
754146445956495-index11514.png
#EXTINF:2.002133,
754146445956495-index11515.png
#EXTINF:2.002133,
754146445956495-index11516.png
#EXTINF:2.002133,
754146445956495-index11517.png
#EXTINF:2.002133,
754146445956495-index11518.png
#EXTINF:2.002133,
754146445956495-index11519.png
#EXTINF:2.002133,
754146445956495-index11520.png
#EXTINF:2.002133,
754146445956495-index11521.png
#EXTINF:1.960422,
754146445956495-index11522.png
#EXTINF:2.002133,
754146445956495-index11523.png
#EXTINF:2.002133,
754146445956495-index11524.png
#EXTINF:2.002133,
754146445956495-index11525.png
#EXTINF:2.002133,
754146445956495-index11526.png
#EXTINF:2.002133,
754146445956495-index11527.png
#EXTINF:2.002133,
754146445956495-index11528.png
#EXTINF:2.002133,
754146445956495-index11529.png
#EXTINF:2.002133,
754146445956495-index11530.png
#EXTINF:2.002133,
754146445956495-index11531.png
#EXTINF:2.002133,
754146445956495-index11532.png
#EXTINF:2.002133,
754146445956495-index11533.png
#EXTINF:2.002133,
754146445956495-index11534.png
#EXTINF:2.002133,
754146445956495-index11535.png
#EXTINF:2.002133,
754146445956495-index11536.png
#EXTINF:2.002133,
754146445956495-index11537.png
#EXTINF:2.002133,
754146445956495-index11538.png
#EXTINF:2.002133,
754146445956495-index11539.png
#EXTINF:2.002133,
754146445956495-index11540.png
#EXTINF:2.002133,
754146445956495-index11541.png
#EXTINF:2.002133,
754146445956495-index11542.png
#EXTINF:1.960422,
754146445956495-index11543.png
#EXTINF:2.002133,
754146445956495-index11544.png
#EXTINF:2.002133,
754146445956495-index11545.png
#EXTINF:2.002133,
754146445956495-index11546.png
#EXTINF:2.002133,
754146445956495-index11547.png
#EXTINF:2.002133,
754146445956495-index11548.png
#EXTINF:2.002133,
754146445956495-index11549.png
#EXTINF:2.002133,
754146445956495-index11550.png
#EXTINF:2.002133,
754146445956495-index11551.png
#EXTINF:2.002133,
754146445956495-index11552.png
#EXTINF:2.002133,
754146445956495-index11553.png
#EXTINF:2.002133,
754146445956495-index11554.png
#EXTINF:2.002133,
754146445956495-index11555.png
#EXTINF:2.002133,
754146445956495-index11556.png
#EXTINF:2.002133,
754146445956495-index11557.png
#EXTINF:2.002133,
754146445956495-index11558.png
#EXTINF:2.002133,
754146445956495-index11559.png
#EXTINF:2.002133,
754146445956495-index11560.png
#EXTINF:2.002133,
754146445956495-index11561.png
#EXTINF:2.002133,
754146445956495-index11562.png
#EXTINF:2.002133,
754146445956495-index11563.png
#EXTINF:1.960422,
754146445956495-index11564.png
#EXTINF:2.002133,
754146445956495-index11565.png
#EXTINF:2.002133,
754146445956495-index11566.png
#EXTINF:2.002133,
754146445956495-index11567.png
#EXTINF:2.002133,
754146445956495-index11568.png
#EXTINF:2.002133,
754146445956495-index11569.png
#EXTINF:2.002133,
754146445956495-index11570.png
#EXTINF:2.002133,
754146445956495-index11571.png
#EXTINF:2.002133,
754146445956495-index11572.png
#EXTINF:2.002133,
754146445956495-index11573.png
#EXTINF:2.002133,
754146445956495-index11574.png
#EXTINF:2.002133,
754146445956495-index11575.png
#EXTINF:2.002133,
754146445956495-index11576.png
#EXTINF:2.002133,
754146445956495-index11577.png
#EXTINF:2.002133,
754146445956495-index11578.png
#EXTINF:2.002133,
754146445956495-index11579.png
#EXTINF:2.002133,
754146445956495-index11580.png
#EXTINF:2.002133,
754146445956495-index11581.png
#EXTINF:2.002133,
754146445956495-index11582.png
#EXTINF:2.002133,
754146445956495-index11583.png
#EXTINF:2.002133,
754146445956495-index11584.png
#EXTINF:1.960422,
754146445956495-index11585.png
#EXTINF:2.002133,
754146445956495-index11586.png
#EXTINF:2.002133,
754146445956495-index11587.png
#EXTINF:2.002133,
754146445956495-index11588.png
#EXTINF:2.002133,
754146445956495-index11589.png
#EXTINF:2.002133,
754146445956495-index11590.png
#EXTINF:2.002133,
754146445956495-index11591.png
#EXTINF:2.002133,
754146445956495-index11592.png
#EXTINF:2.002133,
754146445956495-index11593.png
#EXTINF:2.002133,
754146445956495-index11594.png
#EXTINF:2.002133,
754146445956495-index11595.png
#EXTINF:2.002133,
754146445956495-index11596.png
#EXTINF:2.002133,
754146445956495-index11597.png
#EXTINF:2.002133,
754146445956495-index11598.png
#EXTINF:2.002133,
754146445956495-index11599.png
#EXTINF:2.002133,
754146445956495-index11600.png
#EXTINF:2.002133,
754146445956495-index11601.png
#EXTINF:2.002133,
754146445956495-index11602.png
#EXTINF:2.002133,
754146445956495-index11603.png
#EXTINF:2.002133,
754146445956495-index11604.png
#EXTINF:2.002133,
754146445956495-index11605.png
#EXTINF:1.960422,
754146445956495-index11606.png
#EXTINF:2.002133,
754146445956495-index11607.png
#EXTINF:2.002133,
754146445956495-index11608.png
#EXTINF:2.002133,
754146445956495-index11609.png
#EXTINF:2.002133,
754146445956495-index11610.png
#EXTINF:2.002133,
754146445956495-index11611.png
#EXTINF:2.002133,
754146445956495-index11612.png
#EXTINF:2.002133,
754146445956495-index11613.png
#EXTINF:2.002133,
754146445956495-index11614.png
#EXTINF:2.002133,
754146445956495-index11615.png
#EXTINF:2.002133,
754146445956495-index11616.png
#EXTINF:2.002133,
754146445956495-index11617.png
#EXTINF:2.002133,
754146445956495-index11618.png
#EXTINF:2.002133,
754146445956495-index11619.png
#EXTINF:2.002133,
754146445956495-index11620.png
#EXTINF:2.002133,
754146445956495-index11621.png
#EXTINF:2.002133,
754146445956495-index11622.png
#EXTINF:2.002133,
754146445956495-index11623.png
#EXTINF:2.002133,
754146445956495-index11624.png
#EXTINF:2.002133,
754146445956495-index11625.png
#EXTINF:2.002133,
754146445956495-index11626.png
#EXTINF:1.960422,
754146445956495-index11627.png
#EXTINF:2.002133,
754146445956495-index11628.png
#EXTINF:2.002133,
754146445956495-index11629.png
#EXTINF:2.002133,
754146445956495-index11630.png
#EXTINF:2.002133,
754146445956495-index11631.png
#EXTINF:2.002133,
754146445956495-index11632.png
#EXTINF:2.002133,
754146445956495-index11633.png
#EXTINF:2.002133,
754146445956495-index11634.png
#EXTINF:2.002133,
754146445956495-index11635.png
#EXTINF:2.002133,
754146445956495-index11636.png
#EXTINF:2.002133,
754146445956495-index11637.png
#EXTINF:2.002133,
754146445956495-index11638.png
#EXTINF:2.002133,
754146445956495-index11639.png
#EXTINF:2.002133,
754146445956495-index11640.png
#EXTINF:2.002133,
754146445956495-index11641.png
#EXTINF:2.002133,
754146445956495-index11642.png
#EXTINF:2.002133,
754146445956495-index11643.png
#EXTINF:2.002133,
754146445956495-index11644.png
#EXTINF:2.002133,
754146445956495-index11645.png
#EXTINF:2.002133,
754146445956495-index11646.png
#EXTINF:1.960422,
754146445956495-index11647.png
#EXTINF:2.002133,
754146445956495-index11648.png
#EXTINF:2.002133,
754146445956495-index11649.png
#EXTINF:2.002133,
754146445956495-index11650.png
#EXTINF:2.002133,
754146445956495-index11651.png
#EXTINF:2.002133,
754146445956495-index11652.png
#EXTINF:2.002133,
754146445956495-index11653.png
#EXTINF:2.002133,
754146445956495-index11654.png
#EXTINF:2.002133,
754146445956495-index11655.png
#EXTINF:2.002133,
754146445956495-index11656.png
#EXTINF:2.002133,
754146445956495-index11657.png
#EXTINF:2.002133,
754146445956495-index11658.png
#EXTINF:2.002133,
754146445956495-index11659.png
#EXTINF:2.002133,
754146445956495-index11660.png
#EXTINF:2.002133,
754146445956495-index11661.png
#EXTINF:2.002133,
754146445956495-index11662.png
#EXTINF:0.166844,
754146445956495-index11663.png
#EXT-X-ENDLIST
