#EXTM3U
#EXT-X-VERSION:3
#EXT-X-TARGETDURATION:10
#EXT-X-MEDIA-SEQUENCE:10001
#EXTINF:10.000000,
758638064894411-index10001.ts
#EXTINF:10.000000,
758638064894411-index10002.ts
#EXTINF:10.000000,
758638064894411-index10003.ts
#EXTINF:10.000000,
758638064894411-index10004.ts
#EXTINF:10.000000,
758638064894411-index10005.ts
#EXTINF:10.000000,
758638064894411-index10006.ts
#EXTINF:10.000000,
758638064894411-index10007.ts
#EXTINF:10.000000,
758638064894411-index10008.ts
#EXTINF:10.000000,
758638064894411-index10009.ts
#EXTINF:10.000000,
758638064894411-index10010.ts
#EXTINF:10.000000,
758638064894411-index10011.ts
#EXTINF:10.000000,
758638064894411-index10012.ts
#EXTINF:10.000000,
758638064894411-index10013.ts
#EXTINF:10.000000,
758638064894411-index10014.ts
#EXTINF:10.000000,
758638064894411-index10015.ts
#EXTINF:10.000000,
758638064894411-index10016.ts
#EXTINF:10.000000,
758638064894411-index10017.ts
#EXTINF:10.000000,
758638064894411-index10018.ts
#EXTINF:10.000000,
758638064894411-index10019.ts
#EXTINF:10.000000,
758638064894411-index10020.ts
#EXTINF:10.000000,
758638064894411-index10021.ts
#EXTINF:10.000000,
758638064894411-index10022.ts
#EXTINF:10.000000,
758638064894411-index10023.ts
#EXTINF:10.000000,
758638064894411-index10024.ts
#EXTINF:10.000000,
758638064894411-index10025.ts
#EXTINF:10.000000,
758638064894411-index10026.ts
#EXTINF:10.000000,
758638064894411-index10027.ts
#EXTINF:10.000000,
758638064894411-index10028.ts
#EXTINF:10.000000,
758638064894411-index10029.ts
#EXTINF:10.000000,
758638064894411-index10030.ts
#EXTINF:10.000000,
758638064894411-index10031.ts
#EXTINF:8.440000,
758638064894411-index10032.ts
#EXT-X-ENDLIST
