#EXTM3U
#EXT-X-VERSION:3
#EXT-X-TARGETDURATION:11
#EXT-X-MEDIA-SEQUENCE:10001
#EXTINF:10.539689,
759344707346624-index10001.png
#EXTINF:10.425000,
759344707346624-index10002.png
#EXTINF:10.133100,
759344707346624-index10003.png
#EXTINF:7.756200,
759344707346624-index10004.png
#EXTINF:7.089000,
759344707346624-index10005.png
#EXTINF:4.878900,
759344707346624-index10006.png
#EXTINF:4.378500,
759344707346624-index10007.png
#EXTINF:5.129100,
759344707346624-index10008.png
#EXTINF:10.425000,
759344707346624-index10009.png
#EXTINF:8.214900,
759344707346624-index10010.png
#EXTINF:3.919800,
759344707346624-index10011.png
#EXTINF:3.544500,
759344707346624-index10012.png
#EXTINF:2.376900,
759344707346624-index10013.png
#EXTINF:4.378500,
759344707346624-index10014.png
#EXTINF:2.210100,
759344707346624-index10015.png
#EXTINF:6.129900,
759344707346624-index10016.png
#EXTINF:2.877300,
759344707346624-index10017.png
#EXTINF:9.424200,
759344707346624-index10018.png
#EXTINF:4.587000,
759344707346624-index10019.png
#EXTINF:4.128300,
759344707346624-index10020.png
#EXTINF:6.630300,
759344707346624-index10021.png
#EXTINF:8.423400,
759344707346624-index10022.png
#EXTINF:4.336800,
759344707346624-index10023.png
#EXTINF:1.459500,
759344707346624-index10024.png
#EXTINF:2.376900,
759344707346624-index10025.png
#EXTINF:3.294300,
759344707346624-index10026.png
#EXTINF:2.335200,
759344707346624-index10027.png
#EXTINF:1.417800,
759344707346624-index10028.png
#EXTINF:6.963900,
759344707346624-index10029.png
#EXTINF:2.460300,
759344707346624-index10030.png
#EXTINF:5.129100,
759344707346624-index10031.png
#EXTINF:4.753800,
759344707346624-index10032.png
#EXTINF:5.421000,
759344707346624-index10033.png
#EXTINF:1.251000,
759344707346624-index10034.png
#EXTINF:1.834800,
759344707346624-index10035.png
#EXTINF:2.043300,
759344707346624-index10036.png
#EXTINF:10.425000,
759344707346624-index10037.png
#EXTINF:3.627900,
759344707346624-index10038.png
#EXTINF:3.878100,
759344707346624-index10039.png
#EXTINF:3.002400,
759344707346624-index10040.png
#EXTINF:6.922200,
759344707346624-index10041.png
#EXTINF:4.295100,
759344707346624-index10042.png
#EXTINF:5.671200,
759344707346624-index10043.png
#EXTINF:5.337600,
759344707346624-index10044.png
#EXTINF:5.254200,
759344707346624-index10045.png
#EXTINF:4.086600,
759344707346624-index10046.png
#EXTINF:10.425000,
759344707346624-index10047.png
#EXTINF:7.047300,
759344707346624-index10048.png
#EXTINF:2.502000,
759344707346624-index10049.png
#EXTINF:10.425000,
759344707346624-index10050.png
#EXTINF:1.251000,
759344707346624-index10051.png
#EXTINF:8.131500,
759344707346624-index10052.png
#EXTINF:3.961500,
759344707346624-index10053.png
#EXTINF:3.461100,
759344707346624-index10054.png
#EXTINF:4.420200,
759344707346624-index10055.png
#EXTINF:3.294300,
759344707346624-index10056.png
#EXTINF:4.628700,
759344707346624-index10057.png
#EXTINF:4.336800,
759344707346624-index10058.png
#EXTINF:5.129100,
759344707346624-index10059.png
#EXTINF:2.627100,
759344707346624-index10060.png
#EXTINF:9.090600,
759344707346624-index10061.png
#EXTINF:10.425000,
759344707346624-index10062.png
#EXTINF:10.008000,
759344707346624-index10063.png
#EXTINF:10.091400,
759344707346624-index10064.png
#EXTINF:9.257400,
759344707346624-index10065.png
#EXTINF:7.089000,
759344707346624-index10066.png
#EXTINF:10.425000,
759344707346624-index10067.png
#EXTINF:4.170000,
759344707346624-index10068.png
#EXTINF:6.588600,
759344707346624-index10069.png
#EXTINF:9.591000,
759344707346624-index10070.png
#EXTINF:10.049700,
759344707346624-index10071.png
#EXTINF:4.003200,
759344707346624-index10072.png
#EXTINF:2.293500,
759344707346624-index10073.png
#EXTINF:3.753000,
759344707346624-index10074.png
#EXTINF:3.127500,
759344707346624-index10075.png
#EXTINF:6.463500,
759344707346624-index10076.png
#EXTINF:6.505200,
759344707346624-index10077.png
#EXTINF:6.171600,
759344707346624-index10078.png
#EXTINF:5.254200,
759344707346624-index10079.png
#EXTINF:5.254200,
759344707346624-index10080.png
#EXTINF:8.715300,
759344707346624-index10081.png
#EXTINF:1.626300,
759344707346624-index10082.png
#EXTINF:3.085800,
759344707346624-index10083.png
#EXTINF:2.460300,
759344707346624-index10084.png
#EXTINF:1.668000,
759344707346624-index10085.png
#EXTINF:2.960700,
759344707346624-index10086.png
#EXTINF:3.461100,
759344707346624-index10087.png
#EXTINF:1.251000,
759344707346624-index10088.png
#EXTINF:4.086600,
759344707346624-index10089.png
#EXTINF:3.210900,
759344707346624-index10090.png
#EXTINF:3.586200,
759344707346624-index10091.png
#EXTINF:4.295100,
759344707346624-index10092.png
#EXTINF:7.964700,
759344707346624-index10093.png
#EXTINF:2.085000,
759344707346624-index10094.png
#EXTINF:1.042500,
759344707346624-index10095.png
#EXTINF:2.960700,
759344707346624-index10096.png
#EXTINF:4.295100,
759344707346624-index10097.png
#EXTINF:2.502000,
759344707346624-index10098.png
#EXTINF:4.086600,
759344707346624-index10099.png
#EXTINF:1.626300,
759344707346624-index10100.png
#EXTINF:3.210900,
759344707346624-index10101.png
#EXTINF:6.171600,
759344707346624-index10102.png
#EXTINF:5.254200,
759344707346624-index10103.png
#EXTINF:10.008000,
759344707346624-index10104.png
#EXTINF:4.461900,
759344707346624-index10105.png
#EXTINF:2.793900,
759344707346624-index10106.png
#EXTINF:9.507600,
759344707346624-index10107.png
#EXTINF:3.669600,
759344707346624-index10108.png
#EXTINF:10.425000,
759344707346624-index10109.png
#EXTINF:10.425000,
759344707346624-index10110.png
#EXTINF:3.669600,
759344707346624-index10111.png
#EXTINF:4.920600,
759344707346624-index10112.png
#EXTINF:2.210100,
759344707346624-index10113.png
#EXTINF:3.169200,
759344707346624-index10114.png
#EXTINF:2.877300,
759344707346624-index10115.png
#EXTINF:9.132300,
759344707346624-index10116.png
#EXTINF:3.544500,
759344707346624-index10117.png
#EXTINF:9.215700,
759344707346624-index10118.png
#EXTINF:4.670400,
759344707346624-index10119.png
#EXTINF:4.712100,
759344707346624-index10120.png
#EXTINF:8.757000,
759344707346624-index10121.png
#EXTINF:6.588600,
759344707346624-index10122.png
#EXTINF:3.919800,
759344707346624-index10123.png
#EXTINF:10.008000,
759344707346624-index10124.png
#EXTINF:3.794700,
759344707346624-index10125.png
#EXTINF:3.461100,
759344707346624-index10126.png
#EXTINF:1.793100,
759344707346624-index10127.png
#EXTINF:3.252600,
759344707346624-index10128.png
#EXTINF:5.087400,
759344707346624-index10129.png
#EXTINF:2.335200,
759344707346624-index10130.png
#EXTINF:4.378500,
759344707346624-index10131.png
#EXTINF:5.337600,
759344707346624-index10132.png
#EXTINF:2.543700,
759344707346624-index10133.png
#EXTINF:2.877300,
759344707346624-index10134.png
#EXTINF:3.836400,
759344707346624-index10135.png
#EXTINF:2.335200,
759344707346624-index10136.png
#EXTINF:1.959900,
759344707346624-index10137.png
#EXTINF:1.918200,
759344707346624-index10138.png
#EXTINF:2.043300,
759344707346624-index10139.png
#EXTINF:3.878100,
759344707346624-index10140.png
#EXTINF:1.834800,
759344707346624-index10141.png
#EXTINF:1.793100,
759344707346624-index10142.png
#EXTINF:3.544500,
759344707346624-index10143.png
#EXTINF:1.918200,
759344707346624-index10144.png
#EXTINF:1.709700,
759344707346624-index10145.png
#EXTINF:3.794700,
759344707346624-index10146.png
#EXTINF:3.377700,
759344707346624-index10147.png
#EXTINF:4.003200,
759344707346624-index10148.png
#EXTINF:3.836400,
759344707346624-index10149.png
#EXTINF:1.292700,
759344707346624-index10150.png
#EXTINF:4.712100,
759344707346624-index10151.png
#EXTINF:3.711300,
759344707346624-index10152.png
#EXTINF:3.044100,
759344707346624-index10153.png
#EXTINF:4.378500,
759344707346624-index10154.png
#EXTINF:3.711300,
759344707346624-index10155.png
#EXTINF:2.585400,
759344707346624-index10156.png
#EXTINF:3.753000,
759344707346624-index10157.png
#EXTINF:10.425000,
759344707346624-index10158.png
#EXTINF:4.503600,
759344707346624-index10159.png
#EXT-X-ENDLIST
