#EXTM3U
#EXT-X-VERSION:3
#EXT-X-TARGETDURATION:11
#EXT-X-MEDIA-SEQUENCE:10001
#EXTINF:4.999944,
761187169700861-index10001.png
#EXTINF:2.608667,
761187169700861-index10002.png
#EXTINF:7.260789,
761187169700861-index10003.png
#EXTINF:4.086911,
761187169700861-index10004.png
#EXTINF:5.521678,
761187169700861-index10005.png
#EXTINF:5.956456,
761187169700861-index10006.png
#EXTINF:10.739011,
761187169700861-index10007.png
#EXTINF:3.217356,
761187169700861-index10008.png
#EXTINF:1.130422,
761187169700861-index10009.png
#EXTINF:7.434700,
761187169700861-index10010.png
#EXTINF:9.608589,
761187169700861-index10011.png
#EXTINF:8.825989,
761187169700861-index10012.png
#EXTINF:8.999900,
761187169700861-index10013.png
#EXTINF:6.260800,
761187169700861-index10014.png
#EXTINF:5.782544,
761187169700861-index10015.png
#EXTINF:5.043422,
761187169700861-index10016.png
#EXTINF:10.739011,
761187169700861-index10017.png
#EXTINF:6.999922,
761187169700861-index10018.png
#EXTINF:3.739089,
761187169700861-index10019.png
#EXTINF:5.347767,
761187169700861-index10020.png
#EXTINF:6.608622,
761187169700861-index10021.png
#EXTINF:6.086889,
761187169700861-index10022.png
#EXTINF:5.956456,
761187169700861-index10023.png
#EXTINF:3.521700,
761187169700861-index10024.png
#EXTINF:4.652122,
761187169700861-index10025.png
#EXTINF:10.565100,
761187169700861-index10026.png
#EXTINF:5.217333,
761187169700861-index10027.png
#EXTINF:4.565167,
761187169700861-index10028.png
#EXTINF:1.739111,
761187169700861-index10029.png
#EXTINF:4.956467,
761187169700861-index10030.png
#EXTINF:3.999956,
761187169700861-index10031.png
#EXTINF:10.869444,
761187169700861-index10032.png
#EXTINF:9.478156,
761187169700861-index10033.png
#EXTINF:8.521644,
761187169700861-index10034.png
#EXTINF:10.869444,
761187169700861-index10035.png
#EXTINF:10.869444,
761187169700861-index10036.png
#EXTINF:10.869444,
761187169700861-index10037.png
#EXTINF:2.521711,
761187169700861-index10038.png
#EXTINF:9.130333,
761187169700861-index10039.png
#EXTINF:5.652111,
761187169700861-index10040.png
#EXTINF:7.695567,
761187169700861-index10041.png
#EXTINF:6.956444,
761187169700861-index10042.png
#EXTINF:4.304300,
761187169700861-index10043.png
#EXTINF:3.391267,
761187169700861-index10044.png
#EXTINF:9.434678,
761187169700861-index10045.png
#EXTINF:7.304267,
761187169700861-index10046.png
#EXTINF:3.130400,
761187169700861-index10047.png
#EXTINF:1.739111,
761187169700861-index10048.png
#EXTINF:1.999978,
761187169700861-index10049.png
#EXTINF:3.826044,
761187169700861-index10050.png
#EXTINF:5.391244,
761187169700861-index10051.png
#EXTINF:5.652111,
761187169700861-index10052.png
#EXTINF:8.347733,
761187169700861-index10053.png
#EXTINF:4.739078,
761187169700861-index10054.png
#EXTINF:3.739089,
761187169700861-index10055.png
#EXTINF:10.869444,
761187169700861-index10056.png
#EXTINF:3.478222,
761187169700861-index10057.png
#EXTINF:10.869444,
761187169700861-index10058.png
#EXTINF:10.869444,
761187169700861-index10059.png
#EXTINF:3.913000,
761187169700861-index10060.png
#EXT-X-ENDLIST
