#EXTM3U
#EXT-X-VERSION:3
#EXT-X-TARGETDURATION:10
#EXT-X-MEDIA-SEQUENCE:10001
#EXTINF:10.000000,
770461676849259-index10001.png
#EXTINF:2.533333,
770461676849259-index10002.png
#EXTINF:4.133333,
770461676849259-index10003.png
#EXTINF:5.066667,
770461676849259-index10004.png
#EXTINF:6.433333,
770461676849259-index10005.png
#EXTINF:3.366667,
770461676849259-index10006.png
#EXTINF:5.066667,
770461676849259-index10007.png
#EXTINF:2.866667,
770461676849259-index10008.png
#EXTINF:4.766667,
770461676849259-index10009.png
#EXTINF:1.266667,
770461676849259-index10010.png
#EXTINF:1.033333,
770461676849259-index10011.png
#EXTINF:4.300000,
770461676849259-index10012.png
#EXTINF:4.200000,
770461676849259-index10013.png
#EXTINF:3.000000,
770461676849259-index10014.png
#EXTINF:1.100000,
770461676849259-index10015.png
#EXTINF:1.000000,
770461676849259-index10016.png
#EXTINF:4.733333,
770461676849259-index10017.png
#EXTINF:4.933333,
770461676849259-index10018.png
#EXTINF:6.366667,
770461676849259-index10019.png
#EXTINF:3.333333,
770461676849259-index10020.png
#EXTINF:3.166667,
770461676849259-index10021.png
#EXTINF:1.633333,
770461676849259-index10022.png
#EXTINF:3.300000,
770461676849259-index10023.png
#EXTINF:9.866667,
770461676849259-index10024.png
#EXTINF:2.866667,
770461676849259-index10025.png
#EXTINF:1.333333,
770461676849259-index10026.png
#EXTINF:6.566667,
770461676849259-index10027.png
#EXTINF:6.033333,
770461676849259-index10028.png
#EXTINF:3.133333,
770461676849259-index10029.png
#EXTINF:3.033333,
770461676849259-index10030.png
#EXTINF:1.800000,
770461676849259-index10031.png
#EXTINF:10.000000,
770461676849259-index10032.png
#EXTINF:5.066667,
770461676849259-index10033.png
#EXTINF:2.566667,
770461676849259-index10034.png
#EXTINF:3.966667,
770461676849259-index10035.png
#EXTINF:4.700000,
770461676849259-index10036.png
#EXTINF:3.900000,
770461676849259-index10037.png
#EXTINF:4.366667,
770461676849259-index10038.png
#EXTINF:1.400000,
770461676849259-index10039.png
#EXTINF:2.633333,
770461676849259-index10040.png
#EXTINF:3.766667,
770461676849259-index10041.png
#EXTINF:8.833333,
770461676849259-index10042.png
#EXTINF:7.700000,
770461676849259-index10043.png
#EXTINF:4.466667,
770461676849259-index10044.png
#EXTINF:8.933333,
770461676849259-index10045.png
#EXTINF:5.666667,
770461676849259-index10046.png
#EXTINF:5.000000,
770461676849259-index10047.png
#EXTINF:7.133333,
770461676849259-index10048.png
#EXTINF:3.300000,
770461676849259-index10049.png
#EXTINF:2.733333,
770461676849259-index10050.png
#EXTINF:1.066667,
770461676849259-index10051.png
#EXTINF:4.400000,
770461676849259-index10052.png
#EXTINF:4.000000,
770461676849259-index10053.png
#EXTINF:3.766667,
770461676849259-index10054.png
#EXTINF:9.933333,
770461676849259-index10055.png
#EXTINF:7.766667,
770461676849259-index10056.png
#EXTINF:1.966667,
770461676849259-index10057.png
#EXTINF:2.333333,
770461676849259-index10058.png
#EXTINF:1.700000,
770461676849259-index10059.png
#EXTINF:4.633333,
770461676849259-index10060.png
#EXTINF:2.833333,
770461676849259-index10061.png
#EXTINF:9.966667,
770461676849259-index10062.png
#EXTINF:9.966667,
770461676849259-index10063.png
#EXTINF:9.966667,
770461676849259-index10064.png
#EXTINF:5.033333,
770461676849259-index10065.png
#EXTINF:2.833333,
770461676849259-index10066.png
#EXTINF:8.633333,
770461676849259-index10067.png
#EXTINF:8.633333,
770461676849259-index10068.png
#EXTINF:2.700000,
770461676849259-index10069.png
#EXTINF:3.700000,
770461676849259-index10070.png
#EXTINF:1.700000,
770461676849259-index10071.png
#EXTINF:10.000000,
770461676849259-index10072.png
#EXTINF:4.333333,
770461676849259-index10073.png
#EXTINF:8.000000,
770461676849259-index10074.png
#EXTINF:7.900000,
770461676849259-index10075.png
#EXTINF:10.000000,
770461676849259-index10076.png
#EXTINF:3.200000,
770461676849259-index10077.png
#EXTINF:4.800000,
770461676849259-index10078.png
#EXTINF:3.566667,
770461676849259-index10079.png
#EXTINF:8.900000,
770461676849259-index10080.png
#EXTINF:6.766667,
770461676849259-index10081.png
#EXTINF:2.500000,
770461676849259-index10082.png
#EXTINF:2.466667,
770461676849259-index10083.png
#EXTINF:1.966667,
770461676849259-index10084.png
#EXTINF:6.966667,
770461676849259-index10085.png
#EXTINF:3.866667,
770461676849259-index10086.png
#EXTINF:2.800000,
770461676849259-index10087.png
#EXTINF:4.500000,
770461676849259-index10088.png
#EXTINF:3.233333,
770461676849259-index10089.png
#EXTINF:3.666667,
770461676849259-index10090.png
#EXTINF:3.833333,
770461676849259-index10091.png
#EXTINF:5.200000,
770461676849259-index10092.png
#EXTINF:4.000000,
770461676849259-index10093.png
#EXTINF:3.000000,
770461676849259-index10094.png
#EXTINF:7.533333,
770461676849259-index10095.png
#EXTINF:10.000000,
770461676849259-index10096.png
#EXTINF:7.666667,
770461676849259-index10097.png
#EXTINF:5.000000,
770461676849259-index10098.png
#EXTINF:5.833333,
770461676849259-index10099.png
#EXTINF:5.200000,
770461676849259-index10100.png
#EXTINF:3.766667,
770461676849259-index10101.png
#EXTINF:4.366667,
770461676849259-index10102.png
#EXTINF:10.000000,
770461676849259-index10103.png
#EXTINF:6.000000,
770461676849259-index10104.png
#EXTINF:2.266667,
770461676849259-index10105.png
#EXTINF:10.000000,
770461676849259-index10106.png
#EXTINF:6.300000,
770461676849259-index10107.png
#EXTINF:5.066667,
770461676849259-index10108.png
#EXTINF:4.466667,
770461676849259-index10109.png
#EXTINF:3.966667,
770461676849259-index10110.png
#EXTINF:2.866667,
770461676849259-index10111.png
#EXTINF:5.100000,
770461676849259-index10112.png
#EXTINF:9.333333,
770461676849259-index10113.png
#EXTINF:5.466667,
770461676849259-index10114.png
#EXTINF:9.233333,
770461676849259-index10115.png
#EXTINF:10.000000,
770461676849259-index10116.png
#EXTINF:7.633333,
770461676849259-index10117.png
#EXTINF:3.500000,
770461676849259-index10118.png
#EXTINF:10.000000,
770461676849259-index10119.png
#EXTINF:5.466667,
770461676849259-index10120.png
#EXTINF:3.300000,
770461676849259-index10121.png
#EXTINF:1.966667,
770461676849259-index10122.png
#EXTINF:7.900000,
770461676849259-index10123.png
#EXTINF:5.333333,
770461676849259-index10124.png
#EXTINF:1.333333,
770461676849259-index10125.png
#EXTINF:10.000000,
770461676849259-index10126.png
#EXTINF:7.266667,
770461676849259-index10127.png
#EXTINF:4.933333,
770461676849259-index10128.png
#EXTINF:6.733333,
770461676849259-index10129.png
#EXTINF:5.333333,
770461676849259-index10130.png
#EXTINF:5.800000,
770461676849259-index10131.png
#EXTINF:5.533333,
770461676849259-index10132.png
#EXTINF:10.000000,
770461676849259-index10133.png
#EXTINF:5.733333,
770461676849259-index10134.png
#EXTINF:10.000000,
770461676849259-index10135.png
#EXTINF:10.000000,
770461676849259-index10136.png
#EXTINF:4.033333,
770461676849259-index10137.png
#EXTINF:2.600000,
770461676849259-index10138.png
#EXTINF:3.966667,
770461676849259-index10139.png
#EXTINF:2.366667,
770461676849259-index10140.png
#EXTINF:2.666667,
770461676849259-index10141.png
#EXTINF:1.700000,
770461676849259-index10142.png
#EXTINF:1.033333,
770461676849259-index10143.png
#EXTINF:2.000000,
770461676849259-index10144.png
#EXTINF:5.066667,
770461676849259-index10145.png
#EXTINF:2.766667,
770461676849259-index10146.png
#EXTINF:4.666667,
770461676849259-index10147.png
#EXTINF:6.633333,
770461676849259-index10148.png
#EXTINF:4.566667,
770461676849259-index10149.png
#EXTINF:1.833333,
770461676849259-index10150.png
#EXTINF:2.366667,
770461676849259-index10151.png
#EXTINF:1.533333,
770461676849259-index10152.png
#EXTINF:3.700000,
770461676849259-index10153.png
#EXTINF:1.533333,
770461676849259-index10154.png
#EXTINF:3.700000,
770461676849259-index10155.png
#EXTINF:1.533333,
770461676849259-index10156.png
#EXTINF:4.300000,
770461676849259-index10157.png
#EXTINF:3.033333,
770461676849259-index10158.png
#EXTINF:4.366667,
770461676849259-index10159.png
#EXTINF:2.933333,
770461676849259-index10160.png
#EXTINF:4.833333,
770461676849259-index10161.png
#EXTINF:4.866667,
770461676849259-index10162.png
#EXTINF:2.033333,
770461676849259-index10163.png
#EXTINF:5.933333,
770461676849259-index10164.png
#EXTINF:3.366667,
770461676849259-index10165.png
#EXTINF:3.000000,
770461676849259-index10166.png
#EXTINF:2.400000,
770461676849259-index10167.png
#EXTINF:3.033333,
770461676849259-index10168.png
#EXTINF:3.733333,
770461676849259-index10169.png
#EXTINF:7.833333,
770461676849259-index10170.png
#EXTINF:2.033333,
770461676849259-index10171.png
#EXTINF:1.400000,
770461676849259-index10172.png
#EXTINF:2.400000,
770461676849259-index10173.png
#EXTINF:3.033333,
770461676849259-index10174.png
#EXTINF:2.600000,
770461676849259-index10175.png
#EXTINF:3.033333,
770461676849259-index10176.png
#EXTINF:4.033333,
770461676849259-index10177.png
#EXTINF:9.700000,
770461676849259-index10178.png
#EXTINF:7.433333,
770461676849259-index10179.png
#EXTINF:1.666667,
770461676849259-index10180.png
#EXTINF:1.666667,
770461676849259-index10181.png
#EXTINF:1.666667,
770461676849259-index10182.png
#EXTINF:5.900000,
770461676849259-index10183.png
#EXTINF:2.566667,
770461676849259-index10184.png
#EXTINF:8.100000,
770461676849259-index10185.png
#EXTINF:5.200000,
770461676849259-index10186.png
#EXTINF:4.366667,
770461676849259-index10187.png
#EXTINF:6.066667,
770461676849259-index10188.png
#EXTINF:6.200000,
770461676849259-index10189.png
#EXTINF:8.333333,
770461676849259-index10190.png
#EXTINF:6.066667,
770461676849259-index10191.png
#EXTINF:5.733333,
770461676849259-index10192.png
#EXTINF:4.233333,
770461676849259-index10193.png
#EXTINF:4.700000,
770461676849259-index10194.png
#EXTINF:6.000000,
770461676849259-index10195.png
#EXTINF:10.000000,
770461676849259-index10196.png
#EXTINF:2.233333,
770461676849259-index10197.png
#EXTINF:4.033333,
770461676849259-index10198.png
#EXTINF:3.966667,
770461676849259-index10199.png
#EXTINF:10.000000,
770461676849259-index10200.png
#EXTINF:6.333333,
770461676849259-index10201.png
#EXTINF:10.000000,
770461676849259-index10202.png
#EXTINF:7.266667,
770461676849259-index10203.png
#EXTINF:10.000000,
770461676849259-index10204.png
#EXTINF:7.233333,
770461676849259-index10205.png
#EXTINF:10.000000,
770461676849259-index10206.png
#EXTINF:5.300000,
770461676849259-index10207.png
#EXTINF:10.000000,
770461676849259-index10208.png
#EXTINF:6.733333,
770461676849259-index10209.png
#EXTINF:8.666667,
770461676849259-index10210.png
#EXTINF:5.466667,
770461676849259-index10211.png
#EXTINF:5.833333,
770461676849259-index10212.png
#EXTINF:8.066667,
770461676849259-index10213.png
#EXTINF:5.466667,
770461676849259-index10214.png
#EXTINF:3.833333,
770461676849259-index10215.png
#EXTINF:2.900000,
770461676849259-index10216.png
#EXTINF:1.400000,
770461676849259-index10217.png
#EXTINF:10.000000,
770461676849259-index10218.png
#EXTINF:9.266667,
770461676849259-index10219.png
#EXTINF:7.800000,
770461676849259-index10220.png
#EXTINF:10.000000,
770461676849259-index10221.png
#EXTINF:10.000000,
770461676849259-index10222.png
#EXTINF:10.000000,
770461676849259-index10223.png
#EXTINF:10.000000,
770461676849259-index10224.png
#EXTINF:10.000000,
770461676849259-index10225.png
#EXTINF:10.000000,
770461676849259-index10226.png
#EXTINF:10.000000,
770461676849259-index10227.png
#EXTINF:5.033333,
770461676849259-index10228.png
#EXTINF:5.333333,
770461676849259-index10229.png
#EXTINF:1.933333,
770461676849259-index10230.png
#EXTINF:1.133333,
770461676849259-index10231.png
#EXTINF:4.000000,
770461676849259-index10232.png
#EXTINF:3.200000,
770461676849259-index10233.png
#EXTINF:3.133333,
770461676849259-index10234.png
#EXTINF:3.766667,
770461676849259-index10235.png
#EXTINF:1.466667,
770461676849259-index10236.png
#EXTINF:5.133333,
770461676849259-index10237.png
#EXTINF:3.333333,
770461676849259-index10238.png
#EXTINF:9.966667,
770461676849259-index10239.png
#EXT-X-ENDLIST
