#EXTM3U
#EXT-X-VERSION:3
#EXT-X-TARGETDURATION:11
#EXT-X-MEDIA-SEQUENCE:10001
#EXTINF:8.608600,
771564344978994-index10001.png
#EXTINF:10.869444,
771564344978994-index10002.png
#EXTINF:10.869444,
771564344978994-index10003.png
#EXTINF:3.565178,
771564344978994-index10004.png
#EXTINF:2.347800,
771564344978994-index10005.png
#EXTINF:1.434767,
771564344978994-index10006.png
#EXTINF:1.739111,
771564344978994-index10007.png
#EXTINF:1.173900,
771564344978994-index10008.png
#EXTINF:8.608600,
771564344978994-index10009.png
#EXTINF:1.086944,
771564344978994-index10010.png
#EXTINF:5.304289,
771564344978994-index10011.png
#EXTINF:1.826067,
771564344978994-index10012.png
#EXTINF:4.695600,
771564344978994-index10013.png
#EXTINF:10.869444,
771564344978994-index10014.png
#EXTINF:7.608611,
771564344978994-index10015.png
#EXTINF:7.260789,
771564344978994-index10016.png
#EXTINF:4.260822,
771564344978994-index10017.png
#EXTINF:3.565178,
771564344978994-index10018.png
#EXTINF:2.565189,
771564344978994-index10019.png
#EXTINF:1.826067,
771564344978994-index10020.png
#EXTINF:2.043456,
771564344978994-index10021.png
#EXTINF:4.999944,
771564344978994-index10022.png
#EXTINF:6.086889,
771564344978994-index10023.png
#EXTINF:6.869489,
771564344978994-index10024.png
#EXTINF:7.043400,
771564344978994-index10025.png
#EXTINF:6.130367,
771564344978994-index10026.png
#EXTINF:4.999944,
771564344978994-index10027.png
#EXTINF:3.086922,
771564344978994-index10028.png
#EXTINF:2.999967,
771564344978994-index10029.png
#EXTINF:6.999922,
771564344978994-index10030.png
#EXTINF:10.869444,
771564344978994-index10031.png
#EXTINF:7.956433,
771564344978994-index10032.png
#EXTINF:8.217300,
771564344978994-index10033.png
#EXTINF:9.130333,
771564344978994-index10034.png
#EXTINF:7.304267,
771564344978994-index10035.png
#EXTINF:6.130367,
771564344978994-index10036.png
#EXTINF:10.173800,
771564344978994-index10037.png
#EXTINF:4.086911,
771564344978994-index10038.png
#EXTINF:5.521678,
771564344978994-index10039.png
#EXTINF:4.434733,
771564344978994-index10040.png
#EXTINF:4.391256,
771564344978994-index10041.png
#EXTINF:6.782533,
771564344978994-index10042.png
#EXTINF:4.782556,
771564344978994-index10043.png
#EXTINF:10.869444,
771564344978994-index10044.png
#EXTINF:4.304300,
771564344978994-index10045.png
#EXTINF:6.565144,
771564344978994-index10046.png
#EXTINF:10.869444,
771564344978994-index10047.png
#EXTINF:10.869444,
771564344978994-index10048.png
#EXTINF:5.434722,
771564344978994-index10049.png
#EXTINF:4.521689,
771564344978994-index10050.png
#EXTINF:3.347789,
771564344978994-index10051.png
#EXTINF:5.217333,
771564344978994-index10052.png
#EXTINF:5.608633,
771564344978994-index10053.png
#EXTINF:7.869478,
771564344978994-index10054.png
#EXTINF:6.608622,
771564344978994-index10055.png
#EXTINF:5.173856,
771564344978994-index10056.png
#EXTINF:10.869444,
771564344978994-index10057.png
#EXTINF:5.478200,
771564344978994-index10058.png
#EXTINF:7.826000,
771564344978994-index10059.png
#EXTINF:9.956411,
771564344978994-index10060.png
#EXTINF:2.304322,
771564344978994-index10061.png
#EXTINF:3.869522,
771564344978994-index10062.png
#EXTINF:9.608589,
771564344978994-index10063.png
#EXTINF:5.826022,
771564344978994-index10064.png
#EXTINF:9.999889,
771564344978994-index10065.png
#EXTINF:4.999944,
771564344978994-index10066.png
#EXTINF:8.695556,
771564344978994-index10067.png
#EXTINF:10.304233,
771564344978994-index10068.png
#EXTINF:6.434711,
771564344978994-index10069.png
#EXTINF:10.869444,
771564344978994-index10070.png
#EXTINF:10.869444,
771564344978994-index10071.png
#EXTINF:10.869444,
771564344978994-index10072.png
#EXTINF:10.869444,
771564344978994-index10073.png
#EXTINF:9.825978,
771564344978994-index10074.png
#EXTINF:10.869444,
771564344978994-index10075.png
#EXTINF:6.869489,
771564344978994-index10076.png
#EXTINF:7.695567,
771564344978994-index10077.png
#EXTINF:5.260811,
771564344978994-index10078.png
#EXTINF:4.782556,
771564344978994-index10079.png
#EXTINF:9.565111,
771564344978994-index10080.png
#EXTINF:8.565122,
771564344978994-index10081.png
#EXTINF:9.391200,
771564344978994-index10082.png
#EXTINF:6.130367,
771564344978994-index10083.png
#EXTINF:3.434744,
771564344978994-index10084.png
#EXTINF:5.217333,
771564344978994-index10085.png
#EXTINF:4.521689,
771564344978994-index10086.png
#EXTINF:4.956467,
771564344978994-index10087.png
#EXTINF:7.043400,
771564344978994-index10088.png
#EXTINF:6.478189,
771564344978994-index10089.png
#EXTINF:10.825967,
771564344978994-index10090.png
#EXTINF:6.608622,
771564344978994-index10091.png
#EXTINF:6.173844,
771564344978994-index10092.png
#EXTINF:3.782567,
771564344978994-index10093.png
#EXTINF:4.521689,
771564344978994-index10094.png
#EXTINF:4.086911,
771564344978994-index10095.png
#EXTINF:10.869444,
771564344978994-index10096.png
#EXTINF:5.782544,
771564344978994-index10097.png
#EXTINF:9.304244,
771564344978994-index10098.png
#EXTINF:9.086856,
771564344978994-index10099.png
#EXTINF:7.608611,
771564344978994-index10100.png
#EXTINF:8.608600,
771564344978994-index10101.png
#EXTINF:4.043433,
771564344978994-index10102.png
#EXTINF:6.173844,
771564344978994-index10103.png
#EXTINF:2.652144,
771564344978994-index10104.png
#EXTINF:3.347789,
771564344978994-index10105.png
#EXTINF:2.999967,
771564344978994-index10106.png
#EXT-X-ENDLIST
