#EXTM3U
#EXT-X-VERSION:3
#EXT-X-TARGETDURATION:10
#EXT-X-MEDIA-SEQUENCE:10001
#EXTINF:6.000000,
774851742717954-index10001.png
#EXTINF:9.680000,
774851742717954-index10002.png
#EXTINF:10.000000,
774851742717954-index10003.png
#EXTINF:10.000000,
774851742717954-index10004.png
#EXTINF:9.840000,
774851742717954-index10005.png
#EXTINF:8.080000,
774851742717954-index10006.png
#EXTINF:7.440000,
774851742717954-index10007.png
#EXTINF:5.520000,
774851742717954-index10008.png
#EXTINF:4.560000,
774851742717954-index10009.png
#EXTINF:6.560000,
774851742717954-index10010.png
#EXTINF:4.080000,
774851742717954-index10011.png
#EXTINF:10.000000,
774851742717954-index10012.png
#EXTINF:7.400000,
774851742717954-index10013.png
#EXTINF:5.520000,
774851742717954-index10014.png
#EXTINF:1.800000,
774851742717954-index10015.png
#EXTINF:3.280000,
774851742717954-index10016.png
#EXTINF:7.560000,
774851742717954-index10017.png
#EXTINF:1.840000,
774851742717954-index10018.png
#EXTINF:3.440000,
774851742717954-index10019.png
#EXTINF:3.960000,
774851742717954-index10020.png
#EXTINF:5.480000,
774851742717954-index10021.png
#EXTINF:3.960000,
774851742717954-index10022.png
#EXTINF:7.480000,
774851742717954-index10023.png
#EXTINF:5.800000,
774851742717954-index10024.png
#EXTINF:5.800000,
774851742717954-index10025.png
#EXTINF:5.600000,
774851742717954-index10026.png
#EXTINF:6.040000,
774851742717954-index10027.png
#EXTINF:2.240000,
774851742717954-index10028.png
#EXTINF:2.400000,
774851742717954-index10029.png
#EXTINF:3.320000,
774851742717954-index10030.png
#EXTINF:4.120000,
774851742717954-index10031.png
#EXTINF:2.920000,
774851742717954-index10032.png
#EXTINF:2.720000,
774851742717954-index10033.png
#EXTINF:2.640000,
774851742717954-index10034.png
#EXTINF:1.640000,
774851742717954-index10035.png
#EXTINF:1.560000,
774851742717954-index10036.png
#EXTINF:1.480000,
774851742717954-index10037.png
#EXTINF:3.240000,
774851742717954-index10038.png
#EXTINF:1.760000,
774851742717954-index10039.png
#EXTINF:4.120000,
774851742717954-index10040.png
#EXTINF:4.760000,
774851742717954-index10041.png
#EXTINF:10.000000,
774851742717954-index10042.png
#EXTINF:4.720000,
774851742717954-index10043.png
#EXTINF:2.120000,
774851742717954-index10044.png
#EXTINF:3.760000,
774851742717954-index10045.png
#EXTINF:1.280000,
774851742717954-index10046.png
#EXT-X-ENDLIST
