#EXTM3U
#EXT-X-VERSION:3
#EXT-X-TARGETDURATION:3
#EXT-X-MEDIA-SEQUENCE:10001
#EXTINF:2.996478,
794854385571347-index10001.png
#EXTINF:3.040000,
794854385571347-index10002.png
#EXTINF:3.040000,
794854385571347-index10003.png
#EXTINF:3.040000,
794854385571347-index10004.png
#EXTINF:3.040000,
794854385571347-index10005.png
#EXTINF:3.040000,
794854385571347-index10006.png
#EXTINF:3.040000,
794854385571347-index10007.png
#EXTINF:3.040000,
794854385571347-index10008.png
#EXTINF:3.040000,
794854385571347-index10009.png
#EXTINF:3.040000,
794854385571347-index10010.png
#EXTINF:3.040000,
794854385571347-index10011.png
#EXTINF:3.040000,
794854385571347-index10012.png
#EXTINF:3.040000,
794854385571347-index10013.png
#EXTINF:3.040000,
794854385571347-index10014.png
#EXTINF:3.040000,
794854385571347-index10015.png
#EXTINF:3.040000,
794854385571347-index10016.png
#EXTINF:3.040000,
794854385571347-index10017.png
#EXTINF:3.040000,
794854385571347-index10018.png
#EXTINF:3.040000,
794854385571347-index10019.png
#EXTINF:3.040000,
794854385571347-index10020.png
#EXTINF:3.040000,
794854385571347-index10021.png
#EXTINF:3.040000,
794854385571347-index10022.png
#EXTINF:3.040000,
794854385571347-index10023.png
#EXTINF:3.040000,
794854385571347-index10024.png
#EXTINF:3.040000,
794854385571347-index10025.png
#EXTINF:3.040000,
794854385571347-index10026.png
#EXTINF:3.040000,
794854385571347-index10027.png
#EXTINF:3.040000,
794854385571347-index10028.png
#EXTINF:3.040000,
794854385571347-index10029.png
#EXTINF:3.040000,
794854385571347-index10030.png
#EXTINF:3.040000,
794854385571347-index10031.png
#EXTINF:3.040000,
794854385571347-index10032.png
#EXTINF:3.040000,
794854385571347-index10033.png
#EXTINF:3.040000,
794854385571347-index10034.png
#EXTINF:3.040000,
794854385571347-index10035.png
#EXTINF:3.040000,
794854385571347-index10036.png
#EXTINF:3.040000,
794854385571347-index10037.png
#EXTINF:3.040000,
794854385571347-index10038.png
#EXTINF:3.040000,
794854385571347-index10039.png
#EXTINF:3.040000,
794854385571347-index10040.png
#EXTINF:3.040000,
794854385571347-index10041.png
#EXTINF:3.040000,
794854385571347-index10042.png
#EXTINF:3.040000,
794854385571347-index10043.png
#EXTINF:3.040000,
794854385571347-index10044.png
#EXTINF:3.040000,
794854385571347-index10045.png
#EXTINF:3.040000,
794854385571347-index10046.png
#EXTINF:3.040000,
794854385571347-index10047.png
#EXTINF:3.040000,
794854385571347-index10048.png
#EXTINF:3.040000,
794854385571347-index10049.png
#EXTINF:3.040000,
794854385571347-index10050.png
#EXTINF:3.040000,
794854385571347-index10051.png
#EXTINF:3.040000,
794854385571347-index10052.png
#EXTINF:3.040000,
794854385571347-index10053.png
#EXTINF:3.040000,
794854385571347-index10054.png
#EXTINF:3.040000,
794854385571347-index10055.png
#EXTINF:3.040000,
794854385571347-index10056.png
#EXTINF:3.040000,
794854385571347-index10057.png
#EXTINF:3.040000,
794854385571347-index10058.png
#EXTINF:3.040000,
794854385571347-index10059.png
#EXTINF:3.040000,
794854385571347-index10060.png
#EXTINF:3.040000,
794854385571347-index10061.png
#EXTINF:3.040000,
794854385571347-index10062.png
#EXTINF:3.040000,
794854385571347-index10063.png
#EXTINF:3.040000,
794854385571347-index10064.png
#EXTINF:3.040000,
794854385571347-index10065.png
#EXTINF:3.040000,
794854385571347-index10066.png
#EXTINF:3.040000,
794854385571347-index10067.png
#EXTINF:3.040000,
794854385571347-index10068.png
#EXTINF:3.040000,
794854385571347-index10069.png
#EXTINF:3.040000,
794854385571347-index10070.png
#EXTINF:3.040000,
794854385571347-index10071.png
#EXTINF:3.040000,
794854385571347-index10072.png
#EXTINF:3.040000,
794854385571347-index10073.png
#EXTINF:3.040000,
794854385571347-index10074.png
#EXTINF:3.040000,
794854385571347-index10075.png
#EXTINF:3.040000,
794854385571347-index10076.png
#EXTINF:3.040000,
794854385571347-index10077.png
#EXTINF:3.040000,
794854385571347-index10078.png
#EXTINF:3.040000,
794854385571347-index10079.png
#EXTINF:3.040000,
794854385571347-index10080.png
#EXTINF:3.040000,
794854385571347-index10081.png
#EXTINF:3.040000,
794854385571347-index10082.png
#EXTINF:3.040000,
794854385571347-index10083.png
#EXTINF:3.040000,
794854385571347-index10084.png
#EXTINF:3.040000,
794854385571347-index10085.png
#EXTINF:3.040000,
794854385571347-index10086.png
#EXTINF:3.040000,
794854385571347-index10087.png
#EXTINF:3.040000,
794854385571347-index10088.png
#EXTINF:3.040000,
794854385571347-index10089.png
#EXTINF:3.040000,
794854385571347-index10090.png
#EXTINF:3.040000,
794854385571347-index10091.png
#EXTINF:3.040000,
794854385571347-index10092.png
#EXTINF:3.040000,
794854385571347-index10093.png
#EXTINF:3.040000,
794854385571347-index10094.png
#EXTINF:3.040000,
794854385571347-index10095.png
#EXTINF:3.040000,
794854385571347-index10096.png
#EXTINF:3.040000,
794854385571347-index10097.png
#EXTINF:3.040000,
794854385571347-index10098.png
#EXTINF:3.040000,
794854385571347-index10099.png
#EXTINF:3.040000,
794854385571347-index10100.png
#EXTINF:3.040000,
794854385571347-index10101.png
#EXTINF:3.040000,
794854385571347-index10102.png
#EXTINF:3.040000,
794854385571347-index10103.png
#EXTINF:3.040000,
794854385571347-index10104.png
#EXTINF:3.040000,
794854385571347-index10105.png
#EXTINF:3.040000,
794854385571347-index10106.png
#EXTINF:3.040000,
794854385571347-index10107.png
#EXTINF:3.040000,
794854385571347-index10108.png
#EXTINF:3.040000,
794854385571347-index10109.png
#EXTINF:3.040000,
794854385571347-index10110.png
#EXTINF:3.040000,
794854385571347-index10111.png
#EXTINF:3.040000,
794854385571347-index10112.png
#EXTINF:3.040000,
794854385571347-index10113.png
#EXTINF:3.040000,
794854385571347-index10114.png
#EXTINF:3.040000,
794854385571347-index10115.png
#EXTINF:3.040000,
794854385571347-index10116.png
#EXTINF:3.040000,
794854385571347-index10117.png
#EXTINF:3.040000,
794854385571347-index10118.png
#EXTINF:3.040000,
794854385571347-index10119.png
#EXTINF:3.040000,
794854385571347-index10120.png
#EXTINF:3.040000,
794854385571347-index10121.png
#EXTINF:3.040000,
794854385571347-index10122.png
#EXTINF:3.040000,
794854385571347-index10123.png
#EXTINF:3.040000,
794854385571347-index10124.png
#EXTINF:3.040000,
794854385571347-index10125.png
#EXTINF:3.040000,
794854385571347-index10126.png
#EXTINF:3.040000,
794854385571347-index10127.png
#EXTINF:3.040000,
794854385571347-index10128.png
#EXTINF:3.040000,
794854385571347-index10129.png
#EXTINF:3.040000,
794854385571347-index10130.png
#EXTINF:3.040000,
794854385571347-index10131.png
#EXTINF:3.040000,
794854385571347-index10132.png
#EXTINF:3.040000,
794854385571347-index10133.png
#EXTINF:3.040000,
794854385571347-index10134.png
#EXTINF:3.040000,
794854385571347-index10135.png
#EXTINF:3.040000,
794854385571347-index10136.png
#EXTINF:3.040000,
794854385571347-index10137.png
#EXTINF:3.040000,
794854385571347-index10138.png
#EXTINF:3.040000,
794854385571347-index10139.png
#EXTINF:3.040000,
794854385571347-index10140.png
#EXTINF:3.040000,
794854385571347-index10141.png
#EXTINF:3.040000,
794854385571347-index10142.png
#EXTINF:3.040000,
794854385571347-index10143.png
#EXTINF:3.040000,
794854385571347-index10144.png
#EXTINF:3.040000,
794854385571347-index10145.png
#EXTINF:3.040000,
794854385571347-index10146.png
#EXTINF:3.040000,
794854385571347-index10147.png
#EXTINF:3.040000,
794854385571347-index10148.png
#EXTINF:3.040000,
794854385571347-index10149.png
#EXTINF:3.040000,
794854385571347-index10150.png
#EXTINF:3.040000,
794854385571347-index10151.png
#EXTINF:3.040000,
794854385571347-index10152.png
#EXTINF:3.040000,
794854385571347-index10153.png
#EXTINF:3.040000,
794854385571347-index10154.png
#EXTINF:3.040000,
794854385571347-index10155.png
#EXTINF:3.040000,
794854385571347-index10156.png
#EXTINF:3.040000,
794854385571347-index10157.png
#EXTINF:3.040000,
794854385571347-index10158.png
#EXTINF:3.040000,
794854385571347-index10159.png
#EXTINF:3.040000,
794854385571347-index10160.png
#EXTINF:3.040000,
794854385571347-index10161.png
#EXTINF:3.040000,
794854385571347-index10162.png
#EXTINF:3.040000,
794854385571347-index10163.png
#EXTINF:3.040000,
794854385571347-index10164.png
#EXTINF:3.040000,
794854385571347-index10165.png
#EXTINF:3.040000,
794854385571347-index10166.png
#EXTINF:3.040000,
794854385571347-index10167.png
#EXTINF:3.040000,
794854385571347-index10168.png
#EXTINF:3.040000,
794854385571347-index10169.png
#EXTINF:3.040000,
794854385571347-index10170.png
#EXTINF:3.040000,
794854385571347-index10171.png
#EXTINF:3.040000,
794854385571347-index10172.png
#EXTINF:3.040000,
794854385571347-index10173.png
#EXTINF:3.040000,
794854385571347-index10174.png
#EXTINF:3.040000,
794854385571347-index10175.png
#EXTINF:3.040000,
794854385571347-index10176.png
#EXTINF:3.040000,
794854385571347-index10177.png
#EXTINF:3.040000,
794854385571347-index10178.png
#EXTINF:3.040000,
794854385571347-index10179.png
#EXTINF:3.040000,
794854385571347-index10180.png
#EXTINF:3.040000,
794854385571347-index10181.png
#EXTINF:3.040000,
794854385571347-index10182.png
#EXTINF:3.040000,
794854385571347-index10183.png
#EXTINF:3.040000,
794854385571347-index10184.png
#EXTINF:3.040000,
794854385571347-index10185.png
#EXTINF:3.040000,
794854385571347-index10186.png
#EXTINF:3.040000,
794854385571347-index10187.png
#EXTINF:3.040000,
794854385571347-index10188.png
#EXTINF:3.040000,
794854385571347-index10189.png
#EXTINF:3.040000,
794854385571347-index10190.png
#EXTINF:3.040000,
794854385571347-index10191.png
#EXTINF:3.040000,
794854385571347-index10192.png
#EXTINF:3.040000,
794854385571347-index10193.png
#EXTINF:3.040000,
794854385571347-index10194.png
#EXTINF:3.040000,
794854385571347-index10195.png
#EXTINF:3.040000,
794854385571347-index10196.png
#EXTINF:3.040000,
794854385571347-index10197.png
#EXTINF:3.040000,
794854385571347-index10198.png
#EXTINF:3.040000,
794854385571347-index10199.png
#EXTINF:3.040000,
794854385571347-index10200.png
#EXTINF:3.040000,
794854385571347-index10201.png
#EXTINF:3.040000,
794854385571347-index10202.png
#EXTINF:3.040000,
794854385571347-index10203.png
#EXTINF:3.040000,
794854385571347-index10204.png
#EXTINF:3.040000,
794854385571347-index10205.png
#EXTINF:3.040000,
794854385571347-index10206.png
#EXTINF:3.040000,
794854385571347-index10207.png
#EXTINF:3.040000,
794854385571347-index10208.png
#EXTINF:3.040000,
794854385571347-index10209.png
#EXTINF:3.040000,
794854385571347-index10210.png
#EXTINF:3.040000,
794854385571347-index10211.png
#EXTINF:3.040000,
794854385571347-index10212.png
#EXTINF:3.040000,
794854385571347-index10213.png
#EXTINF:3.040000,
794854385571347-index10214.png
#EXTINF:3.040000,
794854385571347-index10215.png
#EXTINF:3.040000,
794854385571347-index10216.png
#EXTINF:3.040000,
794854385571347-index10217.png
#EXTINF:3.040000,
794854385571347-index10218.png
#EXTINF:3.040000,
794854385571347-index10219.png
#EXTINF:3.040000,
794854385571347-index10220.png
#EXTINF:3.040000,
794854385571347-index10221.png
#EXTINF:3.040000,
794854385571347-index10222.png
#EXTINF:3.040000,
794854385571347-index10223.png
#EXTINF:3.040000,
794854385571347-index10224.png
#EXTINF:3.040000,
794854385571347-index10225.png
#EXTINF:3.040000,
794854385571347-index10226.png
#EXTINF:3.040000,
794854385571347-index10227.png
#EXTINF:3.040000,
794854385571347-index10228.png
#EXTINF:3.040000,
794854385571347-index10229.png
#EXTINF:3.040000,
794854385571347-index10230.png
#EXTINF:3.040000,
794854385571347-index10231.png
#EXTINF:3.040000,
794854385571347-index10232.png
#EXTINF:3.040000,
794854385571347-index10233.png
#EXTINF:3.040000,
794854385571347-index10234.png
#EXTINF:3.040000,
794854385571347-index10235.png
#EXTINF:3.040000,
794854385571347-index10236.png
#EXTINF:3.040000,
794854385571347-index10237.png
#EXTINF:3.040000,
794854385571347-index10238.png
#EXTINF:3.040000,
794854385571347-index10239.png
#EXTINF:3.040000,
794854385571347-index10240.png
#EXTINF:3.040000,
794854385571347-index10241.png
#EXTINF:3.040000,
794854385571347-index10242.png
#EXTINF:3.040000,
794854385571347-index10243.png
#EXTINF:3.040000,
794854385571347-index10244.png
#EXTINF:3.040000,
794854385571347-index10245.png
#EXTINF:3.040000,
794854385571347-index10246.png
#EXTINF:3.040000,
794854385571347-index10247.png
#EXTINF:3.040000,
794854385571347-index10248.png
#EXTINF:3.040000,
794854385571347-index10249.png
#EXTINF:3.040000,
794854385571347-index10250.png
#EXTINF:3.040000,
794854385571347-index10251.png
#EXTINF:3.040000,
794854385571347-index10252.png
#EXTINF:3.040000,
794854385571347-index10253.png
#EXTINF:3.040000,
794854385571347-index10254.png
#EXTINF:3.040000,
794854385571347-index10255.png
#EXTINF:3.040000,
794854385571347-index10256.png
#EXTINF:3.040000,
794854385571347-index10257.png
#EXTINF:3.040000,
794854385571347-index10258.png
#EXTINF:3.040000,
794854385571347-index10259.png
#EXTINF:3.040000,
794854385571347-index10260.png
#EXTINF:3.040000,
794854385571347-index10261.png
#EXTINF:3.040000,
794854385571347-index10262.png
#EXTINF:3.040000,
794854385571347-index10263.png
#EXTINF:3.040000,
794854385571347-index10264.png
#EXTINF:3.040000,
794854385571347-index10265.png
#EXTINF:3.040000,
794854385571347-index10266.png
#EXTINF:3.040000,
794854385571347-index10267.png
#EXTINF:3.040000,
794854385571347-index10268.png
#EXTINF:3.040000,
794854385571347-index10269.png
#EXTINF:3.040000,
794854385571347-index10270.png
#EXTINF:3.040000,
794854385571347-index10271.png
#EXTINF:3.040000,
794854385571347-index10272.png
#EXTINF:3.040000,
794854385571347-index10273.png
#EXTINF:3.040000,
794854385571347-index10274.png
#EXTINF:3.040000,
794854385571347-index10275.png
#EXTINF:3.040000,
794854385571347-index10276.png
#EXTINF:3.040000,
794854385571347-index10277.png
#EXTINF:3.040000,
794854385571347-index10278.png
#EXTINF:3.040000,
794854385571347-index10279.png
#EXTINF:3.040000,
794854385571347-index10280.png
#EXTINF:3.040000,
794854385571347-index10281.png
#EXTINF:3.040000,
794854385571347-index10282.png
#EXTINF:3.040000,
794854385571347-index10283.png
#EXTINF:3.040000,
794854385571347-index10284.png
#EXTINF:3.040000,
794854385571347-index10285.png
#EXTINF:3.040000,
794854385571347-index10286.png
#EXTINF:3.040000,
794854385571347-index10287.png
#EXTINF:3.040000,
794854385571347-index10288.png
#EXTINF:3.040000,
794854385571347-index10289.png
#EXTINF:3.040000,
794854385571347-index10290.png
#EXTINF:3.040000,
794854385571347-index10291.png
#EXTINF:3.040000,
794854385571347-index10292.png
#EXTINF:3.040000,
794854385571347-index10293.png
#EXTINF:3.040000,
794854385571347-index10294.png
#EXTINF:3.040000,
794854385571347-index10295.png
#EXTINF:3.040000,
794854385571347-index10296.png
#EXTINF:3.040000,
794854385571347-index10297.png
#EXTINF:3.040000,
794854385571347-index10298.png
#EXTINF:3.040000,
794854385571347-index10299.png
#EXTINF:3.040000,
794854385571347-index10300.png
#EXTINF:3.040000,
794854385571347-index10301.png
#EXTINF:3.040000,
794854385571347-index10302.png
#EXTINF:3.040000,
794854385571347-index10303.png
#EXTINF:3.040000,
794854385571347-index10304.png
#EXTINF:3.040000,
794854385571347-index10305.png
#EXTINF:3.040000,
794854385571347-index10306.png
#EXTINF:3.040000,
794854385571347-index10307.png
#EXTINF:3.040000,
794854385571347-index10308.png
#EXTINF:3.040000,
794854385571347-index10309.png
#EXTINF:3.040000,
794854385571347-index10310.png
#EXTINF:3.040000,
794854385571347-index10311.png
#EXTINF:3.040000,
794854385571347-index10312.png
#EXTINF:3.040000,
794854385571347-index10313.png
#EXTINF:3.040000,
794854385571347-index10314.png
#EXTINF:3.040000,
794854385571347-index10315.png
#EXTINF:3.040000,
794854385571347-index10316.png
#EXTINF:3.040000,
794854385571347-index10317.png
#EXTINF:3.040000,
794854385571347-index10318.png
#EXTINF:3.040000,
794854385571347-index10319.png
#EXTINF:3.040000,
794854385571347-index10320.png
#EXTINF:3.040000,
794854385571347-index10321.png
#EXTINF:3.040000,
794854385571347-index10322.png
#EXTINF:3.040000,
794854385571347-index10323.png
#EXTINF:3.040000,
794854385571347-index10324.png
#EXTINF:3.040000,
794854385571347-index10325.png
#EXTINF:3.040000,
794854385571347-index10326.png
#EXTINF:3.040000,
794854385571347-index10327.png
#EXTINF:3.040000,
794854385571347-index10328.png
#EXTINF:3.040000,
794854385571347-index10329.png
#EXTINF:3.040000,
794854385571347-index10330.png
#EXTINF:3.040000,
794854385571347-index10331.png
#EXTINF:3.040000,
794854385571347-index10332.png
#EXTINF:3.040000,
794854385571347-index10333.png
#EXTINF:3.040000,
794854385571347-index10334.png
#EXTINF:3.040000,
794854385571347-index10335.png
#EXTINF:3.040000,
794854385571347-index10336.png
#EXTINF:3.040000,
794854385571347-index10337.png
#EXTINF:3.040000,
794854385571347-index10338.png
#EXTINF:3.040000,
794854385571347-index10339.png
#EXTINF:3.040000,
794854385571347-index10340.png
#EXTINF:3.040000,
794854385571347-index10341.png
#EXTINF:3.040000,
794854385571347-index10342.png
#EXTINF:3.040000,
794854385571347-index10343.png
#EXTINF:3.040000,
794854385571347-index10344.png
#EXTINF:3.040000,
794854385571347-index10345.png
#EXTINF:3.040000,
794854385571347-index10346.png
#EXTINF:3.040000,
794854385571347-index10347.png
#EXTINF:3.040000,
794854385571347-index10348.png
#EXTINF:3.040000,
794854385571347-index10349.png
#EXTINF:3.040000,
794854385571347-index10350.png
#EXTINF:3.040000,
794854385571347-index10351.png
#EXTINF:3.040000,
794854385571347-index10352.png
#EXTINF:3.040000,
794854385571347-index10353.png
#EXTINF:3.040000,
794854385571347-index10354.png
#EXTINF:3.040000,
794854385571347-index10355.png
#EXTINF:3.040000,
794854385571347-index10356.png
#EXTINF:3.040000,
794854385571347-index10357.png
#EXTINF:3.040000,
794854385571347-index10358.png
#EXTINF:3.040000,
794854385571347-index10359.png
#EXTINF:3.040000,
794854385571347-index10360.png
#EXTINF:3.040000,
794854385571347-index10361.png
#EXTINF:3.040000,
794854385571347-index10362.png
#EXTINF:3.040000,
794854385571347-index10363.png
#EXTINF:3.040000,
794854385571347-index10364.png
#EXTINF:3.040000,
794854385571347-index10365.png
#EXTINF:3.040000,
794854385571347-index10366.png
#EXTINF:3.040000,
794854385571347-index10367.png
#EXTINF:3.040000,
794854385571347-index10368.png
#EXTINF:3.040000,
794854385571347-index10369.png
#EXTINF:3.040000,
794854385571347-index10370.png
#EXTINF:3.040000,
794854385571347-index10371.png
#EXTINF:3.040000,
794854385571347-index10372.png
#EXTINF:3.040000,
794854385571347-index10373.png
#EXTINF:3.040000,
794854385571347-index10374.png
#EXTINF:3.040000,
794854385571347-index10375.png
#EXTINF:3.040000,
794854385571347-index10376.png
#EXTINF:3.040000,
794854385571347-index10377.png
#EXTINF:3.040000,
794854385571347-index10378.png
#EXTINF:3.040000,
794854385571347-index10379.png
#EXTINF:3.040000,
794854385571347-index10380.png
#EXTINF:3.040000,
794854385571347-index10381.png
#EXTINF:3.040000,
794854385571347-index10382.png
#EXTINF:3.040000,
794854385571347-index10383.png
#EXTINF:3.040000,
794854385571347-index10384.png
#EXTINF:3.040000,
794854385571347-index10385.png
#EXTINF:3.040000,
794854385571347-index10386.png
#EXTINF:3.040000,
794854385571347-index10387.png
#EXTINF:3.040000,
794854385571347-index10388.png
#EXTINF:3.040000,
794854385571347-index10389.png
#EXTINF:3.040000,
794854385571347-index10390.png
#EXTINF:3.040000,
794854385571347-index10391.png
#EXTINF:3.040000,
794854385571347-index10392.png
#EXTINF:3.040000,
794854385571347-index10393.png
#EXTINF:3.040000,
794854385571347-index10394.png
#EXTINF:3.040000,
794854385571347-index10395.png
#EXTINF:3.040000,
794854385571347-index10396.png
#EXTINF:3.040000,
794854385571347-index10397.png
#EXTINF:3.040000,
794854385571347-index10398.png
#EXTINF:3.040000,
794854385571347-index10399.png
#EXTINF:3.040000,
794854385571347-index10400.png
#EXTINF:3.040000,
794854385571347-index10401.png
#EXTINF:3.040000,
794854385571347-index10402.png
#EXTINF:3.040000,
794854385571347-index10403.png
#EXTINF:3.040000,
794854385571347-index10404.png
#EXTINF:3.040000,
794854385571347-index10405.png
#EXTINF:3.040000,
794854385571347-index10406.png
#EXTINF:3.040000,
794854385571347-index10407.png
#EXTINF:3.040000,
794854385571347-index10408.png
#EXTINF:3.040000,
794854385571347-index10409.png
#EXTINF:3.040000,
794854385571347-index10410.png
#EXTINF:3.040000,
794854385571347-index10411.png
#EXTINF:3.040000,
794854385571347-index10412.png
#EXTINF:3.040000,
794854385571347-index10413.png
#EXTINF:3.040000,
794854385571347-index10414.png
#EXTINF:3.040000,
794854385571347-index10415.png
#EXTINF:3.040000,
794854385571347-index10416.png
#EXTINF:3.040000,
794854385571347-index10417.png
#EXTINF:3.040000,
794854385571347-index10418.png
#EXTINF:3.040000,
794854385571347-index10419.png
#EXTINF:3.040000,
794854385571347-index10420.png
#EXTINF:3.040000,
794854385571347-index10421.png
#EXTINF:3.040000,
794854385571347-index10422.png
#EXTINF:3.040000,
794854385571347-index10423.png
#EXTINF:3.040000,
794854385571347-index10424.png
#EXTINF:3.040000,
794854385571347-index10425.png
#EXTINF:3.040000,
794854385571347-index10426.png
#EXTINF:3.040000,
794854385571347-index10427.png
#EXTINF:3.040000,
794854385571347-index10428.png
#EXTINF:3.040000,
794854385571347-index10429.png
#EXTINF:3.040000,
794854385571347-index10430.png
#EXTINF:3.040000,
794854385571347-index10431.png
#EXTINF:3.040000,
794854385571347-index10432.png
#EXTINF:3.040000,
794854385571347-index10433.png
#EXTINF:3.040000,
794854385571347-index10434.png
#EXTINF:3.040000,
794854385571347-index10435.png
#EXTINF:3.040000,
794854385571347-index10436.png
#EXTINF:3.040000,
794854385571347-index10437.png
#EXTINF:3.040000,
794854385571347-index10438.png
#EXTINF:3.040000,
794854385571347-index10439.png
#EXTINF:3.040000,
794854385571347-index10440.png
#EXTINF:3.040000,
794854385571347-index10441.png
#EXTINF:3.040000,
794854385571347-index10442.png
#EXTINF:3.040000,
794854385571347-index10443.png
#EXTINF:3.040000,
794854385571347-index10444.png
#EXTINF:3.040000,
794854385571347-index10445.png
#EXTINF:3.040000,
794854385571347-index10446.png
#EXTINF:3.040000,
794854385571347-index10447.png
#EXTINF:3.040000,
794854385571347-index10448.png
#EXTINF:3.040000,
794854385571347-index10449.png
#EXTINF:3.040000,
794854385571347-index10450.png
#EXTINF:3.040000,
794854385571347-index10451.png
#EXTINF:3.040000,
794854385571347-index10452.png
#EXTINF:3.040000,
794854385571347-index10453.png
#EXTINF:3.040000,
794854385571347-index10454.png
#EXTINF:3.040000,
794854385571347-index10455.png
#EXTINF:3.040000,
794854385571347-index10456.png
#EXTINF:3.040000,
794854385571347-index10457.png
#EXTINF:3.040000,
794854385571347-index10458.png
#EXTINF:3.040000,
794854385571347-index10459.png
#EXTINF:3.040000,
794854385571347-index10460.png
#EXTINF:3.040000,
794854385571347-index10461.png
#EXTINF:3.040000,
794854385571347-index10462.png
#EXTINF:3.040000,
794854385571347-index10463.png
#EXTINF:3.040000,
794854385571347-index10464.png
#EXTINF:3.040000,
794854385571347-index10465.png
#EXTINF:3.040000,
794854385571347-index10466.png
#EXTINF:3.040000,
794854385571347-index10467.png
#EXTINF:3.040000,
794854385571347-index10468.png
#EXTINF:3.040000,
794854385571347-index10469.png
#EXTINF:3.040000,
794854385571347-index10470.png
#EXTINF:3.040000,
794854385571347-index10471.png
#EXTINF:3.040000,
794854385571347-index10472.png
#EXTINF:3.040000,
794854385571347-index10473.png
#EXTINF:3.040000,
794854385571347-index10474.png
#EXTINF:3.040000,
794854385571347-index10475.png
#EXTINF:3.040000,
794854385571347-index10476.png
#EXTINF:3.040000,
794854385571347-index10477.png
#EXTINF:3.040000,
794854385571347-index10478.png
#EXTINF:3.040000,
794854385571347-index10479.png
#EXTINF:3.040000,
794854385571347-index10480.png
#EXTINF:3.040000,
794854385571347-index10481.png
#EXTINF:3.040000,
794854385571347-index10482.png
#EXTINF:3.040000,
794854385571347-index10483.png
#EXTINF:3.040000,
794854385571347-index10484.png
#EXTINF:3.040000,
794854385571347-index10485.png
#EXTINF:3.040000,
794854385571347-index10486.png
#EXTINF:3.040000,
794854385571347-index10487.png
#EXTINF:3.040000,
794854385571347-index10488.png
#EXTINF:3.040000,
794854385571347-index10489.png
#EXTINF:3.040000,
794854385571347-index10490.png
#EXTINF:3.040000,
794854385571347-index10491.png
#EXTINF:3.040000,
794854385571347-index10492.png
#EXTINF:3.040000,
794854385571347-index10493.png
#EXTINF:3.040000,
794854385571347-index10494.png
#EXTINF:3.040000,
794854385571347-index10495.png
#EXTINF:3.040000,
794854385571347-index10496.png
#EXTINF:3.040000,
794854385571347-index10497.png
#EXTINF:3.040000,
794854385571347-index10498.png
#EXTINF:3.040000,
794854385571347-index10499.png
#EXTINF:3.040000,
794854385571347-index10500.png
#EXTINF:3.040000,
794854385571347-index10501.png
#EXTINF:3.040000,
794854385571347-index10502.png
#EXTINF:3.040000,
794854385571347-index10503.png
#EXTINF:3.040000,
794854385571347-index10504.png
#EXTINF:3.040000,
794854385571347-index10505.png
#EXTINF:3.040000,
794854385571347-index10506.png
#EXTINF:3.040000,
794854385571347-index10507.png
#EXTINF:3.040000,
794854385571347-index10508.png
#EXTINF:3.040000,
794854385571347-index10509.png
#EXTINF:3.040000,
794854385571347-index10510.png
#EXTINF:3.040000,
794854385571347-index10511.png
#EXTINF:3.040000,
794854385571347-index10512.png
#EXTINF:3.040000,
794854385571347-index10513.png
#EXTINF:3.040000,
794854385571347-index10514.png
#EXTINF:3.040000,
794854385571347-index10515.png
#EXTINF:3.040000,
794854385571347-index10516.png
#EXTINF:3.040000,
794854385571347-index10517.png
#EXTINF:3.040000,
794854385571347-index10518.png
#EXTINF:3.040000,
794854385571347-index10519.png
#EXTINF:3.040000,
794854385571347-index10520.png
#EXTINF:3.040000,
794854385571347-index10521.png
#EXTINF:3.040000,
794854385571347-index10522.png
#EXTINF:3.040000,
794854385571347-index10523.png
#EXTINF:3.040000,
794854385571347-index10524.png
#EXTINF:3.040000,
794854385571347-index10525.png
#EXTINF:3.040000,
794854385571347-index10526.png
#EXTINF:3.040000,
794854385571347-index10527.png
#EXTINF:3.040000,
794854385571347-index10528.png
#EXTINF:3.040000,
794854385571347-index10529.png
#EXTINF:3.040000,
794854385571347-index10530.png
#EXTINF:3.040000,
794854385571347-index10531.png
#EXTINF:3.040000,
794854385571347-index10532.png
#EXTINF:3.040000,
794854385571347-index10533.png
#EXTINF:3.040000,
794854385571347-index10534.png
#EXTINF:3.040000,
794854385571347-index10535.png
#EXTINF:3.040000,
794854385571347-index10536.png
#EXTINF:3.040000,
794854385571347-index10537.png
#EXTINF:3.040000,
794854385571347-index10538.png
#EXTINF:3.040000,
794854385571347-index10539.png
#EXTINF:3.040000,
794854385571347-index10540.png
#EXTINF:3.040000,
794854385571347-index10541.png
#EXTINF:3.040000,
794854385571347-index10542.png
#EXTINF:3.040000,
794854385571347-index10543.png
#EXTINF:3.040000,
794854385571347-index10544.png
#EXTINF:3.040000,
794854385571347-index10545.png
#EXTINF:3.040000,
794854385571347-index10546.png
#EXTINF:3.040000,
794854385571347-index10547.png
#EXTINF:3.040000,
794854385571347-index10548.png
#EXTINF:3.040000,
794854385571347-index10549.png
#EXTINF:3.040000,
794854385571347-index10550.png
#EXTINF:3.040000,
794854385571347-index10551.png
#EXTINF:3.040000,
794854385571347-index10552.png
#EXTINF:3.040000,
794854385571347-index10553.png
#EXTINF:3.040000,
794854385571347-index10554.png
#EXTINF:3.040000,
794854385571347-index10555.png
#EXTINF:3.040000,
794854385571347-index10556.png
#EXTINF:3.040000,
794854385571347-index10557.png
#EXTINF:3.040000,
794854385571347-index10558.png
#EXTINF:3.040000,
794854385571347-index10559.png
#EXTINF:3.040000,
794854385571347-index10560.png
#EXTINF:3.040000,
794854385571347-index10561.png
#EXTINF:3.040000,
794854385571347-index10562.png
#EXTINF:3.040000,
794854385571347-index10563.png
#EXTINF:3.040000,
794854385571347-index10564.png
#EXTINF:3.040000,
794854385571347-index10565.png
#EXTINF:3.040000,
794854385571347-index10566.png
#EXTINF:3.040000,
794854385571347-index10567.png
#EXTINF:3.040000,
794854385571347-index10568.png
#EXTINF:3.040000,
794854385571347-index10569.png
#EXTINF:3.040000,
794854385571347-index10570.png
#EXTINF:3.040000,
794854385571347-index10571.png
#EXTINF:3.040000,
794854385571347-index10572.png
#EXTINF:3.040000,
794854385571347-index10573.png
#EXTINF:3.040000,
794854385571347-index10574.png
#EXTINF:3.040000,
794854385571347-index10575.png
#EXTINF:3.040000,
794854385571347-index10576.png
#EXTINF:3.040000,
794854385571347-index10577.png
#EXTINF:3.040000,
794854385571347-index10578.png
#EXTINF:3.040000,
794854385571347-index10579.png
#EXTINF:3.040000,
794854385571347-index10580.png
#EXTINF:3.040000,
794854385571347-index10581.png
#EXTINF:3.040000,
794854385571347-index10582.png
#EXTINF:3.040000,
794854385571347-index10583.png
#EXTINF:3.040000,
794854385571347-index10584.png
#EXTINF:3.040000,
794854385571347-index10585.png
#EXTINF:3.040000,
794854385571347-index10586.png
#EXTINF:3.040000,
794854385571347-index10587.png
#EXTINF:3.040000,
794854385571347-index10588.png
#EXTINF:3.040000,
794854385571347-index10589.png
#EXTINF:3.040000,
794854385571347-index10590.png
#EXTINF:3.040000,
794854385571347-index10591.png
#EXTINF:3.040000,
794854385571347-index10592.png
#EXTINF:3.040000,
794854385571347-index10593.png
#EXTINF:3.040000,
794854385571347-index10594.png
#EXTINF:3.040000,
794854385571347-index10595.png
#EXTINF:3.040000,
794854385571347-index10596.png
#EXTINF:3.040000,
794854385571347-index10597.png
#EXTINF:3.040000,
794854385571347-index10598.png
#EXTINF:3.040000,
794854385571347-index10599.png
#EXTINF:3.040000,
794854385571347-index10600.png
#EXTINF:3.040000,
794854385571347-index10601.png
#EXTINF:3.040000,
794854385571347-index10602.png
#EXTINF:3.040000,
794854385571347-index10603.png
#EXTINF:3.040000,
794854385571347-index10604.png
#EXTINF:3.040000,
794854385571347-index10605.png
#EXTINF:3.040000,
794854385571347-index10606.png
#EXTINF:3.040000,
794854385571347-index10607.png
#EXTINF:3.040000,
794854385571347-index10608.png
#EXTINF:3.040000,
794854385571347-index10609.png
#EXTINF:3.040000,
794854385571347-index10610.png
#EXTINF:3.040000,
794854385571347-index10611.png
#EXTINF:3.040000,
794854385571347-index10612.png
#EXTINF:3.040000,
794854385571347-index10613.png
#EXTINF:3.040000,
794854385571347-index10614.png
#EXTINF:3.040000,
794854385571347-index10615.png
#EXTINF:3.040000,
794854385571347-index10616.png
#EXTINF:3.040000,
794854385571347-index10617.png
#EXTINF:3.040000,
794854385571347-index10618.png
#EXTINF:3.040000,
794854385571347-index10619.png
#EXTINF:3.040000,
794854385571347-index10620.png
#EXTINF:3.040000,
794854385571347-index10621.png
#EXTINF:3.040000,
794854385571347-index10622.png
#EXTINF:3.040000,
794854385571347-index10623.png
#EXTINF:3.040000,
794854385571347-index10624.png
#EXTINF:3.040000,
794854385571347-index10625.png
#EXTINF:3.040000,
794854385571347-index10626.png
#EXTINF:3.040000,
794854385571347-index10627.png
#EXTINF:3.040000,
794854385571347-index10628.png
#EXTINF:3.040000,
794854385571347-index10629.png
#EXTINF:3.040000,
794854385571347-index10630.png
#EXTINF:3.040000,
794854385571347-index10631.png
#EXTINF:3.040000,
794854385571347-index10632.png
#EXTINF:3.040000,
794854385571347-index10633.png
#EXTINF:3.040000,
794854385571347-index10634.png
#EXTINF:3.040000,
794854385571347-index10635.png
#EXTINF:3.040000,
794854385571347-index10636.png
#EXTINF:3.040000,
794854385571347-index10637.png
#EXTINF:3.040000,
794854385571347-index10638.png
#EXTINF:3.040000,
794854385571347-index10639.png
#EXTINF:3.040000,
794854385571347-index10640.png
#EXTINF:3.040000,
794854385571347-index10641.png
#EXTINF:3.040000,
794854385571347-index10642.png
#EXTINF:3.040000,
794854385571347-index10643.png
#EXTINF:3.040000,
794854385571347-index10644.png
#EXTINF:3.040000,
794854385571347-index10645.png
#EXTINF:3.040000,
794854385571347-index10646.png
#EXTINF:3.040000,
794854385571347-index10647.png
#EXTINF:3.040000,
794854385571347-index10648.png
#EXTINF:3.040000,
794854385571347-index10649.png
#EXTINF:3.040000,
794854385571347-index10650.png
#EXTINF:3.040000,
794854385571347-index10651.png
#EXTINF:3.040000,
794854385571347-index10652.png
#EXTINF:3.040000,
794854385571347-index10653.png
#EXTINF:3.040000,
794854385571347-index10654.png
#EXTINF:3.040000,
794854385571347-index10655.png
#EXTINF:3.040000,
794854385571347-index10656.png
#EXTINF:3.040000,
794854385571347-index10657.png
#EXTINF:3.040000,
794854385571347-index10658.png
#EXTINF:3.040000,
794854385571347-index10659.png
#EXTINF:3.040000,
794854385571347-index10660.png
#EXTINF:3.040000,
794854385571347-index10661.png
#EXTINF:3.040000,
794854385571347-index10662.png
#EXTINF:3.040000,
794854385571347-index10663.png
#EXTINF:3.040000,
794854385571347-index10664.png
#EXTINF:3.040000,
794854385571347-index10665.png
#EXTINF:3.040000,
794854385571347-index10666.png
#EXTINF:3.040000,
794854385571347-index10667.png
#EXTINF:3.040000,
794854385571347-index10668.png
#EXTINF:3.040000,
794854385571347-index10669.png
#EXTINF:3.040000,
794854385571347-index10670.png
#EXTINF:3.040000,
794854385571347-index10671.png
#EXTINF:3.040000,
794854385571347-index10672.png
#EXTINF:3.040000,
794854385571347-index10673.png
#EXTINF:3.040000,
794854385571347-index10674.png
#EXTINF:3.040000,
794854385571347-index10675.png
#EXTINF:3.040000,
794854385571347-index10676.png
#EXTINF:3.040000,
794854385571347-index10677.png
#EXTINF:3.040000,
794854385571347-index10678.png
#EXTINF:3.040000,
794854385571347-index10679.png
#EXTINF:3.040000,
794854385571347-index10680.png
#EXTINF:3.040000,
794854385571347-index10681.png
#EXTINF:3.040000,
794854385571347-index10682.png
#EXTINF:3.040000,
794854385571347-index10683.png
#EXTINF:3.040000,
794854385571347-index10684.png
#EXTINF:3.040000,
794854385571347-index10685.png
#EXTINF:3.040000,
794854385571347-index10686.png
#EXTINF:3.040000,
794854385571347-index10687.png
#EXTINF:3.040000,
794854385571347-index10688.png
#EXTINF:3.040000,
794854385571347-index10689.png
#EXTINF:3.040000,
794854385571347-index10690.png
#EXTINF:3.040000,
794854385571347-index10691.png
#EXTINF:3.040000,
794854385571347-index10692.png
#EXTINF:3.040000,
794854385571347-index10693.png
#EXTINF:3.040000,
794854385571347-index10694.png
#EXTINF:3.040000,
794854385571347-index10695.png
#EXTINF:3.040000,
794854385571347-index10696.png
#EXTINF:3.040000,
794854385571347-index10697.png
#EXTINF:3.040000,
794854385571347-index10698.png
#EXTINF:3.040000,
794854385571347-index10699.png
#EXTINF:3.040000,
794854385571347-index10700.png
#EXTINF:3.040000,
794854385571347-index10701.png
#EXTINF:3.040000,
794854385571347-index10702.png
#EXTINF:3.040000,
794854385571347-index10703.png
#EXTINF:3.040000,
794854385571347-index10704.png
#EXTINF:3.040000,
794854385571347-index10705.png
#EXTINF:3.040000,
794854385571347-index10706.png
#EXTINF:3.040000,
794854385571347-index10707.png
#EXTINF:3.040000,
794854385571347-index10708.png
#EXTINF:3.040000,
794854385571347-index10709.png
#EXTINF:3.040000,
794854385571347-index10710.png
#EXTINF:3.040000,
794854385571347-index10711.png
#EXTINF:3.040000,
794854385571347-index10712.png
#EXTINF:3.040000,
794854385571347-index10713.png
#EXTINF:3.040000,
794854385571347-index10714.png
#EXTINF:3.040000,
794854385571347-index10715.png
#EXTINF:3.040000,
794854385571347-index10716.png
#EXTINF:3.040000,
794854385571347-index10717.png
#EXTINF:3.040000,
794854385571347-index10718.png
#EXTINF:3.040000,
794854385571347-index10719.png
#EXTINF:3.040000,
794854385571347-index10720.png
#EXTINF:3.040000,
794854385571347-index10721.png
#EXTINF:3.040000,
794854385571347-index10722.png
#EXTINF:3.040000,
794854385571347-index10723.png
#EXTINF:3.040000,
794854385571347-index10724.png
#EXTINF:3.040000,
794854385571347-index10725.png
#EXTINF:3.040000,
794854385571347-index10726.png
#EXTINF:3.040000,
794854385571347-index10727.png
#EXTINF:3.040000,
794854385571347-index10728.png
#EXTINF:3.040000,
794854385571347-index10729.png
#EXTINF:3.040000,
794854385571347-index10730.png
#EXTINF:3.040000,
794854385571347-index10731.png
#EXTINF:3.040000,
794854385571347-index10732.png
#EXTINF:3.040000,
794854385571347-index10733.png
#EXTINF:3.040000,
794854385571347-index10734.png
#EXTINF:3.040000,
794854385571347-index10735.png
#EXTINF:3.040000,
794854385571347-index10736.png
#EXTINF:3.040000,
794854385571347-index10737.png
#EXTINF:3.040000,
794854385571347-index10738.png
#EXTINF:3.040000,
794854385571347-index10739.png
#EXTINF:3.040000,
794854385571347-index10740.png
#EXTINF:3.040000,
794854385571347-index10741.png
#EXTINF:3.040000,
794854385571347-index10742.png
#EXTINF:3.040000,
794854385571347-index10743.png
#EXTINF:3.040000,
794854385571347-index10744.png
#EXTINF:3.040000,
794854385571347-index10745.png
#EXTINF:3.040000,
794854385571347-index10746.png
#EXTINF:3.040000,
794854385571347-index10747.png
#EXTINF:3.040000,
794854385571347-index10748.png
#EXTINF:3.040000,
794854385571347-index10749.png
#EXTINF:3.040000,
794854385571347-index10750.png
#EXTINF:3.040000,
794854385571347-index10751.png
#EXTINF:3.040000,
794854385571347-index10752.png
#EXTINF:3.040000,
794854385571347-index10753.png
#EXTINF:3.040000,
794854385571347-index10754.png
#EXTINF:3.040000,
794854385571347-index10755.png
#EXTINF:3.040000,
794854385571347-index10756.png
#EXTINF:3.040000,
794854385571347-index10757.png
#EXTINF:3.040000,
794854385571347-index10758.png
#EXTINF:3.040000,
794854385571347-index10759.png
#EXTINF:3.040000,
794854385571347-index10760.png
#EXTINF:3.040000,
794854385571347-index10761.png
#EXTINF:3.040000,
794854385571347-index10762.png
#EXTINF:3.040000,
794854385571347-index10763.png
#EXTINF:3.040000,
794854385571347-index10764.png
#EXTINF:3.040000,
794854385571347-index10765.png
#EXTINF:3.040000,
794854385571347-index10766.png
#EXTINF:3.040000,
794854385571347-index10767.png
#EXTINF:3.040000,
794854385571347-index10768.png
#EXTINF:3.040000,
794854385571347-index10769.png
#EXTINF:3.040000,
794854385571347-index10770.png
#EXTINF:3.040000,
794854385571347-index10771.png
#EXTINF:3.040000,
794854385571347-index10772.png
#EXTINF:3.040000,
794854385571347-index10773.png
#EXTINF:3.040000,
794854385571347-index10774.png
#EXTINF:3.040000,
794854385571347-index10775.png
#EXTINF:3.040000,
794854385571347-index10776.png
#EXTINF:3.040000,
794854385571347-index10777.png
#EXTINF:3.040000,
794854385571347-index10778.png
#EXTINF:3.040000,
794854385571347-index10779.png
#EXTINF:3.040000,
794854385571347-index10780.png
#EXTINF:3.040000,
794854385571347-index10781.png
#EXTINF:3.040000,
794854385571347-index10782.png
#EXTINF:3.040000,
794854385571347-index10783.png
#EXTINF:3.040000,
794854385571347-index10784.png
#EXTINF:3.040000,
794854385571347-index10785.png
#EXTINF:3.040000,
794854385571347-index10786.png
#EXTINF:3.040000,
794854385571347-index10787.png
#EXTINF:3.040000,
794854385571347-index10788.png
#EXTINF:3.040000,
794854385571347-index10789.png
#EXTINF:3.040000,
794854385571347-index10790.png
#EXTINF:3.040000,
794854385571347-index10791.png
#EXTINF:3.040000,
794854385571347-index10792.png
#EXTINF:3.040000,
794854385571347-index10793.png
#EXTINF:3.040000,
794854385571347-index10794.png
#EXTINF:3.040000,
794854385571347-index10795.png
#EXTINF:3.040000,
794854385571347-index10796.png
#EXTINF:3.040000,
794854385571347-index10797.png
#EXTINF:3.040000,
794854385571347-index10798.png
#EXTINF:3.040000,
794854385571347-index10799.png
#EXTINF:3.040000,
794854385571347-index10800.png
#EXTINF:3.040000,
794854385571347-index10801.png
#EXTINF:3.040000,
794854385571347-index10802.png
#EXTINF:3.040000,
794854385571347-index10803.png
#EXTINF:3.040000,
794854385571347-index10804.png
#EXTINF:3.040000,
794854385571347-index10805.png
#EXTINF:3.040000,
794854385571347-index10806.png
#EXTINF:3.040000,
794854385571347-index10807.png
#EXTINF:3.040000,
794854385571347-index10808.png
#EXTINF:3.040000,
794854385571347-index10809.png
#EXTINF:3.040000,
794854385571347-index10810.png
#EXTINF:3.040000,
794854385571347-index10811.png
#EXTINF:3.040000,
794854385571347-index10812.png
#EXTINF:3.040000,
794854385571347-index10813.png
#EXTINF:3.040000,
794854385571347-index10814.png
#EXTINF:3.040000,
794854385571347-index10815.png
#EXTINF:3.040000,
794854385571347-index10816.png
#EXTINF:3.040000,
794854385571347-index10817.png
#EXTINF:3.040000,
794854385571347-index10818.png
#EXTINF:3.040000,
794854385571347-index10819.png
#EXTINF:3.040000,
794854385571347-index10820.png
#EXTINF:3.040000,
794854385571347-index10821.png
#EXTINF:3.040000,
794854385571347-index10822.png
#EXTINF:3.040000,
794854385571347-index10823.png
#EXTINF:3.040000,
794854385571347-index10824.png
#EXTINF:3.040000,
794854385571347-index10825.png
#EXTINF:3.040000,
794854385571347-index10826.png
#EXTINF:3.040000,
794854385571347-index10827.png
#EXTINF:3.040000,
794854385571347-index10828.png
#EXTINF:3.040000,
794854385571347-index10829.png
#EXTINF:3.040000,
794854385571347-index10830.png
#EXTINF:3.040000,
794854385571347-index10831.png
#EXTINF:3.040000,
794854385571347-index10832.png
#EXTINF:3.040000,
794854385571347-index10833.png
#EXTINF:3.040000,
794854385571347-index10834.png
#EXTINF:3.040000,
794854385571347-index10835.png
#EXTINF:3.040000,
794854385571347-index10836.png
#EXTINF:3.040000,
794854385571347-index10837.png
#EXTINF:3.040000,
794854385571347-index10838.png
#EXTINF:3.040000,
794854385571347-index10839.png
#EXTINF:3.040000,
794854385571347-index10840.png
#EXTINF:3.040000,
794854385571347-index10841.png
#EXTINF:3.040000,
794854385571347-index10842.png
#EXTINF:3.040000,
794854385571347-index10843.png
#EXTINF:3.040000,
794854385571347-index10844.png
#EXTINF:3.040000,
794854385571347-index10845.png
#EXTINF:3.040000,
794854385571347-index10846.png
#EXTINF:3.040000,
794854385571347-index10847.png
#EXTINF:3.040000,
794854385571347-index10848.png
#EXTINF:3.040000,
794854385571347-index10849.png
#EXTINF:3.040000,
794854385571347-index10850.png
#EXTINF:3.040000,
794854385571347-index10851.png
#EXTINF:3.040000,
794854385571347-index10852.png
#EXTINF:3.040000,
794854385571347-index10853.png
#EXTINF:3.040000,
794854385571347-index10854.png
#EXTINF:3.040000,
794854385571347-index10855.png
#EXTINF:3.040000,
794854385571347-index10856.png
#EXTINF:3.040000,
794854385571347-index10857.png
#EXTINF:3.040000,
794854385571347-index10858.png
#EXTINF:3.040000,
794854385571347-index10859.png
#EXTINF:3.040000,
794854385571347-index10860.png
#EXTINF:3.040000,
794854385571347-index10861.png
#EXTINF:3.040000,
794854385571347-index10862.png
#EXTINF:3.040000,
794854385571347-index10863.png
#EXTINF:3.040000,
794854385571347-index10864.png
#EXTINF:3.040000,
794854385571347-index10865.png
#EXTINF:3.040000,
794854385571347-index10866.png
#EXTINF:3.040000,
794854385571347-index10867.png
#EXTINF:3.040000,
794854385571347-index10868.png
#EXTINF:1.716444,
794854385571347-index10869.png
#EXT-X-ENDLIST
