#EXTM3U
#EXT-X-VERSION:3
#EXT-X-TARGETDURATION:10
#EXT-X-MEDIA-SEQUENCE:10001
#EXTINF:3.466667,
801894920153750-index10001.png
#EXTINF:3.833333,
801894920153750-index10002.png
#EXTINF:4.400000,
801894920153750-index10003.png
#EXTINF:4.666667,
801894920153750-index10004.png
#EXTINF:5.266667,
801894920153750-index10005.png
#EXTINF:5.033333,
801894920153750-index10006.png
#EXTINF:2.666667,
801894920153750-index10007.png
#EXTINF:5.800000,
801894920153750-index10008.png
#EXTINF:8.166667,
801894920153750-index10009.png
#EXTINF:2.800000,
801894920153750-index10010.png
#EXTINF:4.933333,
801894920153750-index10011.png
#EXTINF:1.166667,
801894920153750-index10012.png
#EXTINF:3.766667,
801894920153750-index10013.png
#EXTINF:2.166667,
801894920153750-index10014.png
#EXTINF:2.333333,
801894920153750-index10015.png
#EXTINF:2.966667,
801894920153750-index10016.png
#EXTINF:7.133333,
801894920153750-index10017.png
#EXTINF:4.333333,
801894920153750-index10018.png
#EXTINF:2.500000,
801894920153750-index10019.png
#EXTINF:4.233333,
801894920153750-index10020.png
#EXTINF:3.133333,
801894920153750-index10021.png
#EXTINF:1.133333,
801894920153750-index10022.png
#EXTINF:3.400000,
801894920153750-index10023.png
#EXTINF:1.333333,
801894920153750-index10024.png
#EXTINF:3.966667,
801894920153750-index10025.png
#EXTINF:3.266667,
801894920153750-index10026.png
#EXTINF:2.666667,
801894920153750-index10027.png
#EXTINF:6.200000,
801894920153750-index10028.png
#EXTINF:2.866667,
801894920153750-index10029.png
#EXTINF:5.033333,
801894920153750-index10030.png
#EXTINF:1.333333,
801894920153750-index10031.png
#EXTINF:10.000000,
801894920153750-index10032.png
#EXTINF:5.566667,
801894920153750-index10033.png
#EXTINF:1.333333,
801894920153750-index10034.png
#EXTINF:4.400000,
801894920153750-index10035.png
#EXTINF:3.033333,
801894920153750-index10036.png
#EXTINF:1.800000,
801894920153750-index10037.png
#EXTINF:1.600000,
801894920153750-index10038.png
#EXTINF:6.566667,
801894920153750-index10039.png
#EXTINF:1.766667,
801894920153750-index10040.png
#EXTINF:4.766667,
801894920153750-index10041.png
#EXTINF:4.900000,
801894920153750-index10042.png
#EXTINF:6.133333,
801894920153750-index10043.png
#EXTINF:4.166667,
801894920153750-index10044.png
#EXTINF:10.000000,
801894920153750-index10045.png
#EXTINF:7.033333,
801894920153750-index10046.png
#EXTINF:9.400000,
801894920153750-index10047.png
#EXTINF:10.000000,
801894920153750-index10048.png
#EXTINF:5.266667,
801894920153750-index10049.png
#EXTINF:5.933333,
801894920153750-index10050.png
#EXTINF:2.700000,
801894920153750-index10051.png
#EXTINF:4.900000,
801894920153750-index10052.png
#EXTINF:4.433333,
801894920153750-index10053.png
#EXTINF:6.566667,
801894920153750-index10054.png
#EXTINF:4.333333,
801894920153750-index10055.png
#EXTINF:3.066667,
801894920153750-index10056.png
#EXTINF:6.266667,
801894920153750-index10057.png
#EXTINF:3.500000,
801894920153750-index10058.png
#EXTINF:2.100000,
801894920153750-index10059.png
#EXTINF:9.966667,
801894920153750-index10060.png
#EXTINF:1.866667,
801894920153750-index10061.png
#EXTINF:1.166667,
801894920153750-index10062.png
#EXTINF:5.100000,
801894920153750-index10063.png
#EXTINF:2.966667,
801894920153750-index10064.png
#EXTINF:5.733333,
801894920153750-index10065.png
#EXTINF:5.566667,
801894920153750-index10066.png
#EXTINF:1.366667,
801894920153750-index10067.png
#EXTINF:5.466667,
801894920153750-index10068.png
#EXTINF:5.733333,
801894920153750-index10069.png
#EXTINF:2.766667,
801894920153750-index10070.png
#EXTINF:2.700000,
801894920153750-index10071.png
#EXTINF:2.933333,
801894920153750-index10072.png
#EXTINF:6.500000,
801894920153750-index10073.png
#EXTINF:6.733333,
801894920153750-index10074.png
#EXTINF:3.100000,
801894920153750-index10075.png
#EXTINF:4.966667,
801894920153750-index10076.png
#EXTINF:1.700000,
801894920153750-index10077.png
#EXTINF:2.100000,
801894920153750-index10078.png
#EXTINF:3.133333,
801894920153750-index10079.png
#EXTINF:2.900000,
801894920153750-index10080.png
#EXTINF:5.133333,
801894920153750-index10081.png
#EXTINF:3.700000,
801894920153750-index10082.png
#EXTINF:3.633333,
801894920153750-index10083.png
#EXTINF:2.400000,
801894920153750-index10084.png
#EXTINF:4.466667,
801894920153750-index10085.png
#EXTINF:1.700000,
801894920153750-index10086.png
#EXTINF:10.000000,
801894920153750-index10087.png
#EXTINF:4.966667,
801894920153750-index10088.png
#EXTINF:6.066667,
801894920153750-index10089.png
#EXTINF:10.000000,
801894920153750-index10090.png
#EXTINF:8.100000,
801894920153750-index10091.png
#EXTINF:10.000000,
801894920153750-index10092.png
#EXTINF:5.000000,
801894920153750-index10093.png
#EXTINF:1.500000,
801894920153750-index10094.png
#EXTINF:4.800000,
801894920153750-index10095.png
#EXTINF:4.766667,
801894920153750-index10096.png
#EXTINF:7.433333,
801894920153750-index10097.png
#EXTINF:10.000000,
801894920153750-index10098.png
#EXTINF:9.100000,
801894920153750-index10099.png
#EXTINF:9.966667,
801894920153750-index10100.png
#EXTINF:7.800000,
801894920153750-index10101.png
#EXTINF:5.600000,
801894920153750-index10102.png
#EXTINF:1.533333,
801894920153750-index10103.png
#EXTINF:5.000000,
801894920153750-index10104.png
#EXTINF:1.900000,
801894920153750-index10105.png
#EXTINF:5.133333,
801894920153750-index10106.png
#EXTINF:5.233333,
801894920153750-index10107.png
#EXTINF:4.600000,
801894920153750-index10108.png
#EXTINF:3.566667,
801894920153750-index10109.png
#EXTINF:8.166667,
801894920153750-index10110.png
#EXTINF:2.133333,
801894920153750-index10111.png
#EXTINF:7.866667,
801894920153750-index10112.png
#EXTINF:6.000000,
801894920153750-index10113.png
#EXTINF:2.300000,
801894920153750-index10114.png
#EXTINF:10.000000,
801894920153750-index10115.png
#EXTINF:7.733333,
801894920153750-index10116.png
#EXTINF:4.466667,
801894920153750-index10117.png
#EXTINF:9.766667,
801894920153750-index10118.png
#EXTINF:3.633333,
801894920153750-index10119.png
#EXTINF:7.600000,
801894920153750-index10120.png
#EXTINF:3.500000,
801894920153750-index10121.png
#EXTINF:2.533333,
801894920153750-index10122.png
#EXTINF:1.366667,
801894920153750-index10123.png
#EXTINF:3.400000,
801894920153750-index10124.png
#EXTINF:4.533333,
801894920153750-index10125.png
#EXTINF:2.733333,
801894920153750-index10126.png
#EXTINF:3.700000,
801894920153750-index10127.png
#EXTINF:6.633333,
801894920153750-index10128.png
#EXTINF:7.333333,
801894920153750-index10129.png
#EXTINF:4.866667,
801894920153750-index10130.png
#EXTINF:3.133333,
801894920153750-index10131.png
#EXTINF:5.433333,
801894920153750-index10132.png
#EXTINF:9.133333,
801894920153750-index10133.png
#EXTINF:7.366667,
801894920153750-index10134.png
#EXTINF:2.900000,
801894920153750-index10135.png
#EXTINF:7.400000,
801894920153750-index10136.png
#EXTINF:7.633333,
801894920153750-index10137.png
#EXTINF:4.900000,
801894920153750-index10138.png
#EXTINF:9.800000,
801894920153750-index10139.png
#EXTINF:3.966667,
801894920153750-index10140.png
#EXTINF:7.533333,
801894920153750-index10141.png
#EXTINF:7.400000,
801894920153750-index10142.png
#EXTINF:9.966667,
801894920153750-index10143.png
#EXTINF:4.066667,
801894920153750-index10144.png
#EXTINF:2.066667,
801894920153750-index10145.png
#EXTINF:1.400000,
801894920153750-index10146.png
#EXTINF:4.066667,
801894920153750-index10147.png
#EXTINF:3.166667,
801894920153750-index10148.png
#EXTINF:2.200000,
801894920153750-index10149.png
#EXTINF:5.533333,
801894920153750-index10150.png
#EXTINF:3.233333,
801894920153750-index10151.png
#EXTINF:6.533333,
801894920153750-index10152.png
#EXTINF:5.600000,
801894920153750-index10153.png
#EXTINF:2.900000,
801894920153750-index10154.png
#EXTINF:6.100000,
801894920153750-index10155.png
#EXTINF:5.666667,
801894920153750-index10156.png
#EXTINF:10.000000,
801894920153750-index10157.png
#EXTINF:10.000000,
801894920153750-index10158.png
#EXTINF:5.300000,
801894920153750-index10159.png
#EXTINF:8.766667,
801894920153750-index10160.png
#EXTINF:3.066667,
801894920153750-index10161.png
#EXTINF:1.333333,
801894920153750-index10162.png
#EXTINF:1.033333,
801894920153750-index10163.png
#EXTINF:1.966667,
801894920153750-index10164.png
#EXTINF:1.566667,
801894920153750-index10165.png
#EXTINF:3.800000,
801894920153750-index10166.png
#EXTINF:1.966667,
801894920153750-index10167.png
#EXTINF:2.033333,
801894920153750-index10168.png
#EXTINF:1.633333,
801894920153750-index10169.png
#EXTINF:3.100000,
801894920153750-index10170.png
#EXTINF:3.900000,
801894920153750-index10171.png
#EXTINF:1.166667,
801894920153750-index10172.png
#EXTINF:1.900000,
801894920153750-index10173.png
#EXTINF:3.500000,
801894920153750-index10174.png
#EXTINF:6.833333,
801894920153750-index10175.png
#EXTINF:2.433333,
801894920153750-index10176.png
#EXTINF:3.900000,
801894920153750-index10177.png
#EXTINF:7.400000,
801894920153750-index10178.png
#EXTINF:10.000000,
801894920153750-index10179.png
#EXTINF:6.366667,
801894920153750-index10180.png
#EXTINF:10.000000,
801894920153750-index10181.png
#EXTINF:7.933333,
801894920153750-index10182.png
#EXTINF:10.000000,
801894920153750-index10183.png
#EXTINF:10.000000,
801894920153750-index10184.png
#EXTINF:10.000000,
801894920153750-index10185.png
#EXTINF:10.000000,
801894920153750-index10186.png
#EXTINF:9.000000,
801894920153750-index10187.png
#EXTINF:10.000000,
801894920153750-index10188.png
#EXTINF:10.000000,
801894920153750-index10189.png
#EXTINF:10.000000,
801894920153750-index10190.png
#EXTINF:10.000000,
801894920153750-index10191.png
#EXTINF:7.400000,
801894920153750-index10192.png
#EXTINF:3.200000,
801894920153750-index10193.png
#EXTINF:3.800000,
801894920153750-index10194.png
#EXTINF:6.500000,
801894920153750-index10195.png
#EXTINF:4.766667,
801894920153750-index10196.png
#EXTINF:3.900000,
801894920153750-index10197.png
#EXTINF:3.000000,
801894920153750-index10198.png
#EXTINF:5.766667,
801894920153750-index10199.png
#EXTINF:7.833333,
801894920153750-index10200.png
#EXT-X-ENDLIST
