#EXTM3U
#EXT-X-VERSION:3
#EXT-X-TARGETDURATION:3
#EXT-X-MEDIA-SEQUENCE:10001
#EXTINF:2.001600,
811169490632083-index10001.png
#EXTINF:2.001600,
811169490632083-index10002.png
#EXTINF:1.918200,
811169490632083-index10003.png
#EXTINF:2.043300,
811169490632083-index10004.png
#EXTINF:2.001600,
811169490632083-index10005.png
#EXTINF:2.043300,
811169490632083-index10006.png
#EXTINF:2.001600,
811169490632083-index10007.png
#EXTINF:0.792300,
811169490632083-index10008.png
#EXT-X-ENDLIST
