#EXTM3U
#EXT-X-VERSION:3
#EXT-X-TARGETDURATION:11
#EXT-X-MEDIA-SEQUENCE:10001
#EXTINF:2.652144,
819274961534473-index10001.png
#EXTINF:7.999911,
819274961534473-index10002.png
#EXTINF:3.391267,
819274961534473-index10003.png
#EXTINF:2.347800,
819274961534473-index10004.png
#EXTINF:3.434744,
819274961534473-index10005.png
#EXTINF:2.999967,
819274961534473-index10006.png
#EXTINF:4.304300,
819274961534473-index10007.png
#EXTINF:4.173867,
819274961534473-index10008.png
#EXTINF:2.913011,
819274961534473-index10009.png
#EXTINF:2.913011,
819274961534473-index10010.png
#EXTINF:1.652156,
819274961534473-index10011.png
#EXTINF:1.217378,
819274961534473-index10012.png
#EXTINF:3.434744,
819274961534473-index10013.png
#EXTINF:1.695633,
819274961534473-index10014.png
#EXTINF:4.260822,
819274961534473-index10015.png
#EXTINF:2.999967,
819274961534473-index10016.png
#EXTINF:1.782589,
819274961534473-index10017.png
#EXTINF:2.478233,
819274961534473-index10018.png
#EXTINF:5.304289,
819274961534473-index10019.png
#EXTINF:6.652100,
819274961534473-index10020.png
#EXTINF:5.999933,
819274961534473-index10021.png
#EXTINF:3.260833,
819274961534473-index10022.png
#EXTINF:4.652122,
819274961534473-index10023.png
#EXTINF:10.869444,
819274961534473-index10024.png
#EXTINF:10.869444,
819274961534473-index10025.png
#EXTINF:1.782589,
819274961534473-index10026.png
#EXTINF:6.217322,
819274961534473-index10027.png
#EXTINF:6.173844,
819274961534473-index10028.png
#EXTINF:5.173856,
819274961534473-index10029.png
#EXTINF:4.608644,
819274961534473-index10030.png
#EXTINF:4.260822,
819274961534473-index10031.png
#EXTINF:2.304322,
819274961534473-index10032.png
#EXTINF:6.869489,
819274961534473-index10033.png
#EXTINF:7.826000,
819274961534473-index10034.png
#EXTINF:2.869533,
819274961534473-index10035.png
#EXTINF:2.217367,
819274961534473-index10036.png
#EXTINF:5.478200,
819274961534473-index10037.png
#EXTINF:1.565200,
819274961534473-index10038.png
#EXTINF:9.304244,
819274961534473-index10039.png
#EXTINF:4.173867,
819274961534473-index10040.png
#EXTINF:2.869533,
819274961534473-index10041.png
#EXTINF:4.999944,
819274961534473-index10042.png
#EXTINF:0.999989,
819274961534473-index10043.png
#EXTINF:4.565167,
819274961534473-index10044.png
#EXTINF:4.478211,
819274961534473-index10045.png
#EXTINF:10.260756,
819274961534473-index10046.png
#EXTINF:3.869522,
819274961534473-index10047.png
#EXTINF:3.999956,
819274961534473-index10048.png
#EXTINF:3.782567,
819274961534473-index10049.png
#EXTINF:3.956478,
819274961534473-index10050.png
#EXTINF:4.173867,
819274961534473-index10051.png
#EXTINF:1.826067,
819274961534473-index10052.png
#EXTINF:5.695589,
819274961534473-index10053.png
#EXTINF:3.565178,
819274961534473-index10054.png
#EXTINF:3.695611,
819274961534473-index10055.png
#EXTINF:3.304311,
819274961534473-index10056.png
#EXTINF:4.130389,
819274961534473-index10057.png
#EXTINF:1.913022,
819274961534473-index10058.png
#EXTINF:2.043456,
819274961534473-index10059.png
#EXTINF:3.739089,
819274961534473-index10060.png
#EXTINF:6.391233,
819274961534473-index10061.png
#EXTINF:2.739100,
819274961534473-index10062.png
#EXTINF:1.956500,
819274961534473-index10063.png
#EXTINF:4.347778,
819274961534473-index10064.png
#EXTINF:3.304311,
819274961534473-index10065.png
#EXTINF:3.304311,
819274961534473-index10066.png
#EXTINF:4.043433,
819274961534473-index10067.png
#EXTINF:10.869444,
819274961534473-index10068.png
#EXTINF:3.217356,
819274961534473-index10069.png
#EXTINF:6.043411,
819274961534473-index10070.png
#EXTINF:8.912944,
819274961534473-index10071.png
#EXTINF:9.521633,
819274961534473-index10072.png
#EXTINF:1.826067,
819274961534473-index10073.png
#EXTINF:3.913000,
819274961534473-index10074.png
#EXTINF:2.565189,
819274961534473-index10075.png
#EXTINF:2.086933,
819274961534473-index10076.png
#EXTINF:2.304322,
819274961534473-index10077.png
#EXTINF:3.043444,
819274961534473-index10078.png
#EXTINF:4.217344,
819274961534473-index10079.png
#EXTINF:3.782567,
819274961534473-index10080.png
#EXTINF:4.086911,
819274961534473-index10081.png
#EXTINF:6.347756,
819274961534473-index10082.png
#EXTINF:5.826022,
819274961534473-index10083.png
#EXTINF:10.869444,
819274961534473-index10084.png
#EXTINF:3.130400,
819274961534473-index10085.png
#EXTINF:5.956456,
819274961534473-index10086.png
#EXTINF:2.391278,
819274961534473-index10087.png
#EXTINF:3.217356,
819274961534473-index10088.png
#EXTINF:8.086867,
819274961534473-index10089.png
#EXTINF:8.912944,
819274961534473-index10090.png
#EXTINF:7.086878,
819274961534473-index10091.png
#EXTINF:8.173822,
819274961534473-index10092.png
#EXTINF:9.999889,
819274961534473-index10093.png
#EXTINF:5.217333,
819274961534473-index10094.png
#EXTINF:7.260789,
819274961534473-index10095.png
#EXTINF:7.434700,
819274961534473-index10096.png
#EXTINF:6.086889,
819274961534473-index10097.png
#EXTINF:6.260800,
819274961534473-index10098.png
#EXTINF:5.217333,
819274961534473-index10099.png
#EXTINF:6.695578,
819274961534473-index10100.png
#EXTINF:5.521678,
819274961534473-index10101.png
#EXTINF:8.521644,
819274961534473-index10102.png
#EXTINF:4.217344,
819274961534473-index10103.png
#EXTINF:9.521633,
819274961534473-index10104.png
#EXTINF:10.869444,
819274961534473-index10105.png
#EXTINF:6.217322,
819274961534473-index10106.png
#EXTINF:10.130322,
819274961534473-index10107.png
#EXTINF:7.347744,
819274961534473-index10108.png
#EXTINF:3.130400,
819274961534473-index10109.png
#EXTINF:10.130322,
819274961534473-index10110.png
#EXTINF:5.217333,
819274961534473-index10111.png
#EXTINF:4.912989,
819274961534473-index10112.png
#EXTINF:4.260822,
819274961534473-index10113.png
#EXTINF:9.999889,
819274961534473-index10114.png
#EXTINF:7.043400,
819274961534473-index10115.png
#EXTINF:1.956500,
819274961534473-index10116.png
#EXTINF:3.782567,
819274961534473-index10117.png
#EXTINF:1.478244,
819274961534473-index10118.png
#EXTINF:8.391211,
819274961534473-index10119.png
#EXT-X-ENDLIST
