#EXTM3U
#EXT-X-VERSION:3
#EXT-X-TARGETDURATION:10
#EXT-X-MEDIA-SEQUENCE:10001
#EXTINF:6.000000,
827884807354874-index10001.png
#EXTINF:5.040000,
827884807354874-index10002.png
#EXTINF:7.040000,
827884807354874-index10003.png
#EXTINF:8.000000,
827884807354874-index10004.png
#EXTINF:3.240000,
827884807354874-index10005.png
#EXTINF:1.480000,
827884807354874-index10006.png
#EXTINF:2.400000,
827884807354874-index10007.png
#EXTINF:5.000000,
827884807354874-index10008.png
#EXTINF:5.160000,
827884807354874-index10009.png
#EXTINF:4.520000,
827884807354874-index10010.png
#EXTINF:3.240000,
827884807354874-index10011.png
#EXTINF:2.400000,
827884807354874-index10012.png
#EXTINF:2.960000,
827884807354874-index10013.png
#EXTINF:3.040000,
827884807354874-index10014.png
#EXTINF:2.440000,
827884807354874-index10015.png
#EXTINF:4.440000,
827884807354874-index10016.png
#EXTINF:3.160000,
827884807354874-index10017.png
#EXTINF:6.000000,
827884807354874-index10018.png
#EXTINF:1.560000,
827884807354874-index10019.png
#EXTINF:1.040000,
827884807354874-index10020.png
#EXTINF:1.040000,
827884807354874-index10021.png
#EXTINF:4.200000,
827884807354874-index10022.png
#EXTINF:1.520000,
827884807354874-index10023.png
#EXTINF:1.360000,
827884807354874-index10024.png
#EXTINF:1.520000,
827884807354874-index10025.png
#EXTINF:1.280000,
827884807354874-index10026.png
#EXTINF:4.360000,
827884807354874-index10027.png
#EXTINF:1.800000,
827884807354874-index10028.png
#EXTINF:1.520000,
827884807354874-index10029.png
#EXTINF:1.200000,
827884807354874-index10030.png
#EXTINF:1.520000,
827884807354874-index10031.png
#EXTINF:1.080000,
827884807354874-index10032.png
#EXTINF:4.960000,
827884807354874-index10033.png
#EXTINF:2.600000,
827884807354874-index10034.png
#EXTINF:2.480000,
827884807354874-index10035.png
#EXTINF:1.800000,
827884807354874-index10036.png
#EXTINF:3.000000,
827884807354874-index10037.png
#EXTINF:2.280000,
827884807354874-index10038.png
#EXTINF:1.440000,
827884807354874-index10039.png
#EXTINF:4.760000,
827884807354874-index10040.png
#EXTINF:1.760000,
827884807354874-index10041.png
#EXTINF:3.560000,
827884807354874-index10042.png
#EXTINF:2.800000,
827884807354874-index10043.png
#EXTINF:1.760000,
827884807354874-index10044.png
#EXTINF:1.400000,
827884807354874-index10045.png
#EXTINF:1.040000,
827884807354874-index10046.png
#EXTINF:1.400000,
827884807354874-index10047.png
#EXTINF:1.000000,
827884807354874-index10048.png
#EXTINF:4.640000,
827884807354874-index10049.png
#EXTINF:1.320000,
827884807354874-index10050.png
#EXTINF:1.320000,
827884807354874-index10051.png
#EXTINF:1.080000,
827884807354874-index10052.png
#EXTINF:4.400000,
827884807354874-index10053.png
#EXTINF:2.240000,
827884807354874-index10054.png
#EXTINF:2.600000,
827884807354874-index10055.png
#EXTINF:1.960000,
827884807354874-index10056.png
#EXTINF:6.840000,
827884807354874-index10057.png
#EXTINF:3.640000,
827884807354874-index10058.png
#EXTINF:2.200000,
827884807354874-index10059.png
#EXTINF:7.080000,
827884807354874-index10060.png
#EXTINF:10.000000,
827884807354874-index10061.png
#EXTINF:7.400000,
827884807354874-index10062.png
#EXTINF:7.520000,
827884807354874-index10063.png
#EXTINF:2.960000,
827884807354874-index10064.png
#EXTINF:4.000000,
827884807354874-index10065.png
#EXTINF:6.120000,
827884807354874-index10066.png
#EXTINF:4.600000,
827884807354874-index10067.png
#EXTINF:3.800000,
827884807354874-index10068.png
#EXTINF:6.760000,
827884807354874-index10069.png
#EXTINF:2.280000,
827884807354874-index10070.png
#EXTINF:3.720000,
827884807354874-index10071.png
#EXTINF:2.160000,
827884807354874-index10072.png
#EXTINF:5.000000,
827884807354874-index10073.png
#EXTINF:3.400000,
827884807354874-index10074.png
#EXTINF:2.960000,
827884807354874-index10075.png
#EXTINF:3.640000,
827884807354874-index10076.png
#EXTINF:4.920000,
827884807354874-index10077.png
#EXTINF:5.080000,
827884807354874-index10078.png
#EXTINF:6.480000,
827884807354874-index10079.png
#EXTINF:3.720000,
827884807354874-index10080.png
#EXTINF:2.520000,
827884807354874-index10081.png
#EXTINF:1.760000,
827884807354874-index10082.png
#EXTINF:2.200000,
827884807354874-index10083.png
#EXTINF:2.920000,
827884807354874-index10084.png
#EXTINF:5.520000,
827884807354874-index10085.png
#EXTINF:9.280000,
827884807354874-index10086.png
#EXTINF:3.880000,
827884807354874-index10087.png
#EXTINF:6.600000,
827884807354874-index10088.png
#EXTINF:3.240000,
827884807354874-index10089.png
#EXTINF:2.880000,
827884807354874-index10090.png
#EXTINF:1.400000,
827884807354874-index10091.png
#EXTINF:1.960000,
827884807354874-index10092.png
#EXTINF:1.800000,
827884807354874-index10093.png
#EXTINF:1.600000,
827884807354874-index10094.png
#EXTINF:1.160000,
827884807354874-index10095.png
#EXTINF:5.120000,
827884807354874-index10096.png
#EXTINF:4.480000,
827884807354874-index10097.png
#EXTINF:2.360000,
827884807354874-index10098.png
#EXTINF:3.400000,
827884807354874-index10099.png
#EXTINF:2.520000,
827884807354874-index10100.png
#EXTINF:1.680000,
827884807354874-index10101.png
#EXTINF:1.880000,
827884807354874-index10102.png
#EXTINF:2.200000,
827884807354874-index10103.png
#EXTINF:1.920000,
827884807354874-index10104.png
#EXTINF:2.200000,
827884807354874-index10105.png
#EXTINF:3.600000,
827884807354874-index10106.png
#EXTINF:3.040000,
827884807354874-index10107.png
#EXTINF:3.400000,
827884807354874-index10108.png
#EXTINF:7.760000,
827884807354874-index10109.png
#EXTINF:5.760000,
827884807354874-index10110.png
#EXTINF:6.800000,
827884807354874-index10111.png
#EXTINF:3.400000,
827884807354874-index10112.png
#EXTINF:1.760000,
827884807354874-index10113.png
#EXTINF:7.280000,
827884807354874-index10114.png
#EXTINF:3.280000,
827884807354874-index10115.png
#EXTINF:6.960000,
827884807354874-index10116.png
#EXTINF:2.560000,
827884807354874-index10117.png
#EXTINF:3.360000,
827884807354874-index10118.png
#EXTINF:6.600000,
827884807354874-index10119.png
#EXTINF:2.320000,
827884807354874-index10120.png
#EXTINF:1.640000,
827884807354874-index10121.png
#EXTINF:3.280000,
827884807354874-index10122.png
#EXTINF:3.480000,
827884807354874-index10123.png
#EXTINF:2.160000,
827884807354874-index10124.png
#EXTINF:4.320000,
827884807354874-index10125.png
#EXTINF:1.760000,
827884807354874-index10126.png
#EXTINF:1.760000,
827884807354874-index10127.png
#EXTINF:2.560000,
827884807354874-index10128.png
#EXTINF:3.240000,
827884807354874-index10129.png
#EXTINF:8.240000,
827884807354874-index10130.png
#EXTINF:2.480000,
827884807354874-index10131.png
#EXTINF:5.360000,
827884807354874-index10132.png
#EXTINF:5.280000,
827884807354874-index10133.png
#EXTINF:5.360000,
827884807354874-index10134.png
#EXTINF:3.720000,
827884807354874-index10135.png
#EXTINF:3.440000,
827884807354874-index10136.png
#EXTINF:4.360000,
827884807354874-index10137.png
#EXTINF:2.680000,
827884807354874-index10138.png
#EXTINF:6.280000,
827884807354874-index10139.png
#EXTINF:7.280000,
827884807354874-index10140.png
#EXTINF:2.240000,
827884807354874-index10141.png
#EXTINF:6.360000,
827884807354874-index10142.png
#EXTINF:3.520000,
827884807354874-index10143.png
#EXTINF:4.080000,
827884807354874-index10144.png
#EXTINF:1.960000,
827884807354874-index10145.png
#EXTINF:3.120000,
827884807354874-index10146.png
#EXTINF:1.200000,
827884807354874-index10147.png
#EXTINF:4.800000,
827884807354874-index10148.png
#EXTINF:2.720000,
827884807354874-index10149.png
#EXTINF:3.480000,
827884807354874-index10150.png
#EXTINF:5.960000,
827884807354874-index10151.png
#EXTINF:3.560000,
827884807354874-index10152.png
#EXTINF:1.960000,
827884807354874-index10153.png
#EXTINF:4.600000,
827884807354874-index10154.png
#EXTINF:7.240000,
827884807354874-index10155.png
#EXTINF:5.320000,
827884807354874-index10156.png
#EXTINF:4.600000,
827884807354874-index10157.png
#EXTINF:2.280000,
827884807354874-index10158.png
#EXTINF:4.240000,
827884807354874-index10159.png
#EXTINF:2.640000,
827884807354874-index10160.png
#EXTINF:2.880000,
827884807354874-index10161.png
#EXTINF:2.520000,
827884807354874-index10162.png
#EXTINF:2.520000,
827884807354874-index10163.png
#EXTINF:4.880000,
827884807354874-index10164.png
#EXTINF:5.880000,
827884807354874-index10165.png
#EXTINF:4.720000,
827884807354874-index10166.png
#EXTINF:1.480000,
827884807354874-index10167.png
#EXTINF:1.320000,
827884807354874-index10168.png
#EXTINF:1.640000,
827884807354874-index10169.png
#EXTINF:1.600000,
827884807354874-index10170.png
#EXTINF:1.000000,
827884807354874-index10171.png
#EXTINF:2.520000,
827884807354874-index10172.png
#EXTINF:1.440000,
827884807354874-index10173.png
#EXTINF:3.040000,
827884807354874-index10174.png
#EXTINF:1.160000,
827884807354874-index10175.png
#EXTINF:6.160000,
827884807354874-index10176.png
#EXTINF:5.440000,
827884807354874-index10177.png
#EXTINF:10.000000,
827884807354874-index10178.png
#EXTINF:9.120000,
827884807354874-index10179.png
#EXTINF:8.640000,
827884807354874-index10180.png
#EXTINF:10.000000,
827884807354874-index10181.png
#EXTINF:10.000000,
827884807354874-index10182.png
#EXTINF:10.000000,
827884807354874-index10183.png
#EXTINF:7.720000,
827884807354874-index10184.png
#EXTINF:10.000000,
827884807354874-index10185.png
#EXTINF:10.000000,
827884807354874-index10186.png
#EXTINF:7.680000,
827884807354874-index10187.png
#EXTINF:8.360000,
827884807354874-index10188.png
#EXTINF:9.400000,
827884807354874-index10189.png
#EXTINF:10.000000,
827884807354874-index10190.png
#EXTINF:2.840000,
827884807354874-index10191.png
#EXT-X-ENDLIST
