#EXTM3U
#EXT-X-VERSION:3
#EXT-X-TARGETDURATION:11
#EXT-X-MEDIA-SEQUENCE:10001
#EXTINF:5.922978,
852840260085132-index10001.ts
#EXTINF:5.714422,
852840260085132-index10002.ts
#EXTINF:3.545444,
852840260085132-index10003.ts
#EXTINF:6.006400,
852840260085132-index10004.ts
#EXTINF:2.711222,
852840260085132-index10005.ts
#EXTINF:1.585022,
852840260085132-index10006.ts
#EXTINF:4.671644,
852840260085132-index10007.ts
#EXTINF:5.172178,
852840260085132-index10008.ts
#EXTINF:3.295178,
852840260085132-index10009.ts
#EXTINF:5.422444,
852840260085132-index10010.ts
#EXTINF:5.631000,
852840260085132-index10011.ts
#EXTINF:1.251333,
852840260085132-index10012.ts
#EXTINF:2.460956,
852840260085132-index10013.ts
#EXTINF:2.586089,
852840260085132-index10014.ts
#EXTINF:5.047044,
852840260085132-index10015.ts
#EXTINF:4.004267,
852840260085132-index10016.ts
#EXTINF:3.462022,
852840260085132-index10017.ts
#EXTINF:7.841689,
852840260085132-index10018.ts
#EXTINF:10.010667,
852840260085132-index10019.ts
#EXTINF:4.713356,
852840260085132-index10020.ts
#EXTINF:9.218156,
852840260085132-index10021.ts
#EXTINF:4.296244,
852840260085132-index10022.ts
#EXTINF:3.628867,
852840260085132-index10023.ts
#EXTINF:3.462022,
852840260085132-index10024.ts
#EXTINF:3.170044,
852840260085132-index10025.ts
#EXTINF:3.253467,
852840260085132-index10026.ts
#EXTINF:5.255600,
852840260085132-index10027.ts
#EXTINF:3.420311,
852840260085132-index10028.ts
#EXTINF:3.628867,
852840260085132-index10029.ts
#EXTINF:2.919778,
852840260085132-index10030.ts
#EXTINF:2.294111,
852840260085132-index10031.ts
#EXTINF:1.543311,
852840260085132-index10032.ts
#EXTINF:1.793578,
852840260085132-index10033.ts
#EXTINF:2.419244,
852840260085132-index10034.ts
#EXTINF:2.419244,
852840260085132-index10035.ts
#EXTINF:1.710156,
852840260085132-index10036.ts
#EXTINF:1.501600,
852840260085132-index10037.ts
#EXTINF:3.420311,
852840260085132-index10038.ts
#EXTINF:1.209622,
852840260085132-index10039.ts
#EXTINF:1.293044,
852840260085132-index10040.ts
#EXTINF:1.626733,
852840260085132-index10041.ts
#EXTINF:1.751867,
852840260085132-index10042.ts
#EXTINF:2.043844,
852840260085132-index10043.ts
#EXTINF:1.751867,
852840260085132-index10044.ts
#EXTINF:1.918711,
852840260085132-index10045.ts
#EXTINF:0.959356,
852840260085132-index10046.ts
#EXTINF:1.167911,
852840260085132-index10047.ts
#EXTINF:4.296244,
852840260085132-index10048.ts
#EXTINF:7.341156,
852840260085132-index10049.ts
#EXTINF:10.010667,
852840260085132-index10050.ts
#EXTINF:6.882333,
852840260085132-index10051.ts
#EXTINF:1.793578,
852840260085132-index10052.ts
#EXTINF:2.502667,
852840260085132-index10053.ts
#EXTINF:5.297311,
852840260085132-index10054.ts
#EXTINF:1.167911,
852840260085132-index10055.ts
#EXTINF:7.758267,
852840260085132-index10056.ts
#EXTINF:6.590356,
852840260085132-index10057.ts
#EXTINF:2.127267,
852840260085132-index10058.ts
#EXTINF:7.090889,
852840260085132-index10059.ts
#EXTINF:2.627800,
852840260085132-index10060.ts
#EXTINF:5.047044,
852840260085132-index10061.ts
#EXTINF:2.335822,
852840260085132-index10062.ts
#EXTINF:10.010667,
852840260085132-index10063.ts
#EXTINF:6.924044,
852840260085132-index10064.ts
#EXTINF:2.127267,
852840260085132-index10065.ts
#EXTINF:6.632067,
852840260085132-index10066.ts
#EXTINF:4.129400,
852840260085132-index10067.ts
#EXTINF:2.294111,
852840260085132-index10068.ts
#EXTINF:1.918711,
852840260085132-index10069.ts
#EXTINF:2.335822,
852840260085132-index10070.ts
#EXTINF:5.422444,
852840260085132-index10071.ts
#EXTINF:1.376467,
852840260085132-index10072.ts
#EXTINF:6.131533,
852840260085132-index10073.ts
#EXTINF:10.010667,
852840260085132-index10074.ts
#EXTINF:8.300511,
852840260085132-index10075.ts
#EXTINF:2.544378,
852840260085132-index10076.ts
#EXTINF:2.002133,
852840260085132-index10077.ts
#EXTINF:2.961489,
852840260085132-index10078.ts
#EXTINF:5.088756,
852840260085132-index10079.ts
#EXTINF:3.545444,
852840260085132-index10080.ts
#EXTINF:3.628867,
852840260085132-index10081.ts
#EXTINF:8.759333,
852840260085132-index10082.ts
#EXTINF:10.010667,
852840260085132-index10083.ts
#EXTINF:4.796778,
852840260085132-index10084.ts
#EXTINF:9.676978,
852840260085132-index10085.ts
#EXTINF:7.841689,
852840260085132-index10086.ts
#EXTINF:2.419244,
852840260085132-index10087.ts
#EXTINF:1.084489,
852840260085132-index10088.ts
#EXTINF:7.549711,
852840260085132-index10089.ts
#EXTINF:8.258800,
852840260085132-index10090.ts
#EXTINF:6.048111,
852840260085132-index10091.ts
#EXTINF:10.010667,
852840260085132-index10092.ts
#EXTINF:9.593556,
852840260085132-index10093.ts
#EXTINF:10.010667,
852840260085132-index10094.ts
#EXTINF:10.010667,
852840260085132-index10095.ts
#EXTINF:1.334756,
852840260085132-index10096.ts
#EXTINF:9.885533,
852840260085132-index10097.ts
#EXTINF:5.213889,
852840260085132-index10098.ts
#EXTINF:2.002133,
852840260085132-index10099.ts
#EXTINF:2.294111,
852840260085132-index10100.ts
#EXTINF:10.010667,
852840260085132-index10101.ts
#EXTINF:3.795711,
852840260085132-index10102.ts
#EXTINF:5.213889,
852840260085132-index10103.ts
#EXTINF:4.880200,
852840260085132-index10104.ts
#EXTINF:8.717622,
852840260085132-index10105.ts
#EXTINF:7.341156,
852840260085132-index10106.ts
#EXTINF:3.253467,
852840260085132-index10107.ts
#EXTINF:1.626733,
852840260085132-index10108.ts
#EXTINF:4.171111,
852840260085132-index10109.ts
#EXTINF:3.295178,
852840260085132-index10110.ts
#EXTINF:7.633133,
852840260085132-index10111.ts
#EXTINF:10.010667,
852840260085132-index10112.ts
#EXTINF:4.379667,
852840260085132-index10113.ts
#EXTINF:3.879133,
852840260085132-index10114.ts
#EXTINF:4.880200,
852840260085132-index10115.ts
#EXTINF:6.048111,
852840260085132-index10116.ts
#EXTINF:6.423511,
852840260085132-index10117.ts
#EXTINF:1.376467,
852840260085132-index10118.ts
#EXTINF:1.084489,
852840260085132-index10119.ts
#EXTINF:1.167911,
852840260085132-index10120.ts
#EXTINF:2.544378,
852840260085132-index10121.ts
#EXTINF:1.918711,
852840260085132-index10122.ts
#EXTINF:3.253467,
852840260085132-index10123.ts
#EXTINF:9.385000,
852840260085132-index10124.ts
#EXTINF:3.670578,
852840260085132-index10125.ts
#EXTINF:5.756133,
852840260085132-index10126.ts
#EXTINF:6.840622,
852840260085132-index10127.ts
#EXTINF:2.794644,
852840260085132-index10128.ts
#EXTINF:6.173244,
852840260085132-index10129.ts
#EXTINF:3.336889,
852840260085132-index10130.ts
#EXTINF:10.010667,
852840260085132-index10131.ts
#EXTINF:6.006400,
852840260085132-index10132.ts
#EXTINF:2.878067,
852840260085132-index10133.ts
#EXTINF:4.004267,
852840260085132-index10134.ts
#EXTINF:5.922978,
852840260085132-index10135.ts
#EXTINF:3.837422,
852840260085132-index10136.ts
#EXTINF:6.298378,
852840260085132-index10137.ts
#EXTINF:3.462022,
852840260085132-index10138.ts
#EXTINF:4.004267,
852840260085132-index10139.ts
#EXTINF:3.295178,
852840260085132-index10140.ts
#EXTINF:6.673778,
852840260085132-index10141.ts
#EXTINF:4.129400,
852840260085132-index10142.ts
#EXTINF:4.212822,
852840260085132-index10143.ts
#EXTINF:4.504800,
852840260085132-index10144.ts
#EXTINF:1.835289,
852840260085132-index10145.ts
#EXTINF:7.341156,
852840260085132-index10146.ts
#EXTINF:5.964689,
852840260085132-index10147.ts
#EXTINF:10.010667,
852840260085132-index10148.ts
#EXTINF:10.010667,
852840260085132-index10149.ts
#EXTINF:10.010667,
852840260085132-index10150.ts
#EXTINF:5.213889,
852840260085132-index10151.ts
#EXTINF:10.010667,
852840260085132-index10152.ts
#EXTINF:3.336889,
852840260085132-index10153.ts
#EXTINF:6.173244,
852840260085132-index10154.ts
#EXTINF:7.549711,
852840260085132-index10155.ts
#EXTINF:8.258800,
852840260085132-index10156.ts
#EXTINF:4.045978,
852840260085132-index10157.ts
#EXTINF:7.007467,
852840260085132-index10158.ts
#EXTINF:6.381800,
852840260085132-index10159.ts
#EXTINF:4.296244,
852840260085132-index10160.ts
#EXTINF:5.672711,
852840260085132-index10161.ts
#EXTINF:7.549711,
852840260085132-index10162.ts
#EXTINF:10.010667,
852840260085132-index10163.ts
#EXTINF:2.168978,
852840260085132-index10164.ts
#EXTINF:2.043844,
852840260085132-index10165.ts
#EXTINF:3.128333,
852840260085132-index10166.ts
#EXTINF:2.460956,
852840260085132-index10167.ts
#EXTINF:4.254533,
852840260085132-index10168.ts
#EXTINF:6.632067,
852840260085132-index10169.ts
#EXTINF:6.256667,
852840260085132-index10170.ts
#EXTINF:5.672711,
852840260085132-index10171.ts
#EXTINF:4.671644,
852840260085132-index10172.ts
#EXTINF:3.879133,
852840260085132-index10173.ts
#EXTINF:4.129400,
852840260085132-index10174.ts
#EXTINF:6.673778,
852840260085132-index10175.ts
#EXTINF:6.423511,
852840260085132-index10176.ts
#EXTINF:4.254533,
852840260085132-index10177.ts
#EXTINF:4.755067,
852840260085132-index10178.ts
#EXTINF:4.838489,
852840260085132-index10179.ts
#EXTINF:1.459889,
852840260085132-index10180.ts
#EXTINF:6.006400,
852840260085132-index10181.ts
#EXTINF:4.463089,
852840260085132-index10182.ts
#EXTINF:1.084489,
852840260085132-index10183.ts
#EXTINF:6.632067,
852840260085132-index10184.ts
#EXTINF:3.086622,
852840260085132-index10185.ts
#EXTINF:2.252400,
852840260085132-index10186.ts
#EXTINF:2.002133,
852840260085132-index10187.ts
#EXTINF:4.921911,
852840260085132-index10188.ts
#EXTINF:6.089822,
852840260085132-index10189.ts
#EXTINF:2.836356,
852840260085132-index10190.ts
#EXTINF:4.921911,
852840260085132-index10191.ts
#EXTINF:7.925111,
852840260085132-index10192.ts
#EXTINF:3.044911,
852840260085132-index10193.ts
#EXTINF:3.503733,
852840260085132-index10194.ts
#EXTINF:4.296244,
852840260085132-index10195.ts
#EXTINF:2.919778,
852840260085132-index10196.ts
#EXTINF:2.752933,
852840260085132-index10197.ts
#EXTINF:3.837422,
852840260085132-index10198.ts
#EXTINF:4.796778,
852840260085132-index10199.ts
#EXTINF:3.587156,
852840260085132-index10200.ts
#EXTINF:7.007467,
852840260085132-index10201.ts
#EXTINF:9.551844,
852840260085132-index10202.ts
#EXTINF:5.964689,
852840260085132-index10203.ts
#EXTINF:2.002133,
852840260085132-index10204.ts
#EXTINF:2.043844,
852840260085132-index10205.ts
#EXTINF:1.877000,
852840260085132-index10206.ts
#EXTINF:2.043844,
852840260085132-index10207.ts
#EXTINF:5.297311,
852840260085132-index10208.ts
#EXTINF:1.710156,
852840260085132-index10209.ts
#EXTINF:4.087689,
852840260085132-index10210.ts
#EXTINF:2.210689,
852840260085132-index10211.ts
#EXTINF:3.211756,
852840260085132-index10212.ts
#EXTINF:1.334756,
852840260085132-index10213.ts
#EXTINF:1.710156,
852840260085132-index10214.ts
#EXTINF:2.711222,
852840260085132-index10215.ts
#EXTINF:1.084489,
852840260085132-index10216.ts
#EXTINF:1.918711,
852840260085132-index10217.ts
#EXTINF:3.879133,
852840260085132-index10218.ts
#EXTINF:5.547578,
852840260085132-index10219.ts
#EXTINF:2.085556,
852840260085132-index10220.ts
#EXTINF:8.675911,
852840260085132-index10221.ts
#EXTINF:3.462022,
852840260085132-index10222.ts
#EXTINF:3.003200,
852840260085132-index10223.ts
#EXTINF:2.085556,
852840260085132-index10224.ts
#EXTINF:3.170044,
852840260085132-index10225.ts
#EXTINF:2.210689,
852840260085132-index10226.ts
#EXTINF:1.835289,
852840260085132-index10227.ts
#EXTINF:1.918711,
852840260085132-index10228.ts
#EXTINF:6.381800,
852840260085132-index10229.ts
#EXTINF:10.010667,
852840260085132-index10230.ts
#EXTINF:3.003200,
852840260085132-index10231.ts
#EXTINF:9.176444,
852840260085132-index10232.ts
#EXTINF:9.551844,
852840260085132-index10233.ts
#EXTINF:2.002133,
852840260085132-index10234.ts
#EXTINF:5.756133,
852840260085132-index10235.ts
#EXTINF:10.010667,
852840260085132-index10236.ts
#EXTINF:6.089822,
852840260085132-index10237.ts
#EXTINF:4.546511,
852840260085132-index10238.ts
#EXTINF:2.711222,
852840260085132-index10239.ts
#EXTINF:6.965756,
852840260085132-index10240.ts
#EXTINF:10.010667,
852840260085132-index10241.ts
#EXTINF:6.131533,
852840260085132-index10242.ts
#EXTINF:6.924044,
852840260085132-index10243.ts
#EXTINF:10.010667,
852840260085132-index10244.ts
#EXTINF:10.010667,
852840260085132-index10245.ts
#EXTINF:4.379667,
852840260085132-index10246.ts
#EXTINF:10.010667,
852840260085132-index10247.ts
#EXTINF:9.551844,
852840260085132-index10248.ts
#EXTINF:8.383933,
852840260085132-index10249.ts
#EXTINF:2.419244,
852840260085132-index10250.ts
#EXTINF:4.296244,
852840260085132-index10251.ts
#EXTINF:5.213889,
852840260085132-index10252.ts
#EXTINF:2.294111,
852840260085132-index10253.ts
#EXTINF:2.794644,
852840260085132-index10254.ts
#EXTINF:2.127267,
852840260085132-index10255.ts
#EXTINF:4.337956,
852840260085132-index10256.ts
#EXTINF:7.841689,
852840260085132-index10257.ts
#EXTINF:2.836356,
852840260085132-index10258.ts
#EXTINF:5.589289,
852840260085132-index10259.ts
#EXTINF:2.168978,
852840260085132-index10260.ts
#EXTINF:2.502667,
852840260085132-index10261.ts
#EXTINF:2.377533,
852840260085132-index10262.ts
#EXTINF:4.337956,
852840260085132-index10263.ts
#EXTINF:4.087689,
852840260085132-index10264.ts
#EXTINF:1.585022,
852840260085132-index10265.ts
#EXTINF:5.547578,
852840260085132-index10266.ts
#EXTINF:2.127267,
852840260085132-index10267.ts
#EXTINF:3.211756,
852840260085132-index10268.ts
#EXTINF:8.884467,
852840260085132-index10269.ts
#EXTINF:3.336889,
852840260085132-index10270.ts
#EXTINF:4.254533,
852840260085132-index10271.ts
#EXTINF:10.010667,
852840260085132-index10272.ts
#EXTINF:10.010667,
852840260085132-index10273.ts
#EXTINF:7.591422,
852840260085132-index10274.ts
#EXTINF:1.877000,
852840260085132-index10275.ts
#EXTINF:5.255600,
852840260085132-index10276.ts
#EXTINF:4.546511,
852840260085132-index10277.ts
#EXTINF:7.216022,
852840260085132-index10278.ts
#EXTINF:6.757200,
852840260085132-index10279.ts
#EXTINF:3.462022,
852840260085132-index10280.ts
#EXTINF:6.965756,
852840260085132-index10281.ts
#EXTINF:4.045978,
852840260085132-index10282.ts
#EXTINF:10.010667,
852840260085132-index10283.ts
#EXTINF:4.045978,
852840260085132-index10284.ts
#EXTINF:10.010667,
852840260085132-index10285.ts
#EXTINF:3.003200,
852840260085132-index10286.ts
#EXTINF:4.588222,
852840260085132-index10287.ts
#EXTINF:4.796778,
852840260085132-index10288.ts
#EXTINF:3.587156,
852840260085132-index10289.ts
#EXTINF:1.918711,
852840260085132-index10290.ts
#EXTINF:5.672711,
852840260085132-index10291.ts
#EXTINF:5.547578,
852840260085132-index10292.ts
#EXTINF:10.010667,
852840260085132-index10293.ts
#EXTINF:10.010667,
852840260085132-index10294.ts
#EXTINF:10.010667,
852840260085132-index10295.ts
#EXTINF:8.759333,
852840260085132-index10296.ts
#EXT-X-ENDLIST
