#EXTM3U
#EXT-X-VERSION:3
#EXT-X-TARGETDURATION:5
#EXT-X-MEDIA-SEQUENCE:10001
#EXTINF:5.000000,
858257910857598-index10001.png
#EXTINF:5.000000,
858257910857598-index10002.png
#EXTINF:5.000000,
858257910857598-index10003.png
#EXTINF:5.000000,
858257910857598-index10004.png
#EXTINF:5.000000,
858257910857598-index10005.png
#EXTINF:5.000000,
858257910857598-index10006.png
#EXTINF:5.000000,
858257910857598-index10007.png
#EXTINF:5.000000,
858257910857598-index10008.png
#EXTINF:5.000000,
858257910857598-index10009.png
#EXTINF:5.000000,
858257910857598-index10010.png
#EXTINF:5.000000,
858257910857598-index10011.png
#EXTINF:5.000000,
858257910857598-index10012.png
#EXTINF:5.000000,
858257910857598-index10013.png
#EXTINF:5.000000,
858257910857598-index10014.png
#EXTINF:5.000000,
858257910857598-index10015.png
#EXTINF:5.000000,
858257910857598-index10016.png
#EXTINF:5.000000,
858257910857598-index10017.png
#EXTINF:5.000000,
858257910857598-index10018.png
#EXTINF:5.000000,
858257910857598-index10019.png
#EXTINF:5.000000,
858257910857598-index10020.png
#EXTINF:5.000000,
858257910857598-index10021.png
#EXTINF:5.000000,
858257910857598-index10022.png
#EXTINF:5.000000,
858257910857598-index10023.png
#EXTINF:5.000000,
858257910857598-index10024.png
#EXTINF:5.000000,
858257910857598-index10025.png
#EXTINF:5.000000,
858257910857598-index10026.png
#EXTINF:5.000000,
858257910857598-index10027.png
#EXTINF:5.000000,
858257910857598-index10028.png
#EXTINF:5.000000,
858257910857598-index10029.png
#EXTINF:5.000000,
858257910857598-index10030.png
#EXTINF:5.000000,
858257910857598-index10031.png
#EXTINF:5.000000,
858257910857598-index10032.png
#EXTINF:5.000000,
858257910857598-index10033.png
#EXTINF:5.000000,
858257910857598-index10034.png
#EXTINF:5.000000,
858257910857598-index10035.png
#EXTINF:5.000000,
858257910857598-index10036.png
#EXTINF:5.000000,
858257910857598-index10037.png
#EXTINF:5.000000,
858257910857598-index10038.png
#EXTINF:5.000000,
858257910857598-index10039.png
#EXTINF:5.000000,
858257910857598-index10040.png
#EXTINF:5.000000,
858257910857598-index10041.png
#EXTINF:5.000000,
858257910857598-index10042.png
#EXTINF:5.000000,
858257910857598-index10043.png
#EXTINF:5.000000,
858257910857598-index10044.png
#EXTINF:5.000000,
858257910857598-index10045.png
#EXTINF:5.000000,
858257910857598-index10046.png
#EXTINF:5.000000,
858257910857598-index10047.png
#EXTINF:5.000000,
858257910857598-index10048.png
#EXTINF:5.000000,
858257910857598-index10049.png
#EXTINF:5.000000,
858257910857598-index10050.png
#EXTINF:5.000000,
858257910857598-index10051.png
#EXTINF:5.000000,
858257910857598-index10052.png
#EXTINF:5.000000,
858257910857598-index10053.png
#EXTINF:5.000000,
858257910857598-index10054.png
#EXTINF:5.000000,
858257910857598-index10055.png
#EXTINF:5.000000,
858257910857598-index10056.png
#EXTINF:5.000000,
858257910857598-index10057.png
#EXTINF:5.000000,
858257910857598-index10058.png
#EXTINF:5.000000,
858257910857598-index10059.png
#EXTINF:5.000000,
858257910857598-index10060.png
#EXTINF:5.000000,
858257910857598-index10061.png
#EXTINF:5.000000,
858257910857598-index10062.png
#EXTINF:5.000000,
858257910857598-index10063.png
#EXTINF:5.000000,
858257910857598-index10064.png
#EXTINF:5.000000,
858257910857598-index10065.png
#EXTINF:5.000000,
858257910857598-index10066.png
#EXTINF:5.000000,
858257910857598-index10067.png
#EXTINF:5.000000,
858257910857598-index10068.png
#EXTINF:5.000000,
858257910857598-index10069.png
#EXTINF:5.000000,
858257910857598-index10070.png
#EXTINF:5.000000,
858257910857598-index10071.png
#EXTINF:5.000000,
858257910857598-index10072.png
#EXTINF:5.000000,
858257910857598-index10073.png
#EXTINF:5.000000,
858257910857598-index10074.png
#EXTINF:5.000000,
858257910857598-index10075.png
#EXTINF:5.000000,
858257910857598-index10076.png
#EXTINF:5.000000,
858257910857598-index10077.png
#EXTINF:5.000000,
858257910857598-index10078.png
#EXTINF:5.000000,
858257910857598-index10079.png
#EXTINF:5.000000,
858257910857598-index10080.png
#EXTINF:5.000000,
858257910857598-index10081.png
#EXTINF:5.000000,
858257910857598-index10082.png
#EXTINF:5.000000,
858257910857598-index10083.png
#EXTINF:5.000000,
858257910857598-index10084.png
#EXTINF:5.000000,
858257910857598-index10085.png
#EXTINF:5.000000,
858257910857598-index10086.png
#EXTINF:5.000000,
858257910857598-index10087.png
#EXTINF:5.000000,
858257910857598-index10088.png
#EXTINF:5.000000,
858257910857598-index10089.png
#EXTINF:5.000000,
858257910857598-index10090.png
#EXTINF:5.000000,
858257910857598-index10091.png
#EXTINF:5.000000,
858257910857598-index10092.png
#EXTINF:5.000000,
858257910857598-index10093.png
#EXTINF:5.000000,
858257910857598-index10094.png
#EXTINF:5.000000,
858257910857598-index10095.png
#EXTINF:5.000000,
858257910857598-index10096.png
#EXTINF:5.000000,
858257910857598-index10097.png
#EXTINF:5.000000,
858257910857598-index10098.png
#EXTINF:5.000000,
858257910857598-index10099.png
#EXTINF:5.000000,
858257910857598-index10100.png
#EXTINF:5.000000,
858257910857598-index10101.png
#EXTINF:5.000000,
858257910857598-index10102.png
#EXTINF:5.000000,
858257910857598-index10103.png
#EXTINF:5.000000,
858257910857598-index10104.png
#EXTINF:5.000000,
858257910857598-index10105.png
#EXTINF:5.000000,
858257910857598-index10106.png
#EXTINF:5.000000,
858257910857598-index10107.png
#EXTINF:5.000000,
858257910857598-index10108.png
#EXTINF:5.000000,
858257910857598-index10109.png
#EXTINF:5.000000,
858257910857598-index10110.png
#EXTINF:5.000000,
858257910857598-index10111.png
#EXTINF:5.000000,
858257910857598-index10112.png
#EXTINF:5.000000,
858257910857598-index10113.png
#EXTINF:5.000000,
858257910857598-index10114.png
#EXTINF:5.000000,
858257910857598-index10115.png
#EXTINF:5.000000,
858257910857598-index10116.png
#EXTINF:5.000000,
858257910857598-index10117.png
#EXTINF:5.000000,
858257910857598-index10118.png
#EXTINF:5.000000,
858257910857598-index10119.png
#EXTINF:5.000000,
858257910857598-index10120.png
#EXTINF:5.000000,
858257910857598-index10121.png
#EXTINF:5.000000,
858257910857598-index10122.png
#EXTINF:5.000000,
858257910857598-index10123.png
#EXTINF:5.000000,
858257910857598-index10124.png
#EXTINF:5.000000,
858257910857598-index10125.png
#EXTINF:5.000000,
858257910857598-index10126.png
#EXTINF:5.000000,
858257910857598-index10127.png
#EXTINF:5.000000,
858257910857598-index10128.png
#EXTINF:5.000000,
858257910857598-index10129.png
#EXTINF:5.000000,
858257910857598-index10130.png
#EXTINF:5.000000,
858257910857598-index10131.png
#EXTINF:5.000000,
858257910857598-index10132.png
#EXTINF:5.000000,
858257910857598-index10133.png
#EXTINF:5.000000,
858257910857598-index10134.png
#EXTINF:5.000000,
858257910857598-index10135.png
#EXTINF:5.000000,
858257910857598-index10136.png
#EXTINF:5.000000,
858257910857598-index10137.png
#EXTINF:5.000000,
858257910857598-index10138.png
#EXTINF:5.000000,
858257910857598-index10139.png
#EXTINF:5.000000,
858257910857598-index10140.png
#EXTINF:5.000000,
858257910857598-index10141.png
#EXTINF:5.000000,
858257910857598-index10142.png
#EXTINF:5.000000,
858257910857598-index10143.png
#EXTINF:5.000000,
858257910857598-index10144.png
#EXTINF:5.000000,
858257910857598-index10145.png
#EXTINF:5.000000,
858257910857598-index10146.png
#EXTINF:5.000000,
858257910857598-index10147.png
#EXTINF:5.000000,
858257910857598-index10148.png
#EXTINF:5.000000,
858257910857598-index10149.png
#EXTINF:5.000000,
858257910857598-index10150.png
#EXTINF:5.000000,
858257910857598-index10151.png
#EXTINF:5.000000,
858257910857598-index10152.png
#EXTINF:5.000000,
858257910857598-index10153.png
#EXTINF:5.000000,
858257910857598-index10154.png
#EXTINF:5.000000,
858257910857598-index10155.png
#EXTINF:5.000000,
858257910857598-index10156.png
#EXTINF:5.000000,
858257910857598-index10157.png
#EXTINF:5.000000,
858257910857598-index10158.png
#EXTINF:5.000000,
858257910857598-index10159.png
#EXTINF:5.000000,
858257910857598-index10160.png
#EXTINF:5.000000,
858257910857598-index10161.png
#EXTINF:5.000000,
858257910857598-index10162.png
#EXTINF:5.000000,
858257910857598-index10163.png
#EXTINF:5.000000,
858257910857598-index10164.png
#EXTINF:5.000000,
858257910857598-index10165.png
#EXTINF:5.000000,
858257910857598-index10166.png
#EXTINF:5.000000,
858257910857598-index10167.png
#EXTINF:5.000000,
858257910857598-index10168.png
#EXTINF:5.000000,
858257910857598-index10169.png
#EXTINF:5.000000,
858257910857598-index10170.png
#EXTINF:5.000000,
858257910857598-index10171.png
#EXTINF:5.000000,
858257910857598-index10172.png
#EXTINF:5.000000,
858257910857598-index10173.png
#EXTINF:5.000000,
858257910857598-index10174.png
#EXTINF:5.000000,
858257910857598-index10175.png
#EXTINF:5.000000,
858257910857598-index10176.png
#EXTINF:5.000000,
858257910857598-index10177.png
#EXTINF:5.000000,
858257910857598-index10178.png
#EXTINF:5.000000,
858257910857598-index10179.png
#EXTINF:5.000000,
858257910857598-index10180.png
#EXTINF:5.000000,
858257910857598-index10181.png
#EXTINF:5.000000,
858257910857598-index10182.png
#EXTINF:5.000000,
858257910857598-index10183.png
#EXTINF:5.000000,
858257910857598-index10184.png
#EXTINF:5.000000,
858257910857598-index10185.png
#EXTINF:5.000000,
858257910857598-index10186.png
#EXTINF:5.000000,
858257910857598-index10187.png
#EXTINF:5.000000,
858257910857598-index10188.png
#EXTINF:5.000000,
858257910857598-index10189.png
#EXTINF:5.000000,
858257910857598-index10190.png
#EXTINF:5.000000,
858257910857598-index10191.png
#EXTINF:5.000000,
858257910857598-index10192.png
#EXTINF:5.000000,
858257910857598-index10193.png
#EXTINF:5.000000,
858257910857598-index10194.png
#EXTINF:5.000000,
858257910857598-index10195.png
#EXTINF:5.000000,
858257910857598-index10196.png
#EXTINF:5.000000,
858257910857598-index10197.png
#EXTINF:5.000000,
858257910857598-index10198.png
#EXTINF:5.000000,
858257910857598-index10199.png
#EXTINF:5.000000,
858257910857598-index10200.png
#EXTINF:5.000000,
858257910857598-index10201.png
#EXTINF:5.000000,
858257910857598-index10202.png
#EXTINF:5.000000,
858257910857598-index10203.png
#EXTINF:5.000000,
858257910857598-index10204.png
#EXTINF:5.000000,
858257910857598-index10205.png
#EXTINF:5.000000,
858257910857598-index10206.png
#EXTINF:5.000000,
858257910857598-index10207.png
#EXTINF:5.000000,
858257910857598-index10208.png
#EXTINF:5.000000,
858257910857598-index10209.png
#EXTINF:5.000000,
858257910857598-index10210.png
#EXTINF:5.000000,
858257910857598-index10211.png
#EXTINF:5.000000,
858257910857598-index10212.png
#EXTINF:5.000000,
858257910857598-index10213.png
#EXTINF:5.000000,
858257910857598-index10214.png
#EXTINF:5.000000,
858257910857598-index10215.png
#EXTINF:5.000000,
858257910857598-index10216.png
#EXTINF:5.000000,
858257910857598-index10217.png
#EXTINF:5.000000,
858257910857598-index10218.png
#EXTINF:5.000000,
858257910857598-index10219.png
#EXTINF:5.000000,
858257910857598-index10220.png
#EXTINF:5.000000,
858257910857598-index10221.png
#EXTINF:5.000000,
858257910857598-index10222.png
#EXTINF:5.000000,
858257910857598-index10223.png
#EXTINF:5.000000,
858257910857598-index10224.png
#EXTINF:5.000000,
858257910857598-index10225.png
#EXTINF:5.000000,
858257910857598-index10226.png
#EXTINF:5.000000,
858257910857598-index10227.png
#EXTINF:5.000000,
858257910857598-index10228.png
#EXTINF:5.000000,
858257910857598-index10229.png
#EXTINF:5.000000,
858257910857598-index10230.png
#EXTINF:5.000000,
858257910857598-index10231.png
#EXTINF:5.000000,
858257910857598-index10232.png
#EXTINF:5.000000,
858257910857598-index10233.png
#EXTINF:5.000000,
858257910857598-index10234.png
#EXTINF:5.000000,
858257910857598-index10235.png
#EXTINF:5.000000,
858257910857598-index10236.png
#EXTINF:5.000000,
858257910857598-index10237.png
#EXTINF:5.000000,
858257910857598-index10238.png
#EXTINF:5.000000,
858257910857598-index10239.png
#EXTINF:5.000000,
858257910857598-index10240.png
#EXTINF:5.000000,
858257910857598-index10241.png
#EXTINF:5.000000,
858257910857598-index10242.png
#EXTINF:5.000000,
858257910857598-index10243.png
#EXTINF:5.000000,
858257910857598-index10244.png
#EXTINF:5.000000,
858257910857598-index10245.png
#EXTINF:5.000000,
858257910857598-index10246.png
#EXTINF:5.000000,
858257910857598-index10247.png
#EXTINF:5.000000,
858257910857598-index10248.png
#EXTINF:5.000000,
858257910857598-index10249.png
#EXTINF:5.000000,
858257910857598-index10250.png
#EXTINF:5.000000,
858257910857598-index10251.png
#EXTINF:5.000000,
858257910857598-index10252.png
#EXTINF:5.000000,
858257910857598-index10253.png
#EXTINF:5.000000,
858257910857598-index10254.png
#EXTINF:5.000000,
858257910857598-index10255.png
#EXTINF:5.000000,
858257910857598-index10256.png
#EXTINF:5.000000,
858257910857598-index10257.png
#EXTINF:5.000000,
858257910857598-index10258.png
#EXTINF:5.000000,
858257910857598-index10259.png
#EXTINF:5.000000,
858257910857598-index10260.png
#EXTINF:5.000000,
858257910857598-index10261.png
#EXTINF:5.000000,
858257910857598-index10262.png
#EXTINF:5.000000,
858257910857598-index10263.png
#EXTINF:5.000000,
858257910857598-index10264.png
#EXTINF:5.000000,
858257910857598-index10265.png
#EXTINF:5.000000,
858257910857598-index10266.png
#EXTINF:5.000000,
858257910857598-index10267.png
#EXTINF:5.000000,
858257910857598-index10268.png
#EXTINF:5.000000,
858257910857598-index10269.png
#EXTINF:5.000000,
858257910857598-index10270.png
#EXTINF:5.000000,
858257910857598-index10271.png
#EXTINF:5.000000,
858257910857598-index10272.png
#EXTINF:5.000000,
858257910857598-index10273.png
#EXTINF:5.000000,
858257910857598-index10274.png
#EXTINF:5.000000,
858257910857598-index10275.png
#EXTINF:5.000000,
858257910857598-index10276.png
#EXTINF:5.000000,
858257910857598-index10277.png
#EXTINF:5.000000,
858257910857598-index10278.png
#EXTINF:5.000000,
858257910857598-index10279.png
#EXTINF:5.000000,
858257910857598-index10280.png
#EXTINF:5.000000,
858257910857598-index10281.png
#EXTINF:5.000000,
858257910857598-index10282.png
#EXTINF:5.000000,
858257910857598-index10283.png
#EXTINF:5.000000,
858257910857598-index10284.png
#EXTINF:5.000000,
858257910857598-index10285.png
#EXTINF:5.000000,
858257910857598-index10286.png
#EXTINF:5.000000,
858257910857598-index10287.png
#EXTINF:5.000000,
858257910857598-index10288.png
#EXTINF:5.000000,
858257910857598-index10289.png
#EXTINF:5.000000,
858257910857598-index10290.png
#EXTINF:5.000000,
858257910857598-index10291.png
#EXTINF:5.000000,
858257910857598-index10292.png
#EXTINF:5.000000,
858257910857598-index10293.png
#EXTINF:5.000000,
858257910857598-index10294.png
#EXTINF:5.000000,
858257910857598-index10295.png
#EXTINF:5.000000,
858257910857598-index10296.png
#EXTINF:5.000000,
858257910857598-index10297.png
#EXTINF:5.000000,
858257910857598-index10298.png
#EXTINF:5.000000,
858257910857598-index10299.png
#EXTINF:5.000000,
858257910857598-index10300.png
#EXTINF:5.000000,
858257910857598-index10301.png
#EXTINF:5.000000,
858257910857598-index10302.png
#EXTINF:5.000000,
858257910857598-index10303.png
#EXTINF:5.000000,
858257910857598-index10304.png
#EXTINF:5.000000,
858257910857598-index10305.png
#EXTINF:5.000000,
858257910857598-index10306.png
#EXTINF:5.000000,
858257910857598-index10307.png
#EXTINF:5.000000,
858257910857598-index10308.png
#EXTINF:5.000000,
858257910857598-index10309.png
#EXTINF:5.000000,
858257910857598-index10310.png
#EXTINF:5.000000,
858257910857598-index10311.png
#EXTINF:5.000000,
858257910857598-index10312.png
#EXTINF:5.000000,
858257910857598-index10313.png
#EXTINF:5.000000,
858257910857598-index10314.png
#EXTINF:5.000000,
858257910857598-index10315.png
#EXTINF:5.000000,
858257910857598-index10316.png
#EXTINF:5.000000,
858257910857598-index10317.png
#EXTINF:5.000000,
858257910857598-index10318.png
#EXTINF:5.000000,
858257910857598-index10319.png
#EXTINF:5.000000,
858257910857598-index10320.png
#EXTINF:5.000000,
858257910857598-index10321.png
#EXTINF:5.000000,
858257910857598-index10322.png
#EXTINF:5.000000,
858257910857598-index10323.png
#EXTINF:5.000000,
858257910857598-index10324.png
#EXTINF:5.000000,
858257910857598-index10325.png
#EXTINF:5.000000,
858257910857598-index10326.png
#EXTINF:5.000000,
858257910857598-index10327.png
#EXTINF:5.000000,
858257910857598-index10328.png
#EXTINF:5.000000,
858257910857598-index10329.png
#EXTINF:5.000000,
858257910857598-index10330.png
#EXTINF:5.000000,
858257910857598-index10331.png
#EXTINF:5.000000,
858257910857598-index10332.png
#EXTINF:5.000000,
858257910857598-index10333.png
#EXTINF:5.000000,
858257910857598-index10334.png
#EXTINF:5.000000,
858257910857598-index10335.png
#EXTINF:5.000000,
858257910857598-index10336.png
#EXTINF:5.000000,
858257910857598-index10337.png
#EXTINF:5.000000,
858257910857598-index10338.png
#EXTINF:5.000000,
858257910857598-index10339.png
#EXTINF:5.000000,
858257910857598-index10340.png
#EXTINF:5.000000,
858257910857598-index10341.png
#EXTINF:5.000000,
858257910857598-index10342.png
#EXTINF:5.000000,
858257910857598-index10343.png
#EXTINF:5.000000,
858257910857598-index10344.png
#EXTINF:5.000000,
858257910857598-index10345.png
#EXTINF:5.000000,
858257910857598-index10346.png
#EXTINF:5.000000,
858257910857598-index10347.png
#EXTINF:5.000000,
858257910857598-index10348.png
#EXTINF:5.000000,
858257910857598-index10349.png
#EXTINF:5.000000,
858257910857598-index10350.png
#EXTINF:5.000000,
858257910857598-index10351.png
#EXTINF:5.000000,
858257910857598-index10352.png
#EXTINF:5.000000,
858257910857598-index10353.png
#EXTINF:5.000000,
858257910857598-index10354.png
#EXTINF:5.000000,
858257910857598-index10355.png
#EXTINF:5.000000,
858257910857598-index10356.png
#EXTINF:5.000000,
858257910857598-index10357.png
#EXTINF:5.000000,
858257910857598-index10358.png
#EXTINF:5.000000,
858257910857598-index10359.png
#EXTINF:5.000000,
858257910857598-index10360.png
#EXTINF:5.000000,
858257910857598-index10361.png
#EXTINF:5.000000,
858257910857598-index10362.png
#EXTINF:5.000000,
858257910857598-index10363.png
#EXTINF:5.000000,
858257910857598-index10364.png
#EXTINF:5.000000,
858257910857598-index10365.png
#EXTINF:5.000000,
858257910857598-index10366.png
#EXTINF:5.000000,
858257910857598-index10367.png
#EXTINF:5.000000,
858257910857598-index10368.png
#EXTINF:5.000000,
858257910857598-index10369.png
#EXTINF:5.000000,
858257910857598-index10370.png
#EXTINF:5.000000,
858257910857598-index10371.png
#EXTINF:5.000000,
858257910857598-index10372.png
#EXTINF:5.000000,
858257910857598-index10373.png
#EXTINF:5.000000,
858257910857598-index10374.png
#EXTINF:5.000000,
858257910857598-index10375.png
#EXTINF:5.000000,
858257910857598-index10376.png
#EXTINF:5.000000,
858257910857598-index10377.png
#EXTINF:5.000000,
858257910857598-index10378.png
#EXTINF:5.000000,
858257910857598-index10379.png
#EXTINF:5.000000,
858257910857598-index10380.png
#EXTINF:5.000000,
858257910857598-index10381.png
#EXTINF:5.000000,
858257910857598-index10382.png
#EXTINF:5.000000,
858257910857598-index10383.png
#EXTINF:5.000000,
858257910857598-index10384.png
#EXTINF:5.000000,
858257910857598-index10385.png
#EXTINF:5.000000,
858257910857598-index10386.png
#EXTINF:5.000000,
858257910857598-index10387.png
#EXTINF:5.000000,
858257910857598-index10388.png
#EXTINF:5.000000,
858257910857598-index10389.png
#EXTINF:5.000000,
858257910857598-index10390.png
#EXTINF:5.000000,
858257910857598-index10391.png
#EXTINF:5.000000,
858257910857598-index10392.png
#EXTINF:5.000000,
858257910857598-index10393.png
#EXTINF:5.000000,
858257910857598-index10394.png
#EXTINF:5.000000,
858257910857598-index10395.png
#EXTINF:5.000000,
858257910857598-index10396.png
#EXTINF:5.000000,
858257910857598-index10397.png
#EXTINF:5.000000,
858257910857598-index10398.png
#EXTINF:5.000000,
858257910857598-index10399.png
#EXTINF:5.000000,
858257910857598-index10400.png
#EXTINF:5.000000,
858257910857598-index10401.png
#EXTINF:5.000000,
858257910857598-index10402.png
#EXTINF:5.000000,
858257910857598-index10403.png
#EXTINF:5.000000,
858257910857598-index10404.png
#EXTINF:5.000000,
858257910857598-index10405.png
#EXTINF:5.000000,
858257910857598-index10406.png
#EXTINF:5.000000,
858257910857598-index10407.png
#EXTINF:5.000000,
858257910857598-index10408.png
#EXTINF:5.000000,
858257910857598-index10409.png
#EXTINF:5.000000,
858257910857598-index10410.png
#EXTINF:5.000000,
858257910857598-index10411.png
#EXTINF:5.000000,
858257910857598-index10412.png
#EXTINF:5.000000,
858257910857598-index10413.png
#EXTINF:5.000000,
858257910857598-index10414.png
#EXTINF:5.000000,
858257910857598-index10415.png
#EXTINF:5.000000,
858257910857598-index10416.png
#EXTINF:5.000000,
858257910857598-index10417.png
#EXTINF:5.000000,
858257910857598-index10418.png
#EXTINF:5.000000,
858257910857598-index10419.png
#EXTINF:5.000000,
858257910857598-index10420.png
#EXTINF:5.000000,
858257910857598-index10421.png
#EXTINF:5.000000,
858257910857598-index10422.png
#EXTINF:5.000000,
858257910857598-index10423.png
#EXTINF:5.000000,
858257910857598-index10424.png
#EXTINF:5.000000,
858257910857598-index10425.png
#EXTINF:5.000000,
858257910857598-index10426.png
#EXTINF:5.000000,
858257910857598-index10427.png
#EXTINF:5.000000,
858257910857598-index10428.png
#EXTINF:5.000000,
858257910857598-index10429.png
#EXTINF:5.000000,
858257910857598-index10430.png
#EXTINF:5.000000,
858257910857598-index10431.png
#EXTINF:5.000000,
858257910857598-index10432.png
#EXTINF:5.000000,
858257910857598-index10433.png
#EXTINF:5.000000,
858257910857598-index10434.png
#EXTINF:5.000000,
858257910857598-index10435.png
#EXTINF:5.000000,
858257910857598-index10436.png
#EXTINF:5.000000,
858257910857598-index10437.png
#EXTINF:5.000000,
858257910857598-index10438.png
#EXTINF:5.000000,
858257910857598-index10439.png
#EXTINF:5.000000,
858257910857598-index10440.png
#EXTINF:5.000000,
858257910857598-index10441.png
#EXTINF:5.000000,
858257910857598-index10442.png
#EXTINF:5.000000,
858257910857598-index10443.png
#EXTINF:5.000000,
858257910857598-index10444.png
#EXTINF:5.000000,
858257910857598-index10445.png
#EXTINF:5.000000,
858257910857598-index10446.png
#EXTINF:5.000000,
858257910857598-index10447.png
#EXTINF:5.000000,
858257910857598-index10448.png
#EXTINF:5.000000,
858257910857598-index10449.png
#EXTINF:5.000000,
858257910857598-index10450.png
#EXTINF:5.000000,
858257910857598-index10451.png
#EXTINF:5.000000,
858257910857598-index10452.png
#EXTINF:5.000000,
858257910857598-index10453.png
#EXTINF:5.000000,
858257910857598-index10454.png
#EXTINF:5.000000,
858257910857598-index10455.png
#EXTINF:5.000000,
858257910857598-index10456.png
#EXTINF:5.000000,
858257910857598-index10457.png
#EXTINF:5.000000,
858257910857598-index10458.png
#EXTINF:5.000000,
858257910857598-index10459.png
#EXTINF:5.000000,
858257910857598-index10460.png
#EXTINF:5.000000,
858257910857598-index10461.png
#EXTINF:5.000000,
858257910857598-index10462.png
#EXTINF:5.000000,
858257910857598-index10463.png
#EXTINF:5.000000,
858257910857598-index10464.png
#EXTINF:5.000000,
858257910857598-index10465.png
#EXTINF:5.000000,
858257910857598-index10466.png
#EXTINF:5.000000,
858257910857598-index10467.png
#EXTINF:5.000000,
858257910857598-index10468.png
#EXTINF:5.000000,
858257910857598-index10469.png
#EXTINF:5.000000,
858257910857598-index10470.png
#EXTINF:5.000000,
858257910857598-index10471.png
#EXTINF:5.000000,
858257910857598-index10472.png
#EXTINF:5.000000,
858257910857598-index10473.png
#EXTINF:5.000000,
858257910857598-index10474.png
#EXTINF:5.000000,
858257910857598-index10475.png
#EXTINF:5.000000,
858257910857598-index10476.png
#EXTINF:5.000000,
858257910857598-index10477.png
#EXTINF:5.000000,
858257910857598-index10478.png
#EXTINF:5.000000,
858257910857598-index10479.png
#EXTINF:5.000000,
858257910857598-index10480.png
#EXTINF:5.000000,
858257910857598-index10481.png
#EXTINF:5.000000,
858257910857598-index10482.png
#EXTINF:5.000000,
858257910857598-index10483.png
#EXTINF:5.000000,
858257910857598-index10484.png
#EXTINF:5.000000,
858257910857598-index10485.png
#EXTINF:5.000000,
858257910857598-index10486.png
#EXTINF:5.000000,
858257910857598-index10487.png
#EXTINF:5.000000,
858257910857598-index10488.png
#EXTINF:5.000000,
858257910857598-index10489.png
#EXTINF:5.000000,
858257910857598-index10490.png
#EXTINF:5.000000,
858257910857598-index10491.png
#EXTINF:5.000000,
858257910857598-index10492.png
#EXTINF:5.000000,
858257910857598-index10493.png
#EXTINF:5.000000,
858257910857598-index10494.png
#EXTINF:5.000000,
858257910857598-index10495.png
#EXTINF:5.000000,
858257910857598-index10496.png
#EXTINF:5.000000,
858257910857598-index10497.png
#EXTINF:5.000000,
858257910857598-index10498.png
#EXTINF:5.000000,
858257910857598-index10499.png
#EXTINF:5.000000,
858257910857598-index10500.png
#EXTINF:5.000000,
858257910857598-index10501.png
#EXTINF:5.000000,
858257910857598-index10502.png
#EXTINF:5.000000,
858257910857598-index10503.png
#EXTINF:5.000000,
858257910857598-index10504.png
#EXTINF:5.000000,
858257910857598-index10505.png
#EXTINF:5.000000,
858257910857598-index10506.png
#EXTINF:5.000000,
858257910857598-index10507.png
#EXTINF:5.000000,
858257910857598-index10508.png
#EXTINF:5.000000,
858257910857598-index10509.png
#EXTINF:5.000000,
858257910857598-index10510.png
#EXTINF:5.000000,
858257910857598-index10511.png
#EXTINF:5.000000,
858257910857598-index10512.png
#EXTINF:5.000000,
858257910857598-index10513.png
#EXTINF:5.000000,
858257910857598-index10514.png
#EXTINF:5.000000,
858257910857598-index10515.png
#EXTINF:5.000000,
858257910857598-index10516.png
#EXTINF:5.000000,
858257910857598-index10517.png
#EXTINF:5.000000,
858257910857598-index10518.png
#EXTINF:5.000000,
858257910857598-index10519.png
#EXTINF:5.000000,
858257910857598-index10520.png
#EXTINF:5.000000,
858257910857598-index10521.png
#EXTINF:5.000000,
858257910857598-index10522.png
#EXTINF:5.000000,
858257910857598-index10523.png
#EXTINF:5.000000,
858257910857598-index10524.png
#EXTINF:5.000000,
858257910857598-index10525.png
#EXTINF:5.000000,
858257910857598-index10526.png
#EXTINF:5.000000,
858257910857598-index10527.png
#EXTINF:1.360000,
858257910857598-index10528.png
#EXT-X-ENDLIST
