#EXTM3U
#EXT-X-VERSION:3
#EXT-X-TARGETDURATION:11
#EXT-X-MEDIA-SEQUENCE:10001
#EXTINF:2.652144,
862271095315615-index10001.png
#EXTINF:7.999911,
862271095315615-index10002.png
#EXTINF:3.391267,
862271095315615-index10003.png
#EXTINF:2.347800,
862271095315615-index10004.png
#EXTINF:3.434744,
862271095315615-index10005.png
#EXTINF:2.999967,
862271095315615-index10006.png
#EXTINF:4.304300,
862271095315615-index10007.png
#EXTINF:4.173867,
862271095315615-index10008.png
#EXTINF:2.913011,
862271095315615-index10009.png
#EXTINF:2.913011,
862271095315615-index10010.png
#EXTINF:1.652156,
862271095315615-index10011.png
#EXTINF:1.217378,
862271095315615-index10012.png
#EXTINF:3.434744,
862271095315615-index10013.png
#EXTINF:1.695633,
862271095315615-index10014.png
#EXTINF:4.260822,
862271095315615-index10015.png
#EXTINF:2.999967,
862271095315615-index10016.png
#EXTINF:1.782589,
862271095315615-index10017.png
#EXTINF:2.478233,
862271095315615-index10018.png
#EXTINF:5.304289,
862271095315615-index10019.png
#EXTINF:6.652100,
862271095315615-index10020.png
#EXTINF:5.999933,
862271095315615-index10021.png
#EXTINF:3.260833,
862271095315615-index10022.png
#EXTINF:4.652122,
862271095315615-index10023.png
#EXTINF:10.869444,
862271095315615-index10024.png
#EXTINF:10.869444,
862271095315615-index10025.png
#EXTINF:1.999978,
862271095315615-index10026.png
#EXTINF:9.869456,
862271095315615-index10027.png
#EXTINF:8.825989,
862271095315615-index10028.png
#EXTINF:10.869444,
862271095315615-index10029.png
#EXTINF:10.869444,
862271095315615-index10030.png
#EXTINF:10.869444,
862271095315615-index10031.png
#EXTINF:3.521700,
862271095315615-index10032.png
#EXTINF:10.869444,
862271095315615-index10033.png
#EXTINF:7.304267,
862271095315615-index10034.png
#EXTINF:4.999944,
862271095315615-index10035.png
#EXTINF:5.478200,
862271095315615-index10036.png
#EXTINF:7.869478,
862271095315615-index10037.png
#EXTINF:6.260800,
862271095315615-index10038.png
#EXTINF:5.521678,
862271095315615-index10039.png
#EXTINF:2.869533,
862271095315615-index10040.png
#EXTINF:3.434744,
862271095315615-index10041.png
#EXTINF:5.652111,
862271095315615-index10042.png
#EXTINF:2.739100,
862271095315615-index10043.png
#EXTINF:10.869444,
862271095315615-index10044.png
#EXTINF:6.999922,
862271095315615-index10045.png
#EXTINF:5.782544,
862271095315615-index10046.png
#EXTINF:9.739022,
862271095315615-index10047.png
#EXTINF:3.217356,
862271095315615-index10048.png
#EXTINF:5.217333,
862271095315615-index10049.png
#EXTINF:7.695567,
862271095315615-index10050.png
#EXTINF:10.173800,
862271095315615-index10051.png
#EXTINF:6.739056,
862271095315615-index10052.png
#EXTINF:8.565122,
862271095315615-index10053.png
#EXTINF:10.869444,
862271095315615-index10054.png
#EXTINF:6.739056,
862271095315615-index10055.png
#EXTINF:9.304244,
862271095315615-index10056.png
#EXTINF:10.869444,
862271095315615-index10057.png
#EXTINF:10.739011,
862271095315615-index10058.png
#EXTINF:10.869444,
862271095315615-index10059.png
#EXTINF:4.173867,
862271095315615-index10060.png
#EXTINF:3.782567,
862271095315615-index10061.png
#EXTINF:3.304311,
862271095315615-index10062.png
#EXTINF:4.869511,
862271095315615-index10063.png
#EXTINF:8.521644,
862271095315615-index10064.png
#EXTINF:10.869444,
862271095315615-index10065.png
#EXTINF:10.869444,
862271095315615-index10066.png
#EXTINF:4.391256,
862271095315615-index10067.png
#EXTINF:1.782589,
862271095315615-index10068.png
#EXTINF:10.869444,
862271095315615-index10069.png
#EXTINF:5.652111,
862271095315615-index10070.png
#EXTINF:7.130356,
862271095315615-index10071.png
#EXTINF:2.478233,
862271095315615-index10072.png
#EXTINF:6.782533,
862271095315615-index10073.png
#EXTINF:3.347789,
862271095315615-index10074.png
#EXTINF:7.782522,
862271095315615-index10075.png
#EXTINF:8.130344,
862271095315615-index10076.png
#EXTINF:5.173856,
862271095315615-index10077.png
#EXTINF:3.521700,
862271095315615-index10078.png
#EXTINF:7.434700,
862271095315615-index10079.png
#EXTINF:1.913022,
862271095315615-index10080.png
#EXTINF:1.913022,
862271095315615-index10081.png
#EXTINF:5.521678,
862271095315615-index10082.png
#EXTINF:2.521711,
862271095315615-index10083.png
#EXTINF:1.391289,
862271095315615-index10084.png
#EXTINF:1.521722,
862271095315615-index10085.png
#EXTINF:3.043444,
862271095315615-index10086.png
#EXTINF:5.739067,
862271095315615-index10087.png
#EXTINF:7.608611,
862271095315615-index10088.png
#EXTINF:2.043456,
862271095315615-index10089.png
#EXTINF:5.434722,
862271095315615-index10090.png
#EXTINF:3.347789,
862271095315615-index10091.png
#EXTINF:4.782556,
862271095315615-index10092.png
#EXTINF:9.869456,
862271095315615-index10093.png
#EXTINF:5.869500,
862271095315615-index10094.png
#EXTINF:10.695533,
862271095315615-index10095.png
#EXTINF:5.173856,
862271095315615-index10096.png
#EXTINF:4.912989,
862271095315615-index10097.png
#EXTINF:1.999978,
862271095315615-index10098.png
#EXTINF:7.391222,
862271095315615-index10099.png
#EXTINF:4.912989,
862271095315615-index10100.png
#EXTINF:7.043400,
862271095315615-index10101.png
#EXTINF:1.913022,
862271095315615-index10102.png
#EXTINF:3.782567,
862271095315615-index10103.png
#EXTINF:1.478244,
862271095315615-index10104.png
#EXTINF:8.434689,
862271095315615-index10105.png
#EXT-X-ENDLIST
