#EXTM3U
#EXT-X-VERSION:3
#EXT-X-TARGETDURATION:11
#EXT-X-MEDIA-SEQUENCE:10001
#EXTINF:2.608667,
865832120594051-index10001.png
#EXTINF:2.826056,
865832120594051-index10002.png
#EXTINF:3.217356,
865832120594051-index10003.png
#EXTINF:10.869444,
865832120594051-index10004.png
#EXTINF:10.869444,
865832120594051-index10005.png
#EXTINF:10.825967,
865832120594051-index10006.png
#EXTINF:2.521711,
865832120594051-index10007.png
#EXTINF:1.217378,
865832120594051-index10008.png
#EXTINF:2.086933,
865832120594051-index10009.png
#EXTINF:3.478222,
865832120594051-index10010.png
#EXTINF:6.912967,
865832120594051-index10011.png
#EXTINF:2.608667,
865832120594051-index10012.png
#EXTINF:6.391233,
865832120594051-index10013.png
#EXTINF:2.739100,
865832120594051-index10014.png
#EXTINF:6.999922,
865832120594051-index10015.png
#EXTINF:7.260789,
865832120594051-index10016.png
#EXTINF:5.695589,
865832120594051-index10017.png
#EXTINF:6.347756,
865832120594051-index10018.png
#EXTINF:9.217289,
865832120594051-index10019.png
#EXTINF:8.391211,
865832120594051-index10020.png
#EXTINF:10.869444,
865832120594051-index10021.png
#EXTINF:10.869444,
865832120594051-index10022.png
#EXTINF:6.304278,
865832120594051-index10023.png
#EXTINF:9.478156,
865832120594051-index10024.png
#EXTINF:7.912956,
865832120594051-index10025.png
#EXTINF:7.173833,
865832120594051-index10026.png
#EXTINF:8.565122,
865832120594051-index10027.png
#EXTINF:10.869444,
865832120594051-index10028.png
#EXTINF:10.608578,
865832120594051-index10029.png
#EXTINF:9.043378,
865832120594051-index10030.png
#EXTINF:10.869444,
865832120594051-index10031.png
#EXTINF:10.869444,
865832120594051-index10032.png
#EXTINF:10.869444,
865832120594051-index10033.png
#EXTINF:10.043367,
865832120594051-index10034.png
#EXTINF:8.217300,
865832120594051-index10035.png
#EXTINF:10.869444,
865832120594051-index10036.png
#EXTINF:10.869444,
865832120594051-index10037.png
#EXTINF:10.869444,
865832120594051-index10038.png
#EXTINF:10.869444,
865832120594051-index10039.png
#EXTINF:10.869444,
865832120594051-index10040.png
#EXTINF:10.869444,
865832120594051-index10041.png
#EXTINF:10.869444,
865832120594051-index10042.png
#EXTINF:10.869444,
865832120594051-index10043.png
#EXTINF:10.869444,
865832120594051-index10044.png
#EXTINF:10.869444,
865832120594051-index10045.png
#EXTINF:10.086844,
865832120594051-index10046.png
#EXTINF:9.391200,
865832120594051-index10047.png
#EXTINF:9.652067,
865832120594051-index10048.png
#EXTINF:7.521656,
865832120594051-index10049.png
#EXTINF:9.260767,
865832120594051-index10050.png
#EXTINF:10.869444,
865832120594051-index10051.png
#EXTINF:10.869444,
865832120594051-index10052.png
#EXTINF:10.869444,
865832120594051-index10053.png
#EXTINF:10.608578,
865832120594051-index10054.png
#EXTINF:9.478156,
865832120594051-index10055.png
#EXTINF:2.652144,
865832120594051-index10056.png
#EXTINF:10.869444,
865832120594051-index10057.png
#EXTINF:10.869444,
865832120594051-index10058.png
#EXTINF:10.869444,
865832120594051-index10059.png
#EXTINF:10.869444,
865832120594051-index10060.png
#EXTINF:8.391211,
865832120594051-index10061.png
#EXTINF:10.869444,
865832120594051-index10062.png
#EXTINF:9.260767,
865832120594051-index10063.png
#EXTINF:7.869478,
865832120594051-index10064.png
#EXTINF:10.869444,
865832120594051-index10065.png
#EXTINF:9.260767,
865832120594051-index10066.png
#EXTINF:9.304244,
865832120594051-index10067.png
#EXTINF:10.869444,
865832120594051-index10068.png
#EXTINF:10.869444,
865832120594051-index10069.png
#EXTINF:7.956433,
865832120594051-index10070.png
#EXTINF:9.521633,
865832120594051-index10071.png
#EXTINF:6.912967,
865832120594051-index10072.png
#EXTINF:9.217289,
865832120594051-index10073.png
#EXTINF:6.217322,
865832120594051-index10074.png
#EXTINF:8.304256,
865832120594051-index10075.png
#EXTINF:5.304289,
865832120594051-index10076.png
#EXTINF:9.478156,
865832120594051-index10077.png
#EXTINF:3.652133,
865832120594051-index10078.png
#EXTINF:4.260822,
865832120594051-index10079.png
#EXTINF:5.782544,
865832120594051-index10080.png
#EXTINF:3.999956,
865832120594051-index10081.png
#EXTINF:10.565100,
865832120594051-index10082.png
#EXTINF:10.652056,
865832120594051-index10083.png
#EXTINF:5.304289,
865832120594051-index10084.png
#EXTINF:3.173878,
865832120594051-index10085.png
#EXTINF:4.260822,
865832120594051-index10086.png
#EXTINF:6.652100,
865832120594051-index10087.png
#EXTINF:4.652122,
865832120594051-index10088.png
#EXTINF:3.913000,
865832120594051-index10089.png
#EXTINF:8.521644,
865832120594051-index10090.png
#EXTINF:1.695633,
865832120594051-index10091.png
#EXTINF:3.782567,
865832120594051-index10092.png
#EXTINF:4.782556,
865832120594051-index10093.png
#EXTINF:3.347789,
865832120594051-index10094.png
#EXTINF:7.521656,
865832120594051-index10095.png
#EXTINF:10.869444,
865832120594051-index10096.png
#EXTINF:9.695544,
865832120594051-index10097.png
#EXTINF:3.478222,
865832120594051-index10098.png
#EXTINF:9.391200,
865832120594051-index10099.png
#EXTINF:4.260822,
865832120594051-index10100.png
#EXTINF:5.478200,
865832120594051-index10101.png
#EXTINF:2.695622,
865832120594051-index10102.png
#EXTINF:1.695633,
865832120594051-index10103.png
#EXTINF:1.826067,
865832120594051-index10104.png
#EXTINF:6.956444,
865832120594051-index10105.png
#EXTINF:5.782544,
865832120594051-index10106.png
#EXTINF:7.304267,
865832120594051-index10107.png
#EXTINF:10.869444,
865832120594051-index10108.png
#EXTINF:7.347744,
865832120594051-index10109.png
#EXTINF:8.739033,
865832120594051-index10110.png
#EXTINF:8.043389,
865832120594051-index10111.png
#EXTINF:10.869444,
865832120594051-index10112.png
#EXTINF:3.782567,
865832120594051-index10113.png
#EXTINF:7.956433,
865832120594051-index10114.png
#EXTINF:10.869444,
865832120594051-index10115.png
#EXTINF:10.869444,
865832120594051-index10116.png
#EXTINF:8.608600,
865832120594051-index10117.png
#EXTINF:4.869511,
865832120594051-index10118.png
#EXTINF:3.739089,
865832120594051-index10119.png
#EXTINF:4.521689,
865832120594051-index10120.png
#EXTINF:8.347733,
865832120594051-index10121.png
#EXTINF:10.869444,
865832120594051-index10122.png
#EXTINF:10.869444,
865832120594051-index10123.png
#EXTINF:7.999911,
865832120594051-index10124.png
#EXTINF:7.912956,
865832120594051-index10125.png
#EXTINF:6.217322,
865832120594051-index10126.png
#EXTINF:5.173856,
865832120594051-index10127.png
#EXTINF:5.608633,
865832120594051-index10128.png
#EXTINF:8.565122,
865832120594051-index10129.png
#EXTINF:8.086867,
865832120594051-index10130.png
#EXTINF:4.347778,
865832120594051-index10131.png
#EXTINF:5.043422,
865832120594051-index10132.png
#EXTINF:2.956489,
865832120594051-index10133.png
#EXTINF:5.173856,
865832120594051-index10134.png
#EXTINF:9.478156,
865832120594051-index10135.png
#EXTINF:8.304256,
865832120594051-index10136.png
#EXTINF:6.086889,
865832120594051-index10137.png
#EXTINF:10.869444,
865832120594051-index10138.png
#EXTINF:8.130344,
865832120594051-index10139.png
#EXTINF:8.086867,
865832120594051-index10140.png
#EXTINF:10.825967,
865832120594051-index10141.png
#EXTINF:5.304289,
865832120594051-index10142.png
#EXTINF:6.956444,
865832120594051-index10143.png
#EXTINF:5.304289,
865832120594051-index10144.png
#EXTINF:3.913000,
865832120594051-index10145.png
#EXTINF:3.086922,
865832120594051-index10146.png
#EXTINF:7.739044,
865832120594051-index10147.png
#EXTINF:8.478167,
865832120594051-index10148.png
#EXTINF:7.086878,
865832120594051-index10149.png
#EXTINF:2.217367,
865832120594051-index10150.png
#EXTINF:6.260800,
865832120594051-index10151.png
#EXTINF:3.956478,
865832120594051-index10152.png
#EXTINF:8.695556,
865832120594051-index10153.png
#EXTINF:5.652111,
865832120594051-index10154.png
#EXTINF:10.869444,
865832120594051-index10155.png
#EXTINF:4.565167,
865832120594051-index10156.png
#EXTINF:10.782489,
865832120594051-index10157.png
#EXTINF:10.608578,
865832120594051-index10158.png
#EXTINF:7.956433,
865832120594051-index10159.png
#EXTINF:5.478200,
865832120594051-index10160.png
#EXTINF:7.434700,
865832120594051-index10161.png
#EXTINF:9.478156,
865832120594051-index10162.png
#EXTINF:5.999933,
865832120594051-index10163.png
#EXTINF:3.130400,
865832120594051-index10164.png
#EXTINF:4.912989,
865832120594051-index10165.png
#EXTINF:3.999956,
865832120594051-index10166.png
#EXTINF:4.217344,
865832120594051-index10167.png
#EXTINF:3.913000,
865832120594051-index10168.png
#EXTINF:6.999922,
865832120594051-index10169.png
#EXTINF:5.217333,
865832120594051-index10170.png
#EXTINF:5.260811,
865832120594051-index10171.png
#EXTINF:5.782544,
865832120594051-index10172.png
#EXTINF:8.825989,
865832120594051-index10173.png
#EXTINF:7.260789,
865832120594051-index10174.png
#EXTINF:3.956478,
865832120594051-index10175.png
#EXTINF:8.043389,
865832120594051-index10176.png
#EXTINF:9.478156,
865832120594051-index10177.png
#EXTINF:6.782533,
865832120594051-index10178.png
#EXTINF:7.391222,
865832120594051-index10179.png
#EXTINF:8.695556,
865832120594051-index10180.png
#EXTINF:6.260800,
865832120594051-index10181.png
#EXTINF:10.869444,
865832120594051-index10182.png
#EXTINF:7.826000,
865832120594051-index10183.png
#EXTINF:5.999933,
865832120594051-index10184.png
#EXTINF:6.521667,
865832120594051-index10185.png
#EXTINF:10.869444,
865832120594051-index10186.png
#EXTINF:4.217344,
865832120594051-index10187.png
#EXTINF:10.869444,
865832120594051-index10188.png
#EXTINF:4.695600,
865832120594051-index10189.png
#EXTINF:4.043433,
865832120594051-index10190.png
#EXTINF:8.608600,
865832120594051-index10191.png
#EXTINF:7.347744,
865832120594051-index10192.png
#EXTINF:5.652111,
865832120594051-index10193.png
#EXTINF:6.608622,
865832120594051-index10194.png
#EXTINF:5.739067,
865832120594051-index10195.png
#EXTINF:10.869444,
865832120594051-index10196.png
#EXTINF:10.869444,
865832120594051-index10197.png
#EXTINF:10.869444,
865832120594051-index10198.png
#EXTINF:10.869444,
865832120594051-index10199.png
#EXTINF:10.869444,
865832120594051-index10200.png
#EXTINF:10.869444,
865832120594051-index10201.png
#EXTINF:10.869444,
865832120594051-index10202.png
#EXTINF:10.869444,
865832120594051-index10203.png
#EXTINF:10.869444,
865832120594051-index10204.png
#EXTINF:8.739033,
865832120594051-index10205.png
#EXTINF:9.260767,
865832120594051-index10206.png
#EXTINF:5.260811,
865832120594051-index10207.png
#EXTINF:0.130433,
865832120594051-index10208.png
#EXT-X-ENDLIST
