#EXTM3U
#EXT-X-VERSION:3
#EXT-X-TARGETDURATION:10
#EXT-X-MEDIA-SEQUENCE:10001
#EXTINF:7.120000,
872961659398343-index10001.png
#EXTINF:3.640000,
872961659398343-index10002.png
#EXTINF:4.080000,
872961659398343-index10003.png
#EXTINF:8.080000,
872961659398343-index10004.png
#EXTINF:8.560000,
872961659398343-index10005.png
#EXTINF:2.360000,
872961659398343-index10006.png
#EXTINF:2.560000,
872961659398343-index10007.png
#EXTINF:5.520000,
872961659398343-index10008.png
#EXTINF:2.960000,
872961659398343-index10009.png
#EXTINF:1.520000,
872961659398343-index10010.png
#EXTINF:1.880000,
872961659398343-index10011.png
#EXTINF:1.480000,
872961659398343-index10012.png
#EXTINF:3.880000,
872961659398343-index10013.png
#EXTINF:3.440000,
872961659398343-index10014.png
#EXTINF:2.720000,
872961659398343-index10015.png
#EXTINF:6.880000,
872961659398343-index10016.png
#EXTINF:7.040000,
872961659398343-index10017.png
#EXTINF:5.880000,
872961659398343-index10018.png
#EXTINF:6.480000,
872961659398343-index10019.png
#EXTINF:2.280000,
872961659398343-index10020.png
#EXTINF:5.440000,
872961659398343-index10021.png
#EXTINF:4.760000,
872961659398343-index10022.png
#EXTINF:4.440000,
872961659398343-index10023.png
#EXTINF:2.280000,
872961659398343-index10024.png
#EXTINF:6.440000,
872961659398343-index10025.png
#EXTINF:7.840000,
872961659398343-index10026.png
#EXTINF:7.280000,
872961659398343-index10027.png
#EXTINF:9.960000,
872961659398343-index10028.png
#EXTINF:5.120000,
872961659398343-index10029.png
#EXTINF:2.600000,
872961659398343-index10030.png
#EXTINF:5.280000,
872961659398343-index10031.png
#EXTINF:7.400000,
872961659398343-index10032.png
#EXTINF:9.920000,
872961659398343-index10033.png
#EXTINF:4.280000,
872961659398343-index10034.png
#EXTINF:9.520000,
872961659398343-index10035.png
#EXTINF:6.760000,
872961659398343-index10036.png
#EXTINF:3.960000,
872961659398343-index10037.png
#EXTINF:4.440000,
872961659398343-index10038.png
#EXTINF:3.120000,
872961659398343-index10039.png
#EXTINF:8.360000,
872961659398343-index10040.png
#EXTINF:2.960000,
872961659398343-index10041.png
#EXTINF:5.160000,
872961659398343-index10042.png
#EXTINF:2.160000,
872961659398343-index10043.png
#EXTINF:1.200000,
872961659398343-index10044.png
#EXTINF:10.000000,
872961659398343-index10045.png
#EXTINF:10.000000,
872961659398343-index10046.png
#EXTINF:1.720000,
872961659398343-index10047.png
#EXTINF:1.200000,
872961659398343-index10048.png
#EXTINF:6.600000,
872961659398343-index10049.png
#EXTINF:3.040000,
872961659398343-index10050.png
#EXTINF:3.640000,
872961659398343-index10051.png
#EXTINF:4.560000,
872961659398343-index10052.png
#EXTINF:10.000000,
872961659398343-index10053.png
#EXTINF:3.760000,
872961659398343-index10054.png
#EXTINF:6.040000,
872961659398343-index10055.png
#EXTINF:7.680000,
872961659398343-index10056.png
#EXTINF:1.080000,
872961659398343-index10057.png
#EXTINF:5.200000,
872961659398343-index10058.png
#EXTINF:1.040000,
872961659398343-index10059.png
#EXTINF:1.520000,
872961659398343-index10060.png
#EXTINF:1.400000,
872961659398343-index10061.png
#EXTINF:1.720000,
872961659398343-index10062.png
#EXTINF:3.520000,
872961659398343-index10063.png
#EXTINF:2.920000,
872961659398343-index10064.png
#EXTINF:1.920000,
872961659398343-index10065.png
#EXTINF:1.240000,
872961659398343-index10066.png
#EXTINF:4.680000,
872961659398343-index10067.png
#EXTINF:1.080000,
872961659398343-index10068.png
#EXTINF:1.480000,
872961659398343-index10069.png
#EXTINF:1.640000,
872961659398343-index10070.png
#EXTINF:3.160000,
872961659398343-index10071.png
#EXTINF:3.160000,
872961659398343-index10072.png
#EXTINF:1.160000,
872961659398343-index10073.png
#EXTINF:2.040000,
872961659398343-index10074.png
#EXTINF:3.440000,
872961659398343-index10075.png
#EXTINF:1.520000,
872961659398343-index10076.png
#EXTINF:2.720000,
872961659398343-index10077.png
#EXTINF:3.800000,
872961659398343-index10078.png
#EXTINF:1.040000,
872961659398343-index10079.png
#EXTINF:1.040000,
872961659398343-index10080.png
#EXTINF:1.240000,
872961659398343-index10081.png
#EXTINF:1.320000,
872961659398343-index10082.png
#EXTINF:1.360000,
872961659398343-index10083.png
#EXTINF:2.400000,
872961659398343-index10084.png
#EXTINF:1.480000,
872961659398343-index10085.png
#EXTINF:1.120000,
872961659398343-index10086.png
#EXTINF:9.080000,
872961659398343-index10087.png
#EXTINF:2.920000,
872961659398343-index10088.png
#EXTINF:4.240000,
872961659398343-index10089.png
#EXTINF:1.200000,
872961659398343-index10090.png
#EXTINF:1.720000,
872961659398343-index10091.png
#EXTINF:8.040000,
872961659398343-index10092.png
#EXTINF:1.720000,
872961659398343-index10093.png
#EXTINF:2.120000,
872961659398343-index10094.png
#EXTINF:1.000000,
872961659398343-index10095.png
#EXTINF:5.560000,
872961659398343-index10096.png
#EXTINF:3.440000,
872961659398343-index10097.png
#EXTINF:5.520000,
872961659398343-index10098.png
#EXTINF:3.280000,
872961659398343-index10099.png
#EXTINF:4.480000,
872961659398343-index10100.png
#EXTINF:1.280000,
872961659398343-index10101.png
#EXTINF:10.000000,
872961659398343-index10102.png
#EXTINF:2.000000,
872961659398343-index10103.png
#EXTINF:6.160000,
872961659398343-index10104.png
#EXTINF:5.240000,
872961659398343-index10105.png
#EXTINF:2.680000,
872961659398343-index10106.png
#EXTINF:4.760000,
872961659398343-index10107.png
#EXTINF:5.160000,
872961659398343-index10108.png
#EXTINF:3.680000,
872961659398343-index10109.png
#EXTINF:9.040000,
872961659398343-index10110.png
#EXTINF:1.080000,
872961659398343-index10111.png
#EXTINF:8.680000,
872961659398343-index10112.png
#EXTINF:1.320000,
872961659398343-index10113.png
#EXTINF:1.880000,
872961659398343-index10114.png
#EXTINF:5.960000,
872961659398343-index10115.png
#EXTINF:1.200000,
872961659398343-index10116.png
#EXTINF:2.680000,
872961659398343-index10117.png
#EXTINF:3.160000,
872961659398343-index10118.png
#EXTINF:7.240000,
872961659398343-index10119.png
#EXTINF:2.480000,
872961659398343-index10120.png
#EXTINF:3.520000,
872961659398343-index10121.png
#EXTINF:1.760000,
872961659398343-index10122.png
#EXTINF:1.000000,
872961659398343-index10123.png
#EXTINF:1.040000,
872961659398343-index10124.png
#EXTINF:3.400000,
872961659398343-index10125.png
#EXTINF:1.040000,
872961659398343-index10126.png
#EXTINF:6.520000,
872961659398343-index10127.png
#EXTINF:1.000000,
872961659398343-index10128.png
#EXTINF:1.840000,
872961659398343-index10129.png
#EXTINF:6.120000,
872961659398343-index10130.png
#EXTINF:10.000000,
872961659398343-index10131.png
#EXTINF:10.000000,
872961659398343-index10132.png
#EXT-X-ENDLIST
