#EXTM3U
#EXT-X-VERSION:3
#EXT-X-TARGETDURATION:11
#EXT-X-MEDIA-SEQUENCE:10001
#EXTINF:10.869444,
887962490320205-index10001.png
#EXTINF:10.260756,
887962490320205-index10002.png
#EXTINF:3.217356,
887962490320205-index10003.png
#EXTINF:1.304333,
887962490320205-index10004.png
#EXTINF:6.347756,
887962490320205-index10005.png
#EXTINF:5.652111,
887962490320205-index10006.png
#EXTINF:6.347756,
887962490320205-index10007.png
#EXTINF:3.173878,
887962490320205-index10008.png
#EXTINF:7.260789,
887962490320205-index10009.png
#EXTINF:2.999967,
887962490320205-index10010.png
#EXTINF:4.826033,
887962490320205-index10011.png
#EXTINF:6.652100,
887962490320205-index10012.png
#EXTINF:2.695622,
887962490320205-index10013.png
#EXTINF:1.826067,
887962490320205-index10014.png
#EXTINF:4.869511,
887962490320205-index10015.png
#EXTINF:4.043433,
887962490320205-index10016.png
#EXTINF:2.478233,
887962490320205-index10017.png
#EXTINF:4.086911,
887962490320205-index10018.png
#EXTINF:8.391211,
887962490320205-index10019.png
#EXTINF:9.260767,
887962490320205-index10020.png
#EXTINF:10.869444,
887962490320205-index10021.png
#EXTINF:10.869444,
887962490320205-index10022.png
#EXTINF:10.869444,
887962490320205-index10023.png
#EXTINF:7.869478,
887962490320205-index10024.png
#EXTINF:7.130356,
887962490320205-index10025.png
#EXTINF:9.652067,
887962490320205-index10026.png
#EXTINF:9.782500,
887962490320205-index10027.png
#EXTINF:4.043433,
887962490320205-index10028.png
#EXTINF:7.912956,
887962490320205-index10029.png
#EXTINF:4.173867,
887962490320205-index10030.png
#EXTINF:8.782511,
887962490320205-index10031.png
#EXTINF:5.608633,
887962490320205-index10032.png
#EXTINF:10.869444,
887962490320205-index10033.png
#EXTINF:9.043378,
887962490320205-index10034.png
#EXTINF:8.652078,
887962490320205-index10035.png
#EXTINF:10.869444,
887962490320205-index10036.png
#EXTINF:7.173833,
887962490320205-index10037.png
#EXTINF:3.869522,
887962490320205-index10038.png
#EXTINF:7.521656,
887962490320205-index10039.png
#EXTINF:10.869444,
887962490320205-index10040.png
#EXTINF:10.869444,
887962490320205-index10041.png
#EXTINF:8.086867,
887962490320205-index10042.png
#EXTINF:10.869444,
887962490320205-index10043.png
#EXTINF:10.869444,
887962490320205-index10044.png
#EXTINF:10.782489,
887962490320205-index10045.png
#EXTINF:10.869444,
887962490320205-index10046.png
#EXTINF:10.869444,
887962490320205-index10047.png
#EXTINF:10.869444,
887962490320205-index10048.png
#EXTINF:9.825978,
887962490320205-index10049.png
#EXTINF:10.869444,
887962490320205-index10050.png
#EXTINF:8.043389,
887962490320205-index10051.png
#EXTINF:9.695544,
887962490320205-index10052.png
#EXTINF:7.695567,
887962490320205-index10053.png
#EXTINF:8.695556,
887962490320205-index10054.png
#EXTINF:10.869444,
887962490320205-index10055.png
#EXTINF:6.826011,
887962490320205-index10056.png
#EXTINF:9.695544,
887962490320205-index10057.png
#EXTINF:9.347722,
887962490320205-index10058.png
#EXTINF:10.869444,
887962490320205-index10059.png
#EXTINF:10.869444,
887962490320205-index10060.png
#EXTINF:2.565189,
887962490320205-index10061.png
#EXTINF:10.869444,
887962490320205-index10062.png
#EXTINF:10.869444,
887962490320205-index10063.png
#EXTINF:8.999900,
887962490320205-index10064.png
#EXTINF:7.739044,
887962490320205-index10065.png
#EXTINF:8.347733,
887962490320205-index10066.png
#EXTINF:5.608633,
887962490320205-index10067.png
#EXTINF:5.912978,
887962490320205-index10068.png
#EXTINF:2.695622,
887962490320205-index10069.png
#EXTINF:4.608644,
887962490320205-index10070.png
#EXTINF:4.869511,
887962490320205-index10071.png
#EXTINF:4.739078,
887962490320205-index10072.png
#EXTINF:8.912944,
887962490320205-index10073.png
#EXTINF:7.999911,
887962490320205-index10074.png
#EXTINF:6.347756,
887962490320205-index10075.png
#EXTINF:2.869533,
887962490320205-index10076.png
#EXTINF:5.043422,
887962490320205-index10077.png
#EXTINF:2.347800,
887962490320205-index10078.png
#EXTINF:10.260756,
887962490320205-index10079.png
#EXTINF:1.608678,
887962490320205-index10080.png
#EXTINF:4.043433,
887962490320205-index10081.png
#EXTINF:3.217356,
887962490320205-index10082.png
#EXTINF:4.652122,
887962490320205-index10083.png
#EXTINF:3.391267,
887962490320205-index10084.png
#EXTINF:3.217356,
887962490320205-index10085.png
#EXTINF:8.478167,
887962490320205-index10086.png
#EXTINF:4.347778,
887962490320205-index10087.png
#EXTINF:2.695622,
887962490320205-index10088.png
#EXT-X-ENDLIST
