#EXTM3U
#EXT-X-VERSION:3
#EXT-X-TARGETDURATION:10
#EXT-X-MEDIA-SEQUENCE:10001
#EXTINF:8.680000,
900975992696152-index10001.png
#EXTINF:10.000000,
900975992696152-index10002.png
#EXTINF:10.000000,
900975992696152-index10003.png
#EXTINF:6.680000,
900975992696152-index10004.png
#EXTINF:5.720000,
900975992696152-index10005.png
#EXTINF:10.000000,
900975992696152-index10006.png
#EXTINF:5.440000,
900975992696152-index10007.png
#EXTINF:5.200000,
900975992696152-index10008.png
#EXTINF:5.760000,
900975992696152-index10009.png
#EXTINF:6.600000,
900975992696152-index10010.png
#EXTINF:8.840000,
900975992696152-index10011.png
#EXTINF:10.000000,
900975992696152-index10012.png
#EXTINF:8.920000,
900975992696152-index10013.png
#EXTINF:5.680000,
900975992696152-index10014.png
#EXTINF:7.160000,
900975992696152-index10015.png
#EXTINF:7.760000,
900975992696152-index10016.png
#EXTINF:10.000000,
900975992696152-index10017.png
#EXTINF:10.000000,
900975992696152-index10018.png
#EXTINF:10.000000,
900975992696152-index10019.png
#EXTINF:10.000000,
900975992696152-index10020.png
#EXTINF:10.000000,
900975992696152-index10021.png
#EXTINF:8.000000,
900975992696152-index10022.png
#EXTINF:9.520000,
900975992696152-index10023.png
#EXTINF:9.280000,
900975992696152-index10024.png
#EXTINF:9.920000,
900975992696152-index10025.png
#EXTINF:10.000000,
900975992696152-index10026.png
#EXTINF:9.520000,
900975992696152-index10027.png
#EXTINF:3.200000,
900975992696152-index10028.png
#EXTINF:10.000000,
900975992696152-index10029.png
#EXTINF:8.800000,
900975992696152-index10030.png
#EXTINF:6.240000,
900975992696152-index10031.png
#EXTINF:6.960000,
900975992696152-index10032.png
#EXTINF:6.600000,
900975992696152-index10033.png
#EXTINF:6.400000,
900975992696152-index10034.png
#EXTINF:10.000000,
900975992696152-index10035.png
#EXTINF:7.080000,
900975992696152-index10036.png
#EXTINF:10.000000,
900975992696152-index10037.png
#EXTINF:10.000000,
900975992696152-index10038.png
#EXTINF:2.520000,
900975992696152-index10039.png
#EXTINF:6.440000,
900975992696152-index10040.png
#EXTINF:6.840000,
900975992696152-index10041.png
#EXTINF:10.000000,
900975992696152-index10042.png
#EXTINF:8.480000,
900975992696152-index10043.png
#EXTINF:7.680000,
900975992696152-index10044.png
#EXTINF:7.160000,
900975992696152-index10045.png
#EXTINF:7.560000,
900975992696152-index10046.png
#EXTINF:10.000000,
900975992696152-index10047.png
#EXTINF:2.520000,
900975992696152-index10048.png
#EXTINF:10.000000,
900975992696152-index10049.png
#EXTINF:7.440000,
900975992696152-index10050.png
#EXTINF:10.000000,
900975992696152-index10051.png
#EXTINF:9.280000,
900975992696152-index10052.png
#EXTINF:10.000000,
900975992696152-index10053.png
#EXTINF:10.000000,
900975992696152-index10054.png
#EXTINF:10.000000,
900975992696152-index10055.png
#EXTINF:6.000000,
900975992696152-index10056.png
#EXTINF:8.120000,
900975992696152-index10057.png
#EXTINF:10.000000,
900975992696152-index10058.png
#EXTINF:6.120000,
900975992696152-index10059.png
#EXTINF:3.600000,
900975992696152-index10060.png
#EXTINF:7.000000,
900975992696152-index10061.png
#EXTINF:6.120000,
900975992696152-index10062.png
#EXTINF:10.000000,
900975992696152-index10063.png
#EXTINF:10.000000,
900975992696152-index10064.png
#EXTINF:10.000000,
900975992696152-index10065.png
#EXTINF:10.000000,
900975992696152-index10066.png
#EXTINF:9.160000,
900975992696152-index10067.png
#EXTINF:7.600000,
900975992696152-index10068.png
#EXTINF:3.680000,
900975992696152-index10069.png
#EXTINF:8.840000,
900975992696152-index10070.png
#EXTINF:10.000000,
900975992696152-index10071.png
#EXTINF:5.440000,
900975992696152-index10072.png
#EXTINF:7.840000,
900975992696152-index10073.png
#EXTINF:6.800000,
900975992696152-index10074.png
#EXTINF:10.000000,
900975992696152-index10075.png
#EXTINF:10.000000,
900975992696152-index10076.png
#EXTINF:10.000000,
900975992696152-index10077.png
#EXTINF:10.000000,
900975992696152-index10078.png
#EXTINF:5.040000,
900975992696152-index10079.png
#EXT-X-ENDLIST
