#EXTM3U
#EXT-X-VERSION:3
#EXT-X-TARGETDURATION:10
#EXT-X-MEDIA-SEQUENCE:10001
#EXTINF:6.800000,
926897140840689-index10001.png
#EXTINF:9.280000,
926897140840689-index10002.png
#EXTINF:10.000000,
926897140840689-index10003.png
#EXTINF:4.120000,
926897140840689-index10004.png
#EXTINF:7.960000,
926897140840689-index10005.png
#EXTINF:9.880000,
926897140840689-index10006.png
#EXTINF:6.800000,
926897140840689-index10007.png
#EXTINF:9.440000,
926897140840689-index10008.png
#EXTINF:5.880000,
926897140840689-index10009.png
#EXTINF:9.160000,
926897140840689-index10010.png
#EXTINF:3.720000,
926897140840689-index10011.png
#EXTINF:10.000000,
926897140840689-index10012.png
#EXTINF:10.000000,
926897140840689-index10013.png
#EXTINF:3.080000,
926897140840689-index10014.png
#EXTINF:10.000000,
926897140840689-index10015.png
#EXTINF:10.000000,
926897140840689-index10016.png
#EXTINF:10.000000,
926897140840689-index10017.png
#EXTINF:10.000000,
926897140840689-index10018.png
#EXTINF:8.400000,
926897140840689-index10019.png
#EXTINF:10.000000,
926897140840689-index10020.png
#EXTINF:8.000000,
926897140840689-index10021.png
#EXTINF:9.720000,
926897140840689-index10022.png
#EXTINF:8.560000,
926897140840689-index10023.png
#EXTINF:7.720000,
926897140840689-index10024.png
#EXTINF:8.640000,
926897140840689-index10025.png
#EXTINF:8.840000,
926897140840689-index10026.png
#EXTINF:5.040000,
926897140840689-index10027.png
#EXTINF:10.000000,
926897140840689-index10028.png
#EXTINF:5.120000,
926897140840689-index10029.png
#EXTINF:4.680000,
926897140840689-index10030.png
#EXTINF:5.000000,
926897140840689-index10031.png
#EXTINF:5.160000,
926897140840689-index10032.png
#EXTINF:10.000000,
926897140840689-index10033.png
#EXTINF:5.440000,
926897140840689-index10034.png
#EXTINF:8.520000,
926897140840689-index10035.png
#EXTINF:8.680000,
926897140840689-index10036.png
#EXTINF:7.240000,
926897140840689-index10037.png
#EXTINF:5.440000,
926897140840689-index10038.png
#EXTINF:7.760000,
926897140840689-index10039.png
#EXTINF:9.680000,
926897140840689-index10040.png
#EXTINF:10.000000,
926897140840689-index10041.png
#EXTINF:10.000000,
926897140840689-index10042.png
#EXTINF:9.160000,
926897140840689-index10043.png
#EXTINF:10.000000,
926897140840689-index10044.png
#EXTINF:10.000000,
926897140840689-index10045.png
#EXTINF:9.840000,
926897140840689-index10046.png
#EXTINF:7.760000,
926897140840689-index10047.png
#EXTINF:8.080000,
926897140840689-index10048.png
#EXTINF:8.760000,
926897140840689-index10049.png
#EXTINF:6.440000,
926897140840689-index10050.png
#EXTINF:9.480000,
926897140840689-index10051.png
#EXTINF:4.480000,
926897140840689-index10052.png
#EXTINF:10.000000,
926897140840689-index10053.png
#EXTINF:10.000000,
926897140840689-index10054.png
#EXTINF:8.000000,
926897140840689-index10055.png
#EXTINF:9.040000,
926897140840689-index10056.png
#EXTINF:7.800000,
926897140840689-index10057.png
#EXTINF:6.880000,
926897140840689-index10058.png
#EXTINF:7.920000,
926897140840689-index10059.png
#EXTINF:8.360000,
926897140840689-index10060.png
#EXTINF:10.000000,
926897140840689-index10061.png
#EXTINF:10.000000,
926897140840689-index10062.png
#EXTINF:10.000000,
926897140840689-index10063.png
#EXTINF:10.000000,
926897140840689-index10064.png
#EXTINF:10.000000,
926897140840689-index10065.png
#EXTINF:10.000000,
926897140840689-index10066.png
#EXTINF:9.440000,
926897140840689-index10067.png
#EXTINF:5.160000,
926897140840689-index10068.png
#EXTINF:10.000000,
926897140840689-index10069.png
#EXTINF:5.040000,
926897140840689-index10070.png
#EXTINF:4.960000,
926897140840689-index10071.png
#EXTINF:7.680000,
926897140840689-index10072.png
#EXTINF:8.160000,
926897140840689-index10073.png
#EXTINF:10.000000,
926897140840689-index10074.png
#EXTINF:6.120000,
926897140840689-index10075.png
#EXTINF:7.640000,
926897140840689-index10076.png
#EXTINF:10.000000,
926897140840689-index10077.png
#EXTINF:9.760000,
926897140840689-index10078.png
#EXTINF:10.000000,
926897140840689-index10079.png
#EXTINF:5.320000,
926897140840689-index10080.png
#EXTINF:8.360000,
926897140840689-index10081.png
#EXTINF:4.840000,
926897140840689-index10082.png
#EXTINF:8.800000,
926897140840689-index10083.png
#EXTINF:6.440000,
926897140840689-index10084.png
#EXTINF:10.000000,
926897140840689-index10085.png
#EXTINF:10.000000,
926897140840689-index10086.png
#EXTINF:5.520000,
926897140840689-index10087.png
#EXTINF:7.880000,
926897140840689-index10088.png
#EXTINF:8.240000,
926897140840689-index10089.png
#EXTINF:10.000000,
926897140840689-index10090.png
#EXTINF:6.760000,
926897140840689-index10091.png
#EXTINF:5.240000,
926897140840689-index10092.png
#EXTINF:8.520000,
926897140840689-index10093.png
#EXTINF:10.000000,
926897140840689-index10094.png
#EXTINF:6.080000,
926897140840689-index10095.png
#EXTINF:10.000000,
926897140840689-index10096.png
#EXTINF:8.560000,
926897140840689-index10097.png
#EXTINF:10.000000,
926897140840689-index10098.png
#EXTINF:10.000000,
926897140840689-index10099.png
#EXTINF:8.160000,
926897140840689-index10100.png
#EXTINF:10.000000,
926897140840689-index10101.png
#EXTINF:10.000000,
926897140840689-index10102.png
#EXTINF:10.000000,
926897140840689-index10103.png
#EXTINF:10.000000,
926897140840689-index10104.png
#EXTINF:10.000000,
926897140840689-index10105.png
#EXTINF:10.000000,
926897140840689-index10106.png
#EXTINF:10.000000,
926897140840689-index10107.png
#EXTINF:10.000000,
926897140840689-index10108.png
#EXTINF:10.000000,
926897140840689-index10109.png
#EXTINF:10.000000,
926897140840689-index10110.png
#EXTINF:10.000000,
926897140840689-index10111.png
#EXTINF:10.000000,
926897140840689-index10112.png
#EXTINF:6.000000,
926897140840689-index10113.png
#EXTINF:7.960000,
926897140840689-index10114.png
#EXTINF:8.000000,
926897140840689-index10115.png
#EXTINF:10.000000,
926897140840689-index10116.png
#EXTINF:5.720000,
926897140840689-index10117.png
#EXTINF:4.640000,
926897140840689-index10118.png
#EXTINF:10.000000,
926897140840689-index10119.png
#EXTINF:10.000000,
926897140840689-index10120.png
#EXTINF:6.040000,
926897140840689-index10121.png
#EXTINF:6.280000,
926897140840689-index10122.png
#EXTINF:10.000000,
926897140840689-index10123.png
#EXTINF:4.800000,
926897140840689-index10124.png
#EXTINF:10.000000,
926897140840689-index10125.png
#EXTINF:8.040000,
926897140840689-index10126.png
#EXTINF:10.000000,
926897140840689-index10127.png
#EXTINF:10.000000,
926897140840689-index10128.png
#EXTINF:10.000000,
926897140840689-index10129.png
#EXTINF:7.040000,
926897140840689-index10130.png
#EXTINF:8.240000,
926897140840689-index10131.png
#EXTINF:10.000000,
926897140840689-index10132.png
#EXTINF:10.000000,
926897140840689-index10133.png
#EXTINF:4.720000,
926897140840689-index10134.png
#EXTINF:7.680000,
926897140840689-index10135.png
#EXTINF:10.000000,
926897140840689-index10136.png
#EXTINF:10.000000,
926897140840689-index10137.png
#EXTINF:9.480000,
926897140840689-index10138.png
#EXTINF:10.000000,
926897140840689-index10139.png
#EXTINF:10.000000,
926897140840689-index10140.png
#EXTINF:10.000000,
926897140840689-index10141.png
#EXTINF:10.000000,
926897140840689-index10142.png
#EXTINF:10.000000,
926897140840689-index10143.png
#EXTINF:10.000000,
926897140840689-index10144.png
#EXTINF:10.000000,
926897140840689-index10145.png
#EXTINF:10.000000,
926897140840689-index10146.png
#EXTINF:10.000000,
926897140840689-index10147.png
#EXTINF:10.000000,
926897140840689-index10148.png
#EXTINF:10.000000,
926897140840689-index10149.png
#EXTINF:10.000000,
926897140840689-index10150.png
#EXTINF:10.000000,
926897140840689-index10151.png
#EXTINF:7.400000,
926897140840689-index10152.png
#EXTINF:10.000000,
926897140840689-index10153.png
#EXTINF:10.000000,
926897140840689-index10154.png
#EXTINF:10.000000,
926897140840689-index10155.png
#EXTINF:10.000000,
926897140840689-index10156.png
#EXTINF:10.000000,
926897140840689-index10157.png
#EXTINF:10.000000,
926897140840689-index10158.png
#EXTINF:10.000000,
926897140840689-index10159.png
#EXTINF:10.000000,
926897140840689-index10160.png
#EXTINF:7.520000,
926897140840689-index10161.png
#EXTINF:10.000000,
926897140840689-index10162.png
#EXTINF:10.000000,
926897140840689-index10163.png
#EXTINF:9.480000,
926897140840689-index10164.png
#EXTINF:10.000000,
926897140840689-index10165.png
#EXTINF:8.680000,
926897140840689-index10166.png
#EXTINF:6.760000,
926897140840689-index10167.png
#EXTINF:5.720000,
926897140840689-index10168.png
#EXTINF:9.640000,
926897140840689-index10169.png
#EXTINF:10.000000,
926897140840689-index10170.png
#EXTINF:10.000000,
926897140840689-index10171.png
#EXTINF:7.360000,
926897140840689-index10172.png
#EXTINF:10.000000,
926897140840689-index10173.png
#EXTINF:10.000000,
926897140840689-index10174.png
#EXTINF:10.000000,
926897140840689-index10175.png
#EXTINF:8.920000,
926897140840689-index10176.png
#EXTINF:9.280000,
926897140840689-index10177.png
#EXTINF:10.000000,
926897140840689-index10178.png
#EXTINF:10.000000,
926897140840689-index10179.png
#EXTINF:10.000000,
926897140840689-index10180.png
#EXTINF:10.000000,
926897140840689-index10181.png
#EXTINF:10.000000,
926897140840689-index10182.png
#EXTINF:10.000000,
926897140840689-index10183.png
#EXTINF:10.000000,
926897140840689-index10184.png
#EXTINF:7.080000,
926897140840689-index10185.png
#EXTINF:10.000000,
926897140840689-index10186.png
#EXTINF:10.000000,
926897140840689-index10187.png
#EXTINF:10.000000,
926897140840689-index10188.png
#EXTINF:10.000000,
926897140840689-index10189.png
#EXTINF:6.440000,
926897140840689-index10190.png
#EXTINF:10.000000,
926897140840689-index10191.png
#EXTINF:7.400000,
926897140840689-index10192.png
#EXTINF:10.000000,
926897140840689-index10193.png
#EXTINF:10.000000,
926897140840689-index10194.png
#EXTINF:10.000000,
926897140840689-index10195.png
#EXTINF:10.000000,
926897140840689-index10196.png
#EXTINF:10.000000,
926897140840689-index10197.png
#EXTINF:10.000000,
926897140840689-index10198.png
#EXTINF:10.000000,
926897140840689-index10199.png
#EXTINF:10.000000,
926897140840689-index10200.png
#EXTINF:10.000000,
926897140840689-index10201.png
#EXTINF:10.000000,
926897140840689-index10202.png
#EXTINF:10.000000,
926897140840689-index10203.png
#EXTINF:10.000000,
926897140840689-index10204.png
#EXTINF:10.000000,
926897140840689-index10205.png
#EXTINF:10.000000,
926897140840689-index10206.png
#EXTINF:10.000000,
926897140840689-index10207.png
#EXTINF:10.000000,
926897140840689-index10208.png
#EXTINF:10.000000,
926897140840689-index10209.png
#EXTINF:10.000000,
926897140840689-index10210.png
#EXTINF:10.000000,
926897140840689-index10211.png
#EXTINF:10.000000,
926897140840689-index10212.png
#EXTINF:10.000000,
926897140840689-index10213.png
#EXTINF:10.000000,
926897140840689-index10214.png
#EXTINF:10.000000,
926897140840689-index10215.png
#EXTINF:8.040000,
926897140840689-index10216.png
#EXT-X-ENDLIST
