#EXTM3U
#EXT-X-VERSION:3
#EXT-X-TARGETDURATION:9
#EXT-X-MEDIA-SEQUENCE:10001
#EXTINF:7.166600,
934058082186513-index10001.png
#EXTINF:3.753000,
934058082186513-index10002.png
#EXTINF:4.628700,
934058082186513-index10003.png
#EXTINF:6.546900,
934058082186513-index10004.png
#EXTINF:3.753000,
934058082186513-index10005.png
#EXTINF:7.506000,
934058082186513-index10006.png
#EXTINF:3.753000,
934058082186513-index10007.png
#EXTINF:3.753000,
934058082186513-index10008.png
#EXTINF:7.506000,
934058082186513-index10009.png
#EXTINF:3.753000,
934058082186513-index10010.png
#EXTINF:3.753000,
934058082186513-index10011.png
#EXTINF:7.506000,
934058082186513-index10012.png
#EXTINF:3.753000,
934058082186513-index10013.png
#EXTINF:3.753000,
934058082186513-index10014.png
#EXTINF:7.506000,
934058082186513-index10015.png
#EXTINF:3.753000,
934058082186513-index10016.png
#EXTINF:3.753000,
934058082186513-index10017.png
#EXTINF:6.004800,
934058082186513-index10018.png
#EXTINF:3.753000,
934058082186513-index10019.png
#EXTINF:5.504400,
934058082186513-index10020.png
#EXTINF:5.671200,
934058082186513-index10021.png
#EXTINF:3.753000,
934058082186513-index10022.png
#EXTINF:7.506000,
934058082186513-index10023.png
#EXTINF:3.753000,
934058082186513-index10024.png
#EXTINF:3.753000,
934058082186513-index10025.png
#EXTINF:5.921400,
934058082186513-index10026.png
#EXTINF:3.753000,
934058082186513-index10027.png
#EXTINF:7.506000,
934058082186513-index10028.png
#EXTINF:4.295100,
934058082186513-index10029.png
#EXTINF:3.753000,
934058082186513-index10030.png
#EXTINF:7.506000,
934058082186513-index10031.png
#EXTINF:4.545300,
934058082186513-index10032.png
#EXTINF:3.753000,
934058082186513-index10033.png
#EXTINF:3.753000,
934058082186513-index10034.png
#EXTINF:5.921400,
934058082186513-index10035.png
#EXTINF:3.753000,
934058082186513-index10036.png
#EXTINF:6.380100,
934058082186513-index10037.png
#EXTINF:3.753000,
934058082186513-index10038.png
#EXTINF:6.338400,
934058082186513-index10039.png
#EXTINF:3.753000,
934058082186513-index10040.png
#EXTINF:5.838000,
934058082186513-index10041.png
#EXTINF:5.045700,
934058082186513-index10042.png
#EXTINF:6.505200,
934058082186513-index10043.png
#EXTINF:3.753000,
934058082186513-index10044.png
#EXTINF:3.753000,
934058082186513-index10045.png
#EXTINF:4.920600,
934058082186513-index10046.png
#EXTINF:7.506000,
934058082186513-index10047.png
#EXTINF:3.669600,
934058082186513-index10048.png
#EXTINF:3.753000,
934058082186513-index10049.png
#EXTINF:7.506000,
934058082186513-index10050.png
#EXTINF:4.461900,
934058082186513-index10051.png
#EXTINF:3.753000,
934058082186513-index10052.png
#EXTINF:5.629500,
934058082186513-index10053.png
#EXTINF:3.753000,
934058082186513-index10054.png
#EXTINF:6.588600,
934058082186513-index10055.png
#EXTINF:3.753000,
934058082186513-index10056.png
#EXTINF:4.503600,
934058082186513-index10057.png
#EXTINF:6.004800,
934058082186513-index10058.png
#EXTINF:7.422600,
934058082186513-index10059.png
#EXTINF:2.668800,
934058082186513-index10060.png
#EXTINF:4.420200,
934058082186513-index10061.png
#EXTINF:4.962300,
934058082186513-index10062.png
#EXTINF:7.506000,
934058082186513-index10063.png
#EXTINF:3.753000,
934058082186513-index10064.png
#EXTINF:3.753000,
934058082186513-index10065.png
#EXTINF:4.545300,
934058082186513-index10066.png
#EXTINF:6.171600,
934058082186513-index10067.png
#EXTINF:3.753000,
934058082186513-index10068.png
#EXTINF:7.506000,
934058082186513-index10069.png
#EXTINF:6.171600,
934058082186513-index10070.png
#EXTINF:3.336000,
934058082186513-index10071.png
#EXTINF:4.086600,
934058082186513-index10072.png
#EXTINF:5.754600,
934058082186513-index10073.png
#EXTINF:5.170800,
934058082186513-index10074.png
#EXTINF:3.753000,
934058082186513-index10075.png
#EXTINF:5.170800,
934058082186513-index10076.png
#EXTINF:4.753800,
934058082186513-index10077.png
#EXTINF:7.506000,
934058082186513-index10078.png
#EXTINF:3.753000,
934058082186513-index10079.png
#EXTINF:3.753000,
934058082186513-index10080.png
#EXTINF:6.088200,
934058082186513-index10081.png
#EXTINF:3.753000,
934058082186513-index10082.png
#EXTINF:8.089800,
934058082186513-index10083.png
#EXTINF:3.753000,
934058082186513-index10084.png
#EXTINF:3.753000,
934058082186513-index10085.png
#EXTINF:5.295900,
934058082186513-index10086.png
#EXTINF:3.753000,
934058082186513-index10087.png
#EXTINF:7.506000,
934058082186513-index10088.png
#EXTINF:3.753000,
934058082186513-index10089.png
#EXTINF:3.753000,
934058082186513-index10090.png
#EXTINF:7.506000,
934058082186513-index10091.png
#EXTINF:3.336000,
934058082186513-index10092.png
#EXTINF:7.506000,
934058082186513-index10093.png
#EXTINF:3.753000,
934058082186513-index10094.png
#EXTINF:3.294300,
934058082186513-index10095.png
#EXTINF:7.506000,
934058082186513-index10096.png
#EXTINF:2.960700,
934058082186513-index10097.png
#EXTINF:7.506000,
934058082186513-index10098.png
#EXTINF:3.753000,
934058082186513-index10099.png
#EXTINF:3.753000,
934058082186513-index10100.png
#EXTINF:5.170800,
934058082186513-index10101.png
#EXTINF:3.753000,
934058082186513-index10102.png
#EXTINF:8.465100,
934058082186513-index10103.png
#EXTINF:3.753000,
934058082186513-index10104.png
#EXTINF:3.753000,
934058082186513-index10105.png
#EXTINF:6.505200,
934058082186513-index10106.png
#EXTINF:3.002400,
934058082186513-index10107.png
#EXTINF:6.838800,
934058082186513-index10108.png
#EXTINF:3.753000,
934058082186513-index10109.png
#EXTINF:7.506000,
934058082186513-index10110.png
#EXTINF:3.753000,
934058082186513-index10111.png
#EXTINF:3.753000,
934058082186513-index10112.png
#EXTINF:7.506000,
934058082186513-index10113.png
#EXTINF:3.753000,
934058082186513-index10114.png
#EXTINF:3.753000,
934058082186513-index10115.png
#EXTINF:7.506000,
934058082186513-index10116.png
#EXTINF:3.336000,
934058082186513-index10117.png
#EXTINF:3.753000,
934058082186513-index10118.png
#EXTINF:6.922200,
934058082186513-index10119.png
#EXTINF:3.753000,
934058082186513-index10120.png
#EXTINF:3.753000,
934058082186513-index10121.png
#EXTINF:6.546900,
934058082186513-index10122.png
#EXTINF:3.753000,
934058082186513-index10123.png
#EXTINF:6.421800,
934058082186513-index10124.png
#EXTINF:3.753000,
934058082186513-index10125.png
#EXTINF:5.796300,
934058082186513-index10126.png
#EXTINF:3.753000,
934058082186513-index10127.png
#EXTINF:7.506000,
934058082186513-index10128.png
#EXTINF:3.753000,
934058082186513-index10129.png
#EXTINF:7.089000,
934058082186513-index10130.png
#EXTINF:3.753000,
934058082186513-index10131.png
#EXTINF:3.753000,
934058082186513-index10132.png
#EXTINF:4.461900,
934058082186513-index10133.png
#EXTINF:7.047300,
934058082186513-index10134.png
#EXTINF:2.877300,
934058082186513-index10135.png
#EXTINF:4.753800,
934058082186513-index10136.png
#EXTINF:5.337600,
934058082186513-index10137.png
#EXTINF:5.796300,
934058082186513-index10138.png
#EXTINF:4.003200,
934058082186513-index10139.png
#EXTINF:7.130700,
934058082186513-index10140.png
#EXTINF:4.128300,
934058082186513-index10141.png
#EXTINF:3.753000,
934058082186513-index10142.png
#EXTINF:5.254200,
934058082186513-index10143.png
#EXTINF:5.921400,
934058082186513-index10144.png
#EXTINF:6.171600,
934058082186513-index10145.png
#EXTINF:3.753000,
934058082186513-index10146.png
#EXTINF:3.753000,
934058082186513-index10147.png
#EXTINF:7.506000,
934058082186513-index10148.png
#EXTINF:3.753000,
934058082186513-index10149.png
#EXTINF:3.753000,
934058082186513-index10150.png
#EXTINF:6.880500,
934058082186513-index10151.png
#EXTINF:4.628700,
934058082186513-index10152.png
#EXTINF:5.838000,
934058082186513-index10153.png
#EXTINF:5.421000,
934058082186513-index10154.png
#EXTINF:3.753000,
934058082186513-index10155.png
#EXTINF:3.753000,
934058082186513-index10156.png
#EXTINF:7.506000,
934058082186513-index10157.png
#EXTINF:5.546100,
934058082186513-index10158.png
#EXTINF:2.001600,
934058082186513-index10159.png
#EXTINF:7.506000,
934058082186513-index10160.png
#EXTINF:3.753000,
934058082186513-index10161.png
#EXTINF:3.961500,
934058082186513-index10162.png
#EXTINF:4.545300,
934058082186513-index10163.png
#EXTINF:6.296700,
934058082186513-index10164.png
#EXTINF:3.753000,
934058082186513-index10165.png
#EXTINF:5.295900,
934058082186513-index10166.png
#EXTINF:4.336800,
934058082186513-index10167.png
#EXTINF:7.506000,
934058082186513-index10168.png
#EXTINF:3.753000,
934058082186513-index10169.png
#EXTINF:3.753000,
934058082186513-index10170.png
#EXTINF:7.214100,
934058082186513-index10171.png
#EXTINF:2.960700,
934058082186513-index10172.png
#EXTINF:7.339200,
934058082186513-index10173.png
#EXTINF:3.919800,
934058082186513-index10174.png
#EXTINF:3.753000,
934058082186513-index10175.png
#EXTINF:6.505200,
934058082186513-index10176.png
#EXTINF:4.920600,
934058082186513-index10177.png
#EXTINF:3.753000,
934058082186513-index10178.png
#EXTINF:5.546100,
934058082186513-index10179.png
#EXTINF:5.004000,
934058082186513-index10180.png
#EXTINF:7.506000,
934058082186513-index10181.png
#EXTINF:2.335200,
934058082186513-index10182.png
#EXTINF:7.506000,
934058082186513-index10183.png
#EXTINF:2.752200,
934058082186513-index10184.png
#EXTINF:6.129900,
934058082186513-index10185.png
#EXTINF:3.753000,
934058082186513-index10186.png
#EXTINF:7.506000,
934058082186513-index10187.png
#EXTINF:3.753000,
934058082186513-index10188.png
#EXTINF:2.835600,
934058082186513-index10189.png
#EXTINF:7.130700,
934058082186513-index10190.png
#EXTINF:3.252600,
934058082186513-index10191.png
#EXTINF:7.506000,
934058082186513-index10192.png
#EXTINF:4.170000,
934058082186513-index10193.png
#EXTINF:3.753000,
934058082186513-index10194.png
#EXTINF:4.461900,
934058082186513-index10195.png
#EXTINF:7.506000,
934058082186513-index10196.png
#EXTINF:3.753000,
934058082186513-index10197.png
#EXTINF:3.753000,
934058082186513-index10198.png
#EXTINF:5.629500,
934058082186513-index10199.png
#EXTINF:5.045700,
934058082186513-index10200.png
#EXTINF:4.795500,
934058082186513-index10201.png
#EXTINF:7.339200,
934058082186513-index10202.png
#EXTINF:3.753000,
934058082186513-index10203.png
#EXTINF:3.711300,
934058082186513-index10204.png
#EXTINF:5.170800,
934058082186513-index10205.png
#EXTINF:6.463500,
934058082186513-index10206.png
#EXTINF:3.753000,
934058082186513-index10207.png
#EXTINF:6.922200,
934058082186513-index10208.png
#EXTINF:2.293500,
934058082186513-index10209.png
#EXTINF:7.297500,
934058082186513-index10210.png
#EXTINF:2.668800,
934058082186513-index10211.png
#EXTINF:6.296700,
934058082186513-index10212.png
#EXTINF:3.753000,
934058082186513-index10213.png
#EXTINF:5.212500,
934058082186513-index10214.png
#EXTINF:6.588600,
934058082186513-index10215.png
#EXTINF:4.003200,
934058082186513-index10216.png
#EXTINF:7.089000,
934058082186513-index10217.png
#EXTINF:3.502800,
934058082186513-index10218.png
#EXTINF:3.753000,
934058082186513-index10219.png
#EXTINF:4.837200,
934058082186513-index10220.png
#EXTINF:6.380100,
934058082186513-index10221.png
#EXTINF:4.628700,
934058082186513-index10222.png
#EXTINF:3.753000,
934058082186513-index10223.png
#EXTINF:6.171600,
934058082186513-index10224.png
#EXTINF:6.922200,
934058082186513-index10225.png
#EXTINF:1.959900,
934058082186513-index10226.png
#EXTINF:6.296700,
934058082186513-index10227.png
#EXTINF:7.005600,
934058082186513-index10228.png
#EXTINF:3.753000,
934058082186513-index10229.png
#EXTINF:3.753000,
934058082186513-index10230.png
#EXTINF:4.837200,
934058082186513-index10231.png
#EXTINF:7.506000,
934058082186513-index10232.png
#EXTINF:4.545300,
934058082186513-index10233.png
#EXTINF:3.753000,
934058082186513-index10234.png
#EXTINF:3.753000,
934058082186513-index10235.png
#EXTINF:5.254200,
934058082186513-index10236.png
#EXTINF:7.255800,
934058082186513-index10237.png
#EXTINF:3.753000,
934058082186513-index10238.png
#EXTINF:3.502800,
934058082186513-index10239.png
#EXTINF:7.506000,
934058082186513-index10240.png
#EXTINF:3.753000,
934058082186513-index10241.png
#EXTINF:3.753000,
934058082186513-index10242.png
#EXTINF:6.963900,
934058082186513-index10243.png
#EXTINF:3.753000,
934058082186513-index10244.png
#EXTINF:6.755400,
934058082186513-index10245.png
#EXTINF:3.753000,
934058082186513-index10246.png
#EXTINF:3.753000,
934058082186513-index10247.png
#EXTINF:6.046500,
934058082186513-index10248.png
#EXTINF:6.296700,
934058082186513-index10249.png
#EXTINF:3.753000,
934058082186513-index10250.png
#EXTINF:5.045700,
934058082186513-index10251.png
#EXTINF:4.128300,
934058082186513-index10252.png
#EXTINF:7.756200,
934058082186513-index10253.png
#EXTINF:3.753000,
934058082186513-index10254.png
#EXTINF:3.753000,
934058082186513-index10255.png
#EXTINF:5.129100,
934058082186513-index10256.png
#EXTINF:6.338400,
934058082186513-index10257.png
#EXTINF:3.127500,
934058082186513-index10258.png
#EXTINF:7.297500,
934058082186513-index10259.png
#EXTINF:3.753000,
934058082186513-index10260.png
#EXTINF:5.921400,
934058082186513-index10261.png
#EXTINF:3.753000,
934058082186513-index10262.png
#EXTINF:4.128300,
934058082186513-index10263.png
#EXTINF:7.506000,
934058082186513-index10264.png
#EXTINF:3.294300,
934058082186513-index10265.png
#EXTINF:5.587800,
934058082186513-index10266.png
#EXTINF:5.838000,
934058082186513-index10267.png
#EXTINF:5.379300,
934058082186513-index10268.png
#EXTINF:5.921400,
934058082186513-index10269.png
#EXTINF:2.251800,
934058082186513-index10270.png
#EXTINF:6.755400,
934058082186513-index10271.png
#EXTINF:3.753000,
934058082186513-index10272.png
#EXTINF:3.753000,
934058082186513-index10273.png
#EXTINF:7.506000,
934058082186513-index10274.png
#EXTINF:2.543700,
934058082186513-index10275.png
#EXTINF:5.504400,
934058082186513-index10276.png
#EXTINF:7.005600,
934058082186513-index10277.png
#EXTINF:3.753000,
934058082186513-index10278.png
#EXTINF:5.546100,
934058082186513-index10279.png
#EXTINF:3.753000,
934058082186513-index10280.png
#EXTINF:4.628700,
934058082186513-index10281.png
#EXTINF:8.048100,
934058082186513-index10282.png
#EXTINF:3.753000,
934058082186513-index10283.png
#EXTINF:6.380100,
934058082186513-index10284.png
#EXTINF:4.044900,
934058082186513-index10285.png
#EXTINF:3.753000,
934058082186513-index10286.png
#EXTINF:3.753000,
934058082186513-index10287.png
#EXTINF:6.421800,
934058082186513-index10288.png
#EXTINF:6.171600,
934058082186513-index10289.png
#EXTINF:4.920600,
934058082186513-index10290.png
#EXTINF:2.502000,
934058082186513-index10291.png
#EXTINF:5.671200,
934058082186513-index10292.png
#EXTINF:6.255000,
934058082186513-index10293.png
#EXTINF:3.753000,
934058082186513-index10294.png
#EXTINF:6.421800,
934058082186513-index10295.png
#EXTINF:3.753000,
934058082186513-index10296.png
#EXTINF:6.255000,
934058082186513-index10297.png
#EXTINF:3.044100,
934058082186513-index10298.png
#EXTINF:7.506000,
934058082186513-index10299.png
#EXTINF:3.753000,
934058082186513-index10300.png
#EXTINF:3.753000,
934058082186513-index10301.png
#EXTINF:7.506000,
934058082186513-index10302.png
#EXTINF:5.212500,
934058082186513-index10303.png
#EXTINF:5.504400,
934058082186513-index10304.png
#EXTINF:3.753000,
934058082186513-index10305.png
#EXTINF:2.752200,
934058082186513-index10306.png
#EXTINF:6.922200,
934058082186513-index10307.png
#EXTINF:3.753000,
934058082186513-index10308.png
#EXTINF:4.795500,
934058082186513-index10309.png
#EXTINF:7.506000,
934058082186513-index10310.png
#EXTINF:2.251800,
934058082186513-index10311.png
#EXTINF:7.506000,
934058082186513-index10312.png
#EXTINF:3.753000,
934058082186513-index10313.png
#EXTINF:3.753000,
934058082186513-index10314.png
#EXTINF:6.213300,
934058082186513-index10315.png
#EXTINF:3.753000,
934058082186513-index10316.png
#EXTINF:6.421800,
934058082186513-index10317.png
#EXTINF:5.963100,
934058082186513-index10318.png
#EXTINF:2.919000,
934058082186513-index10319.png
#EXTINF:5.254200,
934058082186513-index10320.png
#EXTINF:4.587000,
934058082186513-index10321.png
#EXTINF:5.879700,
934058082186513-index10322.png
#EXTINF:3.753000,
934058082186513-index10323.png
#EXTINF:6.338400,
934058082186513-index10324.png
#EXTINF:6.255000,
934058082186513-index10325.png
#EXTINF:3.753000,
934058082186513-index10326.png
#EXTINF:3.753000,
934058082186513-index10327.png
#EXTINF:8.006400,
934058082186513-index10328.png
#EXTINF:3.127500,
934058082186513-index10329.png
#EXTINF:3.753000,
934058082186513-index10330.png
#EXTINF:7.506000,
934058082186513-index10331.png
#EXTINF:3.753000,
934058082186513-index10332.png
#EXTINF:3.753000,
934058082186513-index10333.png
#EXTINF:8.715300,
934058082186513-index10334.png
#EXTINF:3.753000,
934058082186513-index10335.png
#EXTINF:3.753000,
934058082186513-index10336.png
#EXTINF:5.379300,
934058082186513-index10337.png
#EXTINF:3.753000,
934058082186513-index10338.png
#EXTINF:5.337600,
934058082186513-index10339.png
#EXTINF:6.546900,
934058082186513-index10340.png
#EXTINF:3.669600,
934058082186513-index10341.png
#EXTINF:5.421000,
934058082186513-index10342.png
#EXTINF:3.753000,
934058082186513-index10343.png
#EXTINF:7.506000,
934058082186513-index10344.png
#EXTINF:3.753000,
934058082186513-index10345.png
#EXTINF:3.753000,
934058082186513-index10346.png
#EXTINF:7.464300,
934058082186513-index10347.png
#EXTINF:3.753000,
934058082186513-index10348.png
#EXTINF:4.628700,
934058082186513-index10349.png
#EXTINF:5.546100,
934058082186513-index10350.png
#EXTINF:6.088200,
934058082186513-index10351.png
#EXTINF:3.753000,
934058082186513-index10352.png
#EXTINF:7.297500,
934058082186513-index10353.png
#EXTINF:3.753000,
934058082186513-index10354.png
#EXTINF:2.585400,
934058082186513-index10355.png
#EXTINF:5.421000,
934058082186513-index10356.png
#EXTINF:6.672000,
934058082186513-index10357.png
#EXTINF:3.794700,
934058082186513-index10358.png
#EXTINF:7.464300,
934058082186513-index10359.png
#EXTINF:2.585400,
934058082186513-index10360.png
#EXTINF:4.712100,
934058082186513-index10361.png
#EXTINF:7.506000,
934058082186513-index10362.png
#EXTINF:3.753000,
934058082186513-index10363.png
#EXTINF:3.753000,
934058082186513-index10364.png
#EXTINF:4.878900,
934058082186513-index10365.png
#EXTINF:5.754600,
934058082186513-index10366.png
#EXTINF:7.047300,
934058082186513-index10367.png
#EXTINF:1.918200,
934058082186513-index10368.png
#EXTINF:7.380900,
934058082186513-index10369.png
#EXTINF:3.753000,
934058082186513-index10370.png
#EXTINF:3.753000,
934058082186513-index10371.png
#EXTINF:6.129900,
934058082186513-index10372.png
#EXTINF:3.753000,
934058082186513-index10373.png
#EXTINF:7.297500,
934058082186513-index10374.png
#EXTINF:2.668800,
934058082186513-index10375.png
#EXTINF:5.587800,
934058082186513-index10376.png
#EXTINF:4.587000,
934058082186513-index10377.png
#EXTINF:5.921400,
934058082186513-index10378.png
#EXTINF:4.545300,
934058082186513-index10379.png
#EXTINF:6.505200,
934058082186513-index10380.png
#EXTINF:4.253400,
934058082186513-index10381.png
#EXTINF:3.919800,
934058082186513-index10382.png
#EXTINF:6.630300,
934058082186513-index10383.png
#EXTINF:3.753000,
934058082186513-index10384.png
#EXTINF:6.004800,
934058082186513-index10385.png
#EXTINF:3.753000,
934058082186513-index10386.png
#EXTINF:7.506000,
934058082186513-index10387.png
#EXTINF:3.753000,
934058082186513-index10388.png
#EXTINF:3.753000,
934058082186513-index10389.png
#EXTINF:4.753800,
934058082186513-index10390.png
#EXTINF:7.464300,
934058082186513-index10391.png
#EXTINF:2.627100,
934058082186513-index10392.png
#EXTINF:7.297500,
934058082186513-index10393.png
#EXTINF:3.461100,
934058082186513-index10394.png
#EXTINF:7.506000,
934058082186513-index10395.png
#EXTINF:3.753000,
934058082186513-index10396.png
#EXTINF:4.920600,
934058082186513-index10397.png
#EXTINF:3.753000,
934058082186513-index10398.png
#EXTINF:5.754600,
934058082186513-index10399.png
#EXTINF:3.753000,
934058082186513-index10400.png
#EXTINF:6.129900,
934058082186513-index10401.png
#EXTINF:3.627900,
934058082186513-index10402.png
#EXTINF:7.422600,
934058082186513-index10403.png
#EXTINF:3.085800,
934058082186513-index10404.png
#EXTINF:5.921400,
934058082186513-index10405.png
#EXTINF:3.753000,
934058082186513-index10406.png
#EXTINF:5.170800,
934058082186513-index10407.png
#EXTINF:4.837200,
934058082186513-index10408.png
#EXTINF:7.255800,
934058082186513-index10409.png
#EXTINF:3.753000,
934058082186513-index10410.png
#EXTINF:3.753000,
934058082186513-index10411.png
#EXTINF:4.920600,
934058082186513-index10412.png
#EXTINF:5.546100,
934058082186513-index10413.png
#EXTINF:6.296700,
934058082186513-index10414.png
#EXTINF:3.753000,
934058082186513-index10415.png
#EXTINF:7.506000,
934058082186513-index10416.png
#EXTINF:3.753000,
934058082186513-index10417.png
#EXTINF:5.462700,
934058082186513-index10418.png
#EXTINF:3.210900,
934058082186513-index10419.png
#EXTINF:7.506000,
934058082186513-index10420.png
#EXTINF:4.837200,
934058082186513-index10421.png
#EXTINF:5.421000,
934058082186513-index10422.png
#EXTINF:3.753000,
934058082186513-index10423.png
#EXTINF:6.463500,
934058082186513-index10424.png
#EXTINF:3.753000,
934058082186513-index10425.png
#EXTINF:5.295900,
934058082186513-index10426.png
#EXTINF:5.879700,
934058082186513-index10427.png
#EXTINF:1.626300,
934058082186513-index10428.png
#EXTINF:6.296700,
934058082186513-index10429.png
#EXTINF:3.502800,
934058082186513-index10430.png
#EXTINF:5.838000,
934058082186513-index10431.png
#EXTINF:4.211700,
934058082186513-index10432.png
#EXTINF:6.255000,
934058082186513-index10433.png
#EXTINF:3.753000,
934058082186513-index10434.png
#EXTINF:7.506000,
934058082186513-index10435.png
#EXTINF:3.753000,
934058082186513-index10436.png
#EXTINF:3.753000,
934058082186513-index10437.png
#EXTINF:6.046500,
934058082186513-index10438.png
#EXTINF:3.961500,
934058082186513-index10439.png
#EXTINF:7.214100,
934058082186513-index10440.png
#EXTINF:6.171600,
934058082186513-index10441.png
#EXTINF:2.543700,
934058082186513-index10442.png
#EXTINF:6.421800,
934058082186513-index10443.png
#EXTINF:2.502000,
934058082186513-index10444.png
#EXTINF:7.506000,
934058082186513-index10445.png
#EXTINF:3.210900,
934058082186513-index10446.png
#EXTINF:5.838000,
934058082186513-index10447.png
#EXTINF:3.753000,
934058082186513-index10448.png
#EXTINF:8.340000,
934058082186513-index10449.png
#EXTINF:3.753000,
934058082186513-index10450.png
#EXTINF:3.753000,
934058082186513-index10451.png
#EXTINF:7.506000,
934058082186513-index10452.png
#EXTINF:3.753000,
934058082186513-index10453.png
#EXTINF:3.753000,
934058082186513-index10454.png
#EXTINF:7.506000,
934058082186513-index10455.png
#EXTINF:3.753000,
934058082186513-index10456.png
#EXTINF:3.753000,
934058082186513-index10457.png
#EXTINF:5.629500,
934058082186513-index10458.png
#EXTINF:3.753000,
934058082186513-index10459.png
#EXTINF:4.461900,
934058082186513-index10460.png
#EXTINF:6.338400,
934058082186513-index10461.png
#EXTINF:5.337600,
934058082186513-index10462.png
#EXTINF:6.088200,
934058082186513-index10463.png
#EXTINF:3.836400,
934058082186513-index10464.png
#EXTINF:5.963100,
934058082186513-index10465.png
#EXTINF:3.753000,
934058082186513-index10466.png
#EXTINF:4.420200,
934058082186513-index10467.png
#EXTINF:5.129100,
934058082186513-index10468.png
#EXTINF:5.712900,
934058082186513-index10469.png
#EXTINF:4.753800,
934058082186513-index10470.png
#EXTINF:3.753000,
934058082186513-index10471.png
#EXTINF:7.255800,
934058082186513-index10472.png
#EXTINF:5.754600,
934058082186513-index10473.png
#EXTINF:3.169200,
934058082186513-index10474.png
#EXTINF:3.753000,
934058082186513-index10475.png
#EXTINF:7.255800,
934058082186513-index10476.png
#EXTINF:3.627900,
934058082186513-index10477.png
#EXTINF:5.045700,
934058082186513-index10478.png
#EXTINF:7.506000,
934058082186513-index10479.png
#EXTINF:1.918200,
934058082186513-index10480.png
#EXTINF:6.463500,
934058082186513-index10481.png
#EXTINF:6.213300,
934058082186513-index10482.png
#EXTINF:2.752200,
934058082186513-index10483.png
#EXTINF:7.506000,
934058082186513-index10484.png
#EXTINF:3.753000,
934058082186513-index10485.png
#EXTINF:3.753000,
934058082186513-index10486.png
#EXTINF:5.587800,
934058082186513-index10487.png
#EXTINF:4.461900,
934058082186513-index10488.png
#EXTINF:7.506000,
934058082186513-index10489.png
#EXTINF:2.126700,
934058082186513-index10490.png
#EXTINF:5.421000,
934058082186513-index10491.png
#EXTINF:7.422600,
934058082186513-index10492.png
#EXTINF:2.502000,
934058082186513-index10493.png
#EXTINF:5.212500,
934058082186513-index10494.png
#EXTINF:5.129100,
934058082186513-index10495.png
#EXTINF:6.546900,
934058082186513-index10496.png
#EXTINF:4.170000,
934058082186513-index10497.png
#EXTINF:3.753000,
934058082186513-index10498.png
#EXTINF:7.506000,
934058082186513-index10499.png
#EXTINF:3.753000,
934058082186513-index10500.png
#EXTINF:3.753000,
934058082186513-index10501.png
#EXTINF:4.878900,
934058082186513-index10502.png
#EXTINF:7.506000,
934058082186513-index10503.png
#EXTINF:3.753000,
934058082186513-index10504.png
#EXTINF:3.753000,
934058082186513-index10505.png
#EXTINF:7.506000,
934058082186513-index10506.png
#EXTINF:3.919800,
934058082186513-index10507.png
#EXTINF:3.753000,
934058082186513-index10508.png
#EXTINF:7.506000,
934058082186513-index10509.png
#EXTINF:3.586200,
934058082186513-index10510.png
#EXTINF:3.753000,
934058082186513-index10511.png
#EXTINF:6.088200,
934058082186513-index10512.png
#EXTINF:5.212500,
934058082186513-index10513.png
#EXTINF:4.837200,
934058082186513-index10514.png
#EXTINF:6.088200,
934058082186513-index10515.png
#EXTINF:3.169200,
934058082186513-index10516.png
#EXTINF:6.004800,
934058082186513-index10517.png
#EXTINF:3.377700,
934058082186513-index10518.png
#EXTINF:4.920600,
934058082186513-index10519.png
#EXTINF:5.712900,
934058082186513-index10520.png
#EXTINF:7.506000,
934058082186513-index10521.png
#EXTINF:1.834800,
934058082186513-index10522.png
#EXTINF:6.255000,
934058082186513-index10523.png
#EXTINF:5.629500,
934058082186513-index10524.png
#EXTINF:6.171600,
934058082186513-index10525.png
#EXTINF:2.043300,
934058082186513-index10526.png
#EXTINF:7.464300,
934058082186513-index10527.png
#EXTINF:4.837200,
934058082186513-index10528.png
#EXTINF:4.503600,
934058082186513-index10529.png
#EXTINF:5.671200,
934058082186513-index10530.png
#EXTINF:3.294300,
934058082186513-index10531.png
#EXTINF:3.753000,
934058082186513-index10532.png
#EXTINF:7.506000,
934058082186513-index10533.png
#EXTINF:3.753000,
934058082186513-index10534.png
#EXTINF:3.753000,
934058082186513-index10535.png
#EXTINF:4.920600,
934058082186513-index10536.png
#EXTINF:7.464300,
934058082186513-index10537.png
#EXTINF:3.753000,
934058082186513-index10538.png
#EXTINF:3.753000,
934058082186513-index10539.png
#EXTINF:6.505200,
934058082186513-index10540.png
#EXTINF:5.754600,
934058082186513-index10541.png
#EXTINF:3.127500,
934058082186513-index10542.png
#EXTINF:7.964700,
934058082186513-index10543.png
#EXTINF:3.377700,
934058082186513-index10544.png
#EXTINF:3.753000,
934058082186513-index10545.png
#EXTINF:6.713700,
934058082186513-index10546.png
#EXTINF:4.128300,
934058082186513-index10547.png
#EXTINF:6.338400,
934058082186513-index10548.png
#EXTINF:3.085800,
934058082186513-index10549.png
#EXTINF:4.587000,
934058082186513-index10550.png
#EXTINF:7.506000,
934058082186513-index10551.png
#EXTINF:3.753000,
934058082186513-index10552.png
#EXTINF:3.753000,
934058082186513-index10553.png
#EXTINF:7.506000,
934058082186513-index10554.png
#EXTINF:2.668800,
934058082186513-index10555.png
#EXTINF:5.921400,
934058082186513-index10556.png
#EXTINF:3.753000,
934058082186513-index10557.png
#EXTINF:7.339200,
934058082186513-index10558.png
#EXTINF:3.711300,
934058082186513-index10559.png
#EXTINF:4.837200,
934058082186513-index10560.png
#EXTINF:7.506000,
934058082186513-index10561.png
#EXTINF:3.753000,
934058082186513-index10562.png
#EXTINF:3.753000,
934058082186513-index10563.png
#EXTINF:7.506000,
934058082186513-index10564.png
#EXTINF:3.753000,
934058082186513-index10565.png
#EXTINF:3.753000,
934058082186513-index10566.png
#EXTINF:7.506000,
934058082186513-index10567.png
#EXTINF:3.753000,
934058082186513-index10568.png
#EXTINF:4.336800,
934058082186513-index10569.png
#EXTINF:6.421800,
934058082186513-index10570.png
#EXTINF:3.753000,
934058082186513-index10571.png
#EXTINF:3.753000,
934058082186513-index10572.png
#EXTINF:5.587800,
934058082186513-index10573.png
#EXTINF:3.753000,
934058082186513-index10574.png
#EXTINF:7.506000,
934058082186513-index10575.png
#EXTINF:3.753000,
934058082186513-index10576.png
#EXTINF:3.753000,
934058082186513-index10577.png
#EXTINF:7.464300,
934058082186513-index10578.png
#EXTINF:3.085800,
934058082186513-index10579.png
#EXTINF:7.506000,
934058082186513-index10580.png
#EXTINF:3.753000,
934058082186513-index10581.png
#EXTINF:6.046500,
934058082186513-index10582.png
#EXTINF:3.419400,
934058082186513-index10583.png
#EXTINF:3.753000,
934058082186513-index10584.png
#EXTINF:6.546900,
934058082186513-index10585.png
#EXTINF:5.421000,
934058082186513-index10586.png
#EXTINF:3.127500,
934058082186513-index10587.png
#EXTINF:6.338400,
934058082186513-index10588.png
#EXTINF:3.753000,
934058082186513-index10589.png
#EXTINF:6.255000,
934058082186513-index10590.png
#EXTINF:6.880500,
934058082186513-index10591.png
#EXTINF:5.212500,
934058082186513-index10592.png
#EXTINF:3.169200,
934058082186513-index10593.png
#EXTINF:5.004000,
934058082186513-index10594.png
#EXTINF:4.128300,
934058082186513-index10595.png
#EXTINF:7.506000,
934058082186513-index10596.png
#EXTINF:4.753800,
934058082186513-index10597.png
#EXTINF:3.753000,
934058082186513-index10598.png
#EXTINF:3.627900,
934058082186513-index10599.png
#EXTINF:6.296700,
934058082186513-index10600.png
#EXTINF:3.502800,
934058082186513-index10601.png
#EXTINF:4.712100,
934058082186513-index10602.png
#EXTINF:5.796300,
934058082186513-index10603.png
#EXTINF:7.214100,
934058082186513-index10604.png
#EXTINF:2.460300,
934058082186513-index10605.png
#EXTINF:7.506000,
934058082186513-index10606.png
#EXTINF:4.253400,
934058082186513-index10607.png
#EXTINF:3.753000,
934058082186513-index10608.png
#EXTINF:7.506000,
934058082186513-index10609.png
#EXTINF:4.628700,
934058082186513-index10610.png
#EXTINF:3.753000,
934058082186513-index10611.png
#EXTINF:3.753000,
934058082186513-index10612.png
#EXTINF:4.378500,
934058082186513-index10613.png
#EXTINF:6.505200,
934058082186513-index10614.png
#EXTINF:3.753000,
934058082186513-index10615.png
#EXTINF:5.671200,
934058082186513-index10616.png
#EXTINF:5.421000,
934058082186513-index10617.png
#EXTINF:5.087400,
934058082186513-index10618.png
#EXTINF:4.211700,
934058082186513-index10619.png
#EXTINF:5.337600,
934058082186513-index10620.png
#EXTINF:4.170000,
934058082186513-index10621.png
#EXTINF:4.837200,
934058082186513-index10622.png
#EXTINF:7.130700,
934058082186513-index10623.png
#EXTINF:6.004800,
934058082186513-index10624.png
#EXTINF:3.753000,
934058082186513-index10625.png
#EXTINF:6.672000,
934058082186513-index10626.png
#EXTINF:1.709700,
934058082186513-index10627.png
#EXTINF:7.506000,
934058082186513-index10628.png
#EXTINF:2.668800,
934058082186513-index10629.png
#EXTINF:6.088200,
934058082186513-index10630.png
#EXTINF:3.753000,
934058082186513-index10631.png
#EXTINF:7.506000,
934058082186513-index10632.png
#EXTINF:3.753000,
934058082186513-index10633.png
#EXTINF:3.753000,
934058082186513-index10634.png
#EXTINF:6.380100,
934058082186513-index10635.png
#EXTINF:3.753000,
934058082186513-index10636.png
#EXTINF:4.962300,
934058082186513-index10637.png
#EXTINF:4.670400,
934058082186513-index10638.png
#EXTINF:4.962300,
934058082186513-index10639.png
#EXTINF:5.838000,
934058082186513-index10640.png
#EXTINF:4.461900,
934058082186513-index10641.png
#EXTINF:7.506000,
934058082186513-index10642.png
#EXTINF:3.753000,
934058082186513-index10643.png
#EXTINF:3.336000,
934058082186513-index10644.png
#EXTINF:7.506000,
934058082186513-index10645.png
#EXTINF:3.753000,
934058082186513-index10646.png
#EXTINF:3.753000,
934058082186513-index10647.png
#EXTINF:5.504400,
934058082186513-index10648.png
#EXTINF:6.255000,
934058082186513-index10649.png
#EXTINF:6.296700,
934058082186513-index10650.png
#EXTINF:3.753000,
934058082186513-index10651.png
#EXTINF:3.753000,
934058082186513-index10652.png
#EXTINF:5.379300,
934058082186513-index10653.png
#EXTINF:6.755400,
934058082186513-index10654.png
#EXTINF:3.753000,
934058082186513-index10655.png
#EXTINF:7.172400,
934058082186513-index10656.png
#EXTINF:3.753000,
934058082186513-index10657.png
#EXTINF:4.670400,
934058082186513-index10658.png
#EXTINF:3.753000,
934058082186513-index10659.png
#EXTINF:5.796300,
934058082186513-index10660.png
#EXTINF:5.754600,
934058082186513-index10661.png
#EXTINF:4.420200,
934058082186513-index10662.png
#EXTINF:6.296700,
934058082186513-index10663.png
#EXTINF:5.337600,
934058082186513-index10664.png
#EXTINF:3.753000,
934058082186513-index10665.png
#EXTINF:6.088200,
934058082186513-index10666.png
#EXTINF:3.419400,
934058082186513-index10667.png
#EXTINF:3.753000,
934058082186513-index10668.png
#EXTINF:7.506000,
934058082186513-index10669.png
#EXTINF:3.753000,
934058082186513-index10670.png
#EXTINF:3.753000,
934058082186513-index10671.png
#EXTINF:7.506000,
934058082186513-index10672.png
#EXTINF:4.753800,
934058082186513-index10673.png
#EXTINF:4.670400,
934058082186513-index10674.png
#EXTINF:5.004000,
934058082186513-index10675.png
#EXTINF:3.753000,
934058082186513-index10676.png
#EXTINF:7.506000,
934058082186513-index10677.png
#EXTINF:2.126700,
934058082186513-index10678.png
#EXTINF:6.630300,
934058082186513-index10679.png
#EXTINF:3.753000,
934058082186513-index10680.png
#EXTINF:7.506000,
934058082186513-index10681.png
#EXTINF:3.002400,
934058082186513-index10682.png
#EXTINF:5.629500,
934058082186513-index10683.png
#EXTINF:3.753000,
934058082186513-index10684.png
#EXTINF:4.336800,
934058082186513-index10685.png
#EXTINF:7.506000,
934058082186513-index10686.png
#EXTINF:2.376900,
934058082186513-index10687.png
#EXTINF:4.920600,
934058082186513-index10688.png
#EXTINF:6.963900,
934058082186513-index10689.png
#EXTINF:3.753000,
934058082186513-index10690.png
#EXTINF:6.296700,
934058082186513-index10691.png
#EXTINF:3.753000,
934058082186513-index10692.png
#EXTINF:4.336800,
934058082186513-index10693.png
#EXTINF:5.671200,
934058082186513-index10694.png
#EXTINF:5.462700,
934058082186513-index10695.png
#EXTINF:3.502800,
934058082186513-index10696.png
#EXTINF:8.590200,
934058082186513-index10697.png
#EXTINF:2.752200,
934058082186513-index10698.png
#EXTINF:3.753000,
934058082186513-index10699.png
#EXTINF:6.588600,
934058082186513-index10700.png
#EXTINF:3.753000,
934058082186513-index10701.png
#EXTINF:5.671200,
934058082186513-index10702.png
#EXTINF:6.255000,
934058082186513-index10703.png
#EXTINF:3.753000,
934058082186513-index10704.png
#EXTINF:5.045700,
934058082186513-index10705.png
#EXTINF:4.170000,
934058082186513-index10706.png
#EXTINF:6.630300,
934058082186513-index10707.png
#EXTINF:3.753000,
934058082186513-index10708.png
#EXTINF:4.295100,
934058082186513-index10709.png
#EXTINF:7.631100,
934058082186513-index10710.png
#EXTINF:5.629500,
934058082186513-index10711.png
#EXTINF:4.336800,
934058082186513-index10712.png
#EXTINF:3.753000,
934058082186513-index10713.png
#EXTINF:5.170800,
934058082186513-index10714.png
#EXTINF:4.253400,
934058082186513-index10715.png
#EXTINF:7.506000,
934058082186513-index10716.png
#EXTINF:3.753000,
934058082186513-index10717.png
#EXTINF:3.753000,
934058082186513-index10718.png
#EXTINF:7.506000,
934058082186513-index10719.png
#EXTINF:3.419400,
934058082186513-index10720.png
#EXTINF:3.753000,
934058082186513-index10721.png
#EXTINF:6.296700,
934058082186513-index10722.png
#EXTINF:6.338400,
934058082186513-index10723.png
#EXTINF:3.753000,
934058082186513-index10724.png
#EXTINF:3.753000,
934058082186513-index10725.png
#EXTINF:6.713700,
934058082186513-index10726.png
#EXTINF:3.753000,
934058082186513-index10727.png
#EXTINF:7.506000,
934058082186513-index10728.png
#EXTINF:3.753000,
934058082186513-index10729.png
#EXTINF:3.711300,
934058082186513-index10730.png
#EXTINF:7.506000,
934058082186513-index10731.png
#EXTINF:3.753000,
934058082186513-index10732.png
#EXTINF:3.753000,
934058082186513-index10733.png
#EXTINF:7.506000,
934058082186513-index10734.png
#EXTINF:3.753000,
934058082186513-index10735.png
#EXTINF:3.753000,
934058082186513-index10736.png
#EXTINF:6.463500,
934058082186513-index10737.png
#EXTINF:3.753000,
934058082186513-index10738.png
#EXTINF:5.004000,
934058082186513-index10739.png
#EXTINF:4.920600,
934058082186513-index10740.png
#EXTINF:5.004000,
934058082186513-index10741.png
#EXTINF:4.253400,
934058082186513-index10742.png
#EXTINF:4.962300,
934058082186513-index10743.png
#EXTINF:5.254200,
934058082186513-index10744.png
#EXTINF:6.588600,
934058082186513-index10745.png
#EXTINF:3.753000,
934058082186513-index10746.png
#EXTINF:5.504400,
934058082186513-index10747.png
#EXTINF:7.047300,
934058082186513-index10748.png
#EXTINF:1.584600,
934058082186513-index10749.png
#EXTINF:7.130700,
934058082186513-index10750.png
#EXTINF:3.753000,
934058082186513-index10751.png
#EXTINF:7.506000,
934058082186513-index10752.png
#EXTINF:2.085000,
934058082186513-index10753.png
#EXTINF:6.088200,
934058082186513-index10754.png
#EXTINF:3.753000,
934058082186513-index10755.png
#EXTINF:5.045700,
934058082186513-index10756.png
#EXTINF:6.588600,
934058082186513-index10757.png
#EXTINF:3.753000,
934058082186513-index10758.png
#EXTINF:5.712900,
934058082186513-index10759.png
#EXTINF:6.922200,
934058082186513-index10760.png
#EXTINF:3.044100,
934058082186513-index10761.png
#EXTINF:6.004800,
934058082186513-index10762.png
#EXTINF:3.711300,
934058082186513-index10763.png
#EXTINF:5.254200,
934058082186513-index10764.png
#EXTINF:4.628700,
934058082186513-index10765.png
#EXTINF:6.713700,
934058082186513-index10766.png
#EXTINF:3.753000,
934058082186513-index10767.png
#EXTINF:5.129100,
934058082186513-index10768.png
#EXTINF:5.087400,
934058082186513-index10769.png
#EXTINF:3.669600,
934058082186513-index10770.png
#EXTINF:8.048100,
934058082186513-index10771.png
#EXTINF:1.542900,
934058082186513-index10772.png
#EXTINF:7.672800,
934058082186513-index10773.png
#EXTINF:3.753000,
934058082186513-index10774.png
#EXTINF:6.963900,
934058082186513-index10775.png
#EXTINF:4.086600,
934058082186513-index10776.png
#EXTINF:3.210900,
934058082186513-index10777.png
#EXTINF:5.004000,
934058082186513-index10778.png
#EXTINF:4.920600,
934058082186513-index10779.png
#EXTINF:4.920600,
934058082186513-index10780.png
#EXTINF:7.506000,
934058082186513-index10781.png
#EXTINF:3.753000,
934058082186513-index10782.png
#EXTINF:3.753000,
934058082186513-index10783.png
#EXTINF:7.506000,
934058082186513-index10784.png
#EXTINF:3.753000,
934058082186513-index10785.png
#EXTINF:3.753000,
934058082186513-index10786.png
#EXTINF:7.506000,
934058082186513-index10787.png
#EXTINF:3.753000,
934058082186513-index10788.png
#EXTINF:3.753000,
934058082186513-index10789.png
#EXTINF:4.962300,
934058082186513-index10790.png
#EXTINF:7.506000,
934058082186513-index10791.png
#EXTINF:3.753000,
934058082186513-index10792.png
#EXTINF:4.587000,
934058082186513-index10793.png
#EXTINF:3.753000,
934058082186513-index10794.png
#EXTINF:7.506000,
934058082186513-index10795.png
#EXTINF:3.753000,
934058082186513-index10796.png
#EXTINF:3.753000,
934058082186513-index10797.png
#EXTINF:5.087400,
934058082186513-index10798.png
#EXTINF:7.506000,
934058082186513-index10799.png
#EXTINF:4.587000,
934058082186513-index10800.png
#EXTINF:3.753000,
934058082186513-index10801.png
#EXTINF:6.838800,
934058082186513-index10802.png
#EXTINF:3.753000,
934058082186513-index10803.png
#EXTINF:3.753000,
934058082186513-index10804.png
#EXTINF:7.506000,
934058082186513-index10805.png
#EXTINF:5.254200,
934058082186513-index10806.png
#EXTINF:3.753000,
934058082186513-index10807.png
#EXTINF:4.420200,
934058082186513-index10808.png
#EXTINF:5.671200,
934058082186513-index10809.png
#EXTINF:3.753000,
934058082186513-index10810.png
#EXTINF:4.628700,
934058082186513-index10811.png
#EXTINF:5.963100,
934058082186513-index10812.png
#EXTINF:5.546100,
934058082186513-index10813.png
#EXTINF:3.753000,
934058082186513-index10814.png
#EXTINF:7.506000,
934058082186513-index10815.png
#EXTINF:4.670400,
934058082186513-index10816.png
#EXTINF:3.753000,
934058082186513-index10817.png
#EXTINF:4.086600,
934058082186513-index10818.png
#EXTINF:7.589400,
934058082186513-index10819.png
#EXTINF:1.668000,
934058082186513-index10820.png
#EXTINF:7.506000,
934058082186513-index10821.png
#EXTINF:3.753000,
934058082186513-index10822.png
#EXTINF:5.337600,
934058082186513-index10823.png
#EXTINF:6.713700,
934058082186513-index10824.png
#EXTINF:2.335200,
934058082186513-index10825.png
#EXTINF:7.506000,
934058082186513-index10826.png
#EXTINF:5.337600,
934058082186513-index10827.png
#EXTINF:3.753000,
934058082186513-index10828.png
#EXTINF:3.753000,
934058082186513-index10829.png
#EXTINF:6.046500,
934058082186513-index10830.png
#EXTINF:3.753000,
934058082186513-index10831.png
#EXTINF:7.422600,
934058082186513-index10832.png
#EXTINF:3.753000,
934058082186513-index10833.png
#EXTINF:3.753000,
934058082186513-index10834.png
#EXTINF:7.506000,
934058082186513-index10835.png
#EXTINF:3.753000,
934058082186513-index10836.png
#EXTINF:3.753000,
934058082186513-index10837.png
#EXTINF:7.506000,
934058082186513-index10838.png
#EXTINF:3.753000,
934058082186513-index10839.png
#EXTINF:3.753000,
934058082186513-index10840.png
#EXTINF:7.255800,
934058082186513-index10841.png
#EXTINF:3.753000,
934058082186513-index10842.png
#EXTINF:3.085800,
934058082186513-index10843.png
#EXTINF:5.712900,
934058082186513-index10844.png
#EXTINF:6.588600,
934058082186513-index10845.png
#EXTINF:3.753000,
934058082186513-index10846.png
#EXTINF:5.754600,
934058082186513-index10847.png
#EXTINF:3.753000,
934058082186513-index10848.png
#EXTINF:4.795500,
934058082186513-index10849.png
#EXTINF:8.256600,
934058082186513-index10850.png
#EXTINF:3.753000,
934058082186513-index10851.png
#EXTINF:3.753000,
934058082186513-index10852.png
#EXTINF:7.422600,
934058082186513-index10853.png
#EXTINF:3.753000,
934058082186513-index10854.png
#EXTINF:3.753000,
934058082186513-index10855.png
#EXTINF:7.506000,
934058082186513-index10856.png
#EXTINF:3.753000,
934058082186513-index10857.png
#EXTINF:3.753000,
934058082186513-index10858.png
#EXTINF:7.506000,
934058082186513-index10859.png
#EXTINF:3.753000,
934058082186513-index10860.png
#EXTINF:3.753000,
934058082186513-index10861.png
#EXTINF:6.296700,
934058082186513-index10862.png
#EXTINF:3.753000,
934058082186513-index10863.png
#EXTINF:6.963900,
934058082186513-index10864.png
#EXTINF:2.085000,
934058082186513-index10865.png
#EXTINF:7.506000,
934058082186513-index10866.png
#EXTINF:3.753000,
934058082186513-index10867.png
#EXTINF:3.753000,
934058082186513-index10868.png
#EXTINF:6.129900,
934058082186513-index10869.png
#EXTINF:4.003200,
934058082186513-index10870.png
#EXTINF:7.506000,
934058082186513-index10871.png
#EXTINF:3.753000,
934058082186513-index10872.png
#EXTINF:3.753000,
934058082186513-index10873.png
#EXTINF:6.546900,
934058082186513-index10874.png
#EXTINF:3.753000,
934058082186513-index10875.png
#EXTINF:4.420200,
934058082186513-index10876.png
#EXTINF:7.631100,
934058082186513-index10877.png
#EXTINF:3.753000,
934058082186513-index10878.png
#EXTINF:3.753000,
934058082186513-index10879.png
#EXTINF:5.796300,
934058082186513-index10880.png
#EXTINF:6.171600,
934058082186513-index10881.png
#EXTINF:3.753000,
934058082186513-index10882.png
#EXTINF:5.004000,
934058082186513-index10883.png
#EXTINF:7.506000,
934058082186513-index10884.png
#EXTINF:3.753000,
934058082186513-index10885.png
#EXTINF:3.753000,
934058082186513-index10886.png
#EXTINF:7.130700,
934058082186513-index10887.png
#EXTINF:3.753000,
934058082186513-index10888.png
#EXTINF:3.753000,
934058082186513-index10889.png
#EXTINF:7.506000,
934058082186513-index10890.png
#EXTINF:3.753000,
934058082186513-index10891.png
#EXTINF:3.753000,
934058082186513-index10892.png
#EXTINF:7.506000,
934058082186513-index10893.png
#EXTINF:3.753000,
934058082186513-index10894.png
#EXTINF:3.753000,
934058082186513-index10895.png
#EXTINF:7.506000,
934058082186513-index10896.png
#EXTINF:3.753000,
934058082186513-index10897.png
#EXTINF:3.753000,
934058082186513-index10898.png
#EXTINF:7.506000,
934058082186513-index10899.png
#EXTINF:3.753000,
934058082186513-index10900.png
#EXTINF:6.338400,
934058082186513-index10901.png
#EXTINF:3.753000,
934058082186513-index10902.png
#EXTINF:3.753000,
934058082186513-index10903.png
#EXTINF:4.795500,
934058082186513-index10904.png
#EXTINF:7.422600,
934058082186513-index10905.png
#EXTINF:3.085800,
934058082186513-index10906.png
#EXTINF:7.506000,
934058082186513-index10907.png
#EXTINF:3.753000,
934058082186513-index10908.png
#EXTINF:3.753000,
934058082186513-index10909.png
#EXTINF:7.506000,
934058082186513-index10910.png
#EXTINF:3.085800,
934058082186513-index10911.png
#EXTINF:6.171600,
934058082186513-index10912.png
#EXTINF:3.753000,
934058082186513-index10913.png
#EXTINF:3.753000,
934058082186513-index10914.png
#EXTINF:7.422600,
934058082186513-index10915.png
#EXTINF:3.753000,
934058082186513-index10916.png
#EXTINF:3.753000,
934058082186513-index10917.png
#EXTINF:6.505200,
934058082186513-index10918.png
#EXTINF:3.586200,
934058082186513-index10919.png
#EXTINF:6.046500,
934058082186513-index10920.png
#EXTINF:3.753000,
934058082186513-index10921.png
#EXTINF:7.506000,
934058082186513-index10922.png
#EXTINF:3.753000,
934058082186513-index10923.png
#EXTINF:3.753000,
934058082186513-index10924.png
#EXTINF:7.172400,
934058082186513-index10925.png
#EXTINF:3.627900,
934058082186513-index10926.png
#EXTINF:5.129100,
934058082186513-index10927.png
#EXTINF:6.797100,
934058082186513-index10928.png
#EXTINF:2.418600,
934058082186513-index10929.png
#EXTINF:5.671200,
934058082186513-index10930.png
#EXTINF:4.420200,
934058082186513-index10931.png
#EXTINF:6.672000,
934058082186513-index10932.png
#EXTINF:3.753000,
934058082186513-index10933.png
#EXTINF:7.506000,
934058082186513-index10934.png
#EXTINF:3.753000,
934058082186513-index10935.png
#EXTINF:3.753000,
934058082186513-index10936.png
#EXTINF:6.838800,
934058082186513-index10937.png
#EXTINF:3.753000,
934058082186513-index10938.png
#EXTINF:4.628700,
934058082186513-index10939.png
#EXTINF:7.506000,
934058082186513-index10940.png
#EXTINF:3.753000,
934058082186513-index10941.png
#EXTINF:3.753000,
934058082186513-index10942.png
#EXTINF:7.506000,
934058082186513-index10943.png
#EXTINF:2.168400,
934058082186513-index10944.png
#EXTINF:7.506000,
934058082186513-index10945.png
#EXTINF:3.753000,
934058082186513-index10946.png
#EXTINF:5.337600,
934058082186513-index10947.png
#EXTINF:3.753000,
934058082186513-index10948.png
#EXTINF:7.506000,
934058082186513-index10949.png
#EXTINF:3.753000,
934058082186513-index10950.png
#EXTINF:3.753000,
934058082186513-index10951.png
#EXTINF:4.670400,
934058082186513-index10952.png
#EXTINF:5.921400,
934058082186513-index10953.png
#EXTINF:6.171600,
934058082186513-index10954.png
#EXTINF:2.835600,
934058082186513-index10955.png
#EXTINF:7.255800,
934058082186513-index10956.png
#EXTINF:2.835600,
934058082186513-index10957.png
#EXTINF:4.420200,
934058082186513-index10958.png
#EXTINF:7.005600,
934058082186513-index10959.png
#EXTINF:3.753000,
934058082186513-index10960.png
#EXTINF:4.545300,
934058082186513-index10961.png
#EXTINF:7.506000,
934058082186513-index10962.png
#EXTINF:3.753000,
934058082186513-index10963.png
#EXTINF:3.461100,
934058082186513-index10964.png
#EXTINF:6.713700,
934058082186513-index10965.png
#EXTINF:3.753000,
934058082186513-index10966.png
#EXTINF:7.464300,
934058082186513-index10967.png
#EXTINF:3.085800,
934058082186513-index10968.png
#EXTINF:4.795500,
934058082186513-index10969.png
#EXTINF:7.506000,
934058082186513-index10970.png
#EXTINF:1.334400,
934058082186513-index10971.png
#EXTINF:8.298300,
934058082186513-index10972.png
#EXTINF:3.210900,
934058082186513-index10973.png
#EXTINF:6.630300,
934058082186513-index10974.png
#EXTINF:4.920600,
934058082186513-index10975.png
#EXTINF:3.753000,
934058082186513-index10976.png
#EXTINF:3.461100,
934058082186513-index10977.png
#EXTINF:7.506000,
934058082186513-index10978.png
#EXTINF:3.127500,
934058082186513-index10979.png
#EXTINF:5.004000,
934058082186513-index10980.png
#EXTINF:4.795500,
934058082186513-index10981.png
#EXTINF:6.088200,
934058082186513-index10982.png
#EXTINF:3.753000,
934058082186513-index10983.png
#EXTINF:6.046500,
934058082186513-index10984.png
#EXTINF:6.672000,
934058082186513-index10985.png
#EXTINF:1.959900,
934058082186513-index10986.png
#EXTINF:5.546100,
934058082186513-index10987.png
#EXTINF:6.004800,
934058082186513-index10988.png
#EXTINF:3.294300,
934058082186513-index10989.png
#EXTINF:4.920600,
934058082186513-index10990.png
#EXTINF:6.421800,
934058082186513-index10991.png
#EXTINF:3.753000,
934058082186513-index10992.png
#EXTINF:6.755400,
934058082186513-index10993.png
#EXTINF:3.252600,
934058082186513-index10994.png
#EXTINF:7.339200,
934058082186513-index10995.png
#EXTINF:2.668800,
934058082186513-index10996.png
#EXTINF:7.339200,
934058082186513-index10997.png
#EXTINF:3.753000,
934058082186513-index10998.png
#EXTINF:5.421000,
934058082186513-index10999.png
#EXTINF:3.753000,
934058082186513-index11000.png
#EXTINF:5.796300,
934058082186513-index11001.png
#EXTINF:4.587000,
934058082186513-index11002.png
#EXTINF:5.546100,
934058082186513-index11003.png
#EXTINF:4.503600,
934058082186513-index11004.png
#EXTINF:4.920600,
934058082186513-index11005.png
#EXTINF:4.670400,
934058082186513-index11006.png
#EXTINF:5.045700,
934058082186513-index11007.png
#EXTINF:4.545300,
934058082186513-index11008.png
#EXTINF:7.422600,
934058082186513-index11009.png
#EXTINF:3.753000,
934058082186513-index11010.png
#EXTINF:7.214100,
934058082186513-index11011.png
#EXTINF:2.376900,
934058082186513-index11012.png
#EXTINF:7.506000,
934058082186513-index11013.png
#EXTINF:3.753000,
934058082186513-index11014.png
#EXTINF:3.753000,
934058082186513-index11015.png
#EXTINF:4.211700,
934058082186513-index11016.png
#EXTINF:7.506000,
934058082186513-index11017.png
#EXTINF:3.753000,
934058082186513-index11018.png
#EXTINF:3.753000,
934058082186513-index11019.png
#EXTINF:6.046500,
934058082186513-index11020.png
#EXTINF:4.628700,
934058082186513-index11021.png
#EXTINF:6.630300,
934058082186513-index11022.png
#EXTINF:3.753000,
934058082186513-index11023.png
#EXTINF:4.253400,
934058082186513-index11024.png
#EXTINF:5.170800,
934058082186513-index11025.png
#EXTINF:5.170800,
934058082186513-index11026.png
#EXTINF:7.672800,
934058082186513-index11027.png
#EXTINF:4.962300,
934058082186513-index11028.png
#EXTINF:2.043300,
934058082186513-index11029.png
#EXTINF:5.254200,
934058082186513-index11030.png
#EXTINF:5.337600,
934058082186513-index11031.png
#EXTINF:7.506000,
934058082186513-index11032.png
#EXTINF:3.210900,
934058082186513-index11033.png
#EXTINF:3.753000,
934058082186513-index11034.png
#EXTINF:7.506000,
934058082186513-index11035.png
#EXTINF:3.753000,
934058082186513-index11036.png
#EXTINF:3.753000,
934058082186513-index11037.png
#EXTINF:7.506000,
934058082186513-index11038.png
#EXTINF:3.753000,
934058082186513-index11039.png
#EXTINF:5.254200,
934058082186513-index11040.png
#EXTINF:3.753000,
934058082186513-index11041.png
#EXTINF:4.795500,
934058082186513-index11042.png
#EXTINF:5.462700,
934058082186513-index11043.png
#EXTINF:4.670400,
934058082186513-index11044.png
#EXTINF:6.255000,
934058082186513-index11045.png
#EXTINF:3.377700,
934058082186513-index11046.png
#EXTINF:7.506000,
934058082186513-index11047.png
#EXTINF:4.211700,
934058082186513-index11048.png
#EXTINF:3.753000,
934058082186513-index11049.png
#EXTINF:7.297500,
934058082186513-index11050.png
#EXTINF:3.753000,
934058082186513-index11051.png
#EXTINF:3.753000,
934058082186513-index11052.png
#EXTINF:7.506000,
934058082186513-index11053.png
#EXTINF:3.753000,
934058082186513-index11054.png
#EXTINF:3.753000,
934058082186513-index11055.png
#EXTINF:7.506000,
934058082186513-index11056.png
#EXTINF:3.753000,
934058082186513-index11057.png
#EXTINF:3.753000,
934058082186513-index11058.png
#EXTINF:6.171600,
934058082186513-index11059.png
#EXTINF:3.753000,
934058082186513-index11060.png
#EXTINF:4.878900,
934058082186513-index11061.png
#EXTINF:4.878900,
934058082186513-index11062.png
#EXTINF:5.921400,
934058082186513-index11063.png
#EXTINF:5.129100,
934058082186513-index11064.png
#EXTINF:4.753800,
934058082186513-index11065.png
#EXTINF:6.380100,
934058082186513-index11066.png
#EXTINF:3.085800,
934058082186513-index11067.png
#EXTINF:5.212500,
934058082186513-index11068.png
#EXTINF:6.505200,
934058082186513-index11069.png
#EXTINF:5.045700,
934058082186513-index11070.png
#EXTINF:3.753000,
934058082186513-index11071.png
#EXTINF:5.712900,
934058082186513-index11072.png
#EXTINF:3.753000,
934058082186513-index11073.png
#EXTINF:5.546100,
934058082186513-index11074.png
#EXTINF:6.546900,
934058082186513-index11075.png
#EXTINF:3.753000,
934058082186513-index11076.png
#EXTINF:3.753000,
934058082186513-index11077.png
#EXTINF:7.339200,
934058082186513-index11078.png
#EXTINF:3.753000,
934058082186513-index11079.png
#EXTINF:3.753000,
934058082186513-index11080.png
#EXTINF:5.671200,
934058082186513-index11081.png
#EXTINF:6.713700,
934058082186513-index11082.png
#EXTINF:3.753000,
934058082186513-index11083.png
#EXTINF:7.506000,
934058082186513-index11084.png
#EXTINF:3.753000,
934058082186513-index11085.png
#EXTINF:4.962300,
934058082186513-index11086.png
#EXTINF:3.753000,
934058082186513-index11087.png
#EXTINF:6.129900,
934058082186513-index11088.png
#EXTINF:3.753000,
934058082186513-index11089.png
#EXTINF:7.506000,
934058082186513-index11090.png
#EXTINF:3.753000,
934058082186513-index11091.png
#EXTINF:3.753000,
934058082186513-index11092.png
#EXTINF:7.506000,
934058082186513-index11093.png
#EXTINF:3.753000,
934058082186513-index11094.png
#EXTINF:5.295900,
934058082186513-index11095.png
#EXTINF:3.753000,
934058082186513-index11096.png
#EXTINF:3.753000,
934058082186513-index11097.png
#EXTINF:7.506000,
934058082186513-index11098.png
#EXTINF:3.753000,
934058082186513-index11099.png
#EXTINF:3.753000,
934058082186513-index11100.png
#EXTINF:7.506000,
934058082186513-index11101.png
#EXTINF:3.753000,
934058082186513-index11102.png
#EXTINF:3.753000,
934058082186513-index11103.png
#EXTINF:7.506000,
934058082186513-index11104.png
#EXTINF:3.753000,
934058082186513-index11105.png
#EXTINF:3.753000,
934058082186513-index11106.png
#EXTINF:5.170800,
934058082186513-index11107.png
#EXTINF:4.670400,
934058082186513-index11108.png
#EXTINF:5.462700,
934058082186513-index11109.png
#EXTINF:6.630300,
934058082186513-index11110.png
#EXTINF:3.753000,
934058082186513-index11111.png
#EXTINF:4.545300,
934058082186513-index11112.png
#EXTINF:7.506000,
934058082186513-index11113.png
#EXTINF:3.753000,
934058082186513-index11114.png
#EXTINF:3.919800,
934058082186513-index11115.png
#EXTINF:7.047300,
934058082186513-index11116.png
#EXTINF:3.252600,
934058082186513-index11117.png
#EXTINF:7.506000,
934058082186513-index11118.png
#EXTINF:3.294300,
934058082186513-index11119.png
#EXTINF:5.629500,
934058082186513-index11120.png
#EXTINF:5.129100,
934058082186513-index11121.png
#EXTINF:3.753000,
934058082186513-index11122.png
#EXTINF:5.671200,
934058082186513-index11123.png
#EXTINF:4.837200,
934058082186513-index11124.png
#EXTINF:4.086600,
934058082186513-index11125.png
#EXTINF:4.795500,
934058082186513-index11126.png
#EXTINF:5.963100,
934058082186513-index11127.png
#EXTINF:5.254200,
934058082186513-index11128.png
#EXTINF:3.753000,
934058082186513-index11129.png
#EXTINF:7.506000,
934058082186513-index11130.png
#EXTINF:3.753000,
934058082186513-index11131.png
#EXTINF:3.753000,
934058082186513-index11132.png
#EXTINF:7.506000,
934058082186513-index11133.png
#EXTINF:3.753000,
934058082186513-index11134.png
#EXTINF:5.671200,
934058082186513-index11135.png
#EXTINF:3.753000,
934058082186513-index11136.png
#EXTINF:3.753000,
934058082186513-index11137.png
#EXTINF:7.506000,
934058082186513-index11138.png
#EXTINF:3.753000,
934058082186513-index11139.png
#EXTINF:3.753000,
934058082186513-index11140.png
#EXTINF:7.506000,
934058082186513-index11141.png
#EXTINF:4.253400,
934058082186513-index11142.png
#EXTINF:3.753000,
934058082186513-index11143.png
#EXTINF:4.712100,
934058082186513-index11144.png
#EXTINF:7.506000,
934058082186513-index11145.png
#EXTINF:3.586200,
934058082186513-index11146.png
#EXTINF:3.753000,
934058082186513-index11147.png
#EXTINF:6.880500,
934058082186513-index11148.png
#EXTINF:3.753000,
934058082186513-index11149.png
#EXTINF:5.337600,
934058082186513-index11150.png
#EXTINF:7.506000,
934058082186513-index11151.png
#EXTINF:3.753000,
934058082186513-index11152.png
#EXTINF:3.502800,
934058082186513-index11153.png
#EXTINF:6.296700,
934058082186513-index11154.png
#EXTINF:3.753000,
934058082186513-index11155.png
#EXTINF:7.506000,
934058082186513-index11156.png
#EXTINF:5.087400,
934058082186513-index11157.png
#EXTINF:3.753000,
934058082186513-index11158.png
#EXTINF:4.420200,
934058082186513-index11159.png
#EXTINF:3.753000,
934058082186513-index11160.png
#EXTINF:6.755400,
934058082186513-index11161.png
#EXTINF:6.296700,
934058082186513-index11162.png
#EXTINF:3.753000,
934058082186513-index11163.png
#EXTINF:3.753000,
934058082186513-index11164.png
#EXTINF:6.004800,
934058082186513-index11165.png
#EXTINF:3.753000,
934058082186513-index11166.png
#EXTINF:4.587000,
934058082186513-index11167.png
#EXTINF:7.506000,
934058082186513-index11168.png
#EXTINF:4.878900,
934058082186513-index11169.png
#EXTINF:3.753000,
934058082186513-index11170.png
#EXTINF:4.878900,
934058082186513-index11171.png
#EXTINF:3.753000,
934058082186513-index11172.png
#EXTINF:5.629500,
934058082186513-index11173.png
#EXTINF:5.629500,
934058082186513-index11174.png
#EXTINF:4.920600,
934058082186513-index11175.png
#EXTINF:4.170000,
934058082186513-index11176.png
#EXTINF:6.922200,
934058082186513-index11177.png
#EXTINF:2.543700,
934058082186513-index11178.png
#EXTINF:6.630300,
934058082186513-index11179.png
#EXTINF:5.379300,
934058082186513-index11180.png
#EXTINF:3.753000,
934058082186513-index11181.png
#EXTINF:7.380900,
934058082186513-index11182.png
#EXTINF:2.502000,
934058082186513-index11183.png
#EXTINF:7.506000,
934058082186513-index11184.png
#EXTINF:3.753000,
934058082186513-index11185.png
#EXTINF:3.085800,
934058082186513-index11186.png
#EXTINF:6.088200,
934058082186513-index11187.png
#EXTINF:6.505200,
934058082186513-index11188.png
#EXTINF:3.753000,
934058082186513-index11189.png
#EXTINF:7.005600,
934058082186513-index11190.png
#EXTINF:3.753000,
934058082186513-index11191.png
#EXTINF:6.588600,
934058082186513-index11192.png
#EXTINF:3.753000,
934058082186513-index11193.png
#EXTINF:2.877300,
934058082186513-index11194.png
#EXTINF:8.256600,
934058082186513-index11195.png
#EXTINF:3.753000,
934058082186513-index11196.png
#EXTINF:3.753000,
934058082186513-index11197.png
#EXTINF:5.671200,
934058082186513-index11198.png
#EXTINF:3.753000,
934058082186513-index11199.png
#EXTINF:7.506000,
934058082186513-index11200.png
#EXTINF:3.753000,
934058082186513-index11201.png
#EXTINF:3.753000,
934058082186513-index11202.png
#EXTINF:6.296700,
934058082186513-index11203.png
#EXTINF:3.753000,
934058082186513-index11204.png
#EXTINF:6.338400,
934058082186513-index11205.png
#EXTINF:3.753000,
934058082186513-index11206.png
#EXTINF:7.756200,
934058082186513-index11207.png
#EXTINF:4.837200,
934058082186513-index11208.png
#EXTINF:3.753000,
934058082186513-index11209.png
#EXTINF:6.129900,
934058082186513-index11210.png
#EXTINF:2.376900,
934058082186513-index11211.png
#EXTINF:5.379300,
934058082186513-index11212.png
#EXTINF:6.380100,
934058082186513-index11213.png
#EXTINF:3.753000,
934058082186513-index11214.png
#EXTINF:6.755400,
934058082186513-index11215.png
#EXTINF:2.376900,
934058082186513-index11216.png
#EXTINF:7.506000,
934058082186513-index11217.png
#EXTINF:3.753000,
934058082186513-index11218.png
#EXTINF:4.253400,
934058082186513-index11219.png
#EXTINF:6.004800,
934058082186513-index11220.png
#EXTINF:3.753000,
934058082186513-index11221.png
#EXTINF:5.295900,
934058082186513-index11222.png
#EXTINF:7.506000,
934058082186513-index11223.png
#EXTINF:3.753000,
934058082186513-index11224.png
#EXTINF:5.004000,
934058082186513-index11225.png
#EXTINF:3.753000,
934058082186513-index11226.png
#EXTINF:7.506000,
934058082186513-index11227.png
#EXTINF:3.753000,
934058082186513-index11228.png
#EXTINF:3.753000,
934058082186513-index11229.png
#EXTINF:7.255800,
934058082186513-index11230.png
#EXTINF:3.336000,
934058082186513-index11231.png
#EXTINF:3.753000,
934058082186513-index11232.png
#EXTINF:7.506000,
934058082186513-index11233.png
#EXTINF:4.253400,
934058082186513-index11234.png
#EXTINF:3.336000,
934058082186513-index11235.png
#EXTINF:7.506000,
934058082186513-index11236.png
#EXTINF:3.753000,
934058082186513-index11237.png
#EXTINF:5.754600,
934058082186513-index11238.png
#EXTINF:3.127500,
934058082186513-index11239.png
#EXTINF:5.754600,
934058082186513-index11240.png
#EXTINF:4.503600,
934058082186513-index11241.png
#EXTINF:5.212500,
934058082186513-index11242.png
#EXTINF:6.046500,
934058082186513-index11243.png
#EXTINF:4.837200,
934058082186513-index11244.png
#EXTINF:6.922200,
934058082186513-index11245.png
#EXTINF:3.753000,
934058082186513-index11246.png
#EXTINF:3.753000,
934058082186513-index11247.png
#EXTINF:7.047300,
934058082186513-index11248.png
#EXTINF:3.753000,
934058082186513-index11249.png
#EXTINF:4.920600,
934058082186513-index11250.png
#EXTINF:6.505200,
934058082186513-index11251.png
#EXTINF:3.753000,
934058082186513-index11252.png
#EXTINF:3.753000,
934058082186513-index11253.png
#EXTINF:7.506000,
934058082186513-index11254.png
#EXTINF:2.543700,
934058082186513-index11255.png
#EXTINF:5.838000,
934058082186513-index11256.png
#EXTINF:3.753000,
934058082186513-index11257.png
#EXTINF:7.506000,
934058082186513-index11258.png
#EXTINF:3.753000,
934058082186513-index11259.png
#EXTINF:3.753000,
934058082186513-index11260.png
#EXTINF:7.047300,
934058082186513-index11261.png
#EXTINF:3.753000,
934058082186513-index11262.png
#EXTINF:3.753000,
934058082186513-index11263.png
#EXTINF:7.047300,
934058082186513-index11264.png
#EXTINF:3.753000,
934058082186513-index11265.png
#EXTINF:7.506000,
934058082186513-index11266.png
#EXTINF:5.212500,
934058082186513-index11267.png
#EXTINF:3.753000,
934058082186513-index11268.png
#EXTINF:3.753000,
934058082186513-index11269.png
#EXTINF:7.506000,
934058082186513-index11270.png
#EXTINF:3.252600,
934058082186513-index11271.png
#EXTINF:3.753000,
934058082186513-index11272.png
#EXTINF:7.506000,
934058082186513-index11273.png
#EXTINF:2.668800,
934058082186513-index11274.png
#EXTINF:7.047300,
934058082186513-index11275.png
#EXTINF:4.545300,
934058082186513-index11276.png
#EXTINF:5.838000,
934058082186513-index11277.png
#EXTINF:4.128300,
934058082186513-index11278.png
#EXTINF:2.793900,
934058082186513-index11279.png
#EXTINF:7.506000,
934058082186513-index11280.png
#EXTINF:3.753000,
934058082186513-index11281.png
#EXTINF:3.753000,
934058082186513-index11282.png
#EXTINF:5.671200,
934058082186513-index11283.png
#EXTINF:5.129100,
934058082186513-index11284.png
#EXTINF:7.506000,
934058082186513-index11285.png
#EXTINF:4.795500,
934058082186513-index11286.png
#EXTINF:4.211700,
934058082186513-index11287.png
#EXTINF:5.170800,
934058082186513-index11288.png
#EXTINF:5.337600,
934058082186513-index11289.png
#EXTINF:3.753000,
934058082186513-index11290.png
#EXTINF:4.962300,
934058082186513-index11291.png
#EXTINF:5.004000,
934058082186513-index11292.png
#EXTINF:3.753000,
934058082186513-index11293.png
#EXTINF:5.796300,
934058082186513-index11294.png
#EXTINF:5.295900,
934058082186513-index11295.png
#EXTINF:3.753000,
934058082186513-index11296.png
#EXTINF:5.629500,
934058082186513-index11297.png
#EXTINF:7.506000,
934058082186513-index11298.png
#EXTINF:2.877300,
934058082186513-index11299.png
#EXTINF:5.796300,
934058082186513-index11300.png
#EXTINF:3.753000,
934058082186513-index11301.png
#EXTINF:5.254200,
934058082186513-index11302.png
#EXTINF:7.047300,
934058082186513-index11303.png
#EXTINF:3.753000,
934058082186513-index11304.png
#EXTINF:3.085800,
934058082186513-index11305.png
#EXTINF:7.005600,
934058082186513-index11306.png
#EXTINF:3.711300,
934058082186513-index11307.png
#EXTINF:4.628700,
934058082186513-index11308.png
#EXTINF:5.129100,
934058082186513-index11309.png
#EXTINF:5.838000,
934058082186513-index11310.png
#EXTINF:3.753000,
934058082186513-index11311.png
#EXTINF:6.171600,
934058082186513-index11312.png
#EXTINF:3.753000,
934058082186513-index11313.png
#EXTINF:7.506000,
934058082186513-index11314.png
#EXTINF:5.546100,
934058082186513-index11315.png
#EXTINF:3.753000,
934058082186513-index11316.png
#EXTINF:5.170800,
934058082186513-index11317.png
#EXTINF:3.753000,
934058082186513-index11318.png
#EXTINF:6.296700,
934058082186513-index11319.png
#EXTINF:3.753000,
934058082186513-index11320.png
#EXTINF:5.129100,
934058082186513-index11321.png
#EXTINF:5.838000,
934058082186513-index11322.png
#EXTINF:3.586200,
934058082186513-index11323.png
#EXTINF:7.506000,
934058082186513-index11324.png
#EXTINF:3.753000,
934058082186513-index11325.png
#EXTINF:3.753000,
934058082186513-index11326.png
#EXTINF:5.004000,
934058082186513-index11327.png
#EXTINF:7.506000,
934058082186513-index11328.png
#EXTINF:3.753000,
934058082186513-index11329.png
#EXTINF:5.129100,
934058082186513-index11330.png
#EXTINF:3.502800,
934058082186513-index11331.png
#EXTINF:6.255000,
934058082186513-index11332.png
#EXTINF:5.963100,
934058082186513-index11333.png
#EXTINF:4.503600,
934058082186513-index11334.png
#EXTINF:3.169200,
934058082186513-index11335.png
#EXTINF:5.421000,
934058082186513-index11336.png
#EXTINF:6.004800,
934058082186513-index11337.png
#EXTINF:3.627900,
934058082186513-index11338.png
#EXTINF:7.506000,
934058082186513-index11339.png
#EXTINF:4.044900,
934058082186513-index11340.png
#EXTINF:3.753000,
934058082186513-index11341.png
#EXTINF:7.506000,
934058082186513-index11342.png
#EXTINF:3.753000,
934058082186513-index11343.png
#EXTINF:3.753000,
934058082186513-index11344.png
#EXTINF:5.587800,
934058082186513-index11345.png
#EXTINF:6.255000,
934058082186513-index11346.png
#EXTINF:3.753000,
934058082186513-index11347.png
#EXTINF:6.963900,
934058082186513-index11348.png
#EXTINF:3.586200,
934058082186513-index11349.png
#EXTINF:4.086600,
934058082186513-index11350.png
#EXTINF:6.171600,
934058082186513-index11351.png
#EXTINF:3.753000,
934058082186513-index11352.png
#EXTINF:7.506000,
934058082186513-index11353.png
#EXTINF:1.751400,
934058082186513-index11354.png
#EXTINF:8.048100,
934058082186513-index11355.png
#EXTINF:1.959900,
934058082186513-index11356.png
#EXTINF:7.506000,
934058082186513-index11357.png
#EXTINF:5.337600,
934058082186513-index11358.png
#EXTINF:3.169200,
934058082186513-index11359.png
#EXTINF:6.213300,
934058082186513-index11360.png
#EXTINF:3.627900,
934058082186513-index11361.png
#EXTINF:6.713700,
934058082186513-index11362.png
#EXTINF:2.668800,
934058082186513-index11363.png
#EXTINF:4.837200,
934058082186513-index11364.png
#EXTINF:5.712900,
934058082186513-index11365.png
#EXTINF:6.630300,
934058082186513-index11366.png
#EXTINF:2.543700,
934058082186513-index11367.png
#EXTINF:6.755400,
934058082186513-index11368.png
#EXTINF:4.086600,
934058082186513-index11369.png
#EXTINF:6.755400,
934058082186513-index11370.png
#EXTINF:3.753000,
934058082186513-index11371.png
#EXTINF:3.753000,
934058082186513-index11372.png
#EXTINF:6.171600,
934058082186513-index11373.png
#EXTINF:3.753000,
934058082186513-index11374.png
#EXTINF:5.963100,
934058082186513-index11375.png
#EXTINF:6.672000,
934058082186513-index11376.png
#EXTINF:5.921400,
934058082186513-index11377.png
#EXTINF:1.459500,
934058082186513-index11378.png
#EXTINF:5.462700,
934058082186513-index11379.png
#EXTINF:7.130700,
934058082186513-index11380.png
#EXTINF:3.753000,
934058082186513-index11381.png
#EXTINF:3.753000,
934058082186513-index11382.png
#EXTINF:6.880500,
934058082186513-index11383.png
#EXTINF:3.002400,
934058082186513-index11384.png
#EXTINF:5.379300,
934058082186513-index11385.png
#EXTINF:6.963900,
934058082186513-index11386.png
#EXTINF:4.795500,
934058082186513-index11387.png
#EXTINF:4.503600,
934058082186513-index11388.png
#EXTINF:3.753000,
934058082186513-index11389.png
#EXTINF:5.963100,
934058082186513-index11390.png
#EXTINF:5.879700,
934058082186513-index11391.png
#EXTINF:5.838000,
934058082186513-index11392.png
#EXTINF:2.793900,
934058082186513-index11393.png
#EXTINF:4.378500,
934058082186513-index11394.png
#EXTINF:7.047300,
934058082186513-index11395.png
#EXTINF:3.753000,
934058082186513-index11396.png
#EXTINF:7.506000,
934058082186513-index11397.png
#EXTINF:3.753000,
934058082186513-index11398.png
#EXTINF:3.002400,
934058082186513-index11399.png
#EXTINF:7.506000,
934058082186513-index11400.png
#EXTINF:4.336800,
934058082186513-index11401.png
#EXTINF:3.753000,
934058082186513-index11402.png
#EXTINF:4.503600,
934058082186513-index11403.png
#EXTINF:7.506000,
934058082186513-index11404.png
#EXTINF:2.668800,
934058082186513-index11405.png
#EXTINF:6.672000,
934058082186513-index11406.png
#EXTINF:3.169200,
934058082186513-index11407.png
#EXTINF:4.670400,
934058082186513-index11408.png
#EXTINF:5.170800,
934058082186513-index11409.png
#EXTINF:7.506000,
934058082186513-index11410.png
#EXTINF:3.753000,
934058082186513-index11411.png
#EXTINF:3.753000,
934058082186513-index11412.png
#EXTINF:8.131500,
934058082186513-index11413.png
#EXTINF:1.793100,
934058082186513-index11414.png
#EXTINF:6.713700,
934058082186513-index11415.png
#EXTINF:4.712100,
934058082186513-index11416.png
#EXTINF:3.753000,
934058082186513-index11417.png
#EXTINF:7.881300,
934058082186513-index11418.png
#EXTINF:3.753000,
934058082186513-index11419.png
#EXTINF:3.753000,
934058082186513-index11420.png
#EXTINF:5.671200,
934058082186513-index11421.png
#EXTINF:5.045700,
934058082186513-index11422.png
#EXTINF:5.295900,
934058082186513-index11423.png
#EXTINF:3.502800,
934058082186513-index11424.png
#EXTINF:4.878900,
934058082186513-index11425.png
#EXTINF:6.296700,
934058082186513-index11426.png
#EXTINF:3.544500,
934058082186513-index11427.png
#EXTINF:6.213300,
934058082186513-index11428.png
#EXTINF:5.170800,
934058082186513-index11429.png
#EXTINF:4.003200,
934058082186513-index11430.png
#EXTINF:4.837200,
934058082186513-index11431.png
#EXTINF:6.338400,
934058082186513-index11432.png
#EXTINF:4.044900,
934058082186513-index11433.png
#EXTINF:6.213300,
934058082186513-index11434.png
#EXTINF:5.629500,
934058082186513-index11435.png
#EXTINF:3.210900,
934058082186513-index11436.png
#EXTINF:4.545300,
934058082186513-index11437.png
#EXTINF:5.212500,
934058082186513-index11438.png
#EXTINF:6.129900,
934058082186513-index11439.png
#EXTINF:5.712900,
934058082186513-index11440.png
#EXTINF:4.003200,
934058082186513-index11441.png
#EXTINF:4.712100,
934058082186513-index11442.png
#EXTINF:3.878100,
934058082186513-index11443.png
#EXTINF:5.170800,
934058082186513-index11444.png
#EXTINF:5.004000,
934058082186513-index11445.png
#EXTINF:6.880500,
934058082186513-index11446.png
#EXTINF:3.002400,
934058082186513-index11447.png
#EXTINF:5.379300,
934058082186513-index11448.png
#EXTINF:5.796300,
934058082186513-index11449.png
#EXTINF:5.504400,
934058082186513-index11450.png
#EXTINF:3.377700,
934058082186513-index11451.png
#EXTINF:7.506000,
934058082186513-index11452.png
#EXTINF:5.462700,
934058082186513-index11453.png
#EXTINF:5.212500,
934058082186513-index11454.png
#EXTINF:3.753000,
934058082186513-index11455.png
#EXTINF:4.837200,
934058082186513-index11456.png
#EXTINF:6.046500,
934058082186513-index11457.png
#EXTINF:3.753000,
934058082186513-index11458.png
#EXTINF:5.337600,
934058082186513-index11459.png
#EXTINF:5.838000,
934058082186513-index11460.png
#EXTINF:2.919000,
934058082186513-index11461.png
#EXTINF:6.255000,
934058082186513-index11462.png
#EXTINF:3.753000,
934058082186513-index11463.png
#EXTINF:7.172400,
934058082186513-index11464.png
#EXTINF:2.627100,
934058082186513-index11465.png
#EXTINF:5.295900,
934058082186513-index11466.png
#EXTINF:5.921400,
934058082186513-index11467.png
#EXTINF:4.503600,
934058082186513-index11468.png
#EXTINF:3.753000,
934058082186513-index11469.png
#EXTINF:5.879700,
934058082186513-index11470.png
#EXTINF:5.838000,
934058082186513-index11471.png
#EXTINF:3.753000,
934058082186513-index11472.png
#EXTINF:7.255800,
934058082186513-index11473.png
#EXTINF:4.712100,
934058082186513-index11474.png
#EXTINF:3.753000,
934058082186513-index11475.png
#EXTINF:3.753000,
934058082186513-index11476.png
#EXTINF:7.506000,
934058082186513-index11477.png
#EXTINF:4.670400,
934058082186513-index11478.png
#EXTINF:3.627900,
934058082186513-index11479.png
#EXTINF:6.546900,
934058082186513-index11480.png
#EXTINF:2.710500,
934058082186513-index11481.png
#EXTINF:6.129900,
934058082186513-index11482.png
#EXTINF:4.753800,
934058082186513-index11483.png
#EXTINF:5.546100,
934058082186513-index11484.png
#EXTINF:4.420200,
934058082186513-index11485.png
#EXTINF:6.922200,
934058082186513-index11486.png
#EXTINF:2.752200,
934058082186513-index11487.png
#EXTINF:7.506000,
934058082186513-index11488.png
#EXTINF:3.753000,
934058082186513-index11489.png
#EXTINF:3.586200,
934058082186513-index11490.png
#EXTINF:7.506000,
934058082186513-index11491.png
#EXTINF:4.128300,
934058082186513-index11492.png
#EXTINF:6.046500,
934058082186513-index11493.png
#EXTINF:3.753000,
934058082186513-index11494.png
#EXTINF:6.255000,
934058082186513-index11495.png
#EXTINF:4.795500,
934058082186513-index11496.png
#EXTINF:4.587000,
934058082186513-index11497.png
#EXTINF:3.753000,
934058082186513-index11498.png
#EXTINF:4.712100,
934058082186513-index11499.png
#EXTINF:7.506000,
934058082186513-index11500.png
#EXTINF:3.753000,
934058082186513-index11501.png
#EXTINF:3.753000,
934058082186513-index11502.png
#EXTINF:7.506000,
934058082186513-index11503.png
#EXTINF:3.753000,
934058082186513-index11504.png
#EXTINF:3.753000,
934058082186513-index11505.png
#EXTINF:7.506000,
934058082186513-index11506.png
#EXTINF:3.753000,
934058082186513-index11507.png
#EXTINF:3.753000,
934058082186513-index11508.png
#EXTINF:7.506000,
934058082186513-index11509.png
#EXTINF:1.793100,
934058082186513-index11510.png
#EXTINF:7.589400,
934058082186513-index11511.png
#EXTINF:3.753000,
934058082186513-index11512.png
#EXTINF:6.213300,
934058082186513-index11513.png
#EXTINF:3.169200,
934058082186513-index11514.png
#EXTINF:7.506000,
934058082186513-index11515.png
#EXTINF:3.711300,
934058082186513-index11516.png
#EXTINF:3.753000,
934058082186513-index11517.png
#EXTINF:7.506000,
934058082186513-index11518.png
#EXTINF:2.376900,
934058082186513-index11519.png
#EXTINF:4.378500,
934058082186513-index11520.png
#EXTINF:7.506000,
934058082186513-index11521.png
#EXTINF:3.753000,
934058082186513-index11522.png
#EXTINF:3.753000,
934058082186513-index11523.png
#EXTINF:7.506000,
934058082186513-index11524.png
#EXTINF:2.793900,
934058082186513-index11525.png
#EXTINF:7.506000,
934058082186513-index11526.png
#EXTINF:3.753000,
934058082186513-index11527.png
#EXTINF:3.753000,
934058082186513-index11528.png
#EXTINF:7.506000,
934058082186513-index11529.png
#EXTINF:3.753000,
934058082186513-index11530.png
#EXTINF:5.629500,
934058082186513-index11531.png
#EXTINF:3.753000,
934058082186513-index11532.png
#EXTINF:3.753000,
934058082186513-index11533.png
#EXTINF:7.506000,
934058082186513-index11534.png
#EXTINF:2.835600,
934058082186513-index11535.png
#EXTINF:5.254200,
934058082186513-index11536.png
#EXTINF:7.506000,
934058082186513-index11537.png
#EXTINF:3.753000,
934058082186513-index11538.png
#EXTINF:4.170000,
934058082186513-index11539.png
#EXTINF:6.546900,
934058082186513-index11540.png
#EXTINF:4.336800,
934058082186513-index11541.png
#EXTINF:3.753000,
934058082186513-index11542.png
#EXTINF:7.506000,
934058082186513-index11543.png
#EXTINF:3.753000,
934058082186513-index11544.png
#EXTINF:3.753000,
934058082186513-index11545.png
#EXTINF:7.506000,
934058082186513-index11546.png
#EXTINF:3.669600,
934058082186513-index11547.png
#EXTINF:3.753000,
934058082186513-index11548.png
#EXTINF:5.004000,
934058082186513-index11549.png
#EXTINF:5.546100,
934058082186513-index11550.png
#EXTINF:7.506000,
934058082186513-index11551.png
#EXTINF:2.752200,
934058082186513-index11552.png
#EXTINF:3.753000,
934058082186513-index11553.png
#EXTINF:8.465100,
934058082186513-index11554.png
#EXTINF:3.753000,
934058082186513-index11555.png
#EXTINF:3.753000,
934058082186513-index11556.png
#EXTINF:4.878900,
934058082186513-index11557.png
#EXTINF:5.796300,
934058082186513-index11558.png
#EXTINF:5.421000,
934058082186513-index11559.png
#EXTINF:2.960700,
934058082186513-index11560.png
#EXTINF:7.005600,
934058082186513-index11561.png
#EXTINF:3.753000,
934058082186513-index11562.png
#EXTINF:7.380900,
934058082186513-index11563.png
#EXTINF:3.753000,
934058082186513-index11564.png
#EXTINF:3.753000,
934058082186513-index11565.png
#EXTINF:6.463500,
934058082186513-index11566.png
#EXTINF:6.255000,
934058082186513-index11567.png
#EXTINF:3.753000,
934058082186513-index11568.png
#EXTINF:3.753000,
934058082186513-index11569.png
#EXTINF:7.506000,
934058082186513-index11570.png
#EXTINF:3.753000,
934058082186513-index11571.png
#EXTINF:3.753000,
934058082186513-index11572.png
#EXTINF:5.212500,
934058082186513-index11573.png
#EXTINF:7.297500,
934058082186513-index11574.png
#EXTINF:3.753000,
934058082186513-index11575.png
#EXTINF:5.796300,
934058082186513-index11576.png
#EXTINF:3.753000,
934058082186513-index11577.png
#EXTINF:3.753000,
934058082186513-index11578.png
#EXTINF:7.506000,
934058082186513-index11579.png
#EXTINF:3.753000,
934058082186513-index11580.png
#EXTINF:3.753000,
934058082186513-index11581.png
#EXTINF:7.506000,
934058082186513-index11582.png
#EXTINF:3.753000,
934058082186513-index11583.png
#EXTINF:3.753000,
934058082186513-index11584.png
#EXTINF:6.797100,
934058082186513-index11585.png
#EXTINF:5.587800,
934058082186513-index11586.png
#EXTINF:3.753000,
934058082186513-index11587.png
#EXTINF:3.753000,
934058082186513-index11588.png
#EXTINF:7.506000,
934058082186513-index11589.png
#EXTINF:3.753000,
934058082186513-index11590.png
#EXTINF:3.753000,
934058082186513-index11591.png
#EXTINF:7.506000,
934058082186513-index11592.png
#EXTINF:3.753000,
934058082186513-index11593.png
#EXTINF:3.753000,
934058082186513-index11594.png
#EXTINF:6.588600,
934058082186513-index11595.png
#EXTINF:3.753000,
934058082186513-index11596.png
#EXTINF:6.463500,
934058082186513-index11597.png
#EXTINF:3.753000,
934058082186513-index11598.png
#EXTINF:7.047300,
934058082186513-index11599.png
#EXTINF:4.753800,
934058082186513-index11600.png
#EXTINF:5.087400,
934058082186513-index11601.png
#EXTINF:2.627100,
934058082186513-index11602.png
#EXTINF:7.506000,
934058082186513-index11603.png
#EXTINF:3.753000,
934058082186513-index11604.png
#EXTINF:3.753000,
934058082186513-index11605.png
#EXTINF:4.753800,
934058082186513-index11606.png
#EXTINF:5.170800,
934058082186513-index11607.png
#EXTINF:5.921400,
934058082186513-index11608.png
#EXTINF:4.878900,
934058082186513-index11609.png
#EXTINF:6.880500,
934058082186513-index11610.png
#EXTINF:3.753000,
934058082186513-index11611.png
#EXTINF:5.879700,
934058082186513-index11612.png
#EXTINF:5.170800,
934058082186513-index11613.png
#EXTINF:3.753000,
934058082186513-index11614.png
#EXTINF:3.753000,
934058082186513-index11615.png
#EXTINF:5.796300,
934058082186513-index11616.png
#EXTINF:3.753000,
934058082186513-index11617.png
#EXTINF:4.753800,
934058082186513-index11618.png
#EXTINF:5.796300,
934058082186513-index11619.png
#EXTINF:6.255000,
934058082186513-index11620.png
#EXTINF:6.421800,
934058082186513-index11621.png
#EXTINF:3.753000,
934058082186513-index11622.png
#EXTINF:2.835600,
934058082186513-index11623.png
#EXTINF:7.506000,
934058082186513-index11624.png
#EXTINF:3.753000,
934058082186513-index11625.png
#EXTINF:3.753000,
934058082186513-index11626.png
#EXTINF:7.506000,
934058082186513-index11627.png
#EXTINF:5.045700,
934058082186513-index11628.png
#EXTINF:3.753000,
934058082186513-index11629.png
#EXTINF:3.753000,
934058082186513-index11630.png
#EXTINF:7.506000,
934058082186513-index11631.png
#EXTINF:3.753000,
934058082186513-index11632.png
#EXTINF:6.755400,
934058082186513-index11633.png
#EXTINF:3.753000,
934058082186513-index11634.png
#EXTINF:3.753000,
934058082186513-index11635.png
#EXTINF:4.962300,
934058082186513-index11636.png
#EXTINF:7.506000,
934058082186513-index11637.png
#EXTINF:4.461900,
934058082186513-index11638.png
#EXTINF:4.628700,
934058082186513-index11639.png
#EXTINF:3.586200,
934058082186513-index11640.png
#EXTINF:7.506000,
934058082186513-index11641.png
#EXTINF:2.502000,
934058082186513-index11642.png
#EXTINF:6.004800,
934058082186513-index11643.png
#EXTINF:3.753000,
934058082186513-index11644.png
#EXTINF:7.506000,
934058082186513-index11645.png
#EXTINF:3.753000,
934058082186513-index11646.png
#EXTINF:3.753000,
934058082186513-index11647.png
#EXTINF:7.506000,
934058082186513-index11648.png
#EXTINF:2.710500,
934058082186513-index11649.png
#EXTINF:7.506000,
934058082186513-index11650.png
#EXTINF:3.753000,
934058082186513-index11651.png
#EXTINF:3.044100,
934058082186513-index11652.png
#EXTINF:7.339200,
934058082186513-index11653.png
#EXTINF:3.753000,
934058082186513-index11654.png
#EXTINF:4.962300,
934058082186513-index11655.png
#EXTINF:4.795500,
934058082186513-index11656.png
#EXTINF:6.588600,
934058082186513-index11657.png
#EXTINF:4.878900,
934058082186513-index11658.png
#EXTINF:3.461100,
934058082186513-index11659.png
#EXTINF:7.506000,
934058082186513-index11660.png
#EXTINF:3.753000,
934058082186513-index11661.png
#EXTINF:3.753000,
934058082186513-index11662.png
#EXTINF:7.506000,
934058082186513-index11663.png
#EXTINF:3.753000,
934058082186513-index11664.png
#EXTINF:3.753000,
934058082186513-index11665.png
#EXTINF:7.506000,
934058082186513-index11666.png
#EXTINF:3.753000,
934058082186513-index11667.png
#EXTINF:3.753000,
934058082186513-index11668.png
#EXTINF:7.506000,
934058082186513-index11669.png
#EXTINF:3.753000,
934058082186513-index11670.png
#EXTINF:3.753000,
934058082186513-index11671.png
#EXTINF:7.506000,
934058082186513-index11672.png
#EXTINF:3.753000,
934058082186513-index11673.png
#EXTINF:3.753000,
934058082186513-index11674.png
#EXTINF:7.506000,
934058082186513-index11675.png
#EXTINF:3.753000,
934058082186513-index11676.png
#EXTINF:3.753000,
934058082186513-index11677.png
#EXTINF:7.506000,
934058082186513-index11678.png
#EXTINF:3.753000,
934058082186513-index11679.png
#EXTINF:3.753000,
934058082186513-index11680.png
#EXTINF:7.506000,
934058082186513-index11681.png
#EXTINF:3.753000,
934058082186513-index11682.png
#EXTINF:3.753000,
934058082186513-index11683.png
#EXTINF:7.506000,
934058082186513-index11684.png
#EXTINF:3.753000,
934058082186513-index11685.png
#EXTINF:3.753000,
934058082186513-index11686.png
#EXTINF:7.506000,
934058082186513-index11687.png
#EXTINF:3.753000,
934058082186513-index11688.png
#EXTINF:3.753000,
934058082186513-index11689.png
#EXTINF:7.506000,
934058082186513-index11690.png
#EXTINF:3.753000,
934058082186513-index11691.png
#EXTINF:3.753000,
934058082186513-index11692.png
#EXTINF:7.422600,
934058082186513-index11693.png
#EXTINF:3.753000,
934058082186513-index11694.png
#EXTINF:3.753000,
934058082186513-index11695.png
#EXTINF:7.506000,
934058082186513-index11696.png
#EXTINF:3.753000,
934058082186513-index11697.png
#EXTINF:3.753000,
934058082186513-index11698.png
#EXTINF:7.506000,
934058082186513-index11699.png
#EXTINF:3.753000,
934058082186513-index11700.png
#EXTINF:3.753000,
934058082186513-index11701.png
#EXTINF:7.506000,
934058082186513-index11702.png
#EXTINF:3.753000,
934058082186513-index11703.png
#EXTINF:3.753000,
934058082186513-index11704.png
#EXTINF:7.506000,
934058082186513-index11705.png
#EXTINF:3.753000,
934058082186513-index11706.png
#EXTINF:3.753000,
934058082186513-index11707.png
#EXTINF:7.506000,
934058082186513-index11708.png
#EXTINF:3.461100,
934058082186513-index11709.png
#EXTINF:3.753000,
934058082186513-index11710.png
#EXTINF:2.752200,
934058082186513-index11711.png
#EXT-X-ENDLIST
