#EXTM3U
#EXT-X-VERSION:3
#EXT-X-TARGETDURATION:10
#EXT-X-MEDIA-SEQUENCE:10001
#EXTINF:6.000000,
935813193519910-index10001.png
#EXTINF:5.040000,
935813193519910-index10002.png
#EXTINF:7.040000,
935813193519910-index10003.png
#EXTINF:8.000000,
935813193519910-index10004.png
#EXTINF:3.240000,
935813193519910-index10005.png
#EXTINF:1.480000,
935813193519910-index10006.png
#EXTINF:2.400000,
935813193519910-index10007.png
#EXTINF:5.000000,
935813193519910-index10008.png
#EXTINF:5.160000,
935813193519910-index10009.png
#EXTINF:4.520000,
935813193519910-index10010.png
#EXTINF:3.240000,
935813193519910-index10011.png
#EXTINF:2.400000,
935813193519910-index10012.png
#EXTINF:2.960000,
935813193519910-index10013.png
#EXTINF:3.040000,
935813193519910-index10014.png
#EXTINF:2.440000,
935813193519910-index10015.png
#EXTINF:4.440000,
935813193519910-index10016.png
#EXTINF:3.160000,
935813193519910-index10017.png
#EXTINF:6.000000,
935813193519910-index10018.png
#EXTINF:1.560000,
935813193519910-index10019.png
#EXTINF:1.040000,
935813193519910-index10020.png
#EXTINF:1.240000,
935813193519910-index10021.png
#EXTINF:4.000000,
935813193519910-index10022.png
#EXTINF:1.520000,
935813193519910-index10023.png
#EXTINF:1.360000,
935813193519910-index10024.png
#EXTINF:1.520000,
935813193519910-index10025.png
#EXTINF:1.280000,
935813193519910-index10026.png
#EXTINF:4.360000,
935813193519910-index10027.png
#EXTINF:1.800000,
935813193519910-index10028.png
#EXTINF:1.520000,
935813193519910-index10029.png
#EXTINF:1.200000,
935813193519910-index10030.png
#EXTINF:1.520000,
935813193519910-index10031.png
#EXTINF:1.080000,
935813193519910-index10032.png
#EXTINF:4.960000,
935813193519910-index10033.png
#EXTINF:2.600000,
935813193519910-index10034.png
#EXTINF:2.480000,
935813193519910-index10035.png
#EXTINF:1.800000,
935813193519910-index10036.png
#EXTINF:3.000000,
935813193519910-index10037.png
#EXTINF:2.280000,
935813193519910-index10038.png
#EXTINF:1.440000,
935813193519910-index10039.png
#EXTINF:4.760000,
935813193519910-index10040.png
#EXTINF:1.760000,
935813193519910-index10041.png
#EXTINF:3.560000,
935813193519910-index10042.png
#EXTINF:2.800000,
935813193519910-index10043.png
#EXTINF:1.760000,
935813193519910-index10044.png
#EXTINF:1.400000,
935813193519910-index10045.png
#EXTINF:1.040000,
935813193519910-index10046.png
#EXTINF:1.080000,
935813193519910-index10047.png
#EXTINF:1.320000,
935813193519910-index10048.png
#EXTINF:4.640000,
935813193519910-index10049.png
#EXTINF:1.320000,
935813193519910-index10050.png
#EXTINF:1.320000,
935813193519910-index10051.png
#EXTINF:1.080000,
935813193519910-index10052.png
#EXTINF:4.400000,
935813193519910-index10053.png
#EXTINF:2.240000,
935813193519910-index10054.png
#EXTINF:2.600000,
935813193519910-index10055.png
#EXTINF:1.960000,
935813193519910-index10056.png
#EXTINF:6.840000,
935813193519910-index10057.png
#EXTINF:3.640000,
935813193519910-index10058.png
#EXTINF:2.240000,
935813193519910-index10059.png
#EXTINF:6.200000,
935813193519910-index10060.png
#EXTINF:2.600000,
935813193519910-index10061.png
#EXTINF:10.000000,
935813193519910-index10062.png
#EXTINF:4.560000,
935813193519910-index10063.png
#EXTINF:4.560000,
935813193519910-index10064.png
#EXTINF:6.080000,
935813193519910-index10065.png
#EXTINF:2.960000,
935813193519910-index10066.png
#EXTINF:1.360000,
935813193519910-index10067.png
#EXTINF:1.480000,
935813193519910-index10068.png
#EXTINF:4.160000,
935813193519910-index10069.png
#EXTINF:2.960000,
935813193519910-index10070.png
#EXTINF:3.480000,
935813193519910-index10071.png
#EXTINF:5.400000,
935813193519910-index10072.png
#EXTINF:4.000000,
935813193519910-index10073.png
#EXTINF:4.520000,
935813193519910-index10074.png
#EXTINF:4.600000,
935813193519910-index10075.png
#EXTINF:5.760000,
935813193519910-index10076.png
#EXTINF:2.600000,
935813193519910-index10077.png
#EXTINF:4.120000,
935813193519910-index10078.png
#EXTINF:4.600000,
935813193519910-index10079.png
#EXTINF:3.760000,
935813193519910-index10080.png
#EXTINF:4.760000,
935813193519910-index10081.png
#EXTINF:7.240000,
935813193519910-index10082.png
#EXTINF:10.000000,
935813193519910-index10083.png
#EXTINF:6.480000,
935813193519910-index10084.png
#EXTINF:8.240000,
935813193519910-index10085.png
#EXTINF:10.000000,
935813193519910-index10086.png
#EXTINF:10.000000,
935813193519910-index10087.png
#EXTINF:4.240000,
935813193519910-index10088.png
#EXTINF:1.960000,
935813193519910-index10089.png
#EXTINF:4.440000,
935813193519910-index10090.png
#EXTINF:2.640000,
935813193519910-index10091.png
#EXTINF:4.720000,
935813193519910-index10092.png
#EXTINF:1.960000,
935813193519910-index10093.png
#EXTINF:2.240000,
935813193519910-index10094.png
#EXTINF:2.480000,
935813193519910-index10095.png
#EXTINF:1.880000,
935813193519910-index10096.png
#EXTINF:3.760000,
935813193519910-index10097.png
#EXTINF:9.720000,
935813193519910-index10098.png
#EXTINF:5.680000,
935813193519910-index10099.png
#EXTINF:2.840000,
935813193519910-index10100.png
#EXTINF:5.400000,
935813193519910-index10101.png
#EXTINF:6.800000,
935813193519910-index10102.png
#EXTINF:5.640000,
935813193519910-index10103.png
#EXTINF:6.280000,
935813193519910-index10104.png
#EXTINF:10.000000,
935813193519910-index10105.png
#EXTINF:2.720000,
935813193519910-index10106.png
#EXTINF:4.280000,
935813193519910-index10107.png
#EXTINF:7.160000,
935813193519910-index10108.png
#EXTINF:4.160000,
935813193519910-index10109.png
#EXTINF:3.280000,
935813193519910-index10110.png
#EXTINF:2.960000,
935813193519910-index10111.png
#EXTINF:8.200000,
935813193519910-index10112.png
#EXTINF:5.040000,
935813193519910-index10113.png
#EXTINF:3.160000,
935813193519910-index10114.png
#EXTINF:4.880000,
935813193519910-index10115.png
#EXTINF:7.400000,
935813193519910-index10116.png
#EXTINF:2.880000,
935813193519910-index10117.png
#EXTINF:6.640000,
935813193519910-index10118.png
#EXTINF:8.880000,
935813193519910-index10119.png
#EXTINF:1.960000,
935813193519910-index10120.png
#EXTINF:5.000000,
935813193519910-index10121.png
#EXTINF:8.880000,
935813193519910-index10122.png
#EXTINF:5.080000,
935813193519910-index10123.png
#EXTINF:7.880000,
935813193519910-index10124.png
#EXTINF:1.560000,
935813193519910-index10125.png
#EXTINF:4.280000,
935813193519910-index10126.png
#EXTINF:2.800000,
935813193519910-index10127.png
#EXTINF:3.560000,
935813193519910-index10128.png
#EXTINF:9.320000,
935813193519910-index10129.png
#EXTINF:2.040000,
935813193519910-index10130.png
#EXTINF:3.600000,
935813193519910-index10131.png
#EXTINF:4.320000,
935813193519910-index10132.png
#EXTINF:6.560000,
935813193519910-index10133.png
#EXTINF:7.000000,
935813193519910-index10134.png
#EXTINF:2.160000,
935813193519910-index10135.png
#EXTINF:1.480000,
935813193519910-index10136.png
#EXTINF:1.840000,
935813193519910-index10137.png
#EXTINF:2.160000,
935813193519910-index10138.png
#EXTINF:1.000000,
935813193519910-index10139.png
#EXTINF:1.400000,
935813193519910-index10140.png
#EXTINF:1.120000,
935813193519910-index10141.png
#EXTINF:1.160000,
935813193519910-index10142.png
#EXTINF:1.240000,
935813193519910-index10143.png
#EXTINF:2.720000,
935813193519910-index10144.png
#EXTINF:1.160000,
935813193519910-index10145.png
#EXTINF:2.880000,
935813193519910-index10146.png
#EXTINF:1.880000,
935813193519910-index10147.png
#EXTINF:1.200000,
935813193519910-index10148.png
#EXTINF:9.120000,
935813193519910-index10149.png
#EXTINF:4.800000,
935813193519910-index10150.png
#EXTINF:2.960000,
935813193519910-index10151.png
#EXTINF:6.120000,
935813193519910-index10152.png
#EXTINF:1.680000,
935813193519910-index10153.png
#EXTINF:3.000000,
935813193519910-index10154.png
#EXTINF:1.800000,
935813193519910-index10155.png
#EXTINF:1.120000,
935813193519910-index10156.png
#EXTINF:1.280000,
935813193519910-index10157.png
#EXTINF:1.080000,
935813193519910-index10158.png
#EXTINF:4.080000,
935813193519910-index10159.png
#EXTINF:1.080000,
935813193519910-index10160.png
#EXTINF:1.480000,
935813193519910-index10161.png
#EXTINF:2.640000,
935813193519910-index10162.png
#EXTINF:1.640000,
935813193519910-index10163.png
#EXTINF:3.680000,
935813193519910-index10164.png
#EXTINF:3.760000,
935813193519910-index10165.png
#EXTINF:4.000000,
935813193519910-index10166.png
#EXTINF:5.440000,
935813193519910-index10167.png
#EXTINF:10.000000,
935813193519910-index10168.png
#EXTINF:9.120000,
935813193519910-index10169.png
#EXTINF:8.640000,
935813193519910-index10170.png
#EXTINF:10.000000,
935813193519910-index10171.png
#EXTINF:10.000000,
935813193519910-index10172.png
#EXTINF:10.000000,
935813193519910-index10173.png
#EXTINF:7.720000,
935813193519910-index10174.png
#EXTINF:10.000000,
935813193519910-index10175.png
#EXTINF:10.000000,
935813193519910-index10176.png
#EXTINF:7.680000,
935813193519910-index10177.png
#EXTINF:8.360000,
935813193519910-index10178.png
#EXTINF:9.400000,
935813193519910-index10179.png
#EXTINF:10.000000,
935813193519910-index10180.png
#EXTINF:2.840000,
935813193519910-index10181.png
#EXT-X-ENDLIST
