#EXTM3U
#EXT-X-VERSION:3
#EXT-X-TARGETDURATION:10
#EXT-X-MEDIA-SEQUENCE:10001
#EXTINF:3.480000,
947597669644488-index10001.png
#EXTINF:4.800000,
947597669644488-index10002.png
#EXTINF:10.000000,
947597669644488-index10003.png
#EXTINF:8.120000,
947597669644488-index10004.png
#EXTINF:2.440000,
947597669644488-index10005.png
#EXTINF:2.560000,
947597669644488-index10006.png
#EXTINF:2.600000,
947597669644488-index10007.png
#EXTINF:2.800000,
947597669644488-index10008.png
#EXTINF:5.480000,
947597669644488-index10009.png
#EXTINF:3.400000,
947597669644488-index10010.png
#EXTINF:3.360000,
947597669644488-index10011.png
#EXTINF:2.440000,
947597669644488-index10012.png
#EXTINF:3.040000,
947597669644488-index10013.png
#EXTINF:4.280000,
947597669644488-index10014.png
#EXTINF:2.120000,
947597669644488-index10015.png
#EXTINF:1.920000,
947597669644488-index10016.png
#EXTINF:2.440000,
947597669644488-index10017.png
#EXTINF:1.800000,
947597669644488-index10018.png
#EXTINF:1.520000,
947597669644488-index10019.png
#EXTINF:2.480000,
947597669644488-index10020.png
#EXTINF:4.200000,
947597669644488-index10021.png
#EXTINF:1.640000,
947597669644488-index10022.png
#EXTINF:1.800000,
947597669644488-index10023.png
#EXTINF:1.520000,
947597669644488-index10024.png
#EXTINF:4.560000,
947597669644488-index10025.png
#EXTINF:4.600000,
947597669644488-index10026.png
#EXTINF:4.080000,
947597669644488-index10027.png
#EXTINF:3.800000,
947597669644488-index10028.png
#EXTINF:3.000000,
947597669644488-index10029.png
#EXTINF:1.320000,
947597669644488-index10030.png
#EXTINF:3.160000,
947597669644488-index10031.png
#EXTINF:3.280000,
947597669644488-index10032.png
#EXTINF:1.920000,
947597669644488-index10033.png
#EXTINF:1.480000,
947597669644488-index10034.png
#EXTINF:10.000000,
947597669644488-index10035.png
#EXTINF:7.080000,
947597669644488-index10036.png
#EXTINF:4.800000,
947597669644488-index10037.png
#EXTINF:4.000000,
947597669644488-index10038.png
#EXTINF:2.600000,
947597669644488-index10039.png
#EXTINF:2.000000,
947597669644488-index10040.png
#EXTINF:2.720000,
947597669644488-index10041.png
#EXTINF:3.080000,
947597669644488-index10042.png
#EXTINF:1.760000,
947597669644488-index10043.png
#EXTINF:3.000000,
947597669644488-index10044.png
#EXTINF:2.400000,
947597669644488-index10045.png
#EXTINF:10.000000,
947597669644488-index10046.png
#EXTINF:2.600000,
947597669644488-index10047.png
#EXTINF:10.000000,
947597669644488-index10048.png
#EXTINF:1.640000,
947597669644488-index10049.png
#EXTINF:5.000000,
947597669644488-index10050.png
#EXTINF:8.400000,
947597669644488-index10051.png
#EXTINF:6.600000,
947597669644488-index10052.png
#EXTINF:5.360000,
947597669644488-index10053.png
#EXTINF:8.360000,
947597669644488-index10054.png
#EXTINF:3.720000,
947597669644488-index10055.png
#EXTINF:3.280000,
947597669644488-index10056.png
#EXTINF:5.000000,
947597669644488-index10057.png
#EXTINF:2.000000,
947597669644488-index10058.png
#EXTINF:2.000000,
947597669644488-index10059.png
#EXTINF:1.000000,
947597669644488-index10060.png
#EXTINF:4.000000,
947597669644488-index10061.png
#EXTINF:3.000000,
947597669644488-index10062.png
#EXTINF:5.120000,
947597669644488-index10063.png
#EXTINF:7.000000,
947597669644488-index10064.png
#EXTINF:3.320000,
947597669644488-index10065.png
#EXTINF:3.000000,
947597669644488-index10066.png
#EXTINF:2.000000,
947597669644488-index10067.png
#EXTINF:2.000000,
947597669644488-index10068.png
#EXTINF:4.200000,
947597669644488-index10069.png
#EXTINF:4.600000,
947597669644488-index10070.png
#EXTINF:4.000000,
947597669644488-index10071.png
#EXTINF:10.000000,
947597669644488-index10072.png
#EXTINF:6.680000,
947597669644488-index10073.png
#EXTINF:9.000000,
947597669644488-index10074.png
#EXTINF:3.000000,
947597669644488-index10075.png
#EXTINF:3.000000,
947597669644488-index10076.png
#EXTINF:3.000000,
947597669644488-index10077.png
#EXTINF:2.000000,
947597669644488-index10078.png
#EXTINF:5.000000,
947597669644488-index10079.png
#EXTINF:6.000000,
947597669644488-index10080.png
#EXTINF:3.000000,
947597669644488-index10081.png
#EXTINF:4.160000,
947597669644488-index10082.png
#EXTINF:4.400000,
947597669644488-index10083.png
#EXTINF:3.000000,
947597669644488-index10084.png
#EXTINF:2.000000,
947597669644488-index10085.png
#EXTINF:2.000000,
947597669644488-index10086.png
#EXTINF:4.000000,
947597669644488-index10087.png
#EXTINF:3.000000,
947597669644488-index10088.png
#EXTINF:2.080000,
947597669644488-index10089.png
#EXTINF:4.920000,
947597669644488-index10090.png
#EXTINF:9.000000,
947597669644488-index10091.png
#EXTINF:9.680000,
947597669644488-index10092.png
#EXTINF:9.000000,
947597669644488-index10093.png
#EXTINF:5.000000,
947597669644488-index10094.png
#EXTINF:8.000000,
947597669644488-index10095.png
#EXTINF:7.000000,
947597669644488-index10096.png
#EXTINF:10.000000,
947597669644488-index10097.png
#EXTINF:4.000000,
947597669644488-index10098.png
#EXTINF:3.600000,
947597669644488-index10099.png
#EXTINF:3.400000,
947597669644488-index10100.png
#EXTINF:4.000000,
947597669644488-index10101.png
#EXTINF:10.000000,
947597669644488-index10102.png
#EXTINF:2.600000,
947597669644488-index10103.png
#EXTINF:9.120000,
947597669644488-index10104.png
#EXTINF:5.000000,
947597669644488-index10105.png
#EXTINF:4.000000,
947597669644488-index10106.png
#EXTINF:4.600000,
947597669644488-index10107.png
#EXTINF:2.480000,
947597669644488-index10108.png
#EXTINF:5.920000,
947597669644488-index10109.png
#EXTINF:8.000000,
947597669644488-index10110.png
#EXTINF:5.800000,
947597669644488-index10111.png
#EXTINF:2.600000,
947597669644488-index10112.png
#EXTINF:5.000000,
947597669644488-index10113.png
#EXTINF:2.000000,
947597669644488-index10114.png
#EXTINF:2.000000,
947597669644488-index10115.png
#EXTINF:3.000000,
947597669644488-index10116.png
#EXTINF:2.000000,
947597669644488-index10117.png
#EXTINF:2.000000,
947597669644488-index10118.png
#EXTINF:4.000000,
947597669644488-index10119.png
#EXTINF:4.000000,
947597669644488-index10120.png
#EXTINF:8.720000,
947597669644488-index10121.png
#EXTINF:8.000000,
947597669644488-index10122.png
#EXTINF:3.600000,
947597669644488-index10123.png
#EXTINF:2.400000,
947597669644488-index10124.png
#EXTINF:4.280000,
947597669644488-index10125.png
#EXTINF:9.080000,
947597669644488-index10126.png
#EXTINF:5.880000,
947597669644488-index10127.png
#EXTINF:4.160000,
947597669644488-index10128.png
#EXTINF:2.240000,
947597669644488-index10129.png
#EXTINF:1.600000,
947597669644488-index10130.png
#EXTINF:3.080000,
947597669644488-index10131.png
#EXTINF:1.720000,
947597669644488-index10132.png
#EXTINF:2.120000,
947597669644488-index10133.png
#EXTINF:2.360000,
947597669644488-index10134.png
#EXTINF:5.080000,
947597669644488-index10135.png
#EXTINF:3.320000,
947597669644488-index10136.png
#EXTINF:3.360000,
947597669644488-index10137.png
#EXTINF:6.120000,
947597669644488-index10138.png
#EXTINF:7.200000,
947597669644488-index10139.png
#EXTINF:9.320000,
947597669644488-index10140.png
#EXTINF:4.840000,
947597669644488-index10141.png
#EXTINF:7.160000,
947597669644488-index10142.png
#EXTINF:10.000000,
947597669644488-index10143.png
#EXTINF:6.600000,
947597669644488-index10144.png
#EXTINF:3.640000,
947597669644488-index10145.png
#EXTINF:9.920000,
947597669644488-index10146.png
#EXT-X-ENDLIST
