#EXTM3U
#EXT-X-VERSION:3
#EXT-X-TARGETDURATION:11
#EXT-X-MEDIA-SEQUENCE:10001
#EXTINF:2.877300,
955110735363430-index10001.png
#EXTINF:6.129900,
955110735363430-index10002.png
#EXTINF:6.713700,
955110735363430-index10003.png
#EXTINF:9.048900,
955110735363430-index10004.png
#EXTINF:9.174000,
955110735363430-index10005.png
#EXTINF:5.712900,
955110735363430-index10006.png
#EXTINF:5.629500,
955110735363430-index10007.png
#EXTINF:3.461100,
955110735363430-index10008.png
#EXTINF:3.044100,
955110735363430-index10009.png
#EXTINF:2.585400,
955110735363430-index10010.png
#EXTINF:3.836400,
955110735363430-index10011.png
#EXTINF:7.464300,
955110735363430-index10012.png
#EXTINF:8.423400,
955110735363430-index10013.png
#EXTINF:4.044900,
955110735363430-index10014.png
#EXTINF:7.005600,
955110735363430-index10015.png
#EXTINF:5.379300,
955110735363430-index10016.png
#EXTINF:5.254200,
955110735363430-index10017.png
#EXTINF:4.378500,
955110735363430-index10018.png
#EXTINF:4.712100,
955110735363430-index10019.png
#EXTINF:7.130700,
955110735363430-index10020.png
#EXTINF:7.172400,
955110735363430-index10021.png
#EXTINF:10.425000,
955110735363430-index10022.png
#EXTINF:4.670400,
955110735363430-index10023.png
#EXTINF:6.213300,
955110735363430-index10024.png
#EXTINF:4.378500,
955110735363430-index10025.png
#EXTINF:5.629500,
955110735363430-index10026.png
#EXTINF:10.425000,
955110735363430-index10027.png
#EXTINF:6.880500,
955110735363430-index10028.png
#EXTINF:10.425000,
955110735363430-index10029.png
#EXTINF:10.425000,
955110735363430-index10030.png
#EXTINF:10.425000,
955110735363430-index10031.png
#EXTINF:6.463500,
955110735363430-index10032.png
#EXTINF:9.257400,
955110735363430-index10033.png
#EXTINF:7.005600,
955110735363430-index10034.png
#EXTINF:3.377700,
955110735363430-index10035.png
#EXTINF:4.003200,
955110735363430-index10036.png
#EXTINF:3.502800,
955110735363430-index10037.png
#EXTINF:7.214100,
955110735363430-index10038.png
#EXTINF:8.089800,
955110735363430-index10039.png
#EXTINF:10.174800,
955110735363430-index10040.png
#EXTINF:10.425000,
955110735363430-index10041.png
#EXTINF:10.425000,
955110735363430-index10042.png
#EXTINF:2.668800,
955110735363430-index10043.png
#EXTINF:3.002400,
955110735363430-index10044.png
#EXTINF:2.752200,
955110735363430-index10045.png
#EXTINF:6.129900,
955110735363430-index10046.png
#EXTINF:8.006400,
955110735363430-index10047.png
#EXTINF:3.502800,
955110735363430-index10048.png
#EXTINF:6.546900,
955110735363430-index10049.png
#EXTINF:6.588600,
955110735363430-index10050.png
#EXTINF:3.753000,
955110735363430-index10051.png
#EXTINF:1.376100,
955110735363430-index10052.png
#EXTINF:3.711300,
955110735363430-index10053.png
#EXTINF:2.502000,
955110735363430-index10054.png
#EXTINF:6.004800,
955110735363430-index10055.png
#EXTINF:4.962300,
955110735363430-index10056.png
#EXTINF:5.004000,
955110735363430-index10057.png
#EXTINF:10.425000,
955110735363430-index10058.png
#EXTINF:9.757800,
955110735363430-index10059.png
#EXTINF:8.798700,
955110735363430-index10060.png
#EXTINF:7.130700,
955110735363430-index10061.png
#EXTINF:10.425000,
955110735363430-index10062.png
#EXTINF:5.712900,
955110735363430-index10063.png
#EXTINF:10.341600,
955110735363430-index10064.png
#EXTINF:10.425000,
955110735363430-index10065.png
#EXTINF:4.086600,
955110735363430-index10066.png
#EXTINF:10.425000,
955110735363430-index10067.png
#EXTINF:8.465100,
955110735363430-index10068.png
#EXTINF:6.004800,
955110735363430-index10069.png
#EXTINF:9.215700,
955110735363430-index10070.png
#EXTINF:4.420200,
955110735363430-index10071.png
#EXTINF:8.965500,
955110735363430-index10072.png
#EXTINF:6.004800,
955110735363430-index10073.png
#EXTINF:7.172400,
955110735363430-index10074.png
#EXTINF:9.090600,
955110735363430-index10075.png
#EXTINF:10.425000,
955110735363430-index10076.png
#EXTINF:9.007200,
955110735363430-index10077.png
#EXTINF:8.798700,
955110735363430-index10078.png
#EXTINF:5.712900,
955110735363430-index10079.png
#EXTINF:3.794700,
955110735363430-index10080.png
#EXTINF:4.670400,
955110735363430-index10081.png
#EXTINF:7.339200,
955110735363430-index10082.png
#EXTINF:6.672000,
955110735363430-index10083.png
#EXTINF:10.425000,
955110735363430-index10084.png
#EXTINF:10.425000,
955110735363430-index10085.png
#EXTINF:6.755400,
955110735363430-index10086.png
#EXTINF:8.590200,
955110735363430-index10087.png
#EXTINF:7.923000,
955110735363430-index10088.png
#EXTINF:6.755400,
955110735363430-index10089.png
#EXTINF:6.963900,
955110735363430-index10090.png
#EXTINF:8.923800,
955110735363430-index10091.png
#EXTINF:6.755400,
955110735363430-index10092.png
#EXTINF:4.503600,
955110735363430-index10093.png
#EXTINF:6.171600,
955110735363430-index10094.png
#EXTINF:4.795500,
955110735363430-index10095.png
#EXTINF:7.130700,
955110735363430-index10096.png
#EXTINF:8.465100,
955110735363430-index10097.png
#EXTINF:3.794700,
955110735363430-index10098.png
#EXTINF:8.965500,
955110735363430-index10099.png
#EXTINF:10.425000,
955110735363430-index10100.png
#EXTINF:4.086600,
955110735363430-index10101.png
#EXTINF:7.756200,
955110735363430-index10102.png
#EXTINF:5.546100,
955110735363430-index10103.png
#EXTINF:3.294300,
955110735363430-index10104.png
#EXTINF:2.752200,
955110735363430-index10105.png
#EXTINF:7.380900,
955110735363430-index10106.png
#EXTINF:10.425000,
955110735363430-index10107.png
#EXTINF:10.425000,
955110735363430-index10108.png
#EXTINF:9.716100,
955110735363430-index10109.png
#EXTINF:8.882100,
955110735363430-index10110.png
#EXTINF:5.712900,
955110735363430-index10111.png
#EXTINF:10.425000,
955110735363430-index10112.png
#EXTINF:10.425000,
955110735363430-index10113.png
#EXTINF:10.425000,
955110735363430-index10114.png
#EXTINF:10.425000,
955110735363430-index10115.png
#EXTINF:10.425000,
955110735363430-index10116.png
#EXTINF:10.425000,
955110735363430-index10117.png
#EXTINF:10.425000,
955110735363430-index10118.png
#EXTINF:10.425000,
955110735363430-index10119.png
#EXTINF:8.465100,
955110735363430-index10120.png
#EXTINF:10.425000,
955110735363430-index10121.png
#EXTINF:9.465900,
955110735363430-index10122.png
#EXTINF:10.425000,
955110735363430-index10123.png
#EXTINF:10.425000,
955110735363430-index10124.png
#EXTINF:10.425000,
955110735363430-index10125.png
#EXTINF:10.425000,
955110735363430-index10126.png
#EXTINF:10.425000,
955110735363430-index10127.png
#EXTINF:10.425000,
955110735363430-index10128.png
#EXTINF:10.425000,
955110735363430-index10129.png
#EXTINF:10.425000,
955110735363430-index10130.png
#EXTINF:10.425000,
955110735363430-index10131.png
#EXTINF:10.425000,
955110735363430-index10132.png
#EXTINF:10.425000,
955110735363430-index10133.png
#EXTINF:10.425000,
955110735363430-index10134.png
#EXTINF:10.425000,
955110735363430-index10135.png
#EXTINF:10.425000,
955110735363430-index10136.png
#EXTINF:10.425000,
955110735363430-index10137.png
#EXTINF:6.505200,
955110735363430-index10138.png
#EXTINF:5.546100,
955110735363430-index10139.png
#EXTINF:10.425000,
955110735363430-index10140.png
#EXTINF:10.425000,
955110735363430-index10141.png
#EXTINF:10.425000,
955110735363430-index10142.png
#EXTINF:10.425000,
955110735363430-index10143.png
#EXTINF:10.425000,
955110735363430-index10144.png
#EXTINF:10.425000,
955110735363430-index10145.png
#EXTINF:10.425000,
955110735363430-index10146.png
#EXTINF:10.425000,
955110735363430-index10147.png
#EXTINF:10.425000,
955110735363430-index10148.png
#EXTINF:10.425000,
955110735363430-index10149.png
#EXTINF:10.425000,
955110735363430-index10150.png
#EXTINF:10.425000,
955110735363430-index10151.png
#EXTINF:10.425000,
955110735363430-index10152.png
#EXTINF:10.425000,
955110735363430-index10153.png
#EXTINF:10.425000,
955110735363430-index10154.png
#EXTINF:10.425000,
955110735363430-index10155.png
#EXTINF:10.425000,
955110735363430-index10156.png
#EXTINF:10.425000,
955110735363430-index10157.png
#EXTINF:10.425000,
955110735363430-index10158.png
#EXTINF:10.425000,
955110735363430-index10159.png
#EXTINF:9.632700,
955110735363430-index10160.png
#EXTINF:7.380900,
955110735363430-index10161.png
#EXTINF:3.127500,
955110735363430-index10162.png
#EXTINF:3.878100,
955110735363430-index10163.png
#EXTINF:7.005600,
955110735363430-index10164.png
#EXTINF:9.841200,
955110735363430-index10165.png
#EXTINF:4.295100,
955110735363430-index10166.png
#EXTINF:7.839600,
955110735363430-index10167.png
#EXTINF:10.425000,
955110735363430-index10168.png
#EXTINF:10.425000,
955110735363430-index10169.png
#EXTINF:3.377700,
955110735363430-index10170.png
#EXTINF:10.425000,
955110735363430-index10171.png
#EXTINF:10.425000,
955110735363430-index10172.png
#EXTINF:10.425000,
955110735363430-index10173.png
#EXTINF:10.425000,
955110735363430-index10174.png
#EXTINF:10.425000,
955110735363430-index10175.png
#EXTINF:10.425000,
955110735363430-index10176.png
#EXTINF:10.216500,
955110735363430-index10177.png
#EXTINF:8.631900,
955110735363430-index10178.png
#EXTINF:6.880500,
955110735363430-index10179.png
#EXTINF:6.672000,
955110735363430-index10180.png
#EXTINF:6.255000,
955110735363430-index10181.png
#EXTINF:6.755400,
955110735363430-index10182.png
#EXTINF:3.377700,
955110735363430-index10183.png
#EXT-X-ENDLIST
