#EXTM3U
#EXT-X-VERSION:3
#EXT-X-TARGETDURATION:9
#EXT-X-MEDIA-SEQUENCE:10001
#EXTINF:5.805800,
964079987671640-index10001.png
#EXTINF:0.967633,
964079987671640-index10002.png
#EXTINF:1.101100,
964079987671640-index10003.png
#EXTINF:0.400400,
964079987671640-index10004.png
#EXTINF:2.235567,
964079987671640-index10005.png
#EXTINF:3.003000,
964079987671640-index10006.png
#EXTINF:0.767433,
964079987671640-index10007.png
#EXTINF:2.168833,
964079987671640-index10008.png
#EXTINF:2.769433,
964079987671640-index10009.png
#EXTINF:1.668333,
964079987671640-index10010.png
#EXTINF:2.902900,
964079987671640-index10011.png
#EXTINF:1.935267,
964079987671640-index10012.png
#EXTINF:0.834167,
964079987671640-index10013.png
#EXTINF:1.768433,
964079987671640-index10014.png
#EXTINF:2.135467,
964079987671640-index10015.png
#EXTINF:7.707700,
964079987671640-index10016.png
#EXTINF:5.872533,
964079987671640-index10017.png
#EXTINF:0.867533,
964079987671640-index10018.png
#EXTINF:8.341667,
964079987671640-index10019.png
#EXTINF:8.341667,
964079987671640-index10020.png
#EXTINF:8.341667,
964079987671640-index10021.png
#EXTINF:8.341667,
964079987671640-index10022.png
#EXTINF:8.341667,
964079987671640-index10023.png
#EXTINF:0.934267,
964079987671640-index10024.png
#EXTINF:6.172833,
964079987671640-index10025.png
#EXTINF:8.341667,
964079987671640-index10026.png
#EXTINF:8.341667,
964079987671640-index10027.png
#EXTINF:8.341667,
964079987671640-index10028.png
#EXTINF:1.201200,
964079987671640-index10029.png
#EXTINF:0.767433,
964079987671640-index10030.png
#EXTINF:0.834167,
964079987671640-index10031.png
#EXTINF:5.605600,
964079987671640-index10032.png
#EXTINF:3.269933,
964079987671640-index10033.png
#EXTINF:0.967633,
964079987671640-index10034.png
#EXTINF:1.601600,
964079987671640-index10035.png
#EXTINF:0.767433,
964079987671640-index10036.png
#EXTINF:1.167833,
964079987671640-index10037.png
#EXTINF:1.801800,
964079987671640-index10038.png
#EXTINF:1.067733,
964079987671640-index10039.png
#EXTINF:0.834167,
964079987671640-index10040.png
#EXTINF:5.271933,
964079987671640-index10041.png
#EXTINF:0.767433,
964079987671640-index10042.png
#EXTINF:2.335667,
964079987671640-index10043.png
#EXTINF:2.936267,
964079987671640-index10044.png
#EXTINF:1.568233,
964079987671640-index10045.png
#EXTINF:1.501500,
964079987671640-index10046.png
#EXTINF:1.568233,
964079987671640-index10047.png
#EXTINF:0.834167,
964079987671640-index10048.png
#EXTINF:0.867533,
964079987671640-index10049.png
#EXTINF:1.735067,
964079987671640-index10050.png
#EXTINF:2.502500,
964079987671640-index10051.png
#EXTINF:0.800800,
964079987671640-index10052.png
#EXTINF:8.341667,
964079987671640-index10053.png
#EXTINF:0.767433,
964079987671640-index10054.png
#EXTINF:8.341667,
964079987671640-index10055.png
#EXTINF:8.341667,
964079987671640-index10056.png
#EXTINF:8.341667,
964079987671640-index10057.png
#EXTINF:8.341667,
964079987671640-index10058.png
#EXTINF:8.341667,
964079987671640-index10059.png
#EXTINF:8.341667,
964079987671640-index10060.png
#EXTINF:6.039367,
964079987671640-index10061.png
#EXTINF:8.341667,
964079987671640-index10062.png
#EXTINF:5.538867,
964079987671640-index10063.png
#EXTINF:8.341667,
964079987671640-index10064.png
#EXTINF:3.837167,
964079987671640-index10065.png
#EXTINF:4.204200,
964079987671640-index10066.png
#EXTINF:4.471133,
964079987671640-index10067.png
#EXTINF:8.341667,
964079987671640-index10068.png
#EXTINF:0.767433,
964079987671640-index10069.png
#EXTINF:8.341667,
964079987671640-index10070.png
#EXTINF:8.341667,
964079987671640-index10071.png
#EXTINF:8.341667,
964079987671640-index10072.png
#EXTINF:3.837167,
964079987671640-index10073.png
#EXTINF:8.341667,
964079987671640-index10074.png
#EXTINF:6.439767,
964079987671640-index10075.png
#EXTINF:8.341667,
964079987671640-index10076.png
#EXTINF:8.341667,
964079987671640-index10077.png
#EXTINF:8.341667,
964079987671640-index10078.png
#EXTINF:8.341667,
964079987671640-index10079.png
#EXTINF:8.341667,
964079987671640-index10080.png
#EXTINF:8.341667,
964079987671640-index10081.png
#EXTINF:8.341667,
964079987671640-index10082.png
#EXTINF:8.341667,
964079987671640-index10083.png
#EXTINF:8.341667,
964079987671640-index10084.png
#EXTINF:0.834167,
964079987671640-index10085.png
#EXTINF:8.341667,
964079987671640-index10086.png
#EXTINF:6.573233,
964079987671640-index10087.png
#EXTINF:2.202200,
964079987671640-index10088.png
#EXTINF:1.568233,
964079987671640-index10089.png
#EXTINF:8.341667,
964079987671640-index10090.png
#EXTINF:1.434767,
964079987671640-index10091.png
#EXTINF:2.702700,
964079987671640-index10092.png
#EXTINF:3.169833,
964079987671640-index10093.png
#EXTINF:4.771433,
964079987671640-index10094.png
#EXTINF:1.935267,
964079987671640-index10095.png
#EXTINF:8.341667,
964079987671640-index10096.png
#EXTINF:2.469133,
964079987671640-index10097.png
#EXTINF:4.137467,
964079987671640-index10098.png
#EXTINF:8.241567,
964079987671640-index10099.png
#EXTINF:1.301300,
964079987671640-index10100.png
#EXTINF:2.002000,
964079987671640-index10101.png
#EXTINF:1.101100,
964079987671640-index10102.png
#EXTINF:2.736067,
964079987671640-index10103.png
#EXTINF:1.601600,
964079987671640-index10104.png
#EXTINF:3.069733,
964079987671640-index10105.png
#EXTINF:2.202200,
964079987671640-index10106.png
#EXTINF:8.341667,
964079987671640-index10107.png
#EXTINF:2.102100,
964079987671640-index10108.png
#EXTINF:8.341667,
964079987671640-index10109.png
#EXTINF:0.500500,
964079987671640-index10110.png
#EXTINF:2.469133,
964079987671640-index10111.png
#EXTINF:2.402400,
964079987671640-index10112.png
#EXTINF:1.668333,
964079987671640-index10113.png
#EXTINF:4.871533,
964079987671640-index10114.png
#EXTINF:8.341667,
964079987671640-index10115.png
#EXTINF:8.341667,
964079987671640-index10116.png
#EXTINF:2.769433,
964079987671640-index10117.png
#EXTINF:5.038367,
964079987671640-index10118.png
#EXTINF:5.305300,
964079987671640-index10119.png
#EXTINF:7.540867,
964079987671640-index10120.png
#EXTINF:0.967633,
964079987671640-index10121.png
#EXTINF:1.001000,
964079987671640-index10122.png
#EXTINF:0.900900,
964079987671640-index10123.png
#EXTINF:1.735067,
964079987671640-index10124.png
#EXTINF:3.403400,
964079987671640-index10125.png
#EXTINF:8.341667,
964079987671640-index10126.png
#EXTINF:4.137467,
964079987671640-index10127.png
#EXTINF:2.736067,
964079987671640-index10128.png
#EXTINF:7.173833,
964079987671640-index10129.png
#EXTINF:2.435767,
964079987671640-index10130.png
#EXTINF:6.673333,
964079987671640-index10131.png
#EXTINF:8.341667,
964079987671640-index10132.png
#EXTINF:8.208200,
964079987671640-index10133.png
#EXTINF:2.669333,
964079987671640-index10134.png
#EXTINF:2.769433,
964079987671640-index10135.png
#EXTINF:8.341667,
964079987671640-index10136.png
#EXTINF:5.905900,
964079987671640-index10137.png
#EXTINF:8.341667,
964079987671640-index10138.png
#EXTINF:8.341667,
964079987671640-index10139.png
#EXTINF:8.341667,
964079987671640-index10140.png
#EXTINF:8.341667,
964079987671640-index10141.png
#EXTINF:8.341667,
964079987671640-index10142.png
#EXTINF:8.341667,
964079987671640-index10143.png
#EXTINF:2.268933,
964079987671640-index10144.png
#EXTINF:8.341667,
964079987671640-index10145.png
#EXTINF:1.067733,
964079987671640-index10146.png
#EXTINF:3.169833,
964079987671640-index10147.png
#EXTINF:1.835167,
964079987671640-index10148.png
#EXTINF:3.870533,
964079987671640-index10149.png
#EXTINF:8.341667,
964079987671640-index10150.png
#EXTINF:8.341667,
964079987671640-index10151.png
#EXTINF:6.339667,
964079987671640-index10152.png
#EXTINF:8.341667,
964079987671640-index10153.png
#EXTINF:8.341667,
964079987671640-index10154.png
#EXTINF:8.341667,
964079987671640-index10155.png
#EXTINF:2.602600,
964079987671640-index10156.png
#EXTINF:3.970633,
964079987671640-index10157.png
#EXTINF:8.341667,
964079987671640-index10158.png
#EXTINF:1.267933,
964079987671640-index10159.png
#EXTINF:2.502500,
964079987671640-index10160.png
#EXTINF:5.505500,
964079987671640-index10161.png
#EXTINF:8.341667,
964079987671640-index10162.png
#EXTINF:2.936267,
964079987671640-index10163.png
#EXTINF:1.067733,
964079987671640-index10164.png
#EXTINF:2.502500,
964079987671640-index10165.png
#EXTINF:8.341667,
964079987671640-index10166.png
#EXTINF:1.434767,
964079987671640-index10167.png
#EXTINF:7.674333,
964079987671640-index10168.png
#EXTINF:8.341667,
964079987671640-index10169.png
#EXTINF:2.068733,
964079987671640-index10170.png
#EXTINF:4.270933,
964079987671640-index10171.png
#EXTINF:8.341667,
964079987671640-index10172.png
#EXTINF:6.339667,
964079987671640-index10173.png
#EXTINF:7.707700,
964079987671640-index10174.png
#EXTINF:2.469133,
964079987671640-index10175.png
#EXTINF:6.373033,
964079987671640-index10176.png
#EXTINF:1.868533,
964079987671640-index10177.png
#EXTINF:0.967633,
964079987671640-index10178.png
#EXTINF:1.034367,
964079987671640-index10179.png
#EXTINF:1.267933,
964079987671640-index10180.png
#EXTINF:8.341667,
964079987671640-index10181.png
#EXTINF:0.967633,
964079987671640-index10182.png
#EXTINF:6.339667,
964079987671640-index10183.png
#EXTINF:1.735067,
964079987671640-index10184.png
#EXTINF:1.201200,
964079987671640-index10185.png
#EXTINF:8.341667,
964079987671640-index10186.png
#EXTINF:4.004000,
964079987671640-index10187.png
#EXTINF:1.267933,
964079987671640-index10188.png
#EXTINF:8.341667,
964079987671640-index10189.png
#EXTINF:4.471133,
964079987671640-index10190.png
#EXTINF:1.267933,
964079987671640-index10191.png
#EXTINF:1.568233,
964079987671640-index10192.png
#EXTINF:3.003000,
964079987671640-index10193.png
#EXTINF:1.234567,
964079987671640-index10194.png
#EXTINF:1.935267,
964079987671640-index10195.png
#EXTINF:8.341667,
964079987671640-index10196.png
#EXTINF:3.003000,
964079987671640-index10197.png
#EXTINF:1.901900,
964079987671640-index10198.png
#EXTINF:2.535867,
964079987671640-index10199.png
#EXTINF:8.341667,
964079987671640-index10200.png
#EXTINF:0.467133,
964079987671640-index10201.png
#EXTINF:1.201200,
964079987671640-index10202.png
#EXTINF:8.341667,
964079987671640-index10203.png
#EXTINF:8.341667,
964079987671640-index10204.png
#EXTINF:8.341667,
964079987671640-index10205.png
#EXTINF:1.468133,
964079987671640-index10206.png
#EXTINF:8.274933,
964079987671640-index10207.png
#EXTINF:7.707700,
964079987671640-index10208.png
#EXTINF:3.136467,
964079987671640-index10209.png
#EXTINF:8.341667,
964079987671640-index10210.png
#EXTINF:4.838167,
964079987671640-index10211.png
#EXTINF:1.267933,
964079987671640-index10212.png
#EXTINF:7.640967,
964079987671640-index10213.png
#EXTINF:8.341667,
964079987671640-index10214.png
#EXTINF:5.839167,
964079987671640-index10215.png
#EXTINF:1.968633,
964079987671640-index10216.png
#EXTINF:8.341667,
964079987671640-index10217.png
#EXTINF:0.667333,
964079987671640-index10218.png
#EXTINF:4.904900,
964079987671640-index10219.png
#EXTINF:8.341667,
964079987671640-index10220.png
#EXTINF:8.341667,
964079987671640-index10221.png
#EXTINF:4.237567,
964079987671640-index10222.png
#EXTINF:5.905900,
964079987671640-index10223.png
#EXTINF:6.106100,
964079987671640-index10224.png
#EXTINF:3.536867,
964079987671640-index10225.png
#EXTINF:8.341667,
964079987671640-index10226.png
#EXTINF:3.370033,
964079987671640-index10227.png
#EXTINF:5.305300,
964079987671640-index10228.png
#EXTINF:2.302300,
964079987671640-index10229.png
#EXTINF:1.534867,
964079987671640-index10230.png
#EXTINF:1.901900,
964079987671640-index10231.png
#EXTINF:4.504500,
964079987671640-index10232.png
#EXTINF:4.671333,
964079987671640-index10233.png
#EXTINF:1.935267,
964079987671640-index10234.png
#EXTINF:2.669333,
964079987671640-index10235.png
#EXTINF:1.735067,
964079987671640-index10236.png
#EXTINF:4.904900,
964079987671640-index10237.png
#EXTINF:2.702700,
964079987671640-index10238.png
#EXTINF:8.341667,
964079987671640-index10239.png
#EXTINF:1.201200,
964079987671640-index10240.png
#EXTINF:8.341667,
964079987671640-index10241.png
#EXTINF:3.536867,
964079987671640-index10242.png
#EXTINF:4.804800,
964079987671640-index10243.png
#EXTINF:8.341667,
964079987671640-index10244.png
#EXTINF:5.972633,
964079987671640-index10245.png
#EXTINF:3.703700,
964079987671640-index10246.png
#EXTINF:8.341667,
964079987671640-index10247.png
#EXTINF:5.939267,
964079987671640-index10248.png
#EXTINF:4.604600,
964079987671640-index10249.png
#EXTINF:8.341667,
964079987671640-index10250.png
#EXTINF:2.836167,
964079987671640-index10251.png
#EXTINF:7.974633,
964079987671640-index10252.png
#EXTINF:3.770433,
964079987671640-index10253.png
#EXTINF:2.235567,
964079987671640-index10254.png
#EXTINF:1.101100,
964079987671640-index10255.png
#EXTINF:1.501500,
964079987671640-index10256.png
#EXTINF:5.872533,
964079987671640-index10257.png
#EXTINF:1.668333,
964079987671640-index10258.png
#EXTINF:2.235567,
964079987671640-index10259.png
#EXTINF:1.101100,
964079987671640-index10260.png
#EXTINF:0.800800,
964079987671640-index10261.png
#EXTINF:1.368033,
964079987671640-index10262.png
#EXTINF:0.834167,
964079987671640-index10263.png
#EXTINF:2.702700,
964079987671640-index10264.png
#EXTINF:1.601600,
964079987671640-index10265.png
#EXTINF:3.269933,
964079987671640-index10266.png
#EXTINF:1.835167,
964079987671640-index10267.png
#EXTINF:1.668333,
964079987671640-index10268.png
#EXTINF:1.668333,
964079987671640-index10269.png
#EXTINF:1.167833,
964079987671640-index10270.png
#EXTINF:8.341667,
964079987671640-index10271.png
#EXTINF:8.341667,
964079987671640-index10272.png
#EXTINF:8.341667,
964079987671640-index10273.png
#EXTINF:8.341667,
964079987671640-index10274.png
#EXTINF:8.341667,
964079987671640-index10275.png
#EXTINF:8.341667,
964079987671640-index10276.png
#EXTINF:8.341667,
964079987671640-index10277.png
#EXTINF:8.341667,
964079987671640-index10278.png
#EXTINF:8.341667,
964079987671640-index10279.png
#EXTINF:8.341667,
964079987671640-index10280.png
#EXTINF:8.341667,
964079987671640-index10281.png
#EXTINF:8.341667,
964079987671640-index10282.png
#EXTINF:8.341667,
964079987671640-index10283.png
#EXTINF:8.341667,
964079987671640-index10284.png
#EXTINF:8.341667,
964079987671640-index10285.png
#EXTINF:8.341667,
964079987671640-index10286.png
#EXTINF:8.341667,
964079987671640-index10287.png
#EXTINF:8.341667,
964079987671640-index10288.png
#EXTINF:8.341667,
964079987671640-index10289.png
#EXTINF:8.341667,
964079987671640-index10290.png
#EXTINF:8.341667,
964079987671640-index10291.png
#EXTINF:8.341667,
964079987671640-index10292.png
#EXTINF:8.341667,
964079987671640-index10293.png
#EXTINF:8.341667,
964079987671640-index10294.png
#EXTINF:8.341667,
964079987671640-index10295.png
#EXTINF:8.341667,
964079987671640-index10296.png
#EXTINF:8.341667,
964079987671640-index10297.png
#EXTINF:8.341667,
964079987671640-index10298.png
#EXTINF:8.341667,
964079987671640-index10299.png
#EXTINF:8.341667,
964079987671640-index10300.png
#EXTINF:8.341667,
964079987671640-index10301.png
#EXTINF:8.341667,
964079987671640-index10302.png
#EXTINF:8.341667,
964079987671640-index10303.png
#EXTINF:8.341667,
964079987671640-index10304.png
#EXTINF:8.341667,
964079987671640-index10305.png
#EXTINF:8.341667,
964079987671640-index10306.png
#EXTINF:8.308300,
964079987671640-index10307.png
#EXTINF:8.341667,
964079987671640-index10308.png
#EXTINF:8.341667,
964079987671640-index10309.png
#EXTINF:8.341667,
964079987671640-index10310.png
#EXTINF:7.941267,
964079987671640-index10311.png
#EXTINF:8.341667,
964079987671640-index10312.png
#EXTINF:8.341667,
964079987671640-index10313.png
#EXTINF:8.341667,
964079987671640-index10314.png
#EXTINF:5.739067,
964079987671640-index10315.png
#EXTINF:8.341667,
964079987671640-index10316.png
#EXTINF:5.538867,
964079987671640-index10317.png
#EXTINF:2.435767,
964079987671640-index10318.png
#EXTINF:1.901900,
964079987671640-index10319.png
#EXTINF:2.302300,
964079987671640-index10320.png
#EXTINF:8.341667,
964079987671640-index10321.png
#EXTINF:8.341667,
964079987671640-index10322.png
#EXTINF:8.341667,
964079987671640-index10323.png
#EXTINF:3.336667,
964079987671640-index10324.png
#EXTINF:1.601600,
964079987671640-index10325.png
#EXTINF:3.370033,
964079987671640-index10326.png
#EXTINF:3.536867,
964079987671640-index10327.png
#EXTINF:8.341667,
964079987671640-index10328.png
#EXTINF:8.341667,
964079987671640-index10329.png
#EXTINF:8.341667,
964079987671640-index10330.png
#EXTINF:0.300300,
964079987671640-index10331.png
#EXTINF:8.341667,
964079987671640-index10332.png
#EXTINF:0.700700,
964079987671640-index10333.png
#EXTINF:3.036367,
964079987671640-index10334.png
#EXTINF:4.471133,
964079987671640-index10335.png
#EXTINF:3.103100,
964079987671640-index10336.png
#EXTINF:2.902900,
964079987671640-index10337.png
#EXTINF:1.968633,
964079987671640-index10338.png
#EXTINF:1.668333,
964079987671640-index10339.png
#EXTINF:1.968633,
964079987671640-index10340.png
#EXTINF:4.904900,
964079987671640-index10341.png
#EXTINF:3.169833,
964079987671640-index10342.png
#EXTINF:1.534867,
964079987671640-index10343.png
#EXTINF:2.836167,
964079987671640-index10344.png
#EXTINF:1.801800,
964079987671640-index10345.png
#EXTINF:4.270933,
964079987671640-index10346.png
#EXTINF:8.341667,
964079987671640-index10347.png
#EXTINF:2.202200,
964079987671640-index10348.png
#EXTINF:8.341667,
964079987671640-index10349.png
#EXTINF:8.341667,
964079987671640-index10350.png
#EXTINF:5.372033,
964079987671640-index10351.png
#EXTINF:2.936267,
964079987671640-index10352.png
#EXTINF:1.568233,
964079987671640-index10353.png
#EXTINF:6.106100,
964079987671640-index10354.png
#EXTINF:1.368033,
964079987671640-index10355.png
#EXTINF:4.004000,
964079987671640-index10356.png
#EXTINF:4.070733,
964079987671640-index10357.png
#EXTINF:8.341667,
964079987671640-index10358.png
#EXTINF:8.341667,
964079987671640-index10359.png
#EXTINF:8.341667,
964079987671640-index10360.png
#EXTINF:2.669333,
964079987671640-index10361.png
#EXTINF:4.471133,
964079987671640-index10362.png
#EXTINF:4.437767,
964079987671640-index10363.png
#EXTINF:4.671333,
964079987671640-index10364.png
#EXTINF:3.870533,
964079987671640-index10365.png
#EXTINF:2.569233,
964079987671640-index10366.png
#EXTINF:3.236567,
964079987671640-index10367.png
#EXTINF:6.773433,
964079987671640-index10368.png
#EXTINF:1.768433,
964079987671640-index10369.png
#EXTINF:1.634967,
964079987671640-index10370.png
#EXTINF:1.501500,
964079987671640-index10371.png
#EXTINF:7.607600,
964079987671640-index10372.png
#EXTINF:3.903900,
964079987671640-index10373.png
#EXTINF:3.069733,
964079987671640-index10374.png
#EXTINF:2.335667,
964079987671640-index10375.png
#EXTINF:2.635967,
964079987671640-index10376.png
#EXTINF:1.001000,
964079987671640-index10377.png
#EXTINF:1.534867,
964079987671640-index10378.png
#EXTINF:4.838167,
964079987671640-index10379.png
#EXTINF:2.936267,
964079987671640-index10380.png
#EXTINF:3.169833,
964079987671640-index10381.png
#EXTINF:2.235567,
964079987671640-index10382.png
#EXTINF:1.301300,
964079987671640-index10383.png
#EXTINF:7.307300,
964079987671640-index10384.png
#EXTINF:4.070733,
964079987671640-index10385.png
#EXTINF:8.008000,
964079987671640-index10386.png
#EXTINF:6.139467,
964079987671640-index10387.png
#EXTINF:3.136467,
964079987671640-index10388.png
#EXTINF:4.437767,
964079987671640-index10389.png
#EXTINF:5.472133,
964079987671640-index10390.png
#EXTINF:7.273933,
964079987671640-index10391.png
#EXTINF:5.572233,
964079987671640-index10392.png
#EXTINF:1.801800,
964079987671640-index10393.png
#EXTINF:2.469133,
964079987671640-index10394.png
#EXTINF:2.869533,
964079987671640-index10395.png
#EXTINF:6.973633,
964079987671640-index10396.png
#EXTINF:1.167833,
964079987671640-index10397.png
#EXTINF:0.367033,
964079987671640-index10398.png
#EXTINF:0.333667,
964079987671640-index10399.png
#EXTINF:2.335667,
964079987671640-index10400.png
#EXTINF:2.035367,
964079987671640-index10401.png
#EXTINF:1.835167,
964079987671640-index10402.png
#EXTINF:2.602600,
964079987671640-index10403.png
#EXTINF:8.341667,
964079987671640-index10404.png
#EXTINF:1.701700,
964079987671640-index10405.png
#EXTINF:5.538867,
964079987671640-index10406.png
#EXTINF:1.267933,
964079987671640-index10407.png
#EXTINF:6.239567,
964079987671640-index10408.png
#EXTINF:2.369033,
964079987671640-index10409.png
#EXTINF:1.735067,
964079987671640-index10410.png
#EXTINF:6.906900,
964079987671640-index10411.png
#EXTINF:3.670333,
964079987671640-index10412.png
#EXTINF:2.168833,
964079987671640-index10413.png
#EXTINF:1.835167,
964079987671640-index10414.png
#EXTINF:8.341667,
964079987671640-index10415.png
#EXTINF:8.341667,
964079987671640-index10416.png
#EXTINF:0.500500,
964079987671640-index10417.png
#EXTINF:8.341667,
964079987671640-index10418.png
#EXTINF:1.034367,
964079987671640-index10419.png
#EXTINF:8.308300,
964079987671640-index10420.png
#EXTINF:8.341667,
964079987671640-index10421.png
#EXTINF:8.341667,
964079987671640-index10422.png
#EXTINF:2.202200,
964079987671640-index10423.png
#EXTINF:8.341667,
964079987671640-index10424.png
#EXTINF:2.068733,
964079987671640-index10425.png
#EXTINF:2.869533,
964079987671640-index10426.png
#EXTINF:5.038367,
964079987671640-index10427.png
#EXTINF:4.137467,
964079987671640-index10428.png
#EXTINF:3.503500,
964079987671640-index10429.png
#EXTINF:8.341667,
964079987671640-index10430.png
#EXTINF:8.341667,
964079987671640-index10431.png
#EXTINF:8.341667,
964079987671640-index10432.png
#EXTINF:8.341667,
964079987671640-index10433.png
#EXTINF:6.906900,
964079987671640-index10434.png
#EXTINF:8.341667,
964079987671640-index10435.png
#EXTINF:8.341667,
964079987671640-index10436.png
#EXTINF:8.341667,
964079987671640-index10437.png
#EXTINF:8.341667,
964079987671640-index10438.png
#EXTINF:8.341667,
964079987671640-index10439.png
#EXTINF:8.341667,
964079987671640-index10440.png
#EXTINF:1.735067,
964079987671640-index10441.png
#EXTINF:8.341667,
964079987671640-index10442.png
#EXTINF:8.341667,
964079987671640-index10443.png
#EXTINF:8.341667,
964079987671640-index10444.png
#EXTINF:0.533867,
964079987671640-index10445.png
#EXTINF:6.906900,
964079987671640-index10446.png
#EXTINF:8.341667,
964079987671640-index10447.png
#EXTINF:8.341667,
964079987671640-index10448.png
#EXTINF:4.104100,
964079987671640-index10449.png
#EXTINF:1.167833,
964079987671640-index10450.png
#EXTINF:6.840167,
964079987671640-index10451.png
#EXTINF:4.738067,
964079987671640-index10452.png
#EXTINF:8.341667,
964079987671640-index10453.png
#EXTINF:8.341667,
964079987671640-index10454.png
#EXTINF:8.341667,
964079987671640-index10455.png
#EXTINF:8.341667,
964079987671640-index10456.png
#EXTINF:3.737067,
964079987671640-index10457.png
#EXTINF:3.403400,
964079987671640-index10458.png
#EXTINF:6.272933,
964079987671640-index10459.png
#EXTINF:6.039367,
964079987671640-index10460.png
#EXTINF:2.569233,
964079987671640-index10461.png
#EXTINF:2.435767,
964079987671640-index10462.png
#EXTINF:1.301300,
964079987671640-index10463.png
#EXTINF:1.501500,
964079987671640-index10464.png
#EXTINF:5.605600,
964079987671640-index10465.png
#EXTINF:1.634967,
964079987671640-index10466.png
#EXTINF:2.702700,
964079987671640-index10467.png
#EXTINF:5.005000,
964079987671640-index10468.png
#EXTINF:8.341667,
964079987671640-index10469.png
#EXTINF:1.968633,
964079987671640-index10470.png
#EXTINF:6.506500,
964079987671640-index10471.png
#EXTINF:5.872533,
964079987671640-index10472.png
#EXTINF:2.769433,
964079987671640-index10473.png
#EXTINF:2.702700,
964079987671640-index10474.png
#EXTINF:3.203200,
964079987671640-index10475.png
#EXTINF:4.437767,
964079987671640-index10476.png
#EXTINF:1.835167,
964079987671640-index10477.png
#EXTINF:8.008000,
964079987671640-index10478.png
#EXTINF:2.168833,
964079987671640-index10479.png
#EXTINF:2.002000,
964079987671640-index10480.png
#EXTINF:1.368033,
964079987671640-index10481.png
#EXTINF:5.805800,
964079987671640-index10482.png
#EXTINF:1.668333,
964079987671640-index10483.png
#EXTINF:1.668333,
964079987671640-index10484.png
#EXTINF:5.138467,
964079987671640-index10485.png
#EXTINF:2.068733,
964079987671640-index10486.png
#EXTINF:2.535867,
964079987671640-index10487.png
#EXTINF:2.802800,
964079987671640-index10488.png
#EXTINF:2.002000,
964079987671640-index10489.png
#EXTINF:1.534867,
964079987671640-index10490.png
#EXTINF:1.568233,
964079987671640-index10491.png
#EXTINF:1.001000,
964079987671640-index10492.png
#EXTINF:3.069733,
964079987671640-index10493.png
#EXTINF:3.536867,
964079987671640-index10494.png
#EXTINF:3.103100,
964079987671640-index10495.png
#EXTINF:1.735067,
964079987671640-index10496.png
#EXTINF:3.003000,
964079987671640-index10497.png
#EXTINF:1.334667,
964079987671640-index10498.png
#EXTINF:1.234567,
964079987671640-index10499.png
#EXTINF:1.267933,
964079987671640-index10500.png
#EXTINF:1.634967,
964079987671640-index10501.png
#EXTINF:2.202200,
964079987671640-index10502.png
#EXTINF:1.334667,
964079987671640-index10503.png
#EXTINF:8.341667,
964079987671640-index10504.png
#EXTINF:8.341667,
964079987671640-index10505.png
#EXTINF:8.341667,
964079987671640-index10506.png
#EXTINF:8.341667,
964079987671640-index10507.png
#EXTINF:8.341667,
964079987671640-index10508.png
#EXTINF:8.341667,
964079987671640-index10509.png
#EXTINF:8.341667,
964079987671640-index10510.png
#EXTINF:7.774433,
964079987671640-index10511.png
#EXTINF:8.341667,
964079987671640-index10512.png
#EXTINF:8.341667,
964079987671640-index10513.png
#EXTINF:4.070733,
964079987671640-index10514.png
#EXTINF:6.239567,
964079987671640-index10515.png
#EXTINF:8.341667,
964079987671640-index10516.png
#EXTINF:8.341667,
964079987671640-index10517.png
#EXTINF:4.838167,
964079987671640-index10518.png
#EXTINF:3.737067,
964079987671640-index10519.png
#EXTINF:8.341667,
964079987671640-index10520.png
#EXTINF:8.341667,
964079987671640-index10521.png
#EXTINF:8.341667,
964079987671640-index10522.png
#EXTINF:8.341667,
964079987671640-index10523.png
#EXTINF:8.341667,
964079987671640-index10524.png
#EXTINF:8.341667,
964079987671640-index10525.png
#EXTINF:8.341667,
964079987671640-index10526.png
#EXTINF:8.341667,
964079987671640-index10527.png
#EXTINF:8.341667,
964079987671640-index10528.png
#EXTINF:8.341667,
964079987671640-index10529.png
#EXTINF:2.535867,
964079987671640-index10530.png
#EXTINF:8.341667,
964079987671640-index10531.png
#EXTINF:8.341667,
964079987671640-index10532.png
#EXTINF:8.341667,
964079987671640-index10533.png
#EXTINF:8.341667,
964079987671640-index10534.png
#EXTINF:1.935267,
964079987671640-index10535.png
#EXTINF:3.470133,
964079987671640-index10536.png
#EXTINF:8.341667,
964079987671640-index10537.png
#EXTINF:8.341667,
964079987671640-index10538.png
#EXTINF:2.369033,
964079987671640-index10539.png
#EXTINF:8.341667,
964079987671640-index10540.png
#EXTINF:8.341667,
964079987671640-index10541.png
#EXTINF:8.341667,
964079987671640-index10542.png
#EXTINF:8.341667,
964079987671640-index10543.png
#EXTINF:8.341667,
964079987671640-index10544.png
#EXTINF:8.341667,
964079987671640-index10545.png
#EXTINF:8.341667,
964079987671640-index10546.png
#EXTINF:8.341667,
964079987671640-index10547.png
#EXTINF:1.001000,
964079987671640-index10548.png
#EXTINF:5.905900,
964079987671640-index10549.png
#EXTINF:2.068733,
964079987671640-index10550.png
#EXTINF:2.702700,
964079987671640-index10551.png
#EXTINF:2.502500,
964079987671640-index10552.png
#EXTINF:1.534867,
964079987671640-index10553.png
#EXTINF:1.501500,
964079987671640-index10554.png
#EXTINF:2.635967,
964079987671640-index10555.png
#EXTINF:1.534867,
964079987671640-index10556.png
#EXTINF:2.769433,
964079987671640-index10557.png
#EXTINF:1.501500,
964079987671640-index10558.png
#EXTINF:1.501500,
964079987671640-index10559.png
#EXTINF:1.935267,
964079987671640-index10560.png
#EXTINF:1.501500,
964079987671640-index10561.png
#EXTINF:1.334667,
964079987671640-index10562.png
#EXTINF:1.501500,
964079987671640-index10563.png
#EXTINF:2.569233,
964079987671640-index10564.png
#EXTINF:4.037367,
964079987671640-index10565.png
#EXTINF:7.207200,
964079987671640-index10566.png
#EXTINF:8.341667,
964079987671640-index10567.png
#EXTINF:8.341667,
964079987671640-index10568.png
#EXTINF:1.601600,
964079987671640-index10569.png
#EXTINF:3.069733,
964079987671640-index10570.png
#EXTINF:8.341667,
964079987671640-index10571.png
#EXTINF:1.835167,
964079987671640-index10572.png
#EXTINF:1.534867,
964079987671640-index10573.png
#EXTINF:2.302300,
964079987671640-index10574.png
#EXTINF:4.137467,
964079987671640-index10575.png
#EXTINF:1.968633,
964079987671640-index10576.png
#EXTINF:8.341667,
964079987671640-index10577.png
#EXTINF:3.336667,
964079987671640-index10578.png
#EXTINF:8.341667,
964079987671640-index10579.png
#EXTINF:1.067733,
964079987671640-index10580.png
#EXTINF:3.970633,
964079987671640-index10581.png
#EXTINF:4.904900,
964079987671640-index10582.png
#EXTINF:8.341667,
964079987671640-index10583.png
#EXTINF:4.938267,
964079987671640-index10584.png
#EXTINF:4.504500,
964079987671640-index10585.png
#EXTINF:8.341667,
964079987671640-index10586.png
#EXTINF:4.704700,
964079987671640-index10587.png
#EXTINF:8.341667,
964079987671640-index10588.png
#EXTINF:4.304300,
964079987671640-index10589.png
#EXTINF:3.703700,
964079987671640-index10590.png
#EXTINF:3.036367,
964079987671640-index10591.png
#EXTINF:6.840167,
964079987671640-index10592.png
#EXTINF:3.069733,
964079987671640-index10593.png
#EXTINF:2.535867,
964079987671640-index10594.png
#EXTINF:8.341667,
964079987671640-index10595.png
#EXTINF:0.533867,
964079987671640-index10596.png
#EXTINF:6.206200,
964079987671640-index10597.png
#EXTINF:8.341667,
964079987671640-index10598.png
#EXTINF:8.341667,
964079987671640-index10599.png
#EXTINF:8.341667,
964079987671640-index10600.png
#EXTINF:8.341667,
964079987671640-index10601.png
#EXTINF:3.903900,
964079987671640-index10602.png
#EXTINF:8.341667,
964079987671640-index10603.png
#EXTINF:8.341667,
964079987671640-index10604.png
#EXTINF:8.341667,
964079987671640-index10605.png
#EXTINF:6.039367,
964079987671640-index10606.png
#EXTINF:6.673333,
964079987671640-index10607.png
#EXTINF:8.341667,
964079987671640-index10608.png
#EXTINF:8.341667,
964079987671640-index10609.png
#EXTINF:8.341667,
964079987671640-index10610.png
#EXTINF:7.007000,
964079987671640-index10611.png
#EXTINF:2.702700,
964079987671640-index10612.png
#EXTINF:1.968633,
964079987671640-index10613.png
#EXTINF:8.341667,
964079987671640-index10614.png
#EXTINF:4.871533,
964079987671640-index10615.png
#EXTINF:1.001000,
964079987671640-index10616.png
#EXTINF:8.341667,
964079987671640-index10617.png
#EXTINF:1.968633,
964079987671640-index10618.png
#EXTINF:8.341667,
964079987671640-index10619.png
#EXTINF:3.636967,
964079987671640-index10620.png
#EXTINF:8.341667,
964079987671640-index10621.png
#EXTINF:3.169833,
964079987671640-index10622.png
#EXTINF:8.341667,
964079987671640-index10623.png
#EXTINF:7.607600,
964079987671640-index10624.png
#EXTINF:4.270933,
964079987671640-index10625.png
#EXTINF:8.341667,
964079987671640-index10626.png
#EXTINF:8.341667,
964079987671640-index10627.png
#EXTINF:8.341667,
964079987671640-index10628.png
#EXTINF:0.667333,
964079987671640-index10629.png
#EXTINF:2.669333,
964079987671640-index10630.png
#EXTINF:5.305300,
964079987671640-index10631.png
#EXTINF:1.234567,
964079987671640-index10632.png
#EXTINF:4.637967,
964079987671640-index10633.png
#EXTINF:1.901900,
964079987671640-index10634.png
#EXTINF:8.341667,
964079987671640-index10635.png
#EXTINF:0.800800,
964079987671640-index10636.png
#EXTINF:8.341667,
964079987671640-index10637.png
#EXTINF:8.341667,
964079987671640-index10638.png
#EXTINF:8.341667,
964079987671640-index10639.png
#EXTINF:8.341667,
964079987671640-index10640.png
#EXTINF:8.341667,
964079987671640-index10641.png
#EXTINF:1.134467,
964079987671640-index10642.png
#EXTINF:2.802800,
964079987671640-index10643.png
#EXTINF:7.440767,
964079987671640-index10644.png
#EXTINF:8.341667,
964079987671640-index10645.png
#EXTINF:5.605600,
964079987671640-index10646.png
#EXTINF:7.374033,
964079987671640-index10647.png
#EXTINF:2.769433,
964079987671640-index10648.png
#EXTINF:7.774433,
964079987671640-index10649.png
#EXTINF:8.341667,
964079987671640-index10650.png
#EXTINF:8.341667,
964079987671640-index10651.png
#EXTINF:8.341667,
964079987671640-index10652.png
#EXTINF:8.341667,
964079987671640-index10653.png
#EXTINF:8.341667,
964079987671640-index10654.png
#EXTINF:2.502500,
964079987671640-index10655.png
#EXTINF:8.341667,
964079987671640-index10656.png
#EXTINF:5.405400,
964079987671640-index10657.png
#EXTINF:8.341667,
964079987671640-index10658.png
#EXTINF:0.266933,
964079987671640-index10659.png
#EXTINF:3.803800,
964079987671640-index10660.png
#EXTINF:8.341667,
964079987671640-index10661.png
#EXTINF:8.341667,
964079987671640-index10662.png
#EXTINF:8.341667,
964079987671640-index10663.png
#EXTINF:8.341667,
964079987671640-index10664.png
#EXTINF:3.103100,
964079987671640-index10665.png
#EXTINF:6.373033,
964079987671640-index10666.png
#EXTINF:5.739067,
964079987671640-index10667.png
#EXTINF:8.341667,
964079987671640-index10668.png
#EXTINF:2.635967,
964079987671640-index10669.png
#EXTINF:8.341667,
964079987671640-index10670.png
#EXTINF:8.341667,
964079987671640-index10671.png
#EXTINF:8.341667,
964079987671640-index10672.png
#EXTINF:8.341667,
964079987671640-index10673.png
#EXTINF:8.341667,
964079987671640-index10674.png
#EXTINF:8.341667,
964079987671640-index10675.png
#EXTINF:8.341667,
964079987671640-index10676.png
#EXTINF:8.341667,
964079987671640-index10677.png
#EXTINF:8.341667,
964079987671640-index10678.png
#EXTINF:8.341667,
964079987671640-index10679.png
#EXTINF:4.137467,
964079987671640-index10680.png
#EXTINF:8.341667,
964079987671640-index10681.png
#EXTINF:8.341667,
964079987671640-index10682.png
#EXTINF:8.341667,
964079987671640-index10683.png
#EXTINF:8.341667,
964079987671640-index10684.png
#EXTINF:8.341667,
964079987671640-index10685.png
#EXTINF:8.341667,
964079987671640-index10686.png
#EXTINF:8.341667,
964079987671640-index10687.png
#EXTINF:8.341667,
964079987671640-index10688.png
#EXTINF:8.341667,
964079987671640-index10689.png
#EXTINF:8.341667,
964079987671640-index10690.png
#EXTINF:6.806800,
964079987671640-index10691.png
#EXTINF:3.370033,
964079987671640-index10692.png
#EXTINF:2.902900,
964079987671640-index10693.png
#EXTINF:8.341667,
964079987671640-index10694.png
#EXTINF:8.341667,
964079987671640-index10695.png
#EXTINF:8.141467,
964079987671640-index10696.png
#EXTINF:8.341667,
964079987671640-index10697.png
#EXTINF:2.502500,
964079987671640-index10698.png
#EXTINF:1.134467,
964079987671640-index10699.png
#EXTINF:4.070733,
964079987671640-index10700.png
#EXTINF:5.805800,
964079987671640-index10701.png
#EXTINF:8.341667,
964079987671640-index10702.png
#EXTINF:1.201200,
964079987671640-index10703.png
#EXTINF:2.135467,
964079987671640-index10704.png
#EXTINF:7.974633,
964079987671640-index10705.png
#EXTINF:5.338667,
964079987671640-index10706.png
#EXTINF:8.341667,
964079987671640-index10707.png
#EXTINF:8.341667,
964079987671640-index10708.png
#EXTINF:8.341667,
964079987671640-index10709.png
#EXTINF:0.367033,
964079987671640-index10710.png
#EXTINF:8.341667,
964079987671640-index10711.png
#EXTINF:8.341667,
964079987671640-index10712.png
#EXTINF:1.101100,
964079987671640-index10713.png
#EXTINF:3.003000,
964079987671640-index10714.png
#EXTINF:2.602600,
964079987671640-index10715.png
#EXTINF:5.739067,
964079987671640-index10716.png
#EXTINF:2.268933,
964079987671640-index10717.png
#EXTINF:4.471133,
964079987671640-index10718.png
#EXTINF:3.970633,
964079987671640-index10719.png
#EXTINF:2.068733,
964079987671640-index10720.png
#EXTINF:2.402400,
964079987671640-index10721.png
#EXTINF:8.341667,
964079987671640-index10722.png
#EXTINF:8.341667,
964079987671640-index10723.png
#EXTINF:8.341667,
964079987671640-index10724.png
#EXTINF:0.433767,
964079987671640-index10725.png
#EXTINF:2.836167,
964079987671640-index10726.png
#EXTINF:3.169833,
964079987671640-index10727.png
#EXTINF:5.605600,
964079987671640-index10728.png
#EXTINF:5.005000,
964079987671640-index10729.png
#EXTINF:1.067733,
964079987671640-index10730.png
#EXTINF:6.239567,
964079987671640-index10731.png
#EXTINF:1.267933,
964079987671640-index10732.png
#EXTINF:1.134467,
964079987671640-index10733.png
#EXTINF:8.341667,
964079987671640-index10734.png
#EXTINF:1.167833,
964079987671640-index10735.png
#EXTINF:0.800800,
964079987671640-index10736.png
#EXTINF:1.134467,
964079987671640-index10737.png
#EXTINF:8.341667,
964079987671640-index10738.png
#EXTINF:1.201200,
964079987671640-index10739.png
#EXTINF:1.568233,
964079987671640-index10740.png
#EXTINF:6.973633,
964079987671640-index10741.png
#EXTINF:5.171833,
964079987671640-index10742.png
#EXTINF:2.635967,
964079987671640-index10743.png
#EXTINF:3.837167,
964079987671640-index10744.png
#EXTINF:3.803800,
964079987671640-index10745.png
#EXTINF:4.771433,
964079987671640-index10746.png
#EXTINF:3.403400,
964079987671640-index10747.png
#EXTINF:1.901900,
964079987671640-index10748.png
#EXTINF:0.834167,
964079987671640-index10749.png
#EXTINF:1.001000,
964079987671640-index10750.png
#EXTINF:5.205200,
964079987671640-index10751.png
#EXTINF:7.640967,
964079987671640-index10752.png
#EXTINF:5.338667,
964079987671640-index10753.png
#EXTINF:2.002000,
964079987671640-index10754.png
#EXTINF:3.169833,
964079987671640-index10755.png
#EXTINF:4.804800,
964079987671640-index10756.png
#EXTINF:4.137467,
964079987671640-index10757.png
#EXTINF:1.701700,
964079987671640-index10758.png
#EXTINF:8.341667,
964079987671640-index10759.png
#EXTINF:4.637967,
964079987671640-index10760.png
#EXTINF:2.202200,
964079987671640-index10761.png
#EXTINF:7.907900,
964079987671640-index10762.png
#EXTINF:2.135467,
964079987671640-index10763.png
#EXTINF:5.772433,
964079987671640-index10764.png
#EXTINF:5.338667,
964079987671640-index10765.png
#EXTINF:8.341667,
964079987671640-index10766.png
#EXTINF:3.403400,
964079987671640-index10767.png
#EXTINF:8.341667,
964079987671640-index10768.png
#EXTINF:3.169833,
964079987671640-index10769.png
#EXTINF:8.341667,
964079987671640-index10770.png
#EXTINF:8.341667,
964079987671640-index10771.png
#EXTINF:8.341667,
964079987671640-index10772.png
#EXTINF:8.341667,
964079987671640-index10773.png
#EXTINF:8.341667,
964079987671640-index10774.png
#EXTINF:8.341667,
964079987671640-index10775.png
#EXTINF:8.341667,
964079987671640-index10776.png
#EXTINF:8.341667,
964079987671640-index10777.png
#EXTINF:8.341667,
964079987671640-index10778.png
#EXTINF:8.341667,
964079987671640-index10779.png
#EXTINF:8.341667,
964079987671640-index10780.png
#EXTINF:8.341667,
964079987671640-index10781.png
#EXTINF:8.341667,
964079987671640-index10782.png
#EXTINF:8.341667,
964079987671640-index10783.png
#EXTINF:1.267933,
964079987671640-index10784.png
#EXTINF:8.341667,
964079987671640-index10785.png
#EXTINF:8.341667,
964079987671640-index10786.png
#EXTINF:0.500500,
964079987671640-index10787.png
#EXTINF:2.535867,
964079987671640-index10788.png
#EXTINF:3.536867,
964079987671640-index10789.png
#EXTINF:8.341667,
964079987671640-index10790.png
#EXTINF:8.341667,
964079987671640-index10791.png
#EXTINF:5.672333,
964079987671640-index10792.png
#EXTINF:7.607600,
964079987671640-index10793.png
#EXT-X-ENDLIST
