#EXTM3U
#EXT-X-VERSION:3
#EXT-X-TARGETDURATION:11
#EXT-X-MEDIA-SEQUENCE:10001
#EXTINF:3.276689,
964459167172511-index10001.ts
#EXTINF:1.042778,
964459167172511-index10002.ts
#EXTINF:1.710156,
964459167172511-index10003.ts
#EXTINF:10.052378,
964459167172511-index10004.ts
#EXTINF:6.381800,
964459167172511-index10005.ts
#EXTINF:3.587156,
964459167172511-index10006.ts
#EXTINF:7.382867,
964459167172511-index10007.ts
#EXTINF:6.048111,
964459167172511-index10008.ts
#EXTINF:3.128333,
964459167172511-index10009.ts
#EXTINF:3.962556,
964459167172511-index10010.ts
#EXTINF:2.002133,
964459167172511-index10011.ts
#EXTINF:2.210689,
964459167172511-index10012.ts
#EXTINF:5.255600,
964459167172511-index10013.ts
#EXTINF:1.126200,
964459167172511-index10014.ts
#EXTINF:5.380733,
964459167172511-index10015.ts
#EXTINF:4.713356,
964459167172511-index10016.ts
#EXTINF:1.376467,
964459167172511-index10017.ts
#EXTINF:5.922978,
964459167172511-index10018.ts
#EXTINF:3.420311,
964459167172511-index10019.ts
#EXTINF:5.631000,
964459167172511-index10020.ts
#EXTINF:2.794644,
964459167172511-index10021.ts
#EXTINF:2.168978,
964459167172511-index10022.ts
#EXTINF:10.427778,
964459167172511-index10023.ts
#EXTINF:3.837422,
964459167172511-index10024.ts
#EXTINF:1.084489,
964459167172511-index10025.ts
#EXTINF:2.335822,
964459167172511-index10026.ts
#EXTINF:1.209622,
964459167172511-index10027.ts
#EXTINF:1.418178,
964459167172511-index10028.ts
#EXTINF:2.002133,
964459167172511-index10029.ts
#EXTINF:1.501600,
964459167172511-index10030.ts
#EXTINF:2.252400,
964459167172511-index10031.ts
#EXTINF:2.627800,
964459167172511-index10032.ts
#EXTINF:5.672711,
964459167172511-index10033.ts
#EXTINF:7.216022,
964459167172511-index10034.ts
#EXTINF:1.084489,
964459167172511-index10035.ts
#EXTINF:2.419244,
964459167172511-index10036.ts
#EXTINF:1.126200,
964459167172511-index10037.ts
#EXTINF:1.793578,
964459167172511-index10038.ts
#EXTINF:3.378600,
964459167172511-index10039.ts
#EXTINF:1.167911,
964459167172511-index10040.ts
#EXTINF:3.170044,
964459167172511-index10041.ts
#EXTINF:1.501600,
964459167172511-index10042.ts
#EXTINF:1.042778,
964459167172511-index10043.ts
#EXTINF:7.174311,
964459167172511-index10044.ts
#EXTINF:6.173244,
964459167172511-index10045.ts
#EXTINF:5.088756,
964459167172511-index10046.ts
#EXTINF:3.545444,
964459167172511-index10047.ts
#EXTINF:3.128333,
964459167172511-index10048.ts
#EXTINF:7.299444,
964459167172511-index10049.ts
#EXTINF:4.629933,
964459167172511-index10050.ts
#EXTINF:6.506933,
964459167172511-index10051.ts
#EXTINF:6.131533,
964459167172511-index10052.ts
#EXTINF:7.216022,
964459167172511-index10053.ts
#EXTINF:1.918711,
964459167172511-index10054.ts
#EXTINF:2.711222,
964459167172511-index10055.ts
#EXTINF:3.086622,
964459167172511-index10056.ts
#EXTINF:10.427778,
964459167172511-index10057.ts
#EXTINF:2.836356,
964459167172511-index10058.ts
#EXTINF:1.209622,
964459167172511-index10059.ts
#EXTINF:4.337956,
964459167172511-index10060.ts
#EXTINF:1.877000,
964459167172511-index10061.ts
#EXTINF:1.334756,
964459167172511-index10062.ts
#EXTINF:2.419244,
964459167172511-index10063.ts
#EXTINF:10.427778,
964459167172511-index10064.ts
#EXTINF:8.008533,
964459167172511-index10065.ts
#EXTINF:1.960422,
964459167172511-index10066.ts
#EXTINF:5.756133,
964459167172511-index10067.ts
#EXTINF:3.044911,
964459167172511-index10068.ts
#EXTINF:2.210689,
964459167172511-index10069.ts
#EXTINF:6.798911,
964459167172511-index10070.ts
#EXTINF:10.427778,
964459167172511-index10071.ts
#EXTINF:2.127267,
964459167172511-index10072.ts
#EXTINF:1.793578,
964459167172511-index10073.ts
#EXTINF:5.005333,
964459167172511-index10074.ts
#EXTINF:3.628867,
964459167172511-index10075.ts
#EXTINF:2.669511,
964459167172511-index10076.ts
#EXTINF:2.919778,
964459167172511-index10077.ts
#EXTINF:9.676978,
964459167172511-index10078.ts
#EXTINF:10.010667,
964459167172511-index10079.ts
#EXTINF:4.129400,
964459167172511-index10080.ts
#EXTINF:4.337956,
964459167172511-index10081.ts
#EXTINF:10.427778,
964459167172511-index10082.ts
#EXTINF:10.427778,
964459167172511-index10083.ts
#EXTINF:10.427778,
964459167172511-index10084.ts
#EXTINF:3.086622,
964459167172511-index10085.ts
#EXTINF:3.545444,
964459167172511-index10086.ts
#EXTINF:6.924044,
964459167172511-index10087.ts
#EXTINF:4.755067,
964459167172511-index10088.ts
#EXTINF:3.211756,
964459167172511-index10089.ts
#EXTINF:4.463089,
964459167172511-index10090.ts
#EXTINF:8.258800,
964459167172511-index10091.ts
#EXTINF:3.044911,
964459167172511-index10092.ts
#EXTINF:2.419244,
964459167172511-index10093.ts
#EXTINF:10.427778,
964459167172511-index10094.ts
#EXTINF:1.251333,
964459167172511-index10095.ts
#EXTINF:4.421378,
964459167172511-index10096.ts
#EXTINF:1.501600,
964459167172511-index10097.ts
#EXTINF:2.294111,
964459167172511-index10098.ts
#EXTINF:5.213889,
964459167172511-index10099.ts
#EXTINF:1.543311,
964459167172511-index10100.ts
#EXTINF:1.167911,
964459167172511-index10101.ts
#EXTINF:1.293044,
964459167172511-index10102.ts
#EXTINF:1.334756,
964459167172511-index10103.ts
#EXTINF:3.003200,
964459167172511-index10104.ts
#EXTINF:1.293044,
964459167172511-index10105.ts
#EXTINF:2.460956,
964459167172511-index10106.ts
#EXTINF:3.879133,
964459167172511-index10107.ts
#EXTINF:1.835289,
964459167172511-index10108.ts
#EXTINF:5.505867,
964459167172511-index10109.ts
#EXTINF:1.543311,
964459167172511-index10110.ts
#EXTINF:1.376467,
964459167172511-index10111.ts
#EXTINF:6.590356,
964459167172511-index10112.ts
#EXTINF:1.710156,
964459167172511-index10113.ts
#EXTINF:3.044911,
964459167172511-index10114.ts
#EXTINF:1.793578,
964459167172511-index10115.ts
#EXTINF:4.212822,
964459167172511-index10116.ts
#EXTINF:2.294111,
964459167172511-index10117.ts
#EXTINF:5.422444,
964459167172511-index10118.ts
#EXTINF:3.795711,
964459167172511-index10119.ts
#EXTINF:4.129400,
964459167172511-index10120.ts
#EXTINF:2.085556,
964459167172511-index10121.ts
#EXTINF:2.836356,
964459167172511-index10122.ts
#EXTINF:4.212822,
964459167172511-index10123.ts
#EXTINF:4.421378,
964459167172511-index10124.ts
#EXTINF:3.420311,
964459167172511-index10125.ts
#EXTINF:1.543311,
964459167172511-index10126.ts
#EXTINF:1.293044,
964459167172511-index10127.ts
#EXTINF:5.297311,
964459167172511-index10128.ts
#EXTINF:3.336889,
964459167172511-index10129.ts
#EXTINF:3.670578,
964459167172511-index10130.ts
#EXTINF:4.004267,
964459167172511-index10131.ts
#EXTINF:1.543311,
964459167172511-index10132.ts
#EXTINF:3.670578,
964459167172511-index10133.ts
#EXTINF:1.126200,
964459167172511-index10134.ts
#EXTINF:8.175378,
964459167172511-index10135.ts
#EXTINF:3.795711,
964459167172511-index10136.ts
#EXTINF:1.042778,
964459167172511-index10137.ts
#EXTINF:4.171111,
964459167172511-index10138.ts
#EXTINF:9.802111,
964459167172511-index10139.ts
#EXTINF:3.628867,
964459167172511-index10140.ts
#EXTINF:7.382867,
964459167172511-index10141.ts
#EXTINF:4.963622,
964459167172511-index10142.ts
#EXTINF:2.752933,
964459167172511-index10143.ts
#EXTINF:1.543311,
964459167172511-index10144.ts
#EXTINF:2.043844,
964459167172511-index10145.ts
#EXTINF:5.213889,
964459167172511-index10146.ts
#EXTINF:3.503733,
964459167172511-index10147.ts
#EXTINF:10.427778,
964459167172511-index10148.ts
#EXTINF:10.427778,
964459167172511-index10149.ts
#EXTINF:2.711222,
964459167172511-index10150.ts
#EXTINF:6.465222,
964459167172511-index10151.ts
#EXTINF:1.167911,
964459167172511-index10152.ts
#EXTINF:4.129400,
964459167172511-index10153.ts
#EXTINF:4.087689,
964459167172511-index10154.ts
#EXTINF:2.419244,
964459167172511-index10155.ts
#EXTINF:10.427778,
964459167172511-index10156.ts
#EXTINF:2.711222,
964459167172511-index10157.ts
#EXTINF:3.545444,
964459167172511-index10158.ts
#EXTINF:1.585022,
964459167172511-index10159.ts
#EXTINF:1.084489,
964459167172511-index10160.ts
#EXTINF:1.418178,
964459167172511-index10161.ts
#EXTINF:2.168978,
964459167172511-index10162.ts
#EXTINF:1.585022,
964459167172511-index10163.ts
#EXTINF:4.755067,
964459167172511-index10164.ts
#EXTINF:10.135800,
964459167172511-index10165.ts
#EXTINF:1.084489,
964459167172511-index10166.ts
#EXTINF:1.668444,
964459167172511-index10167.ts
#EXTINF:2.335822,
964459167172511-index10168.ts
#EXTINF:1.418178,
964459167172511-index10169.ts
#EXTINF:4.421378,
964459167172511-index10170.ts
#EXTINF:1.793578,
964459167172511-index10171.ts
#EXTINF:1.501600,
964459167172511-index10172.ts
#EXTINF:1.418178,
964459167172511-index10173.ts
#EXTINF:1.501600,
964459167172511-index10174.ts
#EXTINF:2.043844,
964459167172511-index10175.ts
#EXTINF:5.047044,
964459167172511-index10176.ts
#EXTINF:4.421378,
964459167172511-index10177.ts
#EXTINF:5.422444,
964459167172511-index10178.ts
#EXTINF:1.167911,
964459167172511-index10179.ts
#EXTINF:3.044911,
964459167172511-index10180.ts
#EXTINF:10.427778,
964459167172511-index10181.ts
#EXTINF:7.257733,
964459167172511-index10182.ts
#EXTINF:1.918711,
964459167172511-index10183.ts
#EXTINF:1.126200,
964459167172511-index10184.ts
#EXTINF:3.879133,
964459167172511-index10185.ts
#EXTINF:2.836356,
964459167172511-index10186.ts
#EXTINF:3.837422,
964459167172511-index10187.ts
#EXTINF:1.251333,
964459167172511-index10188.ts
#EXTINF:1.918711,
964459167172511-index10189.ts
#EXTINF:1.668444,
964459167172511-index10190.ts
#EXTINF:10.427778,
964459167172511-index10191.ts
#EXTINF:5.005333,
964459167172511-index10192.ts
#EXTINF:5.339022,
964459167172511-index10193.ts
#EXTINF:1.835289,
964459167172511-index10194.ts
#EXTINF:1.710156,
964459167172511-index10195.ts
#EXTINF:1.960422,
964459167172511-index10196.ts
#EXTINF:3.003200,
964459167172511-index10197.ts
#EXTINF:1.918711,
964459167172511-index10198.ts
#EXTINF:1.585022,
964459167172511-index10199.ts
#EXTINF:1.626733,
964459167172511-index10200.ts
#EXTINF:2.419244,
964459167172511-index10201.ts
#EXTINF:7.841689,
964459167172511-index10202.ts
#EXTINF:1.960422,
964459167172511-index10203.ts
#EXTINF:6.715489,
964459167172511-index10204.ts
#EXTINF:6.131533,
964459167172511-index10205.ts
#EXTINF:7.424578,
964459167172511-index10206.ts
#EXTINF:1.668444,
964459167172511-index10207.ts
#EXTINF:3.253467,
964459167172511-index10208.ts
#EXTINF:8.967889,
964459167172511-index10209.ts
#EXTINF:2.961489,
964459167172511-index10210.ts
#EXTINF:3.795711,
964459167172511-index10211.ts
#EXTINF:2.419244,
964459167172511-index10212.ts
#EXTINF:7.174311,
964459167172511-index10213.ts
#EXTINF:1.585022,
964459167172511-index10214.ts
#EXTINF:7.883400,
964459167172511-index10215.ts
#EXTINF:1.167911,
964459167172511-index10216.ts
#EXTINF:3.044911,
964459167172511-index10217.ts
#EXTINF:1.084489,
964459167172511-index10218.ts
#EXTINF:7.591422,
964459167172511-index10219.ts
#EXTINF:10.427778,
964459167172511-index10220.ts
#EXTINF:10.427778,
964459167172511-index10221.ts
#EXTINF:10.427778,
964459167172511-index10222.ts
#EXTINF:10.427778,
964459167172511-index10223.ts
#EXTINF:5.047044,
964459167172511-index10224.ts
#EXTINF:2.085556,
964459167172511-index10225.ts
#EXTINF:2.544378,
964459167172511-index10226.ts
#EXTINF:6.048111,
964459167172511-index10227.ts
#EXTINF:3.336889,
964459167172511-index10228.ts
#EXTINF:10.427778,
964459167172511-index10229.ts
#EXTINF:10.427778,
964459167172511-index10230.ts
#EXTINF:1.251333,
964459167172511-index10231.ts
#EXTINF:2.544378,
964459167172511-index10232.ts
#EXTINF:10.427778,
964459167172511-index10233.ts
#EXTINF:5.797844,
964459167172511-index10234.ts
#EXTINF:3.795711,
964459167172511-index10235.ts
#EXTINF:10.427778,
964459167172511-index10236.ts
#EXTINF:9.426711,
964459167172511-index10237.ts
#EXTINF:10.177511,
964459167172511-index10238.ts
#EXTINF:3.128333,
964459167172511-index10239.ts
#EXTINF:2.919778,
964459167172511-index10240.ts
#EXTINF:4.463089,
964459167172511-index10241.ts
#EXTINF:7.591422,
964459167172511-index10242.ts
#EXTINF:2.794644,
964459167172511-index10243.ts
#EXTINF:8.634200,
964459167172511-index10244.ts
#EXTINF:3.712289,
964459167172511-index10245.ts
#EXTINF:6.214956,
964459167172511-index10246.ts
#EXTINF:10.427778,
964459167172511-index10247.ts
#EXTINF:3.295178,
964459167172511-index10248.ts
#EXTINF:2.460956,
964459167172511-index10249.ts
#EXTINF:3.837422,
964459167172511-index10250.ts
#EXTINF:8.509067,
964459167172511-index10251.ts
#EXTINF:2.419244,
964459167172511-index10252.ts
#EXTINF:6.506933,
964459167172511-index10253.ts
#EXTINF:1.835289,
964459167172511-index10254.ts
#EXTINF:1.209622,
964459167172511-index10255.ts
#EXTINF:5.380733,
964459167172511-index10256.ts
#EXTINF:7.716556,
964459167172511-index10257.ts
#EXTINF:2.127267,
964459167172511-index10258.ts
#EXTINF:3.879133,
964459167172511-index10259.ts
#EXTINF:2.544378,
964459167172511-index10260.ts
#EXTINF:1.918711,
964459167172511-index10261.ts
#EXTINF:9.385000,
964459167172511-index10262.ts
#EXTINF:6.548644,
964459167172511-index10263.ts
#EXTINF:2.627800,
964459167172511-index10264.ts
#EXTINF:2.794644,
964459167172511-index10265.ts
#EXTINF:5.047044,
964459167172511-index10266.ts
#EXTINF:3.837422,
964459167172511-index10267.ts
#EXTINF:10.427778,
964459167172511-index10268.ts
#EXTINF:2.544378,
964459167172511-index10269.ts
#EXTINF:2.711222,
964459167172511-index10270.ts
#EXTINF:3.545444,
964459167172511-index10271.ts
#EXTINF:3.754000,
964459167172511-index10272.ts
#EXTINF:1.167911,
964459167172511-index10273.ts
#EXTINF:2.502667,
964459167172511-index10274.ts
#EXTINF:4.379667,
964459167172511-index10275.ts
#EXTINF:10.427778,
964459167172511-index10276.ts
#EXTINF:8.592489,
964459167172511-index10277.ts
#EXTINF:9.593556,
964459167172511-index10278.ts
#EXTINF:9.635267,
964459167172511-index10279.ts
#EXTINF:5.547578,
964459167172511-index10280.ts
#EXTINF:9.885533,
964459167172511-index10281.ts
#EXTINF:7.549711,
964459167172511-index10282.ts
#EXTINF:5.797844,
964459167172511-index10283.ts
#EXTINF:5.130467,
964459167172511-index10284.ts
#EXTINF:1.084489,
964459167172511-index10285.ts
#EXTINF:2.919778,
964459167172511-index10286.ts
#EXTINF:8.425644,
964459167172511-index10287.ts
#EXTINF:4.671644,
964459167172511-index10288.ts
#EXTINF:4.921911,
964459167172511-index10289.ts
#EXTINF:6.298378,
964459167172511-index10290.ts
#EXTINF:2.335822,
964459167172511-index10291.ts
#EXTINF:1.251333,
964459167172511-index10292.ts
#EXTINF:9.802111,
964459167172511-index10293.ts
#EXTINF:3.795711,
964459167172511-index10294.ts
#EXTINF:4.671644,
964459167172511-index10295.ts
#EXTINF:2.544378,
964459167172511-index10296.ts
#EXTINF:5.505867,
964459167172511-index10297.ts
#EXTINF:2.586089,
964459167172511-index10298.ts
#EXTINF:7.174311,
964459167172511-index10299.ts
#EXTINF:5.881267,
964459167172511-index10300.ts
#EXTINF:9.468422,
964459167172511-index10301.ts
#EXTINF:8.342222,
964459167172511-index10302.ts
#EXTINF:4.087689,
964459167172511-index10303.ts
#EXTINF:5.839556,
964459167172511-index10304.ts
#EXTINF:3.962556,
964459167172511-index10305.ts
#EXTINF:5.756133,
964459167172511-index10306.ts
#EXTINF:5.881267,
964459167172511-index10307.ts
#EXTINF:10.427778,
964459167172511-index10308.ts
#EXTINF:5.589289,
964459167172511-index10309.ts
#EXTINF:4.880200,
964459167172511-index10310.ts
#EXTINF:7.549711,
964459167172511-index10311.ts
#EXTINF:2.752933,
964459167172511-index10312.ts
#EXTINF:8.842756,
964459167172511-index10313.ts
#EXTINF:2.627800,
964459167172511-index10314.ts
#EXTINF:4.421378,
964459167172511-index10315.ts
#EXTINF:6.757200,
964459167172511-index10316.ts
#EXTINF:10.427778,
964459167172511-index10317.ts
#EXTINF:4.755067,
964459167172511-index10318.ts
#EXTINF:5.005333,
964459167172511-index10319.ts
#EXTINF:10.052378,
964459167172511-index10320.ts
#EXTINF:4.087689,
964459167172511-index10321.ts
#EXTINF:4.421378,
964459167172511-index10322.ts
#EXTINF:7.841689,
964459167172511-index10323.ts
#EXTINF:5.047044,
964459167172511-index10324.ts
#EXTINF:3.587156,
964459167172511-index10325.ts
#EXTINF:5.881267,
964459167172511-index10326.ts
#EXTINF:3.378600,
964459167172511-index10327.ts
#EXTINF:2.252400,
964459167172511-index10328.ts
#EXTINF:9.051311,
964459167172511-index10329.ts
#EXTINF:7.299444,
964459167172511-index10330.ts
#EXTINF:2.919778,
964459167172511-index10331.ts
#EXTINF:1.960422,
964459167172511-index10332.ts
#EXTINF:5.213889,
964459167172511-index10333.ts
#EXTINF:9.343289,
964459167172511-index10334.ts
#EXTINF:6.340089,
964459167172511-index10335.ts
#EXTINF:7.007467,
964459167172511-index10336.ts
#EXTINF:10.427778,
964459167172511-index10337.ts
#EXTINF:8.217089,
964459167172511-index10338.ts
#EXTINF:4.421378,
964459167172511-index10339.ts
#EXTINF:10.427778,
964459167172511-index10340.ts
#EXTINF:8.258800,
964459167172511-index10341.ts
#EXTINF:10.427778,
964459167172511-index10342.ts
#EXTINF:1.459889,
964459167172511-index10343.ts
#EXTINF:4.421378,
964459167172511-index10344.ts
#EXTINF:5.047044,
964459167172511-index10345.ts
#EXTINF:7.424578,
964459167172511-index10346.ts
#EXTINF:1.918711,
964459167172511-index10347.ts
#EXTINF:10.427778,
964459167172511-index10348.ts
#EXTINF:1.877000,
964459167172511-index10349.ts
#EXTINF:6.882333,
964459167172511-index10350.ts
#EXTINF:10.427778,
964459167172511-index10351.ts
#EXTINF:8.801044,
964459167172511-index10352.ts
#EXTINF:6.423511,
964459167172511-index10353.ts
#EXTINF:2.794644,
964459167172511-index10354.ts
#EXTINF:2.419244,
964459167172511-index10355.ts
#EXTINF:7.174311,
964459167172511-index10356.ts
#EXTINF:4.921911,
964459167172511-index10357.ts
#EXTINF:8.008533,
964459167172511-index10358.ts
#EXTINF:10.010667,
964459167172511-index10359.ts
#EXTINF:2.210689,
964459167172511-index10360.ts
#EXTINF:6.465222,
964459167172511-index10361.ts
#EXTINF:4.880200,
964459167172511-index10362.ts
#EXTINF:3.295178,
964459167172511-index10363.ts
#EXTINF:6.006400,
964459167172511-index10364.ts
#EXTINF:10.427778,
964459167172511-index10365.ts
#EXTINF:7.049178,
964459167172511-index10366.ts
#EXTINF:2.419244,
964459167172511-index10367.ts
#EXTINF:9.301578,
964459167172511-index10368.ts
#EXTINF:2.627800,
964459167172511-index10369.ts
#EXTINF:6.131533,
964459167172511-index10370.ts
#EXTINF:2.335822,
964459167172511-index10371.ts
#EXTINF:2.836356,
964459167172511-index10372.ts
#EXTINF:6.089822,
964459167172511-index10373.ts
#EXTINF:8.008533,
964459167172511-index10374.ts
#EXTINF:3.170044,
964459167172511-index10375.ts
#EXTINF:4.838489,
964459167172511-index10376.ts
#EXTINF:10.010667,
964459167172511-index10377.ts
#EXTINF:3.795711,
964459167172511-index10378.ts
#EXTINF:7.799978,
964459167172511-index10379.ts
#EXTINF:4.337956,
964459167172511-index10380.ts
#EXTINF:8.967889,
964459167172511-index10381.ts
#EXTINF:7.132600,
964459167172511-index10382.ts
#EXTINF:1.877000,
964459167172511-index10383.ts
#EXTINF:1.334756,
964459167172511-index10384.ts
#EXTINF:2.294111,
964459167172511-index10385.ts
#EXTINF:5.339022,
964459167172511-index10386.ts
#EXTINF:4.838489,
964459167172511-index10387.ts
#EXTINF:2.085556,
964459167172511-index10388.ts
#EXTINF:2.919778,
964459167172511-index10389.ts
#EXTINF:2.002133,
964459167172511-index10390.ts
#EXTINF:5.255600,
964459167172511-index10391.ts
#EXTINF:7.174311,
964459167172511-index10392.ts
#EXTINF:10.427778,
964459167172511-index10393.ts
#EXTINF:10.427778,
964459167172511-index10394.ts
#EXTINF:2.335822,
964459167172511-index10395.ts
#EXTINF:5.964689,
964459167172511-index10396.ts
#EXTINF:2.168978,
964459167172511-index10397.ts
#EXTINF:3.670578,
964459167172511-index10398.ts
#EXTINF:2.043844,
964459167172511-index10399.ts
#EXTINF:2.419244,
964459167172511-index10400.ts
#EXTINF:1.501600,
964459167172511-index10401.ts
#EXTINF:4.755067,
964459167172511-index10402.ts
#EXTINF:1.418178,
964459167172511-index10403.ts
#EXTINF:1.585022,
964459167172511-index10404.ts
#EXTINF:10.427778,
964459167172511-index10405.ts
#EXTINF:9.927244,
964459167172511-index10406.ts
#EXTINF:4.463089,
964459167172511-index10407.ts
#EXTINF:2.586089,
964459167172511-index10408.ts
#EXTINF:2.502667,
964459167172511-index10409.ts
#EXTINF:1.626733,
964459167172511-index10410.ts
#EXTINF:10.427778,
964459167172511-index10411.ts
#EXTINF:2.419244,
964459167172511-index10412.ts
#EXTINF:4.254533,
964459167172511-index10413.ts
#EXTINF:1.751867,
964459167172511-index10414.ts
#EXTINF:2.335822,
964459167172511-index10415.ts
#EXTINF:2.252400,
964459167172511-index10416.ts
#EXTINF:6.506933,
964459167172511-index10417.ts
#EXTINF:1.501600,
964459167172511-index10418.ts
#EXTINF:3.378600,
964459167172511-index10419.ts
#EXTINF:5.756133,
964459167172511-index10420.ts
#EXTINF:4.880200,
964459167172511-index10421.ts
#EXTINF:3.879133,
964459167172511-index10422.ts
#EXTINF:1.585022,
964459167172511-index10423.ts
#EXTINF:2.294111,
964459167172511-index10424.ts
#EXTINF:2.878067,
964459167172511-index10425.ts
#EXTINF:1.084489,
964459167172511-index10426.ts
#EXTINF:1.543311,
964459167172511-index10427.ts
#EXTINF:3.754000,
964459167172511-index10428.ts
#EXTINF:1.793578,
964459167172511-index10429.ts
#EXTINF:6.590356,
964459167172511-index10430.ts
#EXTINF:2.752933,
964459167172511-index10431.ts
#EXTINF:5.213889,
964459167172511-index10432.ts
#EXTINF:6.214956,
964459167172511-index10433.ts
#EXTINF:7.299444,
964459167172511-index10434.ts
#EXTINF:2.127267,
964459167172511-index10435.ts
#EXTINF:5.797844,
964459167172511-index10436.ts
#EXTINF:3.128333,
964459167172511-index10437.ts
#EXTINF:7.299444,
964459167172511-index10438.ts
#EXTINF:5.005333,
964459167172511-index10439.ts
#EXTINF:1.251333,
964459167172511-index10440.ts
#EXTINF:2.752933,
964459167172511-index10441.ts
#EXTINF:1.793578,
964459167172511-index10442.ts
#EXTINF:1.793578,
964459167172511-index10443.ts
#EXTINF:3.462022,
964459167172511-index10444.ts
#EXTINF:4.880200,
964459167172511-index10445.ts
#EXTINF:2.627800,
964459167172511-index10446.ts
#EXTINF:6.131533,
964459167172511-index10447.ts
#EXTINF:7.299444,
964459167172511-index10448.ts
#EXTINF:3.545444,
964459167172511-index10449.ts
#EXTINF:8.217089,
964459167172511-index10450.ts
#EXTINF:2.711222,
964459167172511-index10451.ts
#EXTINF:4.796778,
964459167172511-index10452.ts
#EXTINF:3.003200,
964459167172511-index10453.ts
#EXTINF:4.004267,
964459167172511-index10454.ts
#EXTINF:3.795711,
964459167172511-index10455.ts
#EXTINF:1.126200,
964459167172511-index10456.ts
#EXTINF:1.376467,
964459167172511-index10457.ts
#EXTINF:4.421378,
964459167172511-index10458.ts
#EXTINF:2.294111,
964459167172511-index10459.ts
#EXTINF:3.295178,
964459167172511-index10460.ts
#EXTINF:2.752933,
964459167172511-index10461.ts
#EXTINF:3.670578,
964459167172511-index10462.ts
#EXTINF:2.502667,
964459167172511-index10463.ts
#EXTINF:10.427778,
964459167172511-index10464.ts
#EXTINF:8.926178,
964459167172511-index10465.ts
#EXTINF:7.799978,
964459167172511-index10466.ts
#EXTINF:7.591422,
964459167172511-index10467.ts
#EXTINF:1.042778,
964459167172511-index10468.ts
#EXTINF:2.002133,
964459167172511-index10469.ts
#EXTINF:1.167911,
964459167172511-index10470.ts
#EXTINF:2.127267,
964459167172511-index10471.ts
#EXTINF:1.042778,
964459167172511-index10472.ts
#EXTINF:1.084489,
964459167172511-index10473.ts
#EXTINF:1.626733,
964459167172511-index10474.ts
#EXTINF:3.253467,
964459167172511-index10475.ts
#EXTINF:1.376467,
964459167172511-index10476.ts
#EXTINF:4.337956,
964459167172511-index10477.ts
#EXTINF:3.670578,
964459167172511-index10478.ts
#EXTINF:5.714422,
964459167172511-index10479.ts
#EXTINF:4.880200,
964459167172511-index10480.ts
#EXTINF:1.877000,
964459167172511-index10481.ts
#EXTINF:1.751867,
964459167172511-index10482.ts
#EXTINF:1.626733,
964459167172511-index10483.ts
#EXTINF:2.085556,
964459167172511-index10484.ts
#EXTINF:1.293044,
964459167172511-index10485.ts
#EXTINF:3.837422,
964459167172511-index10486.ts
#EXTINF:1.501600,
964459167172511-index10487.ts
#EXTINF:3.879133,
964459167172511-index10488.ts
#EXTINF:3.920844,
964459167172511-index10489.ts
#EXTINF:4.463089,
964459167172511-index10490.ts
#EXTINF:3.545444,
964459167172511-index10491.ts
#EXTINF:4.004267,
964459167172511-index10492.ts
#EXTINF:3.462022,
964459167172511-index10493.ts
#EXTINF:3.003200,
964459167172511-index10494.ts
#EXTINF:7.925111,
964459167172511-index10495.ts
#EXTINF:10.427778,
964459167172511-index10496.ts
#EXTINF:2.794644,
964459167172511-index10497.ts
#EXTINF:2.168978,
964459167172511-index10498.ts
#EXTINF:10.427778,
964459167172511-index10499.ts
#EXTINF:10.427778,
964459167172511-index10500.ts
#EXTINF:10.427778,
964459167172511-index10501.ts
#EXTINF:10.427778,
964459167172511-index10502.ts
#EXTINF:10.427778,
964459167172511-index10503.ts
#EXTINF:10.427778,
964459167172511-index10504.ts
#EXTINF:9.718689,
964459167172511-index10505.ts
#EXTINF:4.588222,
964459167172511-index10506.ts
#EXTINF:10.427778,
964459167172511-index10507.ts
#EXTINF:2.794644,
964459167172511-index10508.ts
#EXTINF:2.127267,
964459167172511-index10509.ts
#EXTINF:5.964689,
964459167172511-index10510.ts
#EXTINF:1.751867,
964459167172511-index10511.ts
#EXTINF:4.588222,
964459167172511-index10512.ts
#EXTINF:3.545444,
964459167172511-index10513.ts
#EXTINF:2.460956,
964459167172511-index10514.ts
#EXTINF:9.843822,
964459167172511-index10515.ts
#EXTINF:4.713356,
964459167172511-index10516.ts
#EXTINF:4.045978,
964459167172511-index10517.ts
#EXTINF:3.211756,
964459167172511-index10518.ts
#EXTINF:4.254533,
964459167172511-index10519.ts
#EXTINF:5.797844,
964459167172511-index10520.ts
#EXTINF:4.379667,
964459167172511-index10521.ts
#EXTINF:4.171111,
964459167172511-index10522.ts
#EXTINF:10.427778,
964459167172511-index10523.ts
#EXTINF:4.838489,
964459167172511-index10524.ts
#EXTINF:1.459889,
964459167172511-index10525.ts
#EXTINF:9.635267,
964459167172511-index10526.ts
#EXTINF:3.378600,
964459167172511-index10527.ts
#EXTINF:3.462022,
964459167172511-index10528.ts
#EXTINF:6.256667,
964459167172511-index10529.ts
#EXTINF:10.427778,
964459167172511-index10530.ts
#EXTINF:8.967889,
964459167172511-index10531.ts
#EXTINF:2.878067,
964459167172511-index10532.ts
#EXTINF:1.209622,
964459167172511-index10533.ts
#EXTINF:6.131533,
964459167172511-index10534.ts
#EXTINF:5.297311,
964459167172511-index10535.ts
#EXTINF:6.673778,
964459167172511-index10536.ts
#EXTINF:4.629933,
964459167172511-index10537.ts
#EXTINF:3.003200,
964459167172511-index10538.ts
#EXTINF:4.212822,
964459167172511-index10539.ts
#EXTINF:5.005333,
964459167172511-index10540.ts
#EXTINF:7.341156,
964459167172511-index10541.ts
#EXTINF:1.835289,
964459167172511-index10542.ts
#EXTINF:10.427778,
964459167172511-index10543.ts
#EXTINF:3.754000,
964459167172511-index10544.ts
#EXTINF:3.670578,
964459167172511-index10545.ts
#EXTINF:6.131533,
964459167172511-index10546.ts
#EXTINF:5.881267,
964459167172511-index10547.ts
#EXTINF:8.759333,
964459167172511-index10548.ts
#EXTINF:7.508000,
964459167172511-index10549.ts
#EXTINF:3.712289,
964459167172511-index10550.ts
#EXTINF:3.962556,
964459167172511-index10551.ts
#EXTINF:5.380733,
964459167172511-index10552.ts
#EXTINF:3.712289,
964459167172511-index10553.ts
#EXTINF:5.297311,
964459167172511-index10554.ts
#EXTINF:3.879133,
964459167172511-index10555.ts
#EXTINF:1.585022,
964459167172511-index10556.ts
#EXTINF:4.337956,
964459167172511-index10557.ts
#EXTINF:2.085556,
964459167172511-index10558.ts
#EXTINF:2.085556,
964459167172511-index10559.ts
#EXTINF:3.044911,
964459167172511-index10560.ts
#EXTINF:7.591422,
964459167172511-index10561.ts
#EXTINF:1.960422,
964459167172511-index10562.ts
#EXTINF:3.378600,
964459167172511-index10563.ts
#EXTINF:7.716556,
964459167172511-index10564.ts
#EXTINF:6.256667,
964459167172511-index10565.ts
#EXTINF:3.587156,
964459167172511-index10566.ts
#EXTINF:6.673778,
964459167172511-index10567.ts
#EXTINF:3.795711,
964459167172511-index10568.ts
#EXTINF:1.543311,
964459167172511-index10569.ts
#EXTINF:4.296244,
964459167172511-index10570.ts
#EXTINF:8.967889,
964459167172511-index10571.ts
#EXTINF:2.836356,
964459167172511-index10572.ts
#EXTINF:2.168978,
964459167172511-index10573.ts
#EXTINF:9.259867,
964459167172511-index10574.ts
#EXTINF:10.427778,
964459167172511-index10575.ts
#EXTINF:2.168978,
964459167172511-index10576.ts
#EXTINF:1.209622,
964459167172511-index10577.ts
#EXTINF:1.626733,
964459167172511-index10578.ts
#EXTINF:6.506933,
964459167172511-index10579.ts
#EXTINF:4.755067,
964459167172511-index10580.ts
#EXTINF:2.752933,
964459167172511-index10581.ts
#EXTINF:1.042778,
964459167172511-index10582.ts
#EXTINF:2.711222,
964459167172511-index10583.ts
#EXTINF:2.377533,
964459167172511-index10584.ts
#EXTINF:2.294111,
964459167172511-index10585.ts
#EXTINF:4.045978,
964459167172511-index10586.ts
#EXTINF:1.751867,
964459167172511-index10587.ts
#EXTINF:6.173244,
964459167172511-index10588.ts
#EXTINF:7.758267,
964459167172511-index10589.ts
#EXTINF:5.505867,
964459167172511-index10590.ts
#EXTINF:5.589289,
964459167172511-index10591.ts
#EXTINF:1.459889,
964459167172511-index10592.ts
#EXTINF:5.797844,
964459167172511-index10593.ts
#EXTINF:2.377533,
964459167172511-index10594.ts
#EXTINF:3.044911,
964459167172511-index10595.ts
#EXTINF:2.002133,
964459167172511-index10596.ts
#EXTINF:1.585022,
964459167172511-index10597.ts
#EXTINF:6.798911,
964459167172511-index10598.ts
#EXTINF:4.171111,
964459167172511-index10599.ts
#EXTINF:1.960422,
964459167172511-index10600.ts
#EXTINF:2.127267,
964459167172511-index10601.ts
#EXTINF:4.671644,
964459167172511-index10602.ts
#EXTINF:2.669511,
964459167172511-index10603.ts
#EXTINF:3.587156,
964459167172511-index10604.ts
#EXTINF:2.252400,
964459167172511-index10605.ts
#EXTINF:9.343289,
964459167172511-index10606.ts
#EXTINF:2.335822,
964459167172511-index10607.ts
#EXTINF:5.255600,
964459167172511-index10608.ts
#EXTINF:2.085556,
964459167172511-index10609.ts
#EXTINF:5.464156,
964459167172511-index10610.ts
#EXTINF:1.710156,
964459167172511-index10611.ts
#EXTINF:1.960422,
964459167172511-index10612.ts
#EXTINF:3.170044,
964459167172511-index10613.ts
#EXTINF:2.377533,
964459167172511-index10614.ts
#EXTINF:5.714422,
964459167172511-index10615.ts
#EXTINF:2.669511,
964459167172511-index10616.ts
#EXTINF:4.212822,
964459167172511-index10617.ts
#EXTINF:3.628867,
964459167172511-index10618.ts
#EXTINF:4.713356,
964459167172511-index10619.ts
#EXTINF:2.919778,
964459167172511-index10620.ts
#EXTINF:1.459889,
964459167172511-index10621.ts
#EXTINF:1.042778,
964459167172511-index10622.ts
#EXTINF:2.002133,
964459167172511-index10623.ts
#EXTINF:2.419244,
964459167172511-index10624.ts
#EXTINF:2.127267,
964459167172511-index10625.ts
#EXTINF:3.086622,
964459167172511-index10626.ts
#EXTINF:1.334756,
964459167172511-index10627.ts
#EXTINF:3.336889,
964459167172511-index10628.ts
#EXTINF:4.838489,
964459167172511-index10629.ts
#EXTINF:3.211756,
964459167172511-index10630.ts
#EXTINF:7.090889,
964459167172511-index10631.ts
#EXTINF:3.962556,
964459167172511-index10632.ts
#EXTINF:2.002133,
964459167172511-index10633.ts
#EXTINF:10.427778,
964459167172511-index10634.ts
#EXTINF:3.920844,
964459167172511-index10635.ts
#EXTINF:2.210689,
964459167172511-index10636.ts
#EXTINF:5.255600,
964459167172511-index10637.ts
#EXTINF:3.462022,
964459167172511-index10638.ts
#EXTINF:7.382867,
964459167172511-index10639.ts
#EXTINF:6.006400,
964459167172511-index10640.ts
#EXTINF:10.427778,
964459167172511-index10641.ts
#EXTINF:10.427778,
964459167172511-index10642.ts
#EXTINF:2.043844,
964459167172511-index10643.ts
#EXTINF:10.386067,
964459167172511-index10644.ts
#EXTINF:4.671644,
964459167172511-index10645.ts
#EXTINF:4.379667,
964459167172511-index10646.ts
#EXTINF:9.885533,
964459167172511-index10647.ts
#EXTINF:8.759333,
964459167172511-index10648.ts
#EXTINF:5.422444,
964459167172511-index10649.ts
#EXTINF:2.419244,
964459167172511-index10650.ts
#EXTINF:5.839556,
964459167172511-index10651.ts
#EXTINF:9.176444,
964459167172511-index10652.ts
#EXTINF:1.543311,
964459167172511-index10653.ts
#EXTINF:6.882333,
964459167172511-index10654.ts
#EXTINF:7.132600,
964459167172511-index10655.ts
#EXTINF:8.592489,
964459167172511-index10656.ts
#EXTINF:4.087689,
964459167172511-index10657.ts
#EXTINF:3.462022,
964459167172511-index10658.ts
#EXTINF:7.883400,
964459167172511-index10659.ts
#EXTINF:3.920844,
964459167172511-index10660.ts
#EXTINF:3.670578,
964459167172511-index10661.ts
#EXTINF:1.459889,
964459167172511-index10662.ts
#EXTINF:1.334756,
964459167172511-index10663.ts
#EXTINF:3.170044,
964459167172511-index10664.ts
#EXTINF:3.044911,
964459167172511-index10665.ts
#EXTINF:1.585022,
964459167172511-index10666.ts
#EXTINF:1.585022,
964459167172511-index10667.ts
#EXTINF:9.802111,
964459167172511-index10668.ts
#EXTINF:5.088756,
964459167172511-index10669.ts
#EXTINF:7.049178,
964459167172511-index10670.ts
#EXTINF:4.546511,
964459167172511-index10671.ts
#EXTINF:8.008533,
964459167172511-index10672.ts
#EXTINF:4.838489,
964459167172511-index10673.ts
#EXTINF:1.585022,
964459167172511-index10674.ts
#EXTINF:1.626733,
964459167172511-index10675.ts
#EXTINF:3.211756,
964459167172511-index10676.ts
#EXTINF:3.170044,
964459167172511-index10677.ts
#EXTINF:3.211756,
964459167172511-index10678.ts
#EXTINF:3.211756,
964459167172511-index10679.ts
#EXTINF:1.626733,
964459167172511-index10680.ts
#EXTINF:1.585022,
964459167172511-index10681.ts
#EXTINF:1.585022,
964459167172511-index10682.ts
#EXTINF:1.626733,
964459167172511-index10683.ts
#EXTINF:1.585022,
964459167172511-index10684.ts
#EXTINF:1.626733,
964459167172511-index10685.ts
#EXTINF:3.211756,
964459167172511-index10686.ts
#EXTINF:1.585022,
964459167172511-index10687.ts
#EXTINF:1.585022,
964459167172511-index10688.ts
#EXTINF:1.626733,
964459167172511-index10689.ts
#EXTINF:1.585022,
964459167172511-index10690.ts
#EXTINF:1.626733,
964459167172511-index10691.ts
#EXTINF:1.585022,
964459167172511-index10692.ts
#EXTINF:1.626733,
964459167172511-index10693.ts
#EXTINF:1.585022,
964459167172511-index10694.ts
#EXTINF:1.585022,
964459167172511-index10695.ts
#EXTINF:4.838489,
964459167172511-index10696.ts
#EXTINF:1.585022,
964459167172511-index10697.ts
#EXTINF:1.042778,
964459167172511-index10698.ts
#EXTINF:1.501600,
964459167172511-index10699.ts
#EXTINF:6.214956,
964459167172511-index10700.ts
#EXTINF:1.042778,
964459167172511-index10701.ts
#EXTINF:1.751867,
964459167172511-index10702.ts
#EXTINF:2.878067,
964459167172511-index10703.ts
#EXTINF:2.002133,
964459167172511-index10704.ts
#EXTINF:2.043844,
964459167172511-index10705.ts
#EXTINF:2.002133,
964459167172511-index10706.ts
#EXTINF:2.043844,
964459167172511-index10707.ts
#EXTINF:2.002133,
964459167172511-index10708.ts
#EXTINF:4.045978,
964459167172511-index10709.ts
#EXTINF:2.002133,
964459167172511-index10710.ts
#EXTINF:2.043844,
964459167172511-index10711.ts
#EXTINF:4.004267,
964459167172511-index10712.ts
#EXTINF:2.043844,
964459167172511-index10713.ts
#EXTINF:2.002133,
964459167172511-index10714.ts
#EXTINF:2.043844,
964459167172511-index10715.ts
#EXTINF:2.002133,
964459167172511-index10716.ts
#EXTINF:2.002133,
964459167172511-index10717.ts
#EXTINF:2.043844,
964459167172511-index10718.ts
#EXTINF:2.002133,
964459167172511-index10719.ts
#EXTINF:2.043844,
964459167172511-index10720.ts
#EXTINF:4.045978,
964459167172511-index10721.ts
#EXTINF:2.002133,
964459167172511-index10722.ts
#EXTINF:4.005178,
964459167172511-index10723.ts
#EXT-X-ENDLIST
