#EXTM3U
#EXT-X-VERSION:3
#EXT-X-TARGETDURATION:5
#EXT-X-MEDIA-SEQUENCE:10001
#EXTINF:4.999944,
966855110807551-index10001.png
#EXTINF:4.999944,
966855110807551-index10002.png
#EXTINF:4.999944,
966855110807551-index10003.png
#EXTINF:4.999944,
966855110807551-index10004.png
#EXTINF:4.999944,
966855110807551-index10005.png
#EXTINF:4.999944,
966855110807551-index10006.png
#EXTINF:4.999944,
966855110807551-index10007.png
#EXTINF:4.999944,
966855110807551-index10008.png
#EXTINF:4.999944,
966855110807551-index10009.png
#EXTINF:4.999944,
966855110807551-index10010.png
#EXTINF:4.999944,
966855110807551-index10011.png
#EXTINF:4.999944,
966855110807551-index10012.png
#EXTINF:4.999944,
966855110807551-index10013.png
#EXTINF:4.999944,
966855110807551-index10014.png
#EXTINF:4.999944,
966855110807551-index10015.png
#EXTINF:4.999944,
966855110807551-index10016.png
#EXTINF:4.999944,
966855110807551-index10017.png
#EXTINF:4.999944,
966855110807551-index10018.png
#EXTINF:4.999944,
966855110807551-index10019.png
#EXTINF:4.999944,
966855110807551-index10020.png
#EXTINF:4.999944,
966855110807551-index10021.png
#EXTINF:4.999944,
966855110807551-index10022.png
#EXTINF:4.999944,
966855110807551-index10023.png
#EXTINF:4.999944,
966855110807551-index10024.png
#EXTINF:4.999944,
966855110807551-index10025.png
#EXTINF:4.999944,
966855110807551-index10026.png
#EXTINF:4.999944,
966855110807551-index10027.png
#EXTINF:4.999944,
966855110807551-index10028.png
#EXTINF:4.999944,
966855110807551-index10029.png
#EXTINF:4.999944,
966855110807551-index10030.png
#EXTINF:4.999944,
966855110807551-index10031.png
#EXTINF:4.999944,
966855110807551-index10032.png
#EXTINF:4.999944,
966855110807551-index10033.png
#EXTINF:4.999944,
966855110807551-index10034.png
#EXTINF:4.999944,
966855110807551-index10035.png
#EXTINF:4.999944,
966855110807551-index10036.png
#EXTINF:4.999944,
966855110807551-index10037.png
#EXTINF:4.999944,
966855110807551-index10038.png
#EXTINF:4.999944,
966855110807551-index10039.png
#EXTINF:4.999944,
966855110807551-index10040.png
#EXTINF:4.999944,
966855110807551-index10041.png
#EXTINF:4.999944,
966855110807551-index10042.png
#EXTINF:4.999944,
966855110807551-index10043.png
#EXTINF:4.999944,
966855110807551-index10044.png
#EXTINF:4.999944,
966855110807551-index10045.png
#EXTINF:4.999944,
966855110807551-index10046.png
#EXTINF:4.999944,
966855110807551-index10047.png
#EXTINF:4.999944,
966855110807551-index10048.png
#EXTINF:4.999944,
966855110807551-index10049.png
#EXTINF:4.999944,
966855110807551-index10050.png
#EXTINF:4.999944,
966855110807551-index10051.png
#EXTINF:4.999944,
966855110807551-index10052.png
#EXTINF:4.999944,
966855110807551-index10053.png
#EXTINF:4.999944,
966855110807551-index10054.png
#EXTINF:4.999944,
966855110807551-index10055.png
#EXTINF:4.999944,
966855110807551-index10056.png
#EXTINF:4.999944,
966855110807551-index10057.png
#EXTINF:4.999944,
966855110807551-index10058.png
#EXTINF:4.999944,
966855110807551-index10059.png
#EXTINF:4.999944,
966855110807551-index10060.png
#EXTINF:4.999944,
966855110807551-index10061.png
#EXTINF:4.999944,
966855110807551-index10062.png
#EXTINF:4.999944,
966855110807551-index10063.png
#EXTINF:4.999944,
966855110807551-index10064.png
#EXTINF:4.999944,
966855110807551-index10065.png
#EXTINF:4.999944,
966855110807551-index10066.png
#EXTINF:4.999944,
966855110807551-index10067.png
#EXTINF:4.999944,
966855110807551-index10068.png
#EXTINF:4.999944,
966855110807551-index10069.png
#EXTINF:4.999944,
966855110807551-index10070.png
#EXTINF:4.999944,
966855110807551-index10071.png
#EXTINF:4.999944,
966855110807551-index10072.png
#EXTINF:4.999944,
966855110807551-index10073.png
#EXTINF:4.999944,
966855110807551-index10074.png
#EXTINF:4.999944,
966855110807551-index10075.png
#EXTINF:4.999944,
966855110807551-index10076.png
#EXTINF:4.999944,
966855110807551-index10077.png
#EXTINF:4.999944,
966855110807551-index10078.png
#EXTINF:4.999944,
966855110807551-index10079.png
#EXTINF:4.999944,
966855110807551-index10080.png
#EXTINF:4.999944,
966855110807551-index10081.png
#EXTINF:4.999944,
966855110807551-index10082.png
#EXTINF:4.999944,
966855110807551-index10083.png
#EXTINF:4.999944,
966855110807551-index10084.png
#EXTINF:4.999944,
966855110807551-index10085.png
#EXTINF:4.999944,
966855110807551-index10086.png
#EXTINF:4.999944,
966855110807551-index10087.png
#EXTINF:4.999944,
966855110807551-index10088.png
#EXTINF:4.999944,
966855110807551-index10089.png
#EXTINF:4.999944,
966855110807551-index10090.png
#EXTINF:4.999944,
966855110807551-index10091.png
#EXTINF:4.999944,
966855110807551-index10092.png
#EXTINF:4.999944,
966855110807551-index10093.png
#EXTINF:4.999944,
966855110807551-index10094.png
#EXTINF:4.999944,
966855110807551-index10095.png
#EXTINF:4.999944,
966855110807551-index10096.png
#EXTINF:2.652144,
966855110807551-index10097.png
#EXT-X-ENDLIST
