#EXTM3U
#EXT-X-VERSION:3
#EXT-X-TARGETDURATION:11
#EXT-X-MEDIA-SEQUENCE:10001
#EXTINF:7.797900,
969767899976836-index10001.png
#EXTINF:10.425000,
969767899976836-index10002.png
#EXTINF:10.425000,
969767899976836-index10003.png
#EXTINF:9.674400,
969767899976836-index10004.png
#EXTINF:10.216500,
969767899976836-index10005.png
#EXTINF:8.048100,
969767899976836-index10006.png
#EXTINF:3.002400,
969767899976836-index10007.png
#EXTINF:6.338400,
969767899976836-index10008.png
#EXTINF:7.089000,
969767899976836-index10009.png
#EXTINF:5.921400,
969767899976836-index10010.png
#EXTINF:9.757800,
969767899976836-index10011.png
#EXTINF:5.462700,
969767899976836-index10012.png
#EXTINF:6.004800,
969767899976836-index10013.png
#EXTINF:5.004000,
969767899976836-index10014.png
#EXTINF:3.252600,
969767899976836-index10015.png
#EXTINF:5.421000,
969767899976836-index10016.png
#EXTINF:6.463500,
969767899976836-index10017.png
#EXTINF:9.424200,
969767899976836-index10018.png
#EXTINF:10.425000,
969767899976836-index10019.png
#EXTINF:8.131500,
969767899976836-index10020.png
#EXTINF:10.425000,
969767899976836-index10021.png
#EXTINF:9.882900,
969767899976836-index10022.png
#EXTINF:10.425000,
969767899976836-index10023.png
#EXTINF:10.258200,
969767899976836-index10024.png
#EXTINF:10.425000,
969767899976836-index10025.png
#EXTINF:0.959100,
969767899976836-index10026.png
#EXTINF:10.008000,
969767899976836-index10027.png
#EXTINF:10.425000,
969767899976836-index10028.png
#EXTINF:7.380900,
969767899976836-index10029.png
#EXTINF:9.841200,
969767899976836-index10030.png
#EXTINF:6.922200,
969767899976836-index10031.png
#EXTINF:8.506800,
969767899976836-index10032.png
#EXTINF:5.004000,
969767899976836-index10033.png
#EXTINF:10.425000,
969767899976836-index10034.png
#EXTINF:6.963900,
969767899976836-index10035.png
#EXTINF:10.425000,
969767899976836-index10036.png
#EXTINF:10.216500,
969767899976836-index10037.png
#EXTINF:7.756200,
969767899976836-index10038.png
#EXTINF:10.425000,
969767899976836-index10039.png
#EXTINF:10.425000,
969767899976836-index10040.png
#EXTINF:8.381700,
969767899976836-index10041.png
#EXTINF:2.752200,
969767899976836-index10042.png
#EXTINF:2.085000,
969767899976836-index10043.png
#EXTINF:8.506800,
969767899976836-index10044.png
#EXTINF:8.923800,
969767899976836-index10045.png
#EXTINF:7.089000,
969767899976836-index10046.png
#EXTINF:10.425000,
969767899976836-index10047.png
#EXTINF:6.463500,
969767899976836-index10048.png
#EXTINF:3.002400,
969767899976836-index10049.png
#EXTINF:5.170800,
969767899976836-index10050.png
#EXTINF:10.425000,
969767899976836-index10051.png
#EXTINF:7.464300,
969767899976836-index10052.png
#EXTINF:10.425000,
969767899976836-index10053.png
#EXTINF:10.299900,
969767899976836-index10054.png
#EXTINF:7.297500,
969767899976836-index10055.png
#EXTINF:10.425000,
969767899976836-index10056.png
#EXTINF:6.838800,
969767899976836-index10057.png
#EXTINF:8.423400,
969767899976836-index10058.png
#EXTINF:8.006400,
969767899976836-index10059.png
#EXTINF:10.425000,
969767899976836-index10060.png
#EXTINF:10.425000,
969767899976836-index10061.png
#EXTINF:10.425000,
969767899976836-index10062.png
#EXTINF:6.755400,
969767899976836-index10063.png
#EXTINF:8.506800,
969767899976836-index10064.png
#EXTINF:9.257400,
969767899976836-index10065.png
#EXTINF:8.131500,
969767899976836-index10066.png
#EXTINF:10.425000,
969767899976836-index10067.png
#EXTINF:10.425000,
969767899976836-index10068.png
#EXTINF:10.216500,
969767899976836-index10069.png
#EXTINF:10.425000,
969767899976836-index10070.png
#EXTINF:9.841200,
969767899976836-index10071.png
#EXTINF:7.214100,
969767899976836-index10072.png
#EXTINF:8.631900,
969767899976836-index10073.png
#EXTINF:10.425000,
969767899976836-index10074.png
#EXTINF:10.425000,
969767899976836-index10075.png
#EXTINF:6.046500,
969767899976836-index10076.png
#EXTINF:7.964700,
969767899976836-index10077.png
#EXTINF:8.757000,
969767899976836-index10078.png
#EXTINF:5.170800,
969767899976836-index10079.png
#EXTINF:5.129100,
969767899976836-index10080.png
#EXTINF:10.425000,
969767899976836-index10081.png
#EXTINF:10.425000,
969767899976836-index10082.png
#EXTINF:7.005600,
969767899976836-index10083.png
#EXTINF:10.425000,
969767899976836-index10084.png
#EXTINF:10.425000,
969767899976836-index10085.png
#EXTINF:10.425000,
969767899976836-index10086.png
#EXTINF:10.008000,
969767899976836-index10087.png
#EXTINF:9.048900,
969767899976836-index10088.png
#EXTINF:10.425000,
969767899976836-index10089.png
#EXTINF:10.425000,
969767899976836-index10090.png
#EXTINF:3.753000,
969767899976836-index10091.png
#EXTINF:10.008000,
969767899976836-index10092.png
#EXTINF:10.425000,
969767899976836-index10093.png
#EXTINF:8.965500,
969767899976836-index10094.png
#EXTINF:6.255000,
969767899976836-index10095.png
#EXTINF:10.425000,
969767899976836-index10096.png
#EXTINF:10.425000,
969767899976836-index10097.png
#EXTINF:10.174800,
969767899976836-index10098.png
#EXTINF:10.425000,
969767899976836-index10099.png
#EXTINF:10.425000,
969767899976836-index10100.png
#EXTINF:5.212500,
969767899976836-index10101.png
#EXTINF:9.007200,
969767899976836-index10102.png
#EXTINF:8.256600,
969767899976836-index10103.png
#EXTINF:8.381700,
969767899976836-index10104.png
#EXTINF:6.588600,
969767899976836-index10105.png
#EXTINF:6.588600,
969767899976836-index10106.png
#EXTINF:7.255800,
969767899976836-index10107.png
#EXTINF:10.425000,
969767899976836-index10108.png
#EXTINF:9.591000,
969767899976836-index10109.png
#EXTINF:6.421800,
969767899976836-index10110.png
#EXTINF:8.506800,
969767899976836-index10111.png
#EXTINF:7.089000,
969767899976836-index10112.png
#EXTINF:9.174000,
969767899976836-index10113.png
#EXTINF:5.504400,
969767899976836-index10114.png
#EXTINF:6.838800,
969767899976836-index10115.png
#EXTINF:6.505200,
969767899976836-index10116.png
#EXTINF:10.425000,
969767899976836-index10117.png
#EXTINF:7.464300,
969767899976836-index10118.png
#EXTINF:7.714500,
969767899976836-index10119.png
#EXTINF:8.757000,
969767899976836-index10120.png
#EXTINF:10.425000,
969767899976836-index10121.png
#EXTINF:8.340000,
969767899976836-index10122.png
#EXTINF:3.669600,
969767899976836-index10123.png
#EXTINF:4.253400,
969767899976836-index10124.png
#EXTINF:6.505200,
969767899976836-index10125.png
#EXTINF:7.756200,
969767899976836-index10126.png
#EXTINF:10.425000,
969767899976836-index10127.png
#EXTINF:10.425000,
969767899976836-index10128.png
#EXTINF:1.501200,
969767899976836-index10129.png
#EXTINF:5.504400,
969767899976836-index10130.png
#EXTINF:7.380900,
969767899976836-index10131.png
#EXTINF:5.921400,
969767899976836-index10132.png
#EXTINF:5.504400,
969767899976836-index10133.png
#EXTINF:5.212500,
969767899976836-index10134.png
#EXTINF:6.255000,
969767899976836-index10135.png
#EXTINF:6.922200,
969767899976836-index10136.png
#EXTINF:7.339200,
969767899976836-index10137.png
#EXTINF:9.132300,
969767899976836-index10138.png
#EXTINF:9.591000,
969767899976836-index10139.png
#EXTINF:10.425000,
969767899976836-index10140.png
#EXTINF:5.087400,
969767899976836-index10141.png
#EXTINF:7.881300,
969767899976836-index10142.png
#EXTINF:10.425000,
969767899976836-index10143.png
#EXTINF:1.876500,
969767899976836-index10144.png
#EXTINF:5.629500,
969767899976836-index10145.png
#EXTINF:4.211700,
969767899976836-index10146.png
#EXTINF:10.425000,
969767899976836-index10147.png
#EXTINF:6.129900,
969767899976836-index10148.png
#EXTINF:6.505200,
969767899976836-index10149.png
#EXTINF:7.506000,
969767899976836-index10150.png
#EXTINF:6.463500,
969767899976836-index10151.png
#EXTINF:4.795500,
969767899976836-index10152.png
#EXTINF:6.004800,
969767899976836-index10153.png
#EXTINF:10.425000,
969767899976836-index10154.png
#EXTINF:7.339200,
969767899976836-index10155.png
#EXTINF:6.255000,
969767899976836-index10156.png
#EXTINF:3.878100,
969767899976836-index10157.png
#EXTINF:5.504400,
969767899976836-index10158.png
#EXTINF:10.425000,
969767899976836-index10159.png
#EXTINF:8.965500,
969767899976836-index10160.png
#EXTINF:10.174800,
969767899976836-index10161.png
#EXTINF:10.174800,
969767899976836-index10162.png
#EXTINF:10.425000,
969767899976836-index10163.png
#EXTINF:7.380900,
969767899976836-index10164.png
#EXTINF:9.591000,
969767899976836-index10165.png
#EXTINF:8.840400,
969767899976836-index10166.png
#EXTINF:8.381700,
969767899976836-index10167.png
#EXTINF:5.045700,
969767899976836-index10168.png
#EXTINF:10.133100,
969767899976836-index10169.png
#EXTINF:7.631100,
969767899976836-index10170.png
#EXTINF:8.006400,
969767899976836-index10171.png
#EXTINF:7.714500,
969767899976836-index10172.png
#EXTINF:10.425000,
969767899976836-index10173.png
#EXTINF:10.425000,
969767899976836-index10174.png
#EXTINF:10.425000,
969767899976836-index10175.png
#EXTINF:10.425000,
969767899976836-index10176.png
#EXTINF:0.542100,
969767899976836-index10177.png
#EXT-X-ENDLIST
