#EXTM3U
#EXT-X-VERSION:3
#EXT-X-TARGETDURATION:9
#EXT-X-MEDIA-SEQUENCE:10001
#EXTINF:8.341667,
970825267334779-index10001.png
#EXTINF:8.341667,
970825267334779-index10002.png
#EXTINF:8.341667,
970825267334779-index10003.png
#EXTINF:8.341667,
970825267334779-index10004.png
#EXTINF:0.700700,
970825267334779-index10005.png
#EXTINF:1.701700,
970825267334779-index10006.png
#EXTINF:2.502500,
970825267334779-index10007.png
#EXTINF:5.005000,
970825267334779-index10008.png
#EXTINF:8.341667,
970825267334779-index10009.png
#EXTINF:8.341667,
970825267334779-index10010.png
#EXTINF:1.601600,
970825267334779-index10011.png
#EXTINF:8.341667,
970825267334779-index10012.png
#EXTINF:8.341667,
970825267334779-index10013.png
#EXTINF:8.341667,
970825267334779-index10014.png
#EXTINF:8.341667,
970825267334779-index10015.png
#EXTINF:8.341667,
970825267334779-index10016.png
#EXTINF:8.341667,
970825267334779-index10017.png
#EXTINF:8.341667,
970825267334779-index10018.png
#EXTINF:8.341667,
970825267334779-index10019.png
#EXTINF:8.341667,
970825267334779-index10020.png
#EXTINF:8.341667,
970825267334779-index10021.png
#EXTINF:8.341667,
970825267334779-index10022.png
#EXTINF:8.341667,
970825267334779-index10023.png
#EXTINF:6.506500,
970825267334779-index10024.png
#EXTINF:8.341667,
970825267334779-index10025.png
#EXTINF:8.341667,
970825267334779-index10026.png
#EXTINF:8.341667,
970825267334779-index10027.png
#EXTINF:7.941267,
970825267334779-index10028.png
#EXTINF:1.801800,
970825267334779-index10029.png
#EXTINF:1.668333,
970825267334779-index10030.png
#EXTINF:4.504500,
970825267334779-index10031.png
#EXTINF:2.669333,
970825267334779-index10032.png
#EXTINF:3.103100,
970825267334779-index10033.png
#EXTINF:1.368033,
970825267334779-index10034.png
#EXTINF:1.001000,
970825267334779-index10035.png
#EXTINF:1.868533,
970825267334779-index10036.png
#EXTINF:8.341667,
970825267334779-index10037.png
#EXTINF:8.341667,
970825267334779-index10038.png
#EXTINF:0.266933,
970825267334779-index10039.png
#EXTINF:7.040367,
970825267334779-index10040.png
#EXTINF:7.207200,
970825267334779-index10041.png
#EXTINF:3.103100,
970825267334779-index10042.png
#EXTINF:8.341667,
970825267334779-index10043.png
#EXTINF:6.940267,
970825267334779-index10044.png
#EXTINF:6.840167,
970825267334779-index10045.png
#EXTINF:8.341667,
970825267334779-index10046.png
#EXTINF:1.468133,
970825267334779-index10047.png
#EXTINF:4.004000,
970825267334779-index10048.png
#EXTINF:8.341667,
970825267334779-index10049.png
#EXTINF:8.341667,
970825267334779-index10050.png
#EXTINF:8.341667,
970825267334779-index10051.png
#EXTINF:3.937267,
970825267334779-index10052.png
#EXTINF:8.341667,
970825267334779-index10053.png
#EXTINF:4.504500,
970825267334779-index10054.png
#EXTINF:8.341667,
970825267334779-index10055.png
#EXTINF:3.236567,
970825267334779-index10056.png
#EXTINF:3.269933,
970825267334779-index10057.png
#EXTINF:3.003000,
970825267334779-index10058.png
#EXTINF:8.341667,
970825267334779-index10059.png
#EXTINF:6.239567,
970825267334779-index10060.png
#EXTINF:8.341667,
970825267334779-index10061.png
#EXTINF:4.337667,
970825267334779-index10062.png
#EXTINF:8.341667,
970825267334779-index10063.png
#EXTINF:8.341667,
970825267334779-index10064.png
#EXTINF:8.341667,
970825267334779-index10065.png
#EXTINF:4.304300,
970825267334779-index10066.png
#EXTINF:3.903900,
970825267334779-index10067.png
#EXTINF:8.341667,
970825267334779-index10068.png
#EXTINF:8.341667,
970825267334779-index10069.png
#EXTINF:5.138467,
970825267334779-index10070.png
#EXTINF:8.341667,
970825267334779-index10071.png
#EXTINF:8.341667,
970825267334779-index10072.png
#EXTINF:8.341667,
970825267334779-index10073.png
#EXTINF:0.934267,
970825267334779-index10074.png
#EXTINF:8.341667,
970825267334779-index10075.png
#EXTINF:8.341667,
970825267334779-index10076.png
#EXTINF:8.341667,
970825267334779-index10077.png
#EXTINF:8.341667,
970825267334779-index10078.png
#EXTINF:6.740067,
970825267334779-index10079.png
#EXTINF:8.341667,
970825267334779-index10080.png
#EXTINF:8.341667,
970825267334779-index10081.png
#EXTINF:8.341667,
970825267334779-index10082.png
#EXTINF:8.341667,
970825267334779-index10083.png
#EXTINF:8.341667,
970825267334779-index10084.png
#EXTINF:8.341667,
970825267334779-index10085.png
#EXTINF:8.341667,
970825267334779-index10086.png
#EXTINF:8.341667,
970825267334779-index10087.png
#EXTINF:8.341667,
970825267334779-index10088.png
#EXTINF:8.341667,
970825267334779-index10089.png
#EXTINF:2.669333,
970825267334779-index10090.png
#EXTINF:8.341667,
970825267334779-index10091.png
#EXTINF:8.341667,
970825267334779-index10092.png
#EXTINF:1.167833,
970825267334779-index10093.png
#EXTINF:6.006000,
970825267334779-index10094.png
#EXTINF:1.868533,
970825267334779-index10095.png
#EXTINF:2.569233,
970825267334779-index10096.png
#EXTINF:1.401400,
970825267334779-index10097.png
#EXTINF:7.607600,
970825267334779-index10098.png
#EXTINF:6.006000,
970825267334779-index10099.png
#EXTINF:3.536867,
970825267334779-index10100.png
#EXTINF:8.341667,
970825267334779-index10101.png
#EXTINF:2.369033,
970825267334779-index10102.png
#EXTINF:3.636967,
970825267334779-index10103.png
#EXTINF:8.341667,
970825267334779-index10104.png
#EXTINF:8.341667,
970825267334779-index10105.png
#EXTINF:8.341667,
970825267334779-index10106.png
#EXTINF:8.341667,
970825267334779-index10107.png
#EXTINF:8.341667,
970825267334779-index10108.png
#EXTINF:8.341667,
970825267334779-index10109.png
#EXTINF:8.341667,
970825267334779-index10110.png
#EXTINF:8.341667,
970825267334779-index10111.png
#EXTINF:8.341667,
970825267334779-index10112.png
#EXTINF:8.341667,
970825267334779-index10113.png
#EXTINF:8.341667,
970825267334779-index10114.png
#EXTINF:8.341667,
970825267334779-index10115.png
#EXTINF:5.905900,
970825267334779-index10116.png
#EXTINF:3.737067,
970825267334779-index10117.png
#EXTINF:8.341667,
970825267334779-index10118.png
#EXTINF:6.506500,
970825267334779-index10119.png
#EXTINF:8.341667,
970825267334779-index10120.png
#EXTINF:3.169833,
970825267334779-index10121.png
#EXTINF:8.341667,
970825267334779-index10122.png
#EXTINF:2.235567,
970825267334779-index10123.png
#EXTINF:7.807800,
970825267334779-index10124.png
#EXTINF:2.469133,
970825267334779-index10125.png
#EXTINF:3.870533,
970825267334779-index10126.png
#EXTINF:4.070733,
970825267334779-index10127.png
#EXTINF:3.670333,
970825267334779-index10128.png
#EXTINF:8.341667,
970825267334779-index10129.png
#EXTINF:8.341667,
970825267334779-index10130.png
#EXTINF:2.502500,
970825267334779-index10131.png
#EXTINF:1.334667,
970825267334779-index10132.png
#EXTINF:0.967633,
970825267334779-index10133.png
#EXTINF:8.341667,
970825267334779-index10134.png
#EXTINF:3.269933,
970825267334779-index10135.png
#EXTINF:8.341667,
970825267334779-index10136.png
#EXTINF:8.341667,
970825267334779-index10137.png
#EXTINF:1.768433,
970825267334779-index10138.png
#EXTINF:8.341667,
970825267334779-index10139.png
#EXTINF:7.107100,
970825267334779-index10140.png
#EXTINF:8.341667,
970825267334779-index10141.png
#EXTINF:8.341667,
970825267334779-index10142.png
#EXTINF:4.671333,
970825267334779-index10143.png
#EXTINF:3.870533,
970825267334779-index10144.png
#EXTINF:7.874533,
970825267334779-index10145.png
#EXTINF:4.437767,
970825267334779-index10146.png
#EXTINF:5.972633,
970825267334779-index10147.png
#EXTINF:2.836167,
970825267334779-index10148.png
#EXTINF:6.006000,
970825267334779-index10149.png
#EXTINF:7.907900,
970825267334779-index10150.png
#EXTINF:2.969633,
970825267334779-index10151.png
#EXTINF:8.341667,
970825267334779-index10152.png
#EXTINF:5.572233,
970825267334779-index10153.png
#EXTINF:8.341667,
970825267334779-index10154.png
#EXTINF:5.972633,
970825267334779-index10155.png
#EXTINF:1.935267,
970825267334779-index10156.png
#EXTINF:2.168833,
970825267334779-index10157.png
#EXTINF:2.102100,
970825267334779-index10158.png
#EXTINF:1.835167,
970825267334779-index10159.png
#EXTINF:8.341667,
970825267334779-index10160.png
#EXTINF:5.905900,
970825267334779-index10161.png
#EXTINF:5.739067,
970825267334779-index10162.png
#EXTINF:1.768433,
970825267334779-index10163.png
#EXTINF:8.341667,
970825267334779-index10164.png
#EXTINF:5.705700,
970825267334779-index10165.png
#EXTINF:1.301300,
970825267334779-index10166.png
#EXTINF:6.272933,
970825267334779-index10167.png
#EXTINF:5.472133,
970825267334779-index10168.png
#EXTINF:5.972633,
970825267334779-index10169.png
#EXTINF:2.802800,
970825267334779-index10170.png
#EXTINF:8.341667,
970825267334779-index10171.png
#EXTINF:0.834167,
970825267334779-index10172.png
#EXTINF:8.341667,
970825267334779-index10173.png
#EXTINF:8.341667,
970825267334779-index10174.png
#EXTINF:5.238567,
970825267334779-index10175.png
#EXTINF:1.501500,
970825267334779-index10176.png
#EXTINF:8.341667,
970825267334779-index10177.png
#EXTINF:3.336667,
970825267334779-index10178.png
#EXTINF:1.701700,
970825267334779-index10179.png
#EXTINF:2.102100,
970825267334779-index10180.png
#EXTINF:1.868533,
970825267334779-index10181.png
#EXTINF:2.202200,
970825267334779-index10182.png
#EXTINF:7.407400,
970825267334779-index10183.png
#EXTINF:8.341667,
970825267334779-index10184.png
#EXTINF:1.668333,
970825267334779-index10185.png
#EXTINF:8.341667,
970825267334779-index10186.png
#EXTINF:8.341667,
970825267334779-index10187.png
#EXTINF:4.571233,
970825267334779-index10188.png
#EXTINF:8.341667,
970825267334779-index10189.png
#EXTINF:1.101100,
970825267334779-index10190.png
#EXTINF:7.674333,
970825267334779-index10191.png
#EXTINF:3.069733,
970825267334779-index10192.png
#EXTINF:2.502500,
970825267334779-index10193.png
#EXTINF:7.941267,
970825267334779-index10194.png
#EXTINF:5.939267,
970825267334779-index10195.png
#EXTINF:8.341667,
970825267334779-index10196.png
#EXTINF:2.335667,
970825267334779-index10197.png
#EXTINF:8.341667,
970825267334779-index10198.png
#EXTINF:8.341667,
970825267334779-index10199.png
#EXTINF:1.768433,
970825267334779-index10200.png
#EXTINF:2.902900,
970825267334779-index10201.png
#EXTINF:2.769433,
970825267334779-index10202.png
#EXTINF:2.302300,
970825267334779-index10203.png
#EXTINF:1.501500,
970825267334779-index10204.png
#EXTINF:3.003000,
970825267334779-index10205.png
#EXTINF:5.572233,
970825267334779-index10206.png
#EXTINF:8.208200,
970825267334779-index10207.png
#EXTINF:2.402400,
970825267334779-index10208.png
#EXTINF:3.336667,
970825267334779-index10209.png
#EXTINF:8.341667,
970825267334779-index10210.png
#EXTINF:2.435767,
970825267334779-index10211.png
#EXTINF:5.739067,
970825267334779-index10212.png
#EXTINF:6.940267,
970825267334779-index10213.png
#EXTINF:3.636967,
970825267334779-index10214.png
#EXTINF:2.802800,
970825267334779-index10215.png
#EXTINF:4.170833,
970825267334779-index10216.png
#EXTINF:1.468133,
970825267334779-index10217.png
#EXTINF:1.901900,
970825267334779-index10218.png
#EXTINF:7.774433,
970825267334779-index10219.png
#EXTINF:1.935267,
970825267334779-index10220.png
#EXTINF:3.937267,
970825267334779-index10221.png
#EXTINF:1.167833,
970825267334779-index10222.png
#EXTINF:3.670333,
970825267334779-index10223.png
#EXTINF:4.070733,
970825267334779-index10224.png
#EXTINF:8.341667,
970825267334779-index10225.png
#EXTINF:0.967633,
970825267334779-index10226.png
#EXTINF:0.834167,
970825267334779-index10227.png
#EXTINF:1.201200,
970825267334779-index10228.png
#EXTINF:3.269933,
970825267334779-index10229.png
#EXTINF:0.867533,
970825267334779-index10230.png
#EXTINF:1.167833,
970825267334779-index10231.png
#EXTINF:8.341667,
970825267334779-index10232.png
#EXTINF:1.968633,
970825267334779-index10233.png
#EXTINF:2.035367,
970825267334779-index10234.png
#EXTINF:1.134467,
970825267334779-index10235.png
#EXTINF:3.737067,
970825267334779-index10236.png
#EXTINF:1.067733,
970825267334779-index10237.png
#EXTINF:4.437767,
970825267334779-index10238.png
#EXTINF:8.341667,
970825267334779-index10239.png
#EXTINF:4.104100,
970825267334779-index10240.png
#EXTINF:8.341667,
970825267334779-index10241.png
#EXTINF:0.467133,
970825267334779-index10242.png
#EXTINF:8.341667,
970825267334779-index10243.png
#EXTINF:1.835167,
970825267334779-index10244.png
#EXTINF:6.106100,
970825267334779-index10245.png
#EXTINF:4.004000,
970825267334779-index10246.png
#EXTINF:8.341667,
970825267334779-index10247.png
#EXTINF:3.303300,
970825267334779-index10248.png
#EXTINF:8.341667,
970825267334779-index10249.png
#EXTINF:2.969633,
970825267334779-index10250.png
#EXTINF:8.341667,
970825267334779-index10251.png
#EXTINF:8.341667,
970825267334779-index10252.png
#EXTINF:8.341667,
970825267334779-index10253.png
#EXTINF:8.341667,
970825267334779-index10254.png
#EXTINF:8.341667,
970825267334779-index10255.png
#EXTINF:8.341667,
970825267334779-index10256.png
#EXTINF:4.471133,
970825267334779-index10257.png
#EXTINF:6.940267,
970825267334779-index10258.png
#EXTINF:1.768433,
970825267334779-index10259.png
#EXTINF:2.002000,
970825267334779-index10260.png
#EXTINF:2.902900,
970825267334779-index10261.png
#EXTINF:3.903900,
970825267334779-index10262.png
#EXTINF:1.868533,
970825267334779-index10263.png
#EXTINF:3.036367,
970825267334779-index10264.png
#EXTINF:1.034367,
970825267334779-index10265.png
#EXTINF:1.101100,
970825267334779-index10266.png
#EXTINF:2.635967,
970825267334779-index10267.png
#EXTINF:1.534867,
970825267334779-index10268.png
#EXTINF:1.167833,
970825267334779-index10269.png
#EXTINF:3.069733,
970825267334779-index10270.png
#EXTINF:1.434767,
970825267334779-index10271.png
#EXTINF:1.835167,
970825267334779-index10272.png
#EXTINF:1.167833,
970825267334779-index10273.png
#EXTINF:1.634967,
970825267334779-index10274.png
#EXTINF:2.035367,
970825267334779-index10275.png
#EXTINF:1.735067,
970825267334779-index10276.png
#EXTINF:1.167833,
970825267334779-index10277.png
#EXTINF:1.167833,
970825267334779-index10278.png
#EXTINF:5.138467,
970825267334779-index10279.png
#EXTINF:1.301300,
970825267334779-index10280.png
#EXTINF:8.008000,
970825267334779-index10281.png
#EXTINF:7.974633,
970825267334779-index10282.png
#EXTINF:1.568233,
970825267334779-index10283.png
#EXTINF:2.802800,
970825267334779-index10284.png
#EXTINF:4.371033,
970825267334779-index10285.png
#EXTINF:1.468133,
970825267334779-index10286.png
#EXTINF:8.341667,
970825267334779-index10287.png
#EXTINF:8.341667,
970825267334779-index10288.png
#EXTINF:0.867533,
970825267334779-index10289.png
#EXTINF:7.140467,
970825267334779-index10290.png
#EXTINF:1.568233,
970825267334779-index10291.png
#EXTINF:8.341667,
970825267334779-index10292.png
#EXTINF:0.767433,
970825267334779-index10293.png
#EXTINF:1.968633,
970825267334779-index10294.png
#EXTINF:2.936267,
970825267334779-index10295.png
#EXTINF:3.069733,
970825267334779-index10296.png
#EXTINF:6.239567,
970825267334779-index10297.png
#EXTINF:8.341667,
970825267334779-index10298.png
#EXTINF:1.835167,
970825267334779-index10299.png
#EXTINF:8.341667,
970825267334779-index10300.png
#EXTINF:1.968633,
970825267334779-index10301.png
#EXTINF:2.235567,
970825267334779-index10302.png
#EXTINF:5.105100,
970825267334779-index10303.png
#EXTINF:1.901900,
970825267334779-index10304.png
#EXTINF:2.936267,
970825267334779-index10305.png
#EXTINF:2.168833,
970825267334779-index10306.png
#EXTINF:8.341667,
970825267334779-index10307.png
#EXTINF:8.341667,
970825267334779-index10308.png
#EXTINF:1.634967,
970825267334779-index10309.png
#EXTINF:6.606600,
970825267334779-index10310.png
#EXTINF:8.341667,
970825267334779-index10311.png
#EXTINF:2.802800,
970825267334779-index10312.png
#EXTINF:8.341667,
970825267334779-index10313.png
#EXTINF:8.341667,
970825267334779-index10314.png
#EXTINF:8.341667,
970825267334779-index10315.png
#EXTINF:4.104100,
970825267334779-index10316.png
#EXTINF:1.668333,
970825267334779-index10317.png
#EXTINF:5.338667,
970825267334779-index10318.png
#EXTINF:4.004000,
970825267334779-index10319.png
#EXTINF:8.341667,
970825267334779-index10320.png
#EXTINF:7.240567,
970825267334779-index10321.png
#EXTINF:8.341667,
970825267334779-index10322.png
#EXTINF:8.341667,
970825267334779-index10323.png
#EXTINF:8.341667,
970825267334779-index10324.png
#EXTINF:8.341667,
970825267334779-index10325.png
#EXTINF:1.468133,
970825267334779-index10326.png
#EXTINF:7.741067,
970825267334779-index10327.png
#EXTINF:3.003000,
970825267334779-index10328.png
#EXTINF:8.341667,
970825267334779-index10329.png
#EXTINF:8.341667,
970825267334779-index10330.png
#EXTINF:8.341667,
970825267334779-index10331.png
#EXTINF:8.341667,
970825267334779-index10332.png
#EXTINF:8.341667,
970825267334779-index10333.png
#EXTINF:7.774433,
970825267334779-index10334.png
#EXTINF:4.371033,
970825267334779-index10335.png
#EXTINF:2.135467,
970825267334779-index10336.png
#EXTINF:8.341667,
970825267334779-index10337.png
#EXTINF:8.341667,
970825267334779-index10338.png
#EXTINF:8.341667,
970825267334779-index10339.png
#EXTINF:5.005000,
970825267334779-index10340.png
#EXTINF:0.967633,
970825267334779-index10341.png
#EXTINF:5.772433,
970825267334779-index10342.png
#EXTINF:4.971633,
970825267334779-index10343.png
#EXTINF:2.302300,
970825267334779-index10344.png
#EXTINF:4.838167,
970825267334779-index10345.png
#EXTINF:5.638967,
970825267334779-index10346.png
#EXTINF:3.703700,
970825267334779-index10347.png
#EXTINF:3.370033,
970825267334779-index10348.png
#EXTINF:4.170833,
970825267334779-index10349.png
#EXTINF:4.004000,
970825267334779-index10350.png
#EXTINF:6.673333,
970825267334779-index10351.png
#EXTINF:2.435767,
970825267334779-index10352.png
#EXTINF:8.341667,
970825267334779-index10353.png
#EXTINF:7.741067,
970825267334779-index10354.png
#EXTINF:5.105100,
970825267334779-index10355.png
#EXTINF:8.341667,
970825267334779-index10356.png
#EXTINF:5.438767,
970825267334779-index10357.png
#EXTINF:8.341667,
970825267334779-index10358.png
#EXTINF:1.434767,
970825267334779-index10359.png
#EXTINF:6.406400,
970825267334779-index10360.png
#EXTINF:8.341667,
970825267334779-index10361.png
#EXTINF:8.341667,
970825267334779-index10362.png
#EXTINF:8.341667,
970825267334779-index10363.png
#EXTINF:8.341667,
970825267334779-index10364.png
#EXTINF:3.470133,
970825267334779-index10365.png
#EXTINF:6.639967,
970825267334779-index10366.png
#EXTINF:8.208200,
970825267334779-index10367.png
#EXTINF:8.341667,
970825267334779-index10368.png
#EXTINF:8.341667,
970825267334779-index10369.png
#EXTINF:8.341667,
970825267334779-index10370.png
#EXTINF:8.341667,
970825267334779-index10371.png
#EXTINF:8.341667,
970825267334779-index10372.png
#EXTINF:7.974633,
970825267334779-index10373.png
#EXTINF:8.341667,
970825267334779-index10374.png
#EXTINF:2.002000,
970825267334779-index10375.png
#EXTINF:8.341667,
970825267334779-index10376.png
#EXTINF:8.341667,
970825267334779-index10377.png
#EXTINF:0.467133,
970825267334779-index10378.png
#EXTINF:6.039367,
970825267334779-index10379.png
#EXTINF:2.669333,
970825267334779-index10380.png
#EXTINF:8.341667,
970825267334779-index10381.png
#EXTINF:8.341667,
970825267334779-index10382.png
#EXTINF:8.341667,
970825267334779-index10383.png
#EXTINF:8.341667,
970825267334779-index10384.png
#EXTINF:8.341667,
970825267334779-index10385.png
#EXTINF:8.341667,
970825267334779-index10386.png
#EXTINF:5.872533,
970825267334779-index10387.png
#EXTINF:8.341667,
970825267334779-index10388.png
#EXTINF:5.772433,
970825267334779-index10389.png
#EXTINF:8.341667,
970825267334779-index10390.png
#EXTINF:8.341667,
970825267334779-index10391.png
#EXTINF:5.905900,
970825267334779-index10392.png
#EXTINF:8.341667,
970825267334779-index10393.png
#EXTINF:6.106100,
970825267334779-index10394.png
#EXTINF:8.341667,
970825267334779-index10395.png
#EXTINF:8.341667,
970825267334779-index10396.png
#EXTINF:0.500500,
970825267334779-index10397.png
#EXTINF:6.239567,
970825267334779-index10398.png
#EXTINF:6.439767,
970825267334779-index10399.png
#EXTINF:3.169833,
970825267334779-index10400.png
#EXTINF:2.535867,
970825267334779-index10401.png
#EXTINF:5.071733,
970825267334779-index10402.png
#EXTINF:3.403400,
970825267334779-index10403.png
#EXTINF:2.235567,
970825267334779-index10404.png
#EXTINF:6.940267,
970825267334779-index10405.png
#EXTINF:8.241567,
970825267334779-index10406.png
#EXTINF:5.505500,
970825267334779-index10407.png
#EXTINF:2.469133,
970825267334779-index10408.png
#EXTINF:8.341667,
970825267334779-index10409.png
#EXTINF:0.834167,
970825267334779-index10410.png
#EXTINF:6.639967,
970825267334779-index10411.png
#EXTINF:2.502500,
970825267334779-index10412.png
#EXTINF:2.235567,
970825267334779-index10413.png
#EXTINF:2.335667,
970825267334779-index10414.png
#EXTINF:3.103100,
970825267334779-index10415.png
#EXTINF:5.772433,
970825267334779-index10416.png
#EXTINF:7.574233,
970825267334779-index10417.png
#EXTINF:2.002000,
970825267334779-index10418.png
#EXTINF:3.269933,
970825267334779-index10419.png
#EXTINF:2.102100,
970825267334779-index10420.png
#EXTINF:8.341667,
970825267334779-index10421.png
#EXTINF:8.341667,
970825267334779-index10422.png
#EXTINF:2.869533,
970825267334779-index10423.png
#EXTINF:5.038367,
970825267334779-index10424.png
#EXTINF:8.074733,
970825267334779-index10425.png
#EXTINF:2.068733,
970825267334779-index10426.png
#EXTINF:6.473133,
970825267334779-index10427.png
#EXTINF:8.341667,
970825267334779-index10428.png
#EXTINF:6.906900,
970825267334779-index10429.png
#EXTINF:2.836167,
970825267334779-index10430.png
#EXTINF:8.341667,
970825267334779-index10431.png
#EXTINF:8.341667,
970825267334779-index10432.png
#EXTINF:0.834167,
970825267334779-index10433.png
#EXTINF:8.341667,
970825267334779-index10434.png
#EXTINF:8.341667,
970825267334779-index10435.png
#EXTINF:8.341667,
970825267334779-index10436.png
#EXTINF:8.341667,
970825267334779-index10437.png
#EXTINF:8.341667,
970825267334779-index10438.png
#EXTINF:8.341667,
970825267334779-index10439.png
#EXTINF:8.341667,
970825267334779-index10440.png
#EXTINF:8.341667,
970825267334779-index10441.png
#EXTINF:8.341667,
970825267334779-index10442.png
#EXTINF:8.341667,
970825267334779-index10443.png
#EXTINF:8.341667,
970825267334779-index10444.png
#EXTINF:8.341667,
970825267334779-index10445.png
#EXTINF:8.341667,
970825267334779-index10446.png
#EXTINF:8.341667,
970825267334779-index10447.png
#EXTINF:0.900900,
970825267334779-index10448.png
#EXTINF:8.341667,
970825267334779-index10449.png
#EXTINF:8.341667,
970825267334779-index10450.png
#EXTINF:8.341667,
970825267334779-index10451.png
#EXTINF:8.341667,
970825267334779-index10452.png
#EXTINF:4.270933,
970825267334779-index10453.png
#EXTINF:8.341667,
970825267334779-index10454.png
#EXTINF:8.341667,
970825267334779-index10455.png
#EXTINF:8.341667,
970825267334779-index10456.png
#EXTINF:5.005000,
970825267334779-index10457.png
#EXTINF:8.341667,
970825267334779-index10458.png
#EXTINF:4.838167,
970825267334779-index10459.png
#EXTINF:8.341667,
970825267334779-index10460.png
#EXTINF:3.269933,
970825267334779-index10461.png
#EXTINF:3.036367,
970825267334779-index10462.png
#EXTINF:0.667333,
970825267334779-index10463.png
#EXTINF:7.140467,
970825267334779-index10464.png
#EXTINF:8.341667,
970825267334779-index10465.png
#EXTINF:1.534867,
970825267334779-index10466.png
#EXTINF:8.341667,
970825267334779-index10467.png
#EXTINF:6.639967,
970825267334779-index10468.png
#EXTINF:8.341667,
970825267334779-index10469.png
#EXTINF:2.168833,
970825267334779-index10470.png
#EXTINF:2.402400,
970825267334779-index10471.png
#EXTINF:1.768433,
970825267334779-index10472.png
#EXTINF:4.838167,
970825267334779-index10473.png
#EXTINF:5.505500,
970825267334779-index10474.png
#EXTINF:1.835167,
970825267334779-index10475.png
#EXTINF:1.668333,
970825267334779-index10476.png
#EXTINF:3.203200,
970825267334779-index10477.png
#EXTINF:5.605600,
970825267334779-index10478.png
#EXTINF:2.669333,
970825267334779-index10479.png
#EXTINF:8.341667,
970825267334779-index10480.png
#EXTINF:0.934267,
970825267334779-index10481.png
#EXTINF:1.501500,
970825267334779-index10482.png
#EXTINF:8.341667,
970825267334779-index10483.png
#EXTINF:4.471133,
970825267334779-index10484.png
#EXTINF:8.341667,
970825267334779-index10485.png
#EXTINF:0.333667,
970825267334779-index10486.png
#EXTINF:3.803800,
970825267334779-index10487.png
#EXTINF:8.341667,
970825267334779-index10488.png
#EXTINF:1.167833,
970825267334779-index10489.png
#EXTINF:0.734067,
970825267334779-index10490.png
#EXTINF:4.904900,
970825267334779-index10491.png
#EXTINF:0.867533,
970825267334779-index10492.png
#EXTINF:8.341667,
970825267334779-index10493.png
#EXTINF:8.341667,
970825267334779-index10494.png
#EXTINF:6.006000,
970825267334779-index10495.png
#EXTINF:8.341667,
970825267334779-index10496.png
#EXTINF:8.341667,
970825267334779-index10497.png
#EXTINF:0.500500,
970825267334779-index10498.png
#EXTINF:4.404400,
970825267334779-index10499.png
#EXTINF:7.507500,
970825267334779-index10500.png
#EXTINF:3.970633,
970825267334779-index10501.png
#EXTINF:0.967633,
970825267334779-index10502.png
#EXTINF:4.871533,
970825267334779-index10503.png
#EXTINF:8.341667,
970825267334779-index10504.png
#EXTINF:8.341667,
970825267334779-index10505.png
#EXTINF:8.341667,
970825267334779-index10506.png
#EXTINF:6.473133,
970825267334779-index10507.png
#EXTINF:7.173833,
970825267334779-index10508.png
#EXTINF:8.341667,
970825267334779-index10509.png
#EXTINF:1.167833,
970825267334779-index10510.png
#EXTINF:8.341667,
970825267334779-index10511.png
#EXTINF:1.067733,
970825267334779-index10512.png
#EXTINF:8.341667,
970825267334779-index10513.png
#EXTINF:2.635967,
970825267334779-index10514.png
#EXTINF:5.005000,
970825267334779-index10515.png
#EXTINF:7.841167,
970825267334779-index10516.png
#EXTINF:5.505500,
970825267334779-index10517.png
#EXTINF:8.341667,
970825267334779-index10518.png
#EXTINF:8.341667,
970825267334779-index10519.png
#EXTINF:8.341667,
970825267334779-index10520.png
#EXTINF:8.341667,
970825267334779-index10521.png
#EXTINF:2.802800,
970825267334779-index10522.png
#EXTINF:8.341667,
970825267334779-index10523.png
#EXTINF:2.736067,
970825267334779-index10524.png
#EXTINF:8.341667,
970825267334779-index10525.png
#EXTINF:8.341667,
970825267334779-index10526.png
#EXTINF:6.773433,
970825267334779-index10527.png
#EXTINF:8.341667,
970825267334779-index10528.png
#EXTINF:1.534867,
970825267334779-index10529.png
#EXTINF:8.341667,
970825267334779-index10530.png
#EXTINF:1.701700,
970825267334779-index10531.png
#EXTINF:8.341667,
970825267334779-index10532.png
#EXTINF:8.341667,
970825267334779-index10533.png
#EXTINF:8.341667,
970825267334779-index10534.png
#EXTINF:3.303300,
970825267334779-index10535.png
#EXTINF:7.774433,
970825267334779-index10536.png
#EXTINF:3.236567,
970825267334779-index10537.png
#EXTINF:2.635967,
970825267334779-index10538.png
#EXTINF:3.236567,
970825267334779-index10539.png
#EXTINF:1.601600,
970825267334779-index10540.png
#EXTINF:3.636967,
970825267334779-index10541.png
#EXTINF:2.669333,
970825267334779-index10542.png
#EXTINF:6.172833,
970825267334779-index10543.png
#EXTINF:4.537867,
970825267334779-index10544.png
#EXTINF:4.137467,
970825267334779-index10545.png
#EXTINF:8.341667,
970825267334779-index10546.png
#EXTINF:0.533867,
970825267334779-index10547.png
#EXTINF:2.535867,
970825267334779-index10548.png
#EXTINF:8.341667,
970825267334779-index10549.png
#EXTINF:8.341667,
970825267334779-index10550.png
#EXTINF:2.635967,
970825267334779-index10551.png
#EXTINF:5.305300,
970825267334779-index10552.png
#EXTINF:8.341667,
970825267334779-index10553.png
#EXTINF:4.270933,
970825267334779-index10554.png
#EXTINF:2.569233,
970825267334779-index10555.png
#EXTINF:8.341667,
970825267334779-index10556.png
#EXTINF:1.935267,
970825267334779-index10557.png
#EXTINF:4.237567,
970825267334779-index10558.png
#EXTINF:8.341667,
970825267334779-index10559.png
#EXTINF:6.006000,
970825267334779-index10560.png
#EXTINF:4.838167,
970825267334779-index10561.png
#EXTINF:5.038367,
970825267334779-index10562.png
#EXTINF:8.341667,
970825267334779-index10563.png
#EXTINF:8.341667,
970825267334779-index10564.png
#EXTINF:8.341667,
970825267334779-index10565.png
#EXTINF:8.341667,
970825267334779-index10566.png
#EXTINF:8.341667,
970825267334779-index10567.png
#EXTINF:5.038367,
970825267334779-index10568.png
#EXTINF:2.769433,
970825267334779-index10569.png
#EXTINF:8.341667,
970825267334779-index10570.png
#EXTINF:3.737067,
970825267334779-index10571.png
#EXTINF:8.341667,
970825267334779-index10572.png
#EXTINF:8.341667,
970825267334779-index10573.png
#EXTINF:8.341667,
970825267334779-index10574.png
#EXTINF:7.007000,
970825267334779-index10575.png
#EXTINF:3.169833,
970825267334779-index10576.png
#EXTINF:6.940267,
970825267334779-index10577.png
#EXTINF:8.341667,
970825267334779-index10578.png
#EXTINF:8.341667,
970825267334779-index10579.png
#EXTINF:8.341667,
970825267334779-index10580.png
#EXTINF:8.341667,
970825267334779-index10581.png
#EXTINF:8.274933,
970825267334779-index10582.png
#EXTINF:8.341667,
970825267334779-index10583.png
#EXTINF:8.341667,
970825267334779-index10584.png
#EXTINF:3.903900,
970825267334779-index10585.png
#EXTINF:8.341667,
970825267334779-index10586.png
#EXTINF:8.341667,
970825267334779-index10587.png
#EXTINF:8.341667,
970825267334779-index10588.png
#EXTINF:8.341667,
970825267334779-index10589.png
#EXTINF:8.274933,
970825267334779-index10590.png
#EXTINF:4.070733,
970825267334779-index10591.png
#EXTINF:5.105100,
970825267334779-index10592.png
#EXTINF:2.435767,
970825267334779-index10593.png
#EXTINF:2.669333,
970825267334779-index10594.png
#EXTINF:3.636967,
970825267334779-index10595.png
#EXTINF:7.507500,
970825267334779-index10596.png
#EXTINF:8.341667,
970825267334779-index10597.png
#EXTINF:5.205200,
970825267334779-index10598.png
#EXTINF:8.341667,
970825267334779-index10599.png
#EXTINF:7.140467,
970825267334779-index10600.png
#EXTINF:4.070733,
970825267334779-index10601.png
#EXTINF:8.341667,
970825267334779-index10602.png
#EXTINF:2.002000,
970825267334779-index10603.png
#EXTINF:2.802800,
970825267334779-index10604.png
#EXTINF:2.736067,
970825267334779-index10605.png
#EXTINF:2.102100,
970825267334779-index10606.png
#EXTINF:2.068733,
970825267334779-index10607.png
#EXTINF:8.341667,
970825267334779-index10608.png
#EXTINF:0.400400,
970825267334779-index10609.png
#EXTINF:8.341667,
970825267334779-index10610.png
#EXTINF:8.341667,
970825267334779-index10611.png
#EXTINF:5.538867,
970825267334779-index10612.png
#EXTINF:6.406400,
970825267334779-index10613.png
#EXTINF:3.436767,
970825267334779-index10614.png
#EXTINF:7.540867,
970825267334779-index10615.png
#EXTINF:5.939267,
970825267334779-index10616.png
#EXTINF:3.503500,
970825267334779-index10617.png
#EXTINF:8.341667,
970825267334779-index10618.png
#EXTINF:8.341667,
970825267334779-index10619.png
#EXTINF:2.168833,
970825267334779-index10620.png
#EXTINF:8.341667,
970825267334779-index10621.png
#EXTINF:3.370033,
970825267334779-index10622.png
#EXTINF:8.341667,
970825267334779-index10623.png
#EXTINF:6.206200,
970825267334779-index10624.png
#EXTINF:8.341667,
970825267334779-index10625.png
#EXTINF:8.341667,
970825267334779-index10626.png
#EXTINF:8.341667,
970825267334779-index10627.png
#EXTINF:8.341667,
970825267334779-index10628.png
#EXTINF:8.341667,
970825267334779-index10629.png
#EXTINF:1.601600,
970825267334779-index10630.png
#EXTINF:7.240567,
970825267334779-index10631.png
#EXTINF:8.341667,
970825267334779-index10632.png
#EXTINF:8.341667,
970825267334779-index10633.png
#EXTINF:8.341667,
970825267334779-index10634.png
#EXTINF:2.669333,
970825267334779-index10635.png
#EXTINF:3.003000,
970825267334779-index10636.png
#EXTINF:1.434767,
970825267334779-index10637.png
#EXTINF:0.567233,
970825267334779-index10638.png
#EXTINF:8.341667,
970825267334779-index10639.png
#EXTINF:4.537867,
970825267334779-index10640.png
#EXTINF:6.506500,
970825267334779-index10641.png
#EXTINF:8.341667,
970825267334779-index10642.png
#EXTINF:1.334667,
970825267334779-index10643.png
#EXTINF:4.971633,
970825267334779-index10644.png
#EXT-X-ENDLIST
