#EXTM3U
#EXT-X-VERSION:3
#EXT-X-TARGETDURATION:10
#EXT-X-MEDIA-SEQUENCE:10001
#EXTINF:10.000000,
972105416986677-index10001.png
#EXTINF:8.440000,
972105416986677-index10002.png
#EXTINF:7.200000,
972105416986677-index10003.png
#EXTINF:10.000000,
972105416986677-index10004.png
#EXTINF:10.000000,
972105416986677-index10005.png
#EXTINF:10.000000,
972105416986677-index10006.png
#EXTINF:10.000000,
972105416986677-index10007.png
#EXTINF:5.680000,
972105416986677-index10008.png
#EXTINF:10.000000,
972105416986677-index10009.png
#EXTINF:10.000000,
972105416986677-index10010.png
#EXTINF:9.560000,
972105416986677-index10011.png
#EXTINF:10.000000,
972105416986677-index10012.png
#EXTINF:10.000000,
972105416986677-index10013.png
#EXTINF:10.000000,
972105416986677-index10014.png
#EXTINF:10.000000,
972105416986677-index10015.png
#EXTINF:8.160000,
972105416986677-index10016.png
#EXTINF:10.000000,
972105416986677-index10017.png
#EXTINF:10.000000,
972105416986677-index10018.png
#EXTINF:10.000000,
972105416986677-index10019.png
#EXTINF:10.000000,
972105416986677-index10020.png
#EXTINF:10.000000,
972105416986677-index10021.png
#EXTINF:9.760000,
972105416986677-index10022.png
#EXTINF:8.000000,
972105416986677-index10023.png
#EXTINF:7.880000,
972105416986677-index10024.png
#EXTINF:10.000000,
972105416986677-index10025.png
#EXTINF:10.000000,
972105416986677-index10026.png
#EXTINF:7.480000,
972105416986677-index10027.png
#EXTINF:10.000000,
972105416986677-index10028.png
#EXTINF:7.560000,
972105416986677-index10029.png
#EXTINF:6.040000,
972105416986677-index10030.png
#EXTINF:4.920000,
972105416986677-index10031.png
#EXTINF:7.760000,
972105416986677-index10032.png
#EXTINF:6.360000,
972105416986677-index10033.png
#EXTINF:5.240000,
972105416986677-index10034.png
#EXTINF:9.960000,
972105416986677-index10035.png
#EXTINF:10.000000,
972105416986677-index10036.png
#EXTINF:10.000000,
972105416986677-index10037.png
#EXTINF:10.000000,
972105416986677-index10038.png
#EXTINF:9.280000,
972105416986677-index10039.png
#EXTINF:7.600000,
972105416986677-index10040.png
#EXTINF:9.280000,
972105416986677-index10041.png
#EXTINF:10.000000,
972105416986677-index10042.png
#EXTINF:9.840000,
972105416986677-index10043.png
#EXTINF:9.640000,
972105416986677-index10044.png
#EXTINF:10.000000,
972105416986677-index10045.png
#EXTINF:10.000000,
972105416986677-index10046.png
#EXTINF:10.000000,
972105416986677-index10047.png
#EXTINF:10.000000,
972105416986677-index10048.png
#EXTINF:10.000000,
972105416986677-index10049.png
#EXTINF:10.000000,
972105416986677-index10050.png
#EXTINF:10.000000,
972105416986677-index10051.png
#EXTINF:9.960000,
972105416986677-index10052.png
#EXTINF:10.000000,
972105416986677-index10053.png
#EXTINF:10.000000,
972105416986677-index10054.png
#EXTINF:10.000000,
972105416986677-index10055.png
#EXTINF:10.000000,
972105416986677-index10056.png
#EXTINF:10.000000,
972105416986677-index10057.png
#EXTINF:10.000000,
972105416986677-index10058.png
#EXTINF:10.000000,
972105416986677-index10059.png
#EXTINF:10.000000,
972105416986677-index10060.png
#EXTINF:10.000000,
972105416986677-index10061.png
#EXTINF:7.680000,
972105416986677-index10062.png
#EXTINF:8.320000,
972105416986677-index10063.png
#EXTINF:10.000000,
972105416986677-index10064.png
#EXTINF:10.000000,
972105416986677-index10065.png
#EXTINF:10.000000,
972105416986677-index10066.png
#EXTINF:10.000000,
972105416986677-index10067.png
#EXTINF:10.000000,
972105416986677-index10068.png
#EXTINF:10.000000,
972105416986677-index10069.png
#EXTINF:10.000000,
972105416986677-index10070.png
#EXTINF:10.000000,
972105416986677-index10071.png
#EXTINF:10.000000,
972105416986677-index10072.png
#EXTINF:10.000000,
972105416986677-index10073.png
#EXTINF:10.000000,
972105416986677-index10074.png
#EXTINF:10.000000,
972105416986677-index10075.png
#EXTINF:8.560000,
972105416986677-index10076.png
#EXTINF:10.000000,
972105416986677-index10077.png
#EXTINF:10.000000,
972105416986677-index10078.png
#EXTINF:8.120000,
972105416986677-index10079.png
#EXTINF:10.000000,
972105416986677-index10080.png
#EXTINF:10.000000,
972105416986677-index10081.png
#EXTINF:10.000000,
972105416986677-index10082.png
#EXTINF:10.000000,
972105416986677-index10083.png
#EXTINF:7.560000,
972105416986677-index10084.png
#EXTINF:7.680000,
972105416986677-index10085.png
#EXTINF:10.000000,
972105416986677-index10086.png
#EXTINF:10.000000,
972105416986677-index10087.png
#EXTINF:10.000000,
972105416986677-index10088.png
#EXTINF:10.000000,
972105416986677-index10089.png
#EXTINF:10.000000,
972105416986677-index10090.png
#EXTINF:10.000000,
972105416986677-index10091.png
#EXTINF:10.000000,
972105416986677-index10092.png
#EXTINF:10.000000,
972105416986677-index10093.png
#EXTINF:10.000000,
972105416986677-index10094.png
#EXTINF:8.240000,
972105416986677-index10095.png
#EXTINF:10.000000,
972105416986677-index10096.png
#EXTINF:10.000000,
972105416986677-index10097.png
#EXTINF:8.240000,
972105416986677-index10098.png
#EXTINF:10.000000,
972105416986677-index10099.png
#EXTINF:10.000000,
972105416986677-index10100.png
#EXTINF:10.000000,
972105416986677-index10101.png
#EXTINF:10.000000,
972105416986677-index10102.png
#EXTINF:6.880000,
972105416986677-index10103.png
#EXTINF:8.760000,
972105416986677-index10104.png
#EXTINF:6.000000,
972105416986677-index10105.png
#EXTINF:10.000000,
972105416986677-index10106.png
#EXTINF:10.000000,
972105416986677-index10107.png
#EXTINF:10.000000,
972105416986677-index10108.png
#EXTINF:6.840000,
972105416986677-index10109.png
#EXTINF:10.000000,
972105416986677-index10110.png
#EXTINF:10.000000,
972105416986677-index10111.png
#EXTINF:8.160000,
972105416986677-index10112.png
#EXTINF:5.600000,
972105416986677-index10113.png
#EXTINF:9.000000,
972105416986677-index10114.png
#EXTINF:10.000000,
972105416986677-index10115.png
#EXTINF:9.880000,
972105416986677-index10116.png
#EXTINF:10.000000,
972105416986677-index10117.png
#EXTINF:8.760000,
972105416986677-index10118.png
#EXTINF:7.360000,
972105416986677-index10119.png
#EXTINF:10.000000,
972105416986677-index10120.png
#EXTINF:10.000000,
972105416986677-index10121.png
#EXTINF:7.600000,
972105416986677-index10122.png
#EXTINF:8.680000,
972105416986677-index10123.png
#EXTINF:10.000000,
972105416986677-index10124.png
#EXTINF:8.520000,
972105416986677-index10125.png
#EXTINF:10.000000,
972105416986677-index10126.png
#EXTINF:10.000000,
972105416986677-index10127.png
#EXTINF:10.000000,
972105416986677-index10128.png
#EXTINF:7.560000,
972105416986677-index10129.png
#EXTINF:9.360000,
972105416986677-index10130.png
#EXTINF:10.000000,
972105416986677-index10131.png
#EXTINF:10.000000,
972105416986677-index10132.png
#EXTINF:10.000000,
972105416986677-index10133.png
#EXTINF:10.000000,
972105416986677-index10134.png
#EXTINF:10.000000,
972105416986677-index10135.png
#EXTINF:10.000000,
972105416986677-index10136.png
#EXTINF:10.000000,
972105416986677-index10137.png
#EXTINF:10.000000,
972105416986677-index10138.png
#EXTINF:10.000000,
972105416986677-index10139.png
#EXTINF:10.000000,
972105416986677-index10140.png
#EXTINF:9.440000,
972105416986677-index10141.png
#EXTINF:6.440000,
972105416986677-index10142.png
#EXTINF:10.000000,
972105416986677-index10143.png
#EXTINF:10.000000,
972105416986677-index10144.png
#EXTINF:10.000000,
972105416986677-index10145.png
#EXTINF:10.000000,
972105416986677-index10146.png
#EXTINF:6.920000,
972105416986677-index10147.png
#EXTINF:10.000000,
972105416986677-index10148.png
#EXTINF:10.000000,
972105416986677-index10149.png
#EXTINF:10.000000,
972105416986677-index10150.png
#EXTINF:10.000000,
972105416986677-index10151.png
#EXTINF:7.520000,
972105416986677-index10152.png
#EXTINF:6.480000,
972105416986677-index10153.png
#EXTINF:8.520000,
972105416986677-index10154.png
#EXTINF:9.160000,
972105416986677-index10155.png
#EXTINF:10.000000,
972105416986677-index10156.png
#EXTINF:10.000000,
972105416986677-index10157.png
#EXTINF:10.000000,
972105416986677-index10158.png
#EXTINF:10.000000,
972105416986677-index10159.png
#EXTINF:9.720000,
972105416986677-index10160.png
#EXTINF:7.360000,
972105416986677-index10161.png
#EXTINF:10.000000,
972105416986677-index10162.png
#EXTINF:10.000000,
972105416986677-index10163.png
#EXTINF:10.000000,
972105416986677-index10164.png
#EXTINF:10.000000,
972105416986677-index10165.png
#EXTINF:10.000000,
972105416986677-index10166.png
#EXTINF:10.000000,
972105416986677-index10167.png
#EXTINF:10.000000,
972105416986677-index10168.png
#EXTINF:10.000000,
972105416986677-index10169.png
#EXTINF:10.000000,
972105416986677-index10170.png
#EXTINF:9.160000,
972105416986677-index10171.png
#EXTINF:10.000000,
972105416986677-index10172.png
#EXTINF:8.560000,
972105416986677-index10173.png
#EXTINF:10.000000,
972105416986677-index10174.png
#EXTINF:10.000000,
972105416986677-index10175.png
#EXTINF:10.000000,
972105416986677-index10176.png
#EXTINF:10.000000,
972105416986677-index10177.png
#EXTINF:10.000000,
972105416986677-index10178.png
#EXTINF:10.000000,
972105416986677-index10179.png
#EXTINF:7.040000,
972105416986677-index10180.png
#EXTINF:10.000000,
972105416986677-index10181.png
#EXTINF:10.000000,
972105416986677-index10182.png
#EXTINF:10.000000,
972105416986677-index10183.png
#EXTINF:10.000000,
972105416986677-index10184.png
#EXTINF:10.000000,
972105416986677-index10185.png
#EXTINF:10.000000,
972105416986677-index10186.png
#EXTINF:10.000000,
972105416986677-index10187.png
#EXTINF:10.000000,
972105416986677-index10188.png
#EXTINF:10.000000,
972105416986677-index10189.png
#EXTINF:10.000000,
972105416986677-index10190.png
#EXTINF:9.240000,
972105416986677-index10191.png
#EXTINF:10.000000,
972105416986677-index10192.png
#EXTINF:10.000000,
972105416986677-index10193.png
#EXTINF:10.000000,
972105416986677-index10194.png
#EXTINF:8.600000,
972105416986677-index10195.png
#EXTINF:8.680000,
972105416986677-index10196.png
#EXTINF:10.000000,
972105416986677-index10197.png
#EXTINF:8.200000,
972105416986677-index10198.png
#EXTINF:6.320000,
972105416986677-index10199.png
#EXTINF:9.000000,
972105416986677-index10200.png
#EXTINF:9.400000,
972105416986677-index10201.png
#EXTINF:5.440000,
972105416986677-index10202.png
#EXTINF:10.000000,
972105416986677-index10203.png
#EXTINF:10.000000,
972105416986677-index10204.png
#EXTINF:10.000000,
972105416986677-index10205.png
#EXTINF:10.000000,
972105416986677-index10206.png
#EXTINF:10.000000,
972105416986677-index10207.png
#EXTINF:10.000000,
972105416986677-index10208.png
#EXTINF:9.520000,
972105416986677-index10209.png
#EXTINF:10.000000,
972105416986677-index10210.png
#EXTINF:10.000000,
972105416986677-index10211.png
#EXTINF:10.000000,
972105416986677-index10212.png
#EXTINF:10.000000,
972105416986677-index10213.png
#EXTINF:10.000000,
972105416986677-index10214.png
#EXTINF:10.000000,
972105416986677-index10215.png
#EXTINF:10.000000,
972105416986677-index10216.png
#EXTINF:2.480000,
972105416986677-index10217.png
#EXT-X-ENDLIST
