#EXTM3U
#EXT-X-VERSION:3
#EXT-X-TARGETDURATION:11
#EXT-X-MEDIA-SEQUENCE:10001
#EXTINF:3.130400,
997949368423885-index10001.ts
#EXTINF:2.608667,
997949368423885-index10002.ts
#EXTINF:7.521656,
997949368423885-index10003.ts
#EXTINF:7.565133,
997949368423885-index10004.ts
#EXTINF:4.217344,
997949368423885-index10005.ts
#EXTINF:7.347744,
997949368423885-index10006.ts
#EXTINF:7.304267,
997949368423885-index10007.ts
#EXTINF:3.869522,
997949368423885-index10008.ts
#EXTINF:3.782567,
997949368423885-index10009.ts
#EXTINF:10.869444,
997949368423885-index10010.ts
#EXTINF:0.999989,
997949368423885-index10011.ts
#EXTINF:1.826067,
997949368423885-index10012.ts
#EXTINF:3.478222,
997949368423885-index10013.ts
#EXTINF:10.217278,
997949368423885-index10014.ts
#EXTINF:6.086889,
997949368423885-index10015.ts
#EXTINF:2.826056,
997949368423885-index10016.ts
#EXTINF:8.912944,
997949368423885-index10017.ts
#EXTINF:3.434744,
997949368423885-index10018.ts
#EXTINF:9.739022,
997949368423885-index10019.ts
#EXTINF:7.043400,
997949368423885-index10020.ts
#EXTINF:9.695544,
997949368423885-index10021.ts
#EXTINF:10.869444,
997949368423885-index10022.ts
#EXTINF:5.304289,
997949368423885-index10023.ts
#EXTINF:5.086900,
997949368423885-index10024.ts
#EXTINF:10.869444,
997949368423885-index10025.ts
#EXTINF:9.173811,
997949368423885-index10026.ts
#EXTINF:6.521667,
997949368423885-index10027.ts
#EXTINF:6.304278,
997949368423885-index10028.ts
#EXTINF:6.999922,
997949368423885-index10029.ts
#EXTINF:1.652156,
997949368423885-index10030.ts
#EXTINF:3.565178,
997949368423885-index10031.ts
#EXTINF:10.869444,
997949368423885-index10032.ts
#EXTINF:6.304278,
997949368423885-index10033.ts
#EXTINF:8.434689,
997949368423885-index10034.ts
#EXTINF:7.217311,
997949368423885-index10035.ts
#EXTINF:4.478211,
997949368423885-index10036.ts
#EXTINF:5.043422,
997949368423885-index10037.ts
#EXTINF:10.869444,
997949368423885-index10038.ts
#EXTINF:4.956467,
997949368423885-index10039.ts
#EXTINF:7.130356,
997949368423885-index10040.ts
#EXTINF:10.130322,
997949368423885-index10041.ts
#EXTINF:10.869444,
997949368423885-index10042.ts
#EXTINF:5.695589,
997949368423885-index10043.ts
#EXTINF:9.173811,
997949368423885-index10044.ts
#EXTINF:9.739022,
997949368423885-index10045.ts
#EXTINF:7.695567,
997949368423885-index10046.ts
#EXTINF:8.739033,
997949368423885-index10047.ts
#EXTINF:10.869444,
997949368423885-index10048.ts
#EXTINF:10.869444,
997949368423885-index10049.ts
#EXTINF:10.869444,
997949368423885-index10050.ts
#EXTINF:10.869444,
997949368423885-index10051.ts
#EXTINF:10.869444,
997949368423885-index10052.ts
#EXTINF:10.869444,
997949368423885-index10053.ts
#EXTINF:7.086878,
997949368423885-index10054.ts
#EXTINF:10.869444,
997949368423885-index10055.ts
#EXTINF:10.869444,
997949368423885-index10056.ts
#EXTINF:1.739111,
997949368423885-index10057.ts
#EXTINF:10.869444,
997949368423885-index10058.ts
#EXTINF:10.869444,
997949368423885-index10059.ts
#EXTINF:10.869444,
997949368423885-index10060.ts
#EXTINF:2.304322,
997949368423885-index10061.ts
#EXTINF:10.869444,
997949368423885-index10062.ts
#EXTINF:10.869444,
997949368423885-index10063.ts
#EXTINF:2.217367,
997949368423885-index10064.ts
#EXTINF:10.869444,
997949368423885-index10065.ts
#EXTINF:10.869444,
997949368423885-index10066.ts
#EXTINF:10.869444,
997949368423885-index10067.ts
#EXTINF:2.478233,
997949368423885-index10068.ts
#EXT-X-ENDLIST
